HumanPosition	AnonymizedPosition	AnonymizedToken	OriginalToken	ExperimentToken	Participant	Condition	TextNo	JointPosition	tt	fp	rp	ff	rb	sp
1	0	(	(	Two	9	nopreview	1	1	734	0	0	0	0	734
2	1	@entity1	CNN	passengers	9	nopreview	1	2	496	140	1230	140	496	356
	2	)	)		9	nopreview	1	3						
	3	Two	Two		9	nopreview	1	4						
	4	passengers	passengers		9	nopreview	1	5						
3	5	found	found	found	9	nopreview	1	6	297	297	297	297	297	0
4	6	dead	dead	dead	9	nopreview	1	7	339	339	339	339	339	0
5	7	on	on	on	9	nopreview	1	8	0	0	0	0	0	0
6	8	a	a	a	9	nopreview	1	9	120	0	0	0	0	120
7	9	cruise	cruise	cruise	9	nopreview	1	10	1653	398	1773	398	1653	1255
8	10	ship	ship	ship	9	nopreview	1	11	223	0	0	0	0	223
9	11	in	in	in	9	nopreview	1	12	175	175	175	175	175	0
10	12	@entity4	Puerto	Puerto	9	nopreview	1	13	945	392	392	392	392	553
11			Rico	Rico	9	nopreview	1	14	0	0	0	0	0	0
12	13	appear	appear	appear	9	nopreview	1	15	2010	534	2786	534	2010	1476
13	14	to	to	to	9	nopreview	1	16	0	0	0	0	0	0
14	15	have	have	have	9	nopreview	1	17	463	463	463	463	463	0
15	16	died	died	died	9	nopreview	1	18	597	597	597	597	597	0
16	17	in	in	in	9	nopreview	1	19	0	0	0	0	0	0
17	18	a	a	a	9	nopreview	1	20	159	159	159	159	159	0
18	19	murder	murder	murder-suicide,	9	nopreview	1	21	2021	1552	9763	168	1552	469
	20	-	-		9	nopreview	1	22						
	21	suicide	suicide		9	nopreview	1	23						
	22	,	,		9	nopreview	1	24						
19	23	the	the	the	9	nopreview	1	25	0	0	0	0	0	0
20	24	cruise	cruise	cruise	9	nopreview	1	26	1108	365	1114	365	645	743
21	25	line	line	line	9	nopreview	1	27	782	308	403	308	308	474
22	26	said	said	said.	9	nopreview	1	28	479	479	1321	479	479	0
	27	.	.		9	nopreview	1	29						
23	28	@entity6	Holland	Holland	9	nopreview	1	30	891	163	163	163	163	728
24			America	America	9	nopreview	1	31	346	346	619	346	346	0
25			Line	Line	9	nopreview	1	32	634	634	634	407	634	0
26	29	said	said	said	9	nopreview	1	33	313	0	0	0	0	313
27	30	two	two	two	9	nopreview	1	34	272	272	585	272	272	0
28	31	guests	guests	guests	9	nopreview	1	35	401	401	401	306	401	0
29	32	were	were	were	9	nopreview	1	36	267	267	267	267	267	0
30	33	found	found	found	9	nopreview	1	37	88	88	88	88	88	0
31	34	dead	dead	dead	9	nopreview	1	38	389	0	0	0	0	389
32	35	inside	inside	inside	9	nopreview	1	39	743	157	792	157	403	586
33	36	their	their	their	9	nopreview	1	40	0	0	0	0	0	0
34	37	stateroom	stateroom	stateroom	9	nopreview	1	41	1171	838	838	275	838	333
35	38	on	on	on	9	nopreview	1	42	488	0	0	0	0	488
36	39	the	the	the	9	nopreview	1	43	593	353	701	353	353	240
37	40	@entity9	ms	ms	9	nopreview	1	44	3561	0	0	0	0	3561
38			Ryndam	Ryndam	9	nopreview	1	45	1891	692	5499	354	1558	1199
39	41	at	at	at	9	nopreview	1	46	0	0	0	0	0	0
40	42	11:30	11:30	11:30	9	nopreview	1	47	705	368	701	194	368	337
41	43	a.m.	a.m.	a.m.	9	nopreview	1	48	209	0	0	0	0	209
42	44	Thursday	Thursday	Thursday.	9	nopreview	1	49	461	461	461	461	461	0
	45	.	.		9	nopreview	1	50						
43	46	-	-	-The	9	nopreview	1	51	0	0	0	0	0	0
	47	The	The		9	nopreview	1	52						
44	48	cabin	cabin	cabin	9	nopreview	1	53	756	756	756	423	756	0
45	49	was	was	was	9	nopreview	1	54	127	127	127	127	127	0
46	50	immediately	immediately	immediately	9	nopreview	1	55	314	314	314	147	314	0
47	51	secured	secured	secured,	9	nopreview	1	56	432	432	432	243	432	0
	52	,	,		9	nopreview	1	57						
48	53	and	and	and	9	nopreview	1	58	0	0	0	0	0	0
49	54	the	the	the	9	nopreview	1	59	0	0	0	0	0	0
50	55	authorities	authorities	authorities	9	nopreview	1	60	419	419	419	274	419	0
51	56	were	were	were	9	nopreview	1	61	0	0	0	0	0	0
52	57	notified	notified	notified,	9	nopreview	1	62	435	435	435	435	435	0
	58	,	,		9	nopreview	1	63						
53	59	including	including	including	9	nopreview	1	64	801	357	357	357	357	444
54	60	the	the	the	9	nopreview	1	65	132	0	0	0	0	132
55	61	@entity12	FBI	FBI,-	9	nopreview	1	66	396	396	872	396	396	0
	62	,	,		9	nopreview	1	67						
	63	-	-		9	nopreview	1	68						
56	64	@entity6	Holland	Holland	9	nopreview	1	69	1010	365	1110	365	1010	645
57			America	America	9	nopreview	1	70	766	0	0	0	0	766
58	65	said	said	said.	9	nopreview	1	71	397	135	1163	135	397	262
	66	.	.		9	nopreview	1	72						
59	67	-	-	-We	9	nopreview	1	73	201	0	0	0	0	201
	68	We	We		9	nopreview	1	74						
60	69	are	are	are	9	nopreview	1	75	315	315	516	315	315	0
61	70	cooperating	cooperating	cooperating	9	nopreview	1	76	275	275	275	275	275	0
62	71	fully	fully	fully	9	nopreview	1	77	361	0	0	0	0	361
63	72	with	with	with	9	nopreview	1	78	335	243	604	243	243	92
64	73	the	the	the	9	nopreview	1	79	0	0	0	0	0	0
65	74	investigation	investigation	investigation,	9	nopreview	1	80	615	339	339	234	339	276
	75	,	,		9	nopreview	1	81						
66	76	and	and	and	9	nopreview	1	82	0	0	0	0	0	0
67	77	the	the	the	9	nopreview	1	83	0	0	0	0	0	0
68	78	authorities	authorities	authorities	9	nopreview	1	84	1311	1311	1311	189	1311	0
69	79	will	will	will	9	nopreview	1	85	521	0	0	0	0	521
70	80	make	make	make	9	nopreview	1	86	1523	0	0	0	0	1523
71	81	the	the	the	9	nopreview	1	87	559	132	787	132	372	427
72	82	official	official	official	9	nopreview	1	88	1024	289	1596	289	289	735
73	83	determination	determination	determination	9	nopreview	1	89	1143	513	513	274	513	630
74	84	on	on	on	9	nopreview	1	90	0	0	0	0	0	0
75	85	what	what	what	9	nopreview	1	91	585	261	261	261	261	324
76	86	occurred	occurred	occurred.-	9	nopreview	1	92	326	187	2524	187	326	139
	87	.	.		9	nopreview	1	93						
77	88	-	-	FBI	9	nopreview	1	94	678	0	0	0	0	678
78	89	@entity12	FBI	spokesman	9	nopreview	1	95	1281	217	354	217	217	1064
	90	spokesman	spokesman		9	nopreview	1	96						
79	91	@entity17	Moises	Moises	9	nopreview	1	97	1181	0	0	0	0	1181
80			Quiñones	Quinones	9	nopreview	1	98	2569	698	698	319	698	1871
81	92	said	said	said	9	nopreview	1	99	977	0	0	0	0	977
82	93	authorities	authorities	authorities	9	nopreview	1	100	1623	295	823	121	622	1328
83	94	were	were	were	9	nopreview	1	101	1020	0	0	0	0	1020
84	95	on	on	on	9	nopreview	1	102	285	285	285	285	285	0
85	96	scene	scene	scene	9	nopreview	1	103	1648	157	157	157	157	1491
86	97	investigating	investigating	investigating.	9	nopreview	1	104	2189	380	671	380	380	1809
	98	.	.		9	nopreview	1	105						
87	99	The	The	The	9	nopreview	1	106	200	0	0	0	0	200
88	100	ship	ship	ship	9	nopreview	1	107	2398	604	2751	604	1787	1794
89	101	left	left	left	9	nopreview	1	108	995	383	383	383	383	612
90	102	@entity21	Tampa	Tampa,	9	nopreview	1	109	2044	577	577	577	577	1467
	103	,	,		9	nopreview	1	110						
91	104	@entity22	Florida	Florida,	9	nopreview	1	111	2446	924	924	924	924	1522
	105	,	,		9	nopreview	1	112						
92	106	on	on	on	9	nopreview	1	113	933	230	230	230	230	703
93	107	March	March	March	9	nopreview	1	114	3117	609	11894	609	1809	2508
94	108	29	29	29	9	nopreview	1	115	1261	0	0	0	0	1261
95	109	on	on	on	9	nopreview	1	116	1306	0	0	0	0	1306
96	110	a	a	a	9	nopreview	1	117	1595	0	0	0	0	1595
97	111	14	14	14-day	9	nopreview	1	118	1834	132	7599	132	1293	1702
	112	-	-		9	nopreview	1	119						
	113	day	day		9	nopreview	1	120						
98	114	@entity24	Southern	Southern	9	nopreview	1	121	476	231	1017	231	476	245
99			Caribbean	Caribbean	9	nopreview	1	122	518	270	270	270	270	248
100	115	cruise	cruise	cruise.	9	nopreview	1	123	625	478	478	290	478	147
	116	.	.		9	nopreview	1	124						
101	117	It	It	It-s	9	nopreview	1	125	268	0	0	0	0	268
	118	-s	-s		9	nopreview	1	126						
102	119	currently	currently	currently	9	nopreview	1	127	1064	535	5181	535	696	529
103	120	in	in	in	9	nopreview	1	128	0	0	0	0	0	0
104	121	@entity26	San	San	9	nopreview	1	129	960	437	1120	437	752	523
105			Juan	Juan,	9	nopreview	1	130	277	140	485	140	277	137
	122	,	,		9	nopreview	1	131						
106	123	@entity4	Puerto	Puerto	9	nopreview	1	132	275	0	0	0	0	275
107			Rico	Rico.	9	nopreview	1	133	437	323	712	323	437	114
	124	.	.		9	nopreview	1	134						
108	125	@entity28	Puerto	Puerto	9	nopreview	1	135	384	0	0	0	0	384
109			Rico	Rico	9	nopreview	1	136	114	114	498	114	114	0
110			Port	Port	9	nopreview	1	137	388	388	388	388	388	0
111			Authority	Authority	9	nopreview	1	138	0	0	0	0	0	0
112	126	spokesman	spokesman	spokesman	9	nopreview	1	139	625	167	167	167	167	458
113	127	@entity27	Efraín	Efrain	9	nopreview	1	140	153	153	153	153	153	0
114			Santiago	Santiago	9	nopreview	1	141	636	0	0	0	0	636
115	128	told	told	told	9	nopreview	1	142	925	234	234	234	234	691
116	129	@entity30	El	El	9	nopreview	1	143	1771	245	2030	245	245	1526
117			Nuevo	Nuevo	9	nopreview	1	144	580	259	2106	259	580	321
118			Dia	Dia	9	nopreview	1	145	0	0	0	0	0	0
119	130	newspaper	newspaper	newspaper	9	nopreview	1	146	619	619	619	188	619	0
120	131	that	that	that	9	nopreview	1	147	359	359	359	359	359	0
121	132	the	the	the	9	nopreview	1	148	343	343	343	343	343	0
122	133	cleaning	cleaning	cleaning	9	nopreview	1	149	371	371	371	371	371	0
123	134	staff	staff	staff	9	nopreview	1	150	237	237	237	237	237	0
124	135	on	on	on	9	nopreview	1	151	234	0	0	0	0	234
125	136	the	the	the	9	nopreview	1	152	323	323	557	323	323	0
126	137	ship	ship	ship	9	nopreview	1	153	0	0	0	0	0	0
127	138	had	had	had	9	nopreview	1	154	154	154	154	154	154	0
128	139	discovered	discovered	discovered	9	nopreview	1	155	388	388	388	388	388	0
129	140	the	the	the	9	nopreview	1	156	0	0	0	0	0	0
130	141	deceased	deceased	deceased	9	nopreview	1	157	902	315	315	315	315	587
131	142	passengers	passengers	passengers	9	nopreview	1	158	342	188	929	188	342	154
132	143	after	after	after	9	nopreview	1	159	235	235	235	235	235	0
133	144	knocking	knocking	knocking	9	nopreview	1	160	411	411	411	411	411	0
134	145	on	on	on	9	nopreview	1	161	0	0	0	0	0	0
135	146	the	the	the	9	nopreview	1	162	318	0	0	0	0	318
136	147	cabin	cabin	cabin-s	9	nopreview	1	163	788	158	3019	158	788	630
	148	-s	-s		9	nopreview	1	164						
137	149	door	door	door.	9	nopreview	1	165	0	0	0	0	0	0
	150	.	.		9	nopreview	1	166						
