HumanPosition	AnonymizedPosition	AnonymizedToken	OriginalToken	ExperimentToken	Participant	Condition	TextNo	JointPosition	tt	fp	rp	ff	rb	sp
1	0	Fighting	Fighting	Fighting	9	nopreview	19	1	1256	0	0	0	0	1256
2	1	between	between	between	9	nopreview	19	2	2388	0	0	0	0	2388
3	2	rival	rival	rival	9	nopreview	19	3	1592	0	0	0	0	1592
4	3	fans	fans	fans	9	nopreview	19	4	2088	0	0	0	0	2088
5	4	forced	forced	forced	9	nopreview	19	5	1073	0	0	0	0	1073
6	5	a	a	a	9	nopreview	19	6	0	0	0	0	0	0
7	6	@entity2	Russian	Russian	9	nopreview	19	7	1044	0	0	0	0	1044
8			Premier	Premier	9	nopreview	19	8	942	0	0	0	0	942
9			League	League	9	nopreview	19	9	863	0	0	0	0	863
10	7	match	match	match	9	nopreview	19	10	207	0	0	0	0	207
11	8	between	between	between	9	nopreview	19	11	1731	0	0	0	0	1731
12	9	@entity3	Arsenal	Arsenal	9	nopreview	19	12	1407	0	0	0	0	1407
13			Tula	Tula	9	nopreview	19	13	3410	0	0	0	0	3410
14	10	and	and	and	9	nopreview	19	14	962	0	0	0	0	962
15	11	@entity4	Torpedo	Torpedo	9	nopreview	19	15	2134	103	11525	103	103	2031
16			Moscow	Moscow	9	nopreview	19	16	1147	315	2909	315	315	832
17	12	to	to	to	9	nopreview	19	17	161	0	0	0	0	161
18	13	be	be	be	9	nopreview	19	18	508	0	0	0	0	508
19	14	stopped	stopped	stopped	9	nopreview	19	19	644	0	0	0	0	644
20	15	for	for	for	9	nopreview	19	20	175	0	0	0	0	175
21	16	seven	seven	seven	9	nopreview	19	21	1169	0	0	0	0	1169
22	17	minutes	minutes	minutes	9	nopreview	19	22	739	0	0	0	0	739
23	18	on	on	on	9	nopreview	19	23	0	0	0	0	0	0
24	19	Sunday	Sunday	Sunday.	9	nopreview	19	24	915	0	0	0	0	915
	20	.	.		9	nopreview	19	25						
25	21	A	A	A	9	nopreview	19	26	0	0	0	0	0	0
26	22	statement	statement	statement	9	nopreview	19	27	1481	106	7187	106	688	1375
27	23	on	on	on	9	nopreview	19	28	177	177	177	177	177	0
28	24	@entity3	Arsenal	Arsenal-s	9	nopreview	19	29	457	457	457	129	457	0
	25	-s	-s		9	nopreview	19	30						
29	26	official	official	official	9	nopreview	19	31	253	253	253	253	253	0
30	27	site	site	site	9	nopreview	19	32	0	0	0	0	0	0
31	28	read	read	read:	9	nopreview	19	33	170	170	170	170	170	0
32	29	:	:	-In	9	nopreview	19	34	457	135	135	135	135	322
	30	-	-		9	nopreview	19	35						
33	31	In	In	the	9	nopreview	19	36	0	0	0	0	0	0
34	32	the	the	31st	9	nopreview	19	37	432	175	754	175	432	257
	33	31st	31st		9	nopreview	19	38						
35	34	minute	minute	minute,	9	nopreview	19	39	106	106	106	106	106	0
	35	,	,		9	nopreview	19	40						
36	36	fans	fans	fans	9	nopreview	19	41	0	0	0	0	0	0
37	37	from	from	from	9	nopreview	19	42	1134	449	449	449	449	685
38	38	the	the	the	9	nopreview	19	43	0	0	0	0	0	0
39	39	visiting	visiting	visiting	9	nopreview	19	44	1605	383	1037	383	744	1222
40	40	@entity9	Moscow	Moscow	9	nopreview	19	45	882	286	1563	286	698	596
41	41	club	club	club	9	nopreview	19	46	493	221	1065	221	493	272
42	42	broke	broke	broke	9	nopreview	19	47	991	429	429	188	429	562
43	43	down	down	down	9	nopreview	19	48	1753	648	1019	473	648	1105
44	44	barriers	barriers	barriers	9	nopreview	19	49	2077	470	470	176	470	1607
45	45	in	in	in	9	nopreview	19	50	709	0	0	0	0	709
46	46	front	front	front	9	nopreview	19	51	1999	516	516	285	516	1483
47	47	of	of	of	9	nopreview	19	52	189	0	0	0	0	189
48	48	the	the	the	9	nopreview	19	53	932	284	284	284	284	648
49	49	visitors	visitors	visitors	9	nopreview	19	54	1425	221	585	221	221	1204
50	50	sector	sector	sector	9	nopreview	19	55	848	306	306	306	306	542
51	51	and	and	and	9	nopreview	19	56	375	135	135	135	135	240
52	52	tried	tried	tried	9	nopreview	19	57	830	0	0	0	0	830
53	53	to	to	to	9	nopreview	19	58	837	524	524	524	524	313
54	54	get	get	get	9	nopreview	19	59	336	0	0	0	0	336
55	55	to	to	to	9	nopreview	19	60	0	0	0	0	0	0
56	56	the	the	the	9	nopreview	19	61	254	254	7407	254	254	0
57	57	@entity13	East	East	9	nopreview	19	62	938	136	2413	136	938	802
58			Stand	Stand,	9	nopreview	19	63	428	0	0	0	0	428
	58	,	,		9	nopreview	19	64						
59	59	where	where	where	9	nopreview	19	65	124	124	552	124	124	0
60	60	a	a	a	9	nopreview	19	66	879	879	879	879	879	0
61	61	number	number	number	9	nopreview	19	67	177	177	177	177	177	0
62	62	of	of	of	9	nopreview	19	68	0	0	0	0	0	0
63	63	women	women	women	9	nopreview	19	69	329	329	329	329	329	0
64	64	and	and	and	9	nopreview	19	70	0	0	0	0	0	0
65	65	children	children	children	9	nopreview	19	71	373	373	373	373	373	0
66	66	were	were	were	9	nopreview	19	72	0	0	0	0	0	0
67	67	sitting	sitting	sitting.	9	nopreview	19	73	414	414	414	319	414	0
	68	.	.		9	nopreview	19	74						
68	69	-	-	-The	9	nopreview	19	75	202	0	0	0	0	202
	70	The	The		9	nopreview	19	76						
69	71	@entity4	Torpedo	Torpedo	9	nopreview	19	77	2416	1515	2047	645	1845	901
70	72	fans	fans	fans	9	nopreview	19	78	2060	770	5558	770	2060	1290
71	73	began	began	began	9	nopreview	19	79	614	614	614	252	614	0
72	74	breaking	breaking	breaking	9	nopreview	19	80	310	0	0	0	0	310
73	75	seats	seats	seats	9	nopreview	19	81	1162	144	749	144	439	1018
74	76	and	and	and	9	nopreview	19	82	183	183	906	183	183	0
75	77	throwing	throwing	throwing	9	nopreview	19	83	424	424	424	424	424	0
76	78	them	them	them	9	nopreview	19	84	283	283	283	283	283	0
77	79	towards	towards	towards	9	nopreview	19	85	1212	448	448	448	448	764
78	80	law	law	law	9	nopreview	19	86	1356	0	0	0	0	1356
79	81	enforcement	enforcement	enforcement	9	nopreview	19	87	820	284	2940	284	820	536
80	82	officers	officers	officers	9	nopreview	19	88	324	324	324	324	324	0
81	83	and	and	and	9	nopreview	19	89	0	0	0	0	0	0
82	84	stewards	stewards	stewards.-	9	nopreview	19	90	512	512	512	419	512	0
	85	.	.		9	nopreview	19	91						
83	86	-	-	Referee	9	nopreview	19	92	633	633	633	152	633	0
	87	Scroll	Scroll		9	nopreview	19	93						
	88	down	down		9	nopreview	19	94						
	89	to	to		9	nopreview	19	95						
	90	watch	watch		9	nopreview	19	96						
	91	video	video		9	nopreview	19	97						
	92	footage	footage		9	nopreview	19	98						
	93	of	of		9	nopreview	19	99						
	94	the	the		9	nopreview	19	100						
	95	incident	incident		9	nopreview	19	101						
	96	Fans	Fans		9	nopreview	19	102						
	97	fight	fight		9	nopreview	19	103						
	98	leading	leading		9	nopreview	19	104						
	99	to	to		9	nopreview	19	105						
	100	@entity3	Arsenal		9	nopreview	19	106						
			Tula		9	nopreview	19	107						
	101	vs	vs		9	nopreview	19	108						
	102	@entity4	Torpedo		9	nopreview	19	109						
			Moscow		9	nopreview	19	110						
	103	to	to		9	nopreview	19	111						
	104	be	be		9	nopreview	19	112						
	105	suspended	suspended		9	nopreview	19	113						
	106	for	for		9	nopreview	19	114						
	107	seven	seven		9	nopreview	19	115						
	108	minutes	minutes		9	nopreview	19	116						
	109	on	on		9	nopreview	19	117						
	110	Sunday	Sunday		9	nopreview	19	118						
	111	@entity4	Torpedo		9	nopreview	19	119						
			Moscow		9	nopreview	19	120						
	112	fans	fans		9	nopreview	19	121						
	113	broke	broke		9	nopreview	19	122						
	114	down	down		9	nopreview	19	123						
	115	barriers	barriers		9	nopreview	19	124						
	116	and	and		9	nopreview	19	125						
	117	threw	threw		9	nopreview	19	126						
	118	chairs	chairs		9	nopreview	19	127						
	119	,	,		9	nopreview	19	128						
	120	according	according		9	nopreview	19	129						
	121	to	to		9	nopreview	19	130						
	122	@entity3	Arsenal		9	nopreview	19	131						
			Tula		9	nopreview	19	132						
	123	-s	-s		9	nopreview	19	133						
	124	website	website		9	nopreview	19	134						
	125	Referee	Referee		9	nopreview	19	135						
84	126	@entity28	Alexander	Alexander	9	nopreview	19	136	613	340	340	340	340	273
85			Yegorov	Yegorov	9	nopreview	19	137	257	257	530	257	257	0
86	127	stopped	stopped	stopped	9	nopreview	19	138	308	308	308	308	308	0
87	128	the	the	the	9	nopreview	19	139	0	0	0	0	0	0
88	129	match	match	match	9	nopreview	19	140	408	408	408	296	408	0
89	130	and	and	and	9	nopreview	19	141	0	0	0	0	0	0
90	131	told	told	told	9	nopreview	19	142	451	451	451	451	451	0
91	132	the	the	the	9	nopreview	19	143	0	0	0	0	0	0
92	133	players	players	players	9	nopreview	19	144	151	151	151	151	151	0
93	134	to	to	to	9	nopreview	19	145	0	0	0	0	0	0
94	135	leave	leave	leave	9	nopreview	19	146	455	455	455	455	455	0
95	136	the	the	the	9	nopreview	19	147	0	0	0	0	0	0
96	137	pitch	pitch	pitch	9	nopreview	19	148	446	446	446	281	446	0
97	138	and	and	and	9	nopreview	19	149	290	0	0	0	0	290
98	139	head	head	head	9	nopreview	19	150	639	192	482	192	192	447
99	140	for	for	for	9	nopreview	19	151	190	190	637	190	190	0
100	141	the	the	the	9	nopreview	19	152	0	0	0	0	0	0
101	142	dressing	dressing	dressing	9	nopreview	19	153	709	709	709	203	709	0
102	143	rooms	rooms	rooms,	9	nopreview	19	154	0	0	0	0	0	0
	144	,	,		9	nopreview	19	155						
103	145	while	while	while	9	nopreview	19	156	335	335	335	335	335	0
104	146	fights	fights	fights	9	nopreview	19	157	752	0	0	0	0	752
105	147	broke	broke	broke	9	nopreview	19	158	548	212	522	212	212	336
106	148	out	out	out	9	nopreview	19	159	287	287	287	287	287	0
107	149	between	between	between	9	nopreview	19	160	1153	441	1104	266	768	712
108	150	fans	fans	fans	9	nopreview	19	161	856	507	1241	507	856	349
109	151	on	on	on	9	nopreview	19	162	0	0	0	0	0	0
110	152	the	the	the	9	nopreview	19	163	355	0	0	0	0	355
111	153	running	running	running	9	nopreview	19	164	1792	1150	2147	216	1792	642
112	154	track	track	track	9	nopreview	19	165	480	0	0	0	0	480
113	155	after	after	after	9	nopreview	19	166	786	119	1266	119	786	667
114	156	they	they	they	9	nopreview	19	167	456	301	301	301	301	155
115	157	managed	managed	managed	9	nopreview	19	168	370	370	370	370	370	0
116	158	to	to	to	9	nopreview	19	169	0	0	0	0	0	0
117	159	climb	climb	climb	9	nopreview	19	170	498	319	319	319	319	179
118	160	over	over	over	9	nopreview	19	171	152	0	0	0	0	152
119	161	barriers	barriers	barriers.	9	nopreview	19	172	290	290	442	290	290	0
	162	.	.		9	nopreview	19	173						
120	163	After	After	After	9	nopreview	19	174	368	254	254	254	254	114
121	164	order	order	order	9	nopreview	19	175	1089	0	0	0	0	1089
122	165	was	was	was	9	nopreview	19	176	141	141	867	141	141	0
123	166	restored	restored	restored	9	nopreview	19	177	940	266	1417	266	940	674
124	167	play	play	play	9	nopreview	19	178	572	395	395	395	395	177
125	168	resumed	resumed	resumed	9	nopreview	19	179	461	0	0	0	0	461
126	169	and	and	and	9	nopreview	19	180	222	0	0	0	0	222
127	170	@entity4	Torpedo	Torpedo	9	nopreview	19	181	1636	114	1130	114	492	1522
128	171	ran	ran	ran	9	nopreview	19	182	1159	0	0	0	0	1159
129	172	out	out	out	9	nopreview	19	183	1073	383	1776	383	755	690
130	173	3	3	3-1	9	nopreview	19	184	863	0	0	0	0	863
	174	-	-		9	nopreview	19	185						
	175	1	1		9	nopreview	19	186						
131	176	winners	winners	winners.	9	nopreview	19	187	926	484	2584	484	818	442
	177	.	.		9	nopreview	19	188						
132	178	@entity41	Sergei	Sergei	9	nopreview	19	189	436	436	786	180	436	0
133			Cheban	Cheban,	9	nopreview	19	190	177	0	0	0	0	177
	179	,	,		9	nopreview	19	191						
134	180	executive	executive	executive	9	nopreview	19	192	416	416	766	282	416	0
135	181	director	director	director	9	nopreview	19	193	0	0	0	0	0	0
136	182	of	of	of	9	nopreview	19	194	204	204	204	204	204	0
137	183	the	the	the	9	nopreview	19	195	165	165	165	165	165	0
138	184	@entity2	Russian	Russian	9	nopreview	19	196	327	0	0	0	0	327
139			Football	Football	9	nopreview	19	197	332	332	659	332	332	0
140			Premier	Premier	9	nopreview	19	198	151	151	151	151	151	0
141			League	League,	9	nopreview	19	199	0	0	0	0	0	0
	185	,	,		9	nopreview	19	200						
142	186	said	said	said	9	nopreview	19	201	419	158	158	158	158	261
143	187	@entity4	Torpedo	Torpedo	9	nopreview	19	202	540	144	144	144	144	396
144	188	could	could	could	9	nopreview	19	203	709	0	0	0	0	709
145	189	expected	expected	expected	9	nopreview	19	204	1266	278	602	278	278	988
146	190	to	to	to	9	nopreview	19	205	427	204	773	204	204	223
147	191	be	be	be	9	nopreview	19	206	0	0	0	0	0	0
148	192	heavily	heavily	heavily	9	nopreview	19	207	819	334	334	334	334	485
149	193	punished	punished	punished	9	nopreview	19	208	3628	3628	11320	614	3628	0
150	194	for	for	for	9	nopreview	19	209	320	0	0	0	0	320
151	195	this	this	this	9	nopreview	19	210	437	0	0	0	0	437
152	196	latest	latest	latest	9	nopreview	19	211	741	0	0	0	0	741
153	197	outbreak	outbreak	outbreak	9	nopreview	19	212	1198	0	0	0	0	1198
154	198	of	of	of	9	nopreview	19	213	0	0	0	0	0	0
155	199	violence	violence	violence	9	nopreview	19	214	1170	0	0	0	0	1170
156	200	by	by	by	9	nopreview	19	215	329	0	0	0	0	329
157	201	their	their	their	9	nopreview	19	216	845	0	0	0	0	845
158	202	fans	fans	fans.	9	nopreview	19	217	295	0	0	0	0	295
	203	.	.		9	nopreview	19	218						
159	204	-	-	-Those	9	nopreview	19	219	619	0	0	0	0	619
	205	Those	Those		9	nopreview	19	220						
160	206	people	people	people	9	nopreview	19	221	1671	0	0	0	0	1671
161	207	who	who	who	9	nopreview	19	222	432	0	0	0	0	432
162	208	organised	organised	organised	9	nopreview	19	223	1020	0	0	0	0	1020
163	209	the	the	the	9	nopreview	19	224	550	0	0	0	0	550
164	210	trouble	trouble	trouble	9	nopreview	19	225	932	0	0	0	0	932
165	211	have	have	have	9	nopreview	19	226	346	0	0	0	0	346
166	212	already	already	already	9	nopreview	19	227	641	0	0	0	0	641
167	213	been	been	been	9	nopreview	19	228	508	0	0	0	0	508
168	214	detained	detained	detained.	9	nopreview	19	229	623	0	0	0	0	623
	215	.	.		9	nopreview	19	230						
169	216	The	The	The	9	nopreview	19	231	0	0	0	0	0	0
170	217	security	security	security	9	nopreview	19	232	914	0	0	0	0	914
171	218	forces	forces	forces	9	nopreview	19	233	1191	0	0	0	0	1191
172	219	on	on	on	9	nopreview	19	234	252	0	0	0	0	252
173	220	duty	duty	duty	9	nopreview	19	235	814	0	0	0	0	814
174	221	were	were	were	9	nopreview	19	236	477	0	0	0	0	477
175	222	very	very	very	9	nopreview	19	237	757	0	0	0	0	757
176	223	professional	professional	professional	9	nopreview	19	238	811	0	0	0	0	811
177	224	in	in	in	9	nopreview	19	239	0	0	0	0	0	0
178	225	their	their	their	9	nopreview	19	240	878	0	0	0	0	878
179	226	work	work	work,-	9	nopreview	19	241	613	0	0	0	0	613
	227	,	,		9	nopreview	19	242						
180	228	-	-	said	9	nopreview	19	243	495	0	0	0	0	495
	229	said	said		9	nopreview	19	244						
181	230	@entity41	Cheban	Cheban	9	nopreview	19	245	1966	0	0	0	0	1966
182	231	in	in	in	9	nopreview	19	246	159	0	0	0	0	159
183	232	an	an	an	9	nopreview	19	247	277	0	0	0	0	277
184	233	interview	interview	interview	9	nopreview	19	248	1480	0	0	0	0	1480
185	234	with	with	with	9	nopreview	19	249	126	0	0	0	0	126
186	235	@entity52	Championat.com	Championat.com.	9	nopreview	19	250	1701	0	0	0	0	1701
	236	.	.		9	nopreview	19	251						
187	237	-	-	-Torpedo	9	nopreview	19	252	823	0	0	0	0	823
	238	@entity4	Torpedo		9	nopreview	19	253						
188	239	can	can	can	9	nopreview	19	254	276	0	0	0	0	276
189	240	expect	expect	expect	9	nopreview	19	255	804	0	0	0	0	804
190	241	to	to	to	9	nopreview	19	256	582	0	0	0	0	582
191	242	receive	receive	receive	9	nopreview	19	257	409	0	0	0	0	409
192	243	serious	serious	serious	9	nopreview	19	258	507	191	28030	191	507	316
193	244	punishment	punishment	punishment.	9	nopreview	19	259	527	527	527	349	527	0
	245	.	.		9	nopreview	19	260						
194	246	This	This	This	9	nopreview	19	261	175	0	0	0	0	175
195	247	is	is	is	9	nopreview	19	262	415	415	861	415	415	0
196	248	hooliganism	hooliganism	hooliganism	9	nopreview	19	263	912	274	1087	274	912	638
197	249	and	and	and	9	nopreview	19	264	510	0	0	0	0	510
198	250	it	it	it	9	nopreview	19	265	897	0	0	0	0	897
199	251	not	not	not	9	nopreview	19	266	4076	707	707	319	707	3369
200	252	the	the	the	9	nopreview	19	267	1344	185	6516	185	1344	1159
201	253	first	first	first	9	nopreview	19	268	0	0	0	0	0	0
202	254	time	time	time	9	nopreview	19	269	252	252	252	252	252	0
203	255	they	they	they	9	nopreview	19	270	277	277	277	277	277	0
204	256	have	have	have	9	nopreview	19	271	154	154	154	154	154	0
205	257	stopped	stopped	stopped	9	nopreview	19	272	395	395	395	395	395	0
206	258	a	a	a	9	nopreview	19	273	264	0	0	0	0	264
207	259	match	match	match.	9	nopreview	19	274	518	335	782	335	518	183
	260	.	.		9	nopreview	19	275						
208	261	The	The	The	9	nopreview	19	276	0	0	0	0	0	0
209	262	punishment	punishment	punishment	9	nopreview	19	277	811	811	811	356	811	0
210	263	will	will	will	9	nopreview	19	278	367	238	238	238	238	129
211	264	be	be	be	9	nopreview	19	279	0	0	0	0	0	0
212	265	harsh	harsh	harsh.-	9	nopreview	19	280	477	331	606	331	477	146
	266	.	.		9	nopreview	19	281						
213	267	-	-	Torpedo-s	9	nopreview	19	282	490	490	490	490	490	0
	268	@entity4	Torpedo		9	nopreview	19	283						
	269	-s	-s		9	nopreview	19	284						
214	270	fans	fans	fans	9	nopreview	19	285	509	509	509	509	509	0
215	271	have	have	have	9	nopreview	19	286	259	0	0	0	0	259
216	272	caused	caused	caused	9	nopreview	19	287	144	144	403	144	144	0
217	273	trouble	trouble	trouble	9	nopreview	19	288	391	391	391	248	391	0
218	274	on	on	on	9	nopreview	19	289	0	0	0	0	0	0
219	275	a	a	a	9	nopreview	19	290	0	0	0	0	0	0
220	276	number	number	number	9	nopreview	19	291	315	315	315	315	315	0
221	277	of	of	of	9	nopreview	19	292	0	0	0	0	0	0
222	278	occasions	occasions	occasions	9	nopreview	19	293	404	404	404	404	404	0
223	279	and	and	and	9	nopreview	19	294	178	178	178	178	178	0
224	280	the	the	the	9	nopreview	19	295	0	0	0	0	0	0
225	281	club	club	club	9	nopreview	19	296	205	205	205	205	205	0
226	282	have	have	have	9	nopreview	19	297	250	250	250	250	250	0
227	283	already	already	already	9	nopreview	19	298	130	130	130	130	130	0
228	284	been	been	been	9	nopreview	19	299	625	169	169	169	169	456
229	285	punished	punished	punished	9	nopreview	19	300	624	494	1080	354	624	130
230	286	three	three	three	9	nopreview	19	301	375	0	0	0	0	375
231	287	times	times	times	9	nopreview	19	302	161	161	536	161	161	0
232	288	this	this	this	9	nopreview	19	303	626	235	235	235	235	391
233	289	season	season	season	9	nopreview	19	304	306	306	697	306	306	0
234	290	for	for	for	9	nopreview	19	305	319	155	155	155	155	164
235	291	racist	racist	racist	9	nopreview	19	306	413	413	577	413	413	0
236	292	behaviour	behaviour	behaviour	9	nopreview	19	307	276	276	276	276	276	0
237	293	of	of	of	9	nopreview	19	308	0	0	0	0	0	0
238	294	their	their	their	9	nopreview	19	309	332	174	174	174	174	158
239	295	supporters	supporters	supporters.	9	nopreview	19	310	563	294	721	294	563	269
	296	.	.		9	nopreview	19	311						
240	297	The	The	The	9	nopreview	19	312	0	0	0	0	0	0
241	298	last	last	last	9	nopreview	19	313	320	320	320	320	320	0
242	299	incident	incident	incident	9	nopreview	19	314	537	537	537	537	537	0
243	300	occurred	occurred	occurred	9	nopreview	19	315	865	865	865	166	865	0
244	301	on	on	on	9	nopreview	19	316	669	171	171	171	171	498
245	302	March	March	March	9	nopreview	19	317	812	470	968	470	470	342
246	303	15	15	15	9	nopreview	19	318	734	322	322	322	322	412
247	304	when	when	when	9	nopreview	19	319	373	373	601	373	373	0
248	305	@entity4	Torpedo	Torpedo	9	nopreview	19	320	932	413	413	235	413	519
249	306	fans	fans	fans	9	nopreview	19	321	349	243	243	243	243	106
250	307	abused	abused	abused	9	nopreview	19	322	3154	0	0	0	0	3154
251	308	@entity73	Zenit	Zenit	9	nopreview	19	323	2394	282	458	282	282	2112
252			St	St	9	nopreview	19	324	385	200	537	200	200	185
253			Petersburg	Petersburg-s	9	nopreview	19	325	1354	636	3615	327	765	718
	309	-s	-s		9	nopreview	19	326						
254	310	@entity72	Brazilian	Brazilian	9	nopreview	19	327	558	208	208	208	208	350
255	311	forward	forward	forward	9	nopreview	19	328	807	422	3116	422	807	385
256	312	@entity71	Hulk	Hulk.	9	nopreview	19	329	585	0	0	0	0	585
	313	.	.		9	nopreview	19	330						
257	314	The	The	The	9	nopreview	19	331	156	156	741	156	156	0
258	315	side	side	side	9	nopreview	19	332	640	345	345	345	345	295
259	316	were	were	were	9	nopreview	19	333	480	174	2644	174	480	306
260	317	sanctioned	sanctioned	sanctioned	9	nopreview	19	334	1070	1070	1070	391	1070	0
261	318	by	by	by	9	nopreview	19	335	0	0	0	0	0	0
262	319	having	having	having	9	nopreview	19	336	846	261	261	261	261	585
263	320	to	to	to	9	nopreview	19	337	326	326	326	326	326	0
264	321	play	play	play	9	nopreview	19	338	153	153	738	153	153	0
265	322	two	two	two	9	nopreview	19	339	166	166	166	166	166	0
266	323	matches	matches	matches	9	nopreview	19	340	644	644	644	383	644	0
267	324	behind	behind	behind	9	nopreview	19	341	498	498	498	498	498	0
268	325	closed	closed	closed	9	nopreview	19	342	322	322	322	322	322	0
269	326	doors	doors	doors.	9	nopreview	19	343	318	318	318	318	318	0
	327	.	.		9	nopreview	19	344						
270	328	@entity4	Torpedo	Torpedo	9	nopreview	19	345	352	352	352	175	352	0
271	329	are	are	are	9	nopreview	19	346	0	0	0	0	0	0
272	330	currently	currently	currently	9	nopreview	19	347	783	351	351	351	351	432
273	331	in	in	in	9	nopreview	19	348	0	0	0	0	0	0
274	332	12th	12th	12th	9	nopreview	19	349	760	596	596	596	596	164
275	333	place	place	place	9	nopreview	19	350	689	689	689	361	689	0
276	334	in	in	in	9	nopreview	19	351	242	0	0	0	0	242
277	335	the	the	the	9	nopreview	19	352	441	0	0	0	0	441
278	336	@entity2	Russian	Russian	9	nopreview	19	353	613	367	1646	367	367	246
279			Premier	Premier	9	nopreview	19	354	300	300	546	300	300	0
280			League	League	9	nopreview	19	355	388	388	388	388	388	0
281	337	table	table	table	9	nopreview	19	356	440	0	0	0	0	440
282	338	with	with	with	9	nopreview	19	357	327	327	767	327	327	0
283	339	19	19	19	9	nopreview	19	358	1324	1324	1324	326	1324	0
284	340	points	points	points,	9	nopreview	19	359	1078	1078	1078	273	1078	0
	341	,	,		9	nopreview	19	360						
285	342	while	while	while	9	nopreview	19	361	0	0	0	0	0	0
286	343	@entity3	Arsenal	Arsenal	9	nopreview	19	362	1074	613	613	613	613	461
287			Tula	Tula	9	nopreview	19	363	617	617	1078	617	617	0
288	344	are	are	are	9	nopreview	19	364	333	197	197	197	197	136
289	345	one	one	one	9	nopreview	19	365	756	0	0	0	0	756
290	346	place	place	place	9	nopreview	19	366	885	373	1777	373	885	512
291	347	off	off	off	9	nopreview	19	367	335	335	335	335	335	0
292	348	the	the	the	9	nopreview	19	368	0	0	0	0	0	0
293	349	bottom	bottom	bottom	9	nopreview	19	369	753	0	0	0	0	753
294	350	with	with	with	9	nopreview	19	370	304	304	304	304	304	0
295	351	14	14	14	9	nopreview	19	371	0	0	0	0	0	0
296	352	points	points	points.	9	nopreview	19	372	691	295	1561	295	691	396
	353	.	.		9	nopreview	19	373						
