HumanPosition	AnonymizedPosition	AnonymizedToken	OriginalToken	ExperimentToken	Participant	Condition	TextNo	JointPosition	tt	fp	rp	ff
0	0	@entity0	Alejandro	Alejandro	8	preview	12	1	227	0	0	0
2			Valverde	Valverde	8	preview	12	2	194	0	0	0
3	1	successfully	successfully	successfully	8	preview	12	3	373	0	0	0
4	2	defended	defended	defended	8	preview	12	4	519	0	0	0
5	3	his	his	his	8	preview	12	5	240	0	0	0
6	4	@entity2	Fleche	Fleche	8	preview	12	6	1313	0	0	0
7			Wallonne	Wallonne	8	preview	12	7	737	0	0	0
8	5	title	title	title	8	preview	12	8	366	0	0	0
9	6	on	on	on	8	preview	12	9	192	0	0	0
10	7	Wednesday	Wednesday	Wednesday	8	preview	12	10	103	0	0	0
11	8	as	as	as	8	preview	12	11	0	0	0	0
12	9	@entity3	Chris	Chris	8	preview	12	12	158	0	0	0
13			Froome	Froome	8	preview	12	13	141	0	0	0
14	10	finished	finished	finished	8	preview	12	14	370	245	2281	245
15	11	back	back	back	8	preview	12	15	0	0	0	0
16	12	in	in	in	8	preview	12	16	245	0	0	0
17	13	123rd	123rd	123rd	8	preview	12	17	109	109	778	109
18	14	after	after	after	8	preview	12	18	144	144	766	144
19	15	a	a	a	8	preview	12	19	0	0	0	0
20	16	fall	fall	fall.	8	preview	12	20	489	148	148	148
	17	.	.		8	preview	12	21				
21	18	@entity4	Movistar	Movistar	8	preview	12	22	0	0	0	0
22	19	rider	rider	rider	8	preview	12	23	192	192	192	192
23	20	@entity0	Valverde	Valverde	8	preview	12	24	364	364	364	237
24	21	sprinted	sprinted	sprinted	8	preview	12	25	112	112	112	112
25	22	to	to	to	8	preview	12	26	0	0	0	0
26	23	victory	victory	victory	8	preview	12	27	163	0	0	0
27	24	ahead	ahead	ahead	8	preview	12	28	0	0	0	0
28	25	of	of	of	8	preview	12	29	0	0	0	0
29	26	@entity6	Julian	Julian	8	preview	12	30	275	112	275	112
30			Alaphilippe	Alaphilippe	8	preview	12	31	517	179	377	179
31	27	and	and	and	8	preview	12	32	174	174	537	174
32	28	@entity7	Michael	Michael	8	preview	12	33	363	145	145	145
33			Albasini	Albasini	8	preview	12	34	143	143	143	143
34	29	in	in	in	8	preview	12	35	0	0	0	0
35	30	a	a	a	8	preview	12	36	0	0	0	0
36	31	race	race	race	8	preview	12	37	266	266	266	266
37	32	which	which	which	8	preview	12	38	0	0	0	0
38	33	saw	saw	saw	8	preview	12	39	0	0	0	0
39	34	former	former	former	8	preview	12	40	0	0	0	0
40	35	winner	winner	winner	8	preview	12	41	178	0	0	0
41	36	@entity9	Philippe	Philippe	8	preview	12	42	487	0	0	0
42			Gilbert	Gilbert	8	preview	12	43	952	140	474	140
43	37	pull	pull	pull	8	preview	12	44	156	0	0	0
44	38	out	out	out	8	preview	12	45	172	0	0	0
45	39	after	after	after	8	preview	12	46	300	0	0	0
46	40	a	a	a	8	preview	12	47	294	0	0	0
47	41	bad	bad	bad	8	preview	12	48	344	151	482	151
48	42	crash	crash	crash	8	preview	12	49	117	0	0	0
49	43	some	some	some	8	preview	12	50	498	141	2403	141
50	44	50	50	50	8	preview	12	51	131	0	0	0
51	45	kilometres	kilometres	kilometres	8	preview	12	52	241	94	4731	94
52	46	from	from	from	8	preview	12	53	458	197	605	197
53	47	the	the	the	8	preview	12	54	0	0	0	0
54	48	end	end	end.	8	preview	12	55	0	0	0	0
	49	.	.		8	preview	12	56				
55	50	@entity3	Froome	Froome	8	preview	12	57	187	0	0	0
56	51	was	was	was	8	preview	12	58	144	0	0	0
57	52	involved	involved	involved	8	preview	12	59	84	0	0	0
58	53	in	in	in	8	preview	12	60	318	82	497	82
59	54	a	a	a	8	preview	12	61	0	0	0	0
60	55	crash	crash	crash	8	preview	12	62	703	262	939	262
61	56	in	in	in	8	preview	12	63	0	0	0	0
62	57	the	the	the	8	preview	12	64	0	0	0	0
63	58	final	final	final	8	preview	12	65	408	271	271	132
64	59	12	12	12	8	preview	12	66	255	255	392	255
65	60	kilometres	kilometres	kilometres	8	preview	12	67	140	140	140	140
66	61	but	but	but	8	preview	12	68	235	235	235	235
67	62	was	was	was	8	preview	12	69	213	213	213	213
68	63	able	able	able	8	preview	12	70	0	0	0	0
69	64	to	to	to	8	preview	12	71	176	176	176	176
70	65	get	get	get	8	preview	12	72	0	0	0	0
71	66	back	back	back	8	preview	12	73	0	0	0	0
72	67	on	on	on	8	preview	12	74	0	0	0	0
73	68	his	his	his	8	preview	12	75	0	0	0	0
74	69	bike	bike	bike	8	preview	12	76	182	0	0	0
75	70	and	and	and	8	preview	12	77	131	0	0	0
76	71	finish	finish	finish.	8	preview	12	78	0	0	0	0
	72	.	.		8	preview	12	79				
77	73	@entity14	Spain	Team	8	preview	12	80	109	109	422	109
	74	-s	-s		8	preview	12	81				
	75	@entity0	Alejandro		8	preview	12	82				
			Valverde		8	preview	12	83				
	76	(	(		8	preview	12	84				
	77	centre	centre		8	preview	12	85				
	78	)	)		8	preview	12	86				
	79	realises	realises		8	preview	12	87				
	80	he	he		8	preview	12	88				
78	81	-s	-s	Sky-s	8	preview	12	89	0	0	0	0
	82	done	done		8	preview	12	90				
	83	enough	enough		8	preview	12	91				
	84	to	to		8	preview	12	92				
79	85	claim	claim	sports	8	preview	12	93	146	146	146	146
	86	victory	victory		8	preview	12	94				
	87	in	in		8	preview	12	95				
	88	@entity17	Belgium		8	preview	12	96				
	89	-s	-s		8	preview	12	97				
	90	@entity2	Fleche		8	preview	12	98				
	91	@entity0	Wallonne		8	preview	12	99				
			Valverde		8	preview	12	100				
	92	(	(		8	preview	12	101				
	93	centre	centre		8	preview	12	102				
	94	)	)		8	preview	12	103				
	95	finished	finished		8	preview	12	104				
	96	ahead	ahead		8	preview	12	105				
	97	of	of		8	preview	12	106				
	98	@entity6	Julian		8	preview	12	107				
			Alaphilippe		8	preview	12	108				
	99	(	(		8	preview	12	109				
	100	left	left		8	preview	12	110				
	101	)	)		8	preview	12	111				
	102	and	and		8	preview	12	112				
	103	@entity7	Michael		8	preview	12	113				
			Albasini		8	preview	12	114				
	104	(	(		8	preview	12	115				
	105	right	right		8	preview	12	116				
	106	)	)		8	preview	12	117				
	107	on	on		8	preview	12	118				
	108	Wednesday	Wednesday		8	preview	12	119				
	109	@entity20	Team		8	preview	12	120				
			Sky		8	preview	12	121				
	110	-s	-s		8	preview	12	122				
	111	sports	sports		8	preview	12	123				
80	112	director	director	director	8	preview	12	124	145	145	145	145
81	113	@entity19	Gabriel	Gabriel	8	preview	12	125	136	136	136	136
82			Rasch	Rasch	8	preview	12	126	202	202	202	202
83	114	praised	praised	praised	8	preview	12	127	231	231	231	231
84	115	@entity3	Froome	Froome	8	preview	12	128	0	0	0	0
85	116	for	for	for	8	preview	12	129	0	0	0	0
86	117	finishing	finishing	finishing	8	preview	12	130	141	0	0	0
87	118	the	the	the	8	preview	12	131	0	0	0	0
88	119	race	race	race	8	preview	12	132	109	0	0	0
89	120	and	and	and	8	preview	12	133	0	0	0	0
90	121	said	said	said	8	preview	12	134	0	0	0	0
91	122	he	he	he	8	preview	12	135	117	117	367	117
92	123	expects	expects	expects	8	preview	12	136	153	153	153	153
93	124	the	the	the	8	preview	12	137	0	0	0	0
94	125	former	former	former	8	preview	12	138	148	148	148	148
95	126	@entity23	Tour	Tour	8	preview	12	139	0	0	0	0
96			de	de	8	preview	12	140	138	138	138	138
97			France	France	8	preview	12	141	0	0	0	0
98	127	winner	winner	winner	8	preview	12	142	221	221	221	221
99	128	will	will	will	8	preview	12	143	196	196	196	196
100	129	be	be	be	8	preview	12	144	0	0	0	0
101	130	fine	fine	fine	8	preview	12	145	0	0	0	0
102	131	to	to	to	8	preview	12	146	0	0	0	0
103	132	take	take	take	8	preview	12	147	191	0	0	0
104	133	part	part	part	8	preview	12	148	0	0	0	0
105	134	in	in	in	8	preview	12	149	0	0	0	0
106	135	the	the	the	8	preview	12	150	0	0	0	0
107	136	@entity25	Tour	Tour	8	preview	12	151	259	112	303	112
108			de	de	8	preview	12	152	0	0	0	0
109			Romandie	Romandie	8	preview	12	153	205	0	0	0
110	137	next	next	next	8	preview	12	154	140	140	492	140
111	138	week	week	week.	8	preview	12	155	0	0	0	0
	139	.	.		8	preview	12	156				
112	140	@entity19	Rasch	Rasch	8	preview	12	157	0	0	0	0
113	141	told	told	told	8	preview	12	158	0	0	0	0
114	142	@entity26	TeamSky.com	TeamSky.com:	8	preview	12	159	366	211	211	211
115	143	:	:	-Chris	8	preview	12	160	405	164	164	164
	144	-	-		8	preview	12	161				
	145	@entity3	Chris		8	preview	12	162				
116	146	was	was	was	8	preview	12	163	0	0	0	0
117	147	pretty	pretty	pretty	8	preview	12	164	248	0	0	0
118	148	banged	banged	banged	8	preview	12	165	286	0	0	0
119	149	up	up	up	8	preview	12	166	0	0	0	0
120	150	but	but	but	8	preview	12	167	116	116	425	116
121	151	showed	showed	showed	8	preview	12	168	574	0	0	0
122	152	real	real	real	8	preview	12	169	252	89	664	89
123	153	courage	courage	courage	8	preview	12	170	117	0	0	0
124	154	to	to	to	8	preview	12	171	0	0	0	0
125	155	finish	finish	finish	8	preview	12	172	270	122	420	122
126	156	the	the	the	8	preview	12	173	0	0	0	0
127	157	race	race	race	8	preview	12	174	148	0	0	0
128	158	and	and	and	8	preview	12	175	168	0	0	0
129	159	we	we	we-ll	8	preview	12	176	222	0	0	0
	160	-ll	-ll		8	preview	12	177				
130	161	assess	assess	assess	8	preview	12	178	291	0	0	0
131	162	his	his	his	8	preview	12	179	0	0	0	0
132	163	injuries	injuries	injuries	8	preview	12	180	153	153	1732	153
133	164	overnight	overnight	overnight.	8	preview	12	181	158	158	158	158
	165	.	.		8	preview	12	182				
134	166	-	-	-He	8	preview	12	183	0	0	0	0
	167	He	He		8	preview	12	184				
135	168	has	has	hasn-t	8	preview	12	185	156	0	0	0
	169	n-t	n-t		8	preview	12	186				
136	170	needed	needed	needed	8	preview	12	187	372	176	332	176
137	171	to	to	to	8	preview	12	188	122	0	0	0
138	172	go	go	go	8	preview	12	189	0	0	0	0
139	173	to	to	to	8	preview	12	190	0	0	0	0
140	174	hospital	hospital	hospital	8	preview	12	191	269	269	587	269
141	175	and	and	and	8	preview	12	192	0	0	0	0
142	176	right	right	right	8	preview	12	193	192	192	192	192
143	177	now	now	now,	8	preview	12	194	0	0	0	0
	178	,	,		8	preview	12	195				
144	179	as	as	as	8	preview	12	196	0	0	0	0
145	180	things	things	things	8	preview	12	197	286	286	286	286
146	181	stand	stand	stand,	8	preview	12	198	0	0	0	0
	182	,	,		8	preview	12	199				
147	183	we	we	we-re	8	preview	12	200	0	0	0	0
	184	-re	-re		8	preview	12	201				
148	185	still	still	still	8	preview	12	202	206	0	0	0
149	186	expecting	expecting	expecting	8	preview	12	203	0	0	0	0
150	187	him	him	him	8	preview	12	204	0	0	0	0
151	188	to	to	to	8	preview	12	205	116	116	322	116
152	189	line	line	line	8	preview	12	206	325	0	0	0
153	190	up	up	up	8	preview	12	207	0	0	0	0
154	191	at	at	at	8	preview	12	208	0	0	0	0
155	192	the	the	the	8	preview	12	209	0	0	0	0
156	193	@entity25	Tour	Tour	8	preview	12	210	0	0	0	0
157			de	de	8	preview	12	211	0	0	0	0
158			Romandie	Romandie	8	preview	12	212	172	172	497	172
159	194	next	next	next	8	preview	12	213	0	0	0	0
160	195	Tuesday	Tuesday	Tuesday.-	8	preview	12	214	0	0	0	0
	196	.	.		8	preview	12	215				
161	197	-	-	Team	8	preview	12	216	0	0	0	0
	198	@entity20	Team		8	preview	12	217				
162			Sky	Sky-s	8	preview	12	218	336	0	0	0
	199	-s	-s		8	preview	12	219				
163	200	@entity3	Chris	Chris	8	preview	12	220	0	0	0	0
164			Froome	Froome	8	preview	12	221	102	102	438	102
165	201	fell	fell	fell	8	preview	12	222	0	0	0	0
166	202	in	in	in	8	preview	12	223	114	0	0	0
167	203	the	the	the	8	preview	12	224	170	0	0	0
168	204	closing	closing	closing	8	preview	12	225	153	0	0	0
169	205	12km	12km	12km	8	preview	12	226	108	0	0	0
170	206	but	but	but	8	preview	12	227	0	0	0	0
171	207	fought	fought	fought	8	preview	12	228	480	0	0	0
172	208	on	on	on	8	preview	12	229	0	0	0	0
173	209	to	to	to	8	preview	12	230	0	0	0	0
174	210	finish	finish	finish	8	preview	12	231	256	0	0	0
175	211	the	the	the	8	preview	12	232	0	0	0	0
176	212	race	race	race	8	preview	12	233	0	0	0	0
177	213	despite	despite	despite	8	preview	12	234	145	0	0	0
178	214	being	being	being	8	preview	12	235	178	0	0	0
179	215	-	-	-banged	8	preview	12	236	103	0	0	0
	216	banged	banged		8	preview	12	237				
180	217	up	up	up-.	8	preview	12	238	586	373	2731	144
	218	-	-		8	preview	12	239				
