HumanPosition	AnonymizedPosition	AnonymizedToken	OriginalToken	ExperimentToken	Participant	Condition	TextNo	JointPosition	tt	fp	rp	ff
0	0	@entity0	Chelsea	Chelsea	6	preview	11	1	0	0	0	0
2	1	are	are	are	6	preview	11	2	173	173	173	173
3	2	looking	looking	looking	6	preview	11	3	185	0	0	0
4	3	to	to	to	6	preview	11	4	157	157	342	157
5	4	beat	beat	beat	6	preview	11	5	0	0	0	0
6	5	@entity1	Manchester	Manchester	6	preview	11	6	0	0	0	0
7			City	City	6	preview	11	7	0	0	0	0
8	6	to	to	to	6	preview	11	8	0	0	0	0
9	7	sign	sign	sign	6	preview	11	9	249	0	0	0
10	8	@entity3	Brazilian	Brazilian	6	preview	11	10	415	305	554	305
11	9	prospect	prospect	prospect	6	preview	11	11	966	658	658	228
12	10	@entity2	Nathan	Nathan.	6	preview	11	12	586	220	894	220
	11	.	.		6	preview	11	13				
13	12	The	The	The	6	preview	11	14	0	0	0	0
14	13	attacking	attacking	attacking	6	preview	11	15	227	0	0	0
15	14	midfielder	midfielder	midfielder	6	preview	11	16	137	137	364	137
16	15	turned	turned	turned	6	preview	11	17	241	0	0	0
17	16	19	19	19	6	preview	11	18	664	0	0	0
18	17	last	last	last	6	preview	11	19	562	226	650	226
19	18	month	month	month	6	preview	11	20	154	154	783	154
20	19	but	but	but	6	preview	11	21	0	0	0	0
21	20	has	has	has	6	preview	11	22	0	0	0	0
22	21	been	been	been	6	preview	11	23	0	0	0	0
23	22	in	in	in	6	preview	11	24	244	244	244	244
24	23	contract	contract	contract	6	preview	11	25	245	245	245	245
25	24	dispute	dispute	dispute	6	preview	11	26	218	218	218	218
26	25	with	with	with	6	preview	11	27	0	0	0	0
27	26	his	his	his	6	preview	11	28	0	0	0	0
28	27	club	club	club	6	preview	11	29	0	0	0	0
29	28	@entity6	Atletico	Atletico	6	preview	11	30	0	0	0	0
30			Paranaense	Paranaense.	6	preview	11	31	190	190	190	190
	29	.	.		6	preview	11	32				
31	30	He	He	He	6	preview	11	33	0	0	0	0
32	31	is	is	is	6	preview	11	34	196	0	0	0
33	32	due	due	due	6	preview	11	35	0	0	0	0
34	33	to	to	to	6	preview	11	36	0	0	0	0
35	34	speak	speak	speak	6	preview	11	37	194	194	390	194
36	35	to	to	to	6	preview	11	38	155	155	155	155
37	36	@entity0	Chelsea	Chelsea	6	preview	11	39	226	226	226	226
38	37	next	next	next	6	preview	11	40	0	0	0	0
39	38	week	week	week	6	preview	11	41	0	0	0	0
40	39	ahead	ahead	ahead	6	preview	11	42	185	185	185	185
41	40	of	of	of	6	preview	11	43	0	0	0	0
42	41	a	a	a	6	preview	11	44	0	0	0	0
43	42	proposed	proposed	proposed	6	preview	11	45	107	107	107	107
44	43	move	move	move	6	preview	11	46	0	0	0	0
45	44	to	to	to	6	preview	11	47	0	0	0	0
46	45	@entity8	Stamford	Stamford	6	preview	11	48	0	0	0	0
47			Bridge	Bridge	6	preview	11	49	0	0	0	0
48	46	which	which	which	6	preview	11	50	0	0	0	0
49	47	would	would	would	6	preview	11	51	0	0	0	0
50	48	likely	likely	likely	6	preview	11	52	0	0	0	0
51	49	see	see	see	6	preview	11	53	0	0	0	0
52	50	him	him	him	6	preview	11	54	0	0	0	0
53	51	loaned	loaned	loaned	6	preview	11	55	0	0	0	0
54	52	out	out	out.	6	preview	11	56	0	0	0	0
	53	.	.		6	preview	11	57				
55	54	@entity6	Atletico	Manchester	6	preview	11	58	322	322	322	157
			Paranaense		6	preview	11	59				
	55	attacking	attacking		6	preview	11	60				
	56	midfielder	midfielder		6	preview	11	61				
	57	@entity2	Nathan		6	preview	11	62				
	58	is	is		6	preview	11	63				
	59	attracting	attracting		6	preview	11	64				
	60	interest	interest		6	preview	11	65				
	61	from	from		6	preview	11	66				
	62	@entity0	Chelsea		6	preview	11	67				
	63	and	and		6	preview	11	68				
	64	@entity1	Manchester		6	preview	11	69				
56	65	@entity11	City	City	6	preview	11	70	0	0	0	0
57			Jose	have	6	preview	11	71	0	0	0	0
58			Mourinho	been	6	preview	11	72	0	0	0	0
	66	and	and		6	preview	11	73				
	67	@entity12	Manuel		6	preview	11	74				
			Pellegrini		6	preview	11	75				
	68	will	will		6	preview	11	76				
	69	go	go		6	preview	11	77				
	70	head	head		6	preview	11	78				
59	71	-	-	keen	6	preview	11	79	197	0	0	0
	72	to	to		6	preview	11	80				
	73	-	-		6	preview	11	81				
	74	head	head		6	preview	11	82				
60	75	to	to	on	6	preview	11	83	0	0	0	0
61	76	sign	sign	Nathan	6	preview	11	84	0	0	0	0
	77	@entity3	Brazilian		6	preview	11	85				
	78	starlet	starlet		6	preview	11	86				
	79	@entity2	Nathan		6	preview	11	87				
62	80	@entity1	Manchester	following	6	preview	11	88	172	172	369	172
			City		6	preview	11	89				
	81	have	have		6	preview	11	90				
	82	been	been		6	preview	11	91				
	83	keen	keen		6	preview	11	92				
	84	on	on		6	preview	11	93				
	85	@entity2	Nathan		6	preview	11	94				
	86	following	following		6	preview	11	95				
63	87	his	his	his	6	preview	11	96	0	0	0	0
64	88	performances	performances	performances	6	preview	11	97	404	404	404	275
65	89	in	in	in	6	preview	11	98	0	0	0	0
66	90	the	the	the	6	preview	11	99	0	0	0	0
67	91	@entity16	World	World	6	preview	11	100	0	0	0	0
68			U17	U17	6	preview	11	101	0	0	0	0
69			Championships	Championships	6	preview	11	102	0	0	0	0
70	92	two	two	two	6	preview	11	103	0	0	0	0
71	93	years	years	years	6	preview	11	104	0	0	0	0
72	94	ago	ago	ago	6	preview	11	105	0	0	0	0
73	95	and	and	and	6	preview	11	106	0	0	0	0
74	96	he	he	he	6	preview	11	107	0	0	0	0
75	97	has	has	has	6	preview	11	108	0	0	0	0
76	98	since	since	since	6	preview	11	109	0	0	0	0
77	99	broken	broken	broken	6	preview	11	110	0	0	0	0
78	100	into	into	into	6	preview	11	111	0	0	0	0
79	101	@entity6	Paranaense	Paranaense-s	6	preview	11	112	0	0	0	0
	102	-s	-s		6	preview	11	113				
80	103	first	first	first	6	preview	11	114	0	0	0	0
81	104	team	team	team.	6	preview	11	115	0	0	0	0
	105	.	.		6	preview	11	116				
82	106	@entity0	Chelsea	Chelsea	6	preview	11	117	166	0	0	0
83	107	have	have	have	6	preview	11	118	167	0	0	0
84	108	a	a	a	6	preview	11	119	0	0	0	0
85	109	strong	strong	strong	6	preview	11	120	0	0	0	0
86	110	@entity3	Brazilian	Brazilian	6	preview	11	121	191	0	0	0
87	111	contingency	contingency	contingency	6	preview	11	122	187	0	0	0
88	112	with	with	with	6	preview	11	123	0	0	0	0
89	113	the	the	the	6	preview	11	124	231	0	0	0
90	114	likes	likes	likes	6	preview	11	125	0	0	0	0
91	115	of	of	of	6	preview	11	126	115	0	0	0
92	116	@entity20	Willian	Willian,	6	preview	11	127	396	0	0	0
	117	,	,		6	preview	11	128				
93	118	@entity21	Ramires	Ramires,	6	preview	11	129	196	196	196	196
	119	,	,		6	preview	11	130				
94	120	@entity22	Filipe	Filipe	6	preview	11	131	144	144	1597	144
95			Luis	Luis	6	preview	11	132	172	172	172	172
96	121	and	and	and	6	preview	11	133	0	0	0	0
97	122	@entity23	Oscar	Oscar	6	preview	11	134	262	262	262	262
98	123	while	while	while	6	preview	11	135	0	0	0	0
99	124	21	21	21-year-old	6	preview	11	136	219	0	0	0
	125	-	-		6	preview	11	137				
	126	year	year		6	preview	11	138				
	127	-	-		6	preview	11	139				
	128	old	old		6	preview	11	140				
100	129	@entity24	Lucas	Lucas	6	preview	11	141	142	142	361	142
101			Piazon	Piazon	6	preview	11	142	398	398	398	214
102	130	is	is	is	6	preview	11	143	0	0	0	0
103	131	on	on	on	6	preview	11	144	0	0	0	0
104	132	loan	loan	loan	6	preview	11	145	0	0	0	0
105	133	at	at	at	6	preview	11	146	0	0	0	0
106	134	@entity26	Eintracht	Eintracht	6	preview	11	147	330	330	330	330
107			Frankfurt	Frankfurt.	6	preview	11	148	206	206	504	206
	135	.	.		6	preview	11	149				
