HumanPosition	AnonymizedPosition	AnonymizedToken	OriginalToken	ExperimentToken	Participant	Condition	TextNo	JointPosition	tt	fp	rp	ff
1	0	This	This	This	6	preview	16	1	0	0	0	0
2	1	is	is	is	6	preview	16	2	174	0	0	0
3	2	the	the	the	6	preview	16	3	172	172	346	172
4	3	shocking	shocking	shocking	6	preview	16	4	228	0	0	0
5	4	moment	moment	moment	6	preview	16	5	0	0	0	0
6	5	a	a	a	6	preview	16	6	0	0	0	0
7	6	pit	pit	pit	6	preview	16	7	202	202	430	202
8	7	crew	crew	crew	6	preview	16	8	0	0	0	0
9	8	member	member	member	6	preview	16	9	376	376	376	376
10	9	was	was	was	6	preview	16	10	0	0	0	0
11	10	hit	hit	hit	6	preview	16	11	245	0	0	0
12	11	by	by	by	6	preview	16	12	0	0	0	0
13	12	a	a	a	6	preview	16	13	0	0	0	0
14	13	car	car	car	6	preview	16	14	195	195	440	195
15	14	on	on	on	6	preview	16	15	0	0	0	0
16	15	Sunday	Sunday	Sunday	6	preview	16	16	219	219	219	219
17	16	during	during	during	6	preview	16	17	194	194	194	194
18	17	the	the	the	6	preview	16	18	0	0	0	0
19	18	inaugural	inaugural	inaugural	6	preview	16	19	257	0	0	0
20	19	@entity4	IndyCar	IndyCar	6	preview	16	20	273	0	0	0
21	20	@entity3	Grand	Grand	6	preview	16	21	0	0	0	0
22			Prix	Prix	6	preview	16	22	0	0	0	0
23	21	of	of	of	6	preview	16	23	202	202	732	202
24	22	@entity5	Louisiana	Louisiana.	6	preview	16	24	0	0	0	0
	23	.	.		6	preview	16	25				
25	24	@entity6	Todd	Todd	6	preview	16	26	0	0	0	0
26			Phillips	Phillips,	6	preview	16	27	0	0	0	0
	25	,	,		6	preview	16	28				
27	26	a	a	a	6	preview	16	29	0	0	0	0
28	27	front	front	front-outside	6	preview	16	30	1575	1164	1164	225
	28	-	-		6	preview	16	31				
	29	outside	outside		6	preview	16	32				
29	30	tire	tire	tire	6	preview	16	33	0	0	0	0
30	31	changer	changer	changer	6	preview	16	34	389	0	0	0
31	32	for	for	for	6	preview	16	35	457	0	0	0
32	33	@entity8	Dayle	Dayle	6	preview	16	36	332	0	0	0
33			Coyne	Coyne	6	preview	16	37	313	127	584	127
34			Racing	Racing,	6	preview	16	38	198	198	400	198
	34	,	,		6	preview	16	39				
35	35	was	was	was	6	preview	16	40	457	0	0	0
36	36	injured	injured	injured	6	preview	16	41	821	414	414	205
37	37	when	when	when	6	preview	16	42	0	0	0	0
38	38	he	he	he	6	preview	16	43	183	0	0	0
39	39	was	was	was	6	preview	16	44	0	0	0	0
40	40	struck	struck	struck	6	preview	16	45	176	176	1505	176
41	41	by	by	by	6	preview	16	46	0	0	0	0
42	42	the	the	the	6	preview	16	47	265	0	0	0
43	43	car	car	car	6	preview	16	48	0	0	0	0
44	44	of	of	of	6	preview	16	49	0	0	0	0
45	45	@entity10	Francesco	Francesco	6	preview	16	50	0	0	0	0
46			Dracone	Dracone,	6	preview	16	51	0	0	0	0
	46	,	,		6	preview	16	52				
47	47	who	who	who	6	preview	16	53	0	0	0	0
48	48	had	had	had	6	preview	16	54	299	0	0	0
49	49	come	come	come	6	preview	16	55	0	0	0	0
50	50	in	in	in	6	preview	16	56	0	0	0	0
51	51	on	on	on	6	preview	16	57	0	0	0	0
52	52	Lap	Lap	Lap	6	preview	16	58	0	0	0	0
53	53	25	25	25	6	preview	16	59	128	128	427	128
54	54	for	for	for	6	preview	16	60	0	0	0	0
55	55	tyres	tyres	tyres	6	preview	16	61	0	0	0	0
56	56	and	and	and	6	preview	16	62	0	0	0	0
57	57	fuel	fuel	fuel.	6	preview	16	63	0	0	0	0
	58	.	.		6	preview	16	64				
58	59	@entity10	Dracone	Dracone	6	preview	16	65	276	0	0	0
59	60	spun	spun	spun	6	preview	16	66	0	0	0	0
60	61	while	while	while	6	preview	16	67	441	0	0	0
61	62	exiting	exiting	exiting	6	preview	16	68	381	0	0	0
62	63	his	his	his	6	preview	16	69	0	0	0	0
63	64	put	put	put	6	preview	16	70	0	0	0	0
64	65	box	box	box,	6	preview	16	71	125	0	0	0
	66	,	,		6	preview	16	72				
65	67	clipping	clipping	clipping	6	preview	16	73	460	0	0	0
66	68	@entity15	Phillips	Phillips-	6	preview	16	74	892	266	266	266
	69	-	-		6	preview	16	75				
67	70	leg	leg	leg.	6	preview	16	76	501	0	0	0
	71	.	.		6	preview	16	77				
68	72	@entity6	Todd	Phillips	6	preview	16	78	471	270	3978	270
			Phillips		6	preview	16	79				
69	73	waits	waits	was	6	preview	16	80	0	0	0	0
70	74	in	in	taken	6	preview	16	81	0	0	0	0
	75	the	the		6	preview	16	82				
71	76	pit	pit	to	6	preview	16	83	158	158	158	158
72	77	lane	lane	the	6	preview	16	84	0	0	0	0
73	78	as	as	infield	6	preview	16	85	165	165	165	165
	79	the	the		6	preview	16	86				
	80	car	car		6	preview	16	87				
	81	makes	makes		6	preview	16	88				
	82	a	a		6	preview	16	89				
	83	stop	stop		6	preview	16	90				
	84	during	during		6	preview	16	91				
	85	the	the		6	preview	16	92				
	86	race	race		6	preview	16	93				
	87	in	in		6	preview	16	94				
	88	@entity5	Louisiana		6	preview	16	95				
	89	The	The		6	preview	16	96				
	90	car	car		6	preview	16	97				
	91	of	of		6	preview	16	98				
	92	@entity10	Francesco		6	preview	16	99				
			Dracone		6	preview	16	100				
	93	spun	spun		6	preview	16	101				
	94	out	out		6	preview	16	102				
	95	of	of		6	preview	16	103				
	96	control	control		6	preview	16	104				
	97	in	in		6	preview	16	105				
	98	the	the		6	preview	16	106				
	99	wet	wet		6	preview	16	107				
	100	conditions	conditions		6	preview	16	108				
	101	as	as		6	preview	16	109				
	102	@entity6	Phillips		6	preview	16	110				
	103	tried	tried		6	preview	16	111				
	104	to	to		6	preview	16	112				
	105	get	get		6	preview	16	113				
	106	out	out		6	preview	16	114				
	107	the	the		6	preview	16	115				
	108	way	way		6	preview	16	116				
	109	The	The		6	preview	16	117				
	110	rear	rear		6	preview	16	118				
	111	end	end		6	preview	16	119				
	112	of	of		6	preview	16	120				
	113	the	the		6	preview	16	121				
	114	car	car		6	preview	16	122				
	115	made	made		6	preview	16	123				
	116	contact	contact		6	preview	16	124				
	117	with	with		6	preview	16	125				
	118	the	the		6	preview	16	126				
	119	pit	pit		6	preview	16	127				
	120	crew	crew		6	preview	16	128				
	121	worker	worker		6	preview	16	129				
	122	sweeping	sweeping		6	preview	16	130				
	123	his	his		6	preview	16	131				
	124	legs	legs		6	preview	16	132				
	125	from	from		6	preview	16	133				
	126	underneath	underneath		6	preview	16	134				
	127	him	him		6	preview	16	135				
	128	@entity6	Phillips		6	preview	16	136				
	129	was	was		6	preview	16	137				
	130	flipped	flipped		6	preview	16	138				
	131	upside	upside		6	preview	16	139				
	132	down	down		6	preview	16	140				
	133	by	by		6	preview	16	141				
	134	the	the		6	preview	16	142				
	135	force	force		6	preview	16	143				
	136	of	of		6	preview	16	144				
	137	the	the		6	preview	16	145				
	138	car	car		6	preview	16	146				
	139	but	but		6	preview	16	147				
	140	escaped	escaped		6	preview	16	148				
	141	only	only		6	preview	16	149				
	142	with	with		6	preview	16	150				
	143	minor	minor		6	preview	16	151				
	144	injuries	injuries		6	preview	16	152				
	145	@entity6	Phillips		6	preview	16	153				
	146	was	was		6	preview	16	154				
	147	taken	taken		6	preview	16	155				
	148	to	to		6	preview	16	156				
	149	the	the		6	preview	16	157				
	150	infield	infield		6	preview	16	158				
74	151	care	care	care	6	preview	16	159	0	0	0	0
75	152	center	center	center	6	preview	16	160	214	0	0	0
76	153	for	for	for	6	preview	16	161	0	0	0	0
77	154	treatment	treatment	treatment	6	preview	16	162	124	124	338	124
78	155	where	where	where	6	preview	16	163	0	0	0	0
79	156	he	he	he	6	preview	16	164	0	0	0	0
80	157	has	has	has	6	preview	16	165	0	0	0	0
81	158	received	received	received	6	preview	16	166	0	0	0	0
82	159	stitches	stitches	stitches	6	preview	16	167	0	0	0	0
83	160	for	for	for	6	preview	16	168	0	0	0	0
84	161	a	a	a	6	preview	16	169	0	0	0	0
85	162	cut	cut	cut	6	preview	16	170	0	0	0	0
86	163	on	on	on	6	preview	16	171	0	0	0	0
87	164	his	his	his	6	preview	16	172	0	0	0	0
88	165	leg	leg	leg	6	preview	16	173	0	0	0	0
89	166	and	and	and	6	preview	16	174	0	0	0	0
90	167	has	has	has	6	preview	16	175	0	0	0	0
91	168	been	been	been	6	preview	16	176	0	0	0	0
92	169	released	released	released.	6	preview	16	177	0	0	0	0
	170	.	.		6	preview	16	178				
93	171	Many	Many	Many	6	preview	16	179	0	0	0	0
94	172	cars	cars	cars	6	preview	16	180	327	92	92	92
95	173	struggled	struggled	struggled	6	preview	16	181	175	175	175	175
96	174	with	with	with	6	preview	16	182	0	0	0	0
97	175	traction	traction	traction	6	preview	16	183	543	304	304	304
98	176	during	during	during	6	preview	16	184	115	115	115	115
99	177	the	the	the	6	preview	16	185	0	0	0	0
100	178	race	race	race	6	preview	16	186	0	0	0	0
101	179	after	after	after	6	preview	16	187	226	0	0	0
102	180	rain	rain	rain	6	preview	16	188	0	0	0	0
103	181	had	had	had	6	preview	16	189	0	0	0	0
104	182	fallen	fallen	fallen	6	preview	16	190	163	0	0	0
105	183	for	for	for	6	preview	16	191	0	0	0	0
106	184	hours	hours	hours	6	preview	16	192	0	0	0	0
107	185	leading	leading	leading	6	preview	16	193	0	0	0	0
108	186	up	up	up	6	preview	16	194	0	0	0	0
109	187	to	to	to	6	preview	16	195	187	0	0	0
110	188	the	the	the	6	preview	16	196	0	0	0	0
111	189	green	green	green	6	preview	16	197	0	0	0	0
112	190	flag	flag	flag.	6	preview	16	198	0	0	0	0
	191	.	.		6	preview	16	199				
113	192	@entity10	Dracone	Dracone	6	preview	16	200	384	0	0	0
114	193	did	did	did	6	preview	16	201	0	0	0	0
115	194	not	not	not	6	preview	16	202	0	0	0	0
116	195	finish	finish	finish	6	preview	16	203	130	130	514	130
117	196	the	the	the	6	preview	16	204	0	0	0	0
118	197	race	race	race	6	preview	16	205	196	196	196	196
119	198	and	and	and	6	preview	16	206	0	0	0	0
120	199	wound	wound	wound	6	preview	16	207	156	156	156	156
121	200	up	up	up	6	preview	16	208	0	0	0	0
122	201	23rd	23rd	23rd.	6	preview	16	209	169	169	1621	169
	202	.	.		6	preview	16	210				
