HumanPosition	AnonymizedPosition	AnonymizedToken	OriginalToken	ExperimentToken	Participant	Condition	TextNo	JointPosition	tt	fp	rp	ff	rb	sp
0	0	@entity0	Raheem	Raheem	7	preview	10	1	212	0	0	0	0	212
2			Sterling	Sterling	7	preview	10	2	0	0	0	0	0	0
3	1	has	has	has	7	preview	10	3	137	0	0	0	0	137
4	2	admitted	admitted	admitted	7	preview	10	4	148	0	0	0	0	148
5	3	he	he	he	7	preview	10	5	0	0	0	0	0	0
6	4	is	is	is	7	preview	10	6	0	0	0	0	0	0
7	5	not	not	not	7	preview	10	7	469	0	0	0	0	469
8	6	ready	ready	ready	7	preview	10	8	0	0	0	0	0	0
9	7	to	to	to	7	preview	10	9	0	0	0	0	0	0
10	8	sign	sign	sign	7	preview	10	10	390	0	0	0	0	390
11	9	a	a	a	7	preview	10	11	0	0	0	0	0	0
12	10	new	new	new	7	preview	10	12	0	0	0	0	0	0
13	11	contract	contract	contract	7	preview	10	13	933	0	0	0	0	933
14	12	at	at	at	7	preview	10	14	116	0	0	0	0	116
15	13	@entity3	Liverpool	Liverpool	7	preview	10	15	614	0	0	0	0	614
16	14	deal	deal	deal	7	preview	10	16	205	0	0	0	0	205
17	15	despite	despite	despite	7	preview	10	17	1648	119	4576	119	1452	1529
18	16	being	being	being	7	preview	10	18	0	0	0	0	0	0
19	17	offered	offered	offered	7	preview	10	19	312	153	508	153	312	159
20	18	a	a	a	7	preview	10	20	0	0	0	0	0	0
21	19	£	£	£100,000-a-week	7	preview	10	21	1185	996	996	364	996	189
	20	100,000	100,000		7	preview	10	22						
	21	-	-		7	preview	10	23						
	22	a	a		7	preview	10	24						
	23	-	-		7	preview	10	25						
	24	week	week		7	preview	10	26						
22	25	deal	deal	deal	7	preview	10	27	447	251	251	251	251	196
23	26	to	to	to	7	preview	10	28	0	0	0	0	0	0
24	27	stay	stay	stay	7	preview	10	29	501	501	501	501	501	0
25	28	with	with	with	7	preview	10	30	260	260	645	260	260	0
26	29	the	the	the	7	preview	10	31	0	0	0	0	0	0
27	30	@entity6	Merseyside	Merseyside	7	preview	10	32	427	133	133	133	133	294
28	31	club	club	club.	7	preview	10	33	133	133	427	133	133	0
	32	.	.		7	preview	10	34						
29	33	The	The	The	7	preview	10	35	0	0	0	0	0	0
30	34	20	20	20-year-old	7	preview	10	36	745	745	845	124	745	0
	35	-	-		7	preview	10	37						
	36	year	year		7	preview	10	38						
	37	-	-		7	preview	10	39						
	38	old	old		7	preview	10	40						
31	39	wideman	wideman	wideman	7	preview	10	41	834	834	834	179	834	0
32	40	edged	edged	edged	7	preview	10	42	126	0	0	0	0	126
33	41	closer	closer	closer	7	preview	10	43	218	218	344	218	218	0
34	42	towards	towards	towards	7	preview	10	44	235	235	235	235	235	0
35	43	an	an	an	7	preview	10	45	0	0	0	0	0	0
36	44	@entity9	Anfield	Anfield	7	preview	10	46	208	208	208	208	208	0
37	45	exit	exit	exit	7	preview	10	47	0	0	0	0	0	0
38	46	after	after	after	7	preview	10	48	146	146	146	146	146	0
39	47	revealing	revealing	revealing	7	preview	10	49	179	179	179	179	179	0
40	48	in	in	in	7	preview	10	50	117	117	117	117	117	0
41	49	an	an	an	7	preview	10	51	0	0	0	0	0	0
42	50	interview	interview	interview	7	preview	10	52	211	211	211	211	211	0
43	51	with	with	with	7	preview	10	53	0	0	0	0	0	0
44	52	the	the	the	7	preview	10	54	0	0	0	0	0	0
45	53	@entity11	BBC	BBC	7	preview	10	55	195	195	195	195	195	0
46	54	on	on	on	7	preview	10	56	0	0	0	0	0	0
47	55	Wednesday	Wednesday	Wednesday	7	preview	10	57	118	118	118	118	118	0
48	56	that	that	that	7	preview	10	58	0	0	0	0	0	0
49	57	he	he	he	7	preview	10	59	0	0	0	0	0	0
50	58	would	would	would	7	preview	10	60	219	219	219	219	219	0
51	59	have	have	have	7	preview	10	61	0	0	0	0	0	0
52	60	signed	signed	signed	7	preview	10	62	377	141	141	141	141	236
53	61	for	for	for	7	preview	10	63	0	0	0	0	0	0
54	62	a	a	a	7	preview	10	64	0	0	0	0	0	0
55	63	lot	lot	lot	7	preview	10	65	185	185	421	185	185	0
56	64	less	less	less	7	preview	10	66	154	154	154	154	154	0
57	65	a	a	a	7	preview	10	67	0	0	0	0	0	0
58	66	year	year	year	7	preview	10	68	251	251	251	251	251	0
59	67	ago	ago	ago.	7	preview	10	69	0	0	0	0	0	0
	68	.	.		7	preview	10	70						
60	69	However	However	However,	7	preview	10	71	367	367	367	222	367	0
	70	,	,		7	preview	10	72						
61	71	despite	despite	despite	7	preview	10	73	220	220	220	220	220	0
62	72	being	being	being	7	preview	10	74	0	0	0	0	0	0
63	73	one	one	one	7	preview	10	75	0	0	0	0	0	0
64	74	of	of	of	7	preview	10	76	0	0	0	0	0	0
65	75	@entity3	Liverpool	Liverpool-s	7	preview	10	77	131	131	131	131	131	0
	76	-s	-s		7	preview	10	78						
66	77	star	star	star	7	preview	10	79	270	270	270	270	270	0
67	78	men	men	men,	7	preview	10	80	0	0	0	0	0	0
	79	,	,		7	preview	10	81						
68	80	@entity0	Sterling	Sterling	7	preview	10	82	142	142	142	142	142	0
69	81	has	has	has	7	preview	10	83	0	0	0	0	0	0
70	82	struggled	struggled	struggled	7	preview	10	84	237	237	237	237	237	0
71	83	to	to	to	7	preview	10	85	0	0	0	0	0	0
72	84	repeat	repeat	repeat	7	preview	10	86	330	0	0	0	0	330
73	85	the	the	the	7	preview	10	87	0	0	0	0	0	0
74	86	impressive	impressive	impressive	7	preview	10	88	628	131	576	131	436	497
75	87	form	form	form	7	preview	10	89	197	0	0	0	0	197
76	88	he	he	he	7	preview	10	90	259	259	838	259	259	0
77	89	showed	showed	showed	7	preview	10	91	149	149	149	149	149	0
78	90	for	for	for	7	preview	10	92	0	0	0	0	0	0
79	91	the	the	the	7	preview	10	93	0	0	0	0	0	0
80	92	@entity18	Reds	Reds	7	preview	10	94	121	0	0	0	0	121
81	93	last	last	last	7	preview	10	95	217	217	338	217	217	0
82	94	season	season	season.	7	preview	10	96	226	226	226	226	226	0
	95	.	.		7	preview	10	97						
83	96	The	The	The	7	preview	10	98	0	0	0	0	0	0
84	97	@entity19	England	England	7	preview	10	99	434	434	434	222	434	0
85	98	international	international	international	7	preview	10	100	168	0	0	0	0	168
86	99	has	has	has	7	preview	10	101	116	116	284	116	116	0
87	100	managed	managed	managed	7	preview	10	102	226	226	226	226	226	0
88	101	just	just	just	7	preview	10	103	0	0	0	0	0	0
89	102	six	six	six	7	preview	10	104	252	252	252	252	252	0
90	103	goals	goals	goals	7	preview	10	105	0	0	0	0	0	0
91	104	this	this	this	7	preview	10	106	0	0	0	0	0	0
92	105	season	season	season	7	preview	10	107	216	216	216	216	216	0
93	106	-	-	-	7	preview	10	108	0	0	0	0	0	0
94	107	one	one	one	7	preview	10	109	0	0	0	0	0	0
95	108	less	less	less	7	preview	10	110	232	232	232	232	232	0
96	109	than	than	than	7	preview	10	111	0	0	0	0	0	0
97	110	@entity23	Stoke	Stoke	7	preview	10	112	353	212	212	212	212	141
98	111	frontman	frontman	frontman	7	preview	10	113	354	203	495	203	354	151
99	112	@entity22	Jon	Jon	7	preview	10	114	0	0	0	0	0	0
100			Walters	Walters	7	preview	10	115	769	299	299	150	299	470
101	113	-	-	-	7	preview	10	116	0	0	0	0	0	0
102	114	while	while	while	7	preview	10	117	392	0	0	0	0	392
103	115	his	his	his	7	preview	10	118	204	204	305	204	204	0
104	116	conversion	conversion	conversion	7	preview	10	119	258	258	258	258	258	0
105	117	rate	rate	rate	7	preview	10	120	321	141	141	141	141	180
106	118	and	and	and	7	preview	10	121	0	0	0	0	0	0
107	119	minutes	minutes	minutes	7	preview	10	122	275	275	275	275	275	0
108	120	per	per	per	7	preview	10	123	0	0	0	0	0	0
109	121	goal	goal	goal	7	preview	10	124	0	0	0	0	0	0
110	122	ratio	ratio	ratio	7	preview	10	125	299	0	0	0	0	299
111	123	have	have	have	7	preview	10	126	156	156	156	156	156	0
112	124	worsened	worsened	worsened.	7	preview	10	127	358	182	182	182	182	176
	125	as	as		7	preview	10	128						
113	126	the	the	Raheem	7	preview	10	129	371	0	0	0	0	371
	127	graphic	graphic		7	preview	10	130						
	128	below	below		7	preview	10	131						
	129	shows	shows		7	preview	10	132						
	130	.	.		7	preview	10	133						
	131	@entity0	Raheem		7	preview	10	134						
114			Sterling	Sterling	7	preview	10	135	595	131	286	131	131	464
115	132	has	has	has	7	preview	10	136	0	0	0	0	0	0
116	133	managed	managed	managed	7	preview	10	137	204	204	204	204	204	0
117	134	just	just	just	7	preview	10	138	0	0	0	0	0	0
118	135	six	six	six	7	preview	10	139	0	0	0	0	0	0
119	136	goals	goals	goals	7	preview	10	140	234	234	234	234	234	0
120	137	this	this	this	7	preview	10	141	256	0	0	0	0	256
121	138	season	season	season	7	preview	10	142	281	281	281	281	281	0
122	139	-	-	-	7	preview	10	143	0	0	0	0	0	0
123	140	one	one	one	7	preview	10	144	0	0	0	0	0	0
124	141	less	less	less	7	preview	10	145	476	168	168	168	168	308
125	142	than	than	than	7	preview	10	146	247	0	0	0	0	247
126	143	@entity23	Stoke	Stoke	7	preview	10	147	445	278	278	278	278	167
127	144	forward	forward	forward	7	preview	10	148	114	114	114	114	114	0
128	145	@entity22	Jon	Jon	7	preview	10	149	0	0	0	0	0	0
129			Walters	Walters.	7	preview	10	150	494	319	3568	129	494	175
	146	(	(		7	preview	10	151						
