HumanPosition	AnonymizedPosition	AnonymizedToken	OriginalToken	ExperimentToken	Participant	Condition	TextNo	JointPosition	tt	fp	rp	ff	rb	sp
0	0	@entity0	Chelsea	Chelsea	7	preview	11	1	227	0	0	0	0	227
2	1	are	are	are	7	preview	11	2	0	0	0	0	0	0
3	2	looking	looking	looking	7	preview	11	3	0	0	0	0	0	0
4	3	to	to	to	7	preview	11	4	161	0	0	0	0	161
5	4	beat	beat	beat	7	preview	11	5	0	0	0	0	0	0
6	5	@entity1	Manchester	Manchester	7	preview	11	6	323	0	0	0	0	323
7			City	City	7	preview	11	7	0	0	0	0	0	0
8	6	to	to	to	7	preview	11	8	0	0	0	0	0	0
9	7	sign	sign	sign	7	preview	11	9	230	0	0	0	0	230
10	8	@entity3	Brazilian	Brazilian	7	preview	11	10	535	0	0	0	0	535
11	9	prospect	prospect	prospect	7	preview	11	11	562	0	0	0	0	562
12	10	@entity2	Nathan	Nathan.	7	preview	11	12	509	0	0	0	0	509
	11	.	.		7	preview	11	13						
13	12	The	The	The	7	preview	11	14	88	0	0	0	0	88
14	13	attacking	attacking	attacking	7	preview	11	15	427	0	0	0	0	427
15	14	midfielder	midfielder	midfielder	7	preview	11	16	110	110	3172	110	110	0
16	15	turned	turned	turned	7	preview	11	17	189	189	189	189	189	0
17	16	19	19	19	7	preview	11	18	0	0	0	0	0	0
18	17	last	last	last	7	preview	11	19	363	363	363	363	363	0
19	18	month	month	month	7	preview	11	20	0	0	0	0	0	0
20	19	but	but	but	7	preview	11	21	0	0	0	0	0	0
21	20	has	has	has	7	preview	11	22	206	206	206	206	206	0
22	21	been	been	been	7	preview	11	23	249	249	249	249	249	0
23	22	in	in	in	7	preview	11	24	0	0	0	0	0	0
24	23	contract	contract	contract	7	preview	11	25	371	182	182	182	182	189
25	24	dispute	dispute	dispute	7	preview	11	26	174	174	363	174	174	0
26	25	with	with	with	7	preview	11	27	165	165	165	165	165	0
27	26	his	his	his	7	preview	11	28	0	0	0	0	0	0
28	27	club	club	club	7	preview	11	29	0	0	0	0	0	0
29	28	@entity6	Atletico	Atletico	7	preview	11	30	522	522	522	166	522	0
30			Paranaense	Paranaense.	7	preview	11	31	813	813	813	247	813	0
	29	.	.		7	preview	11	32						
31	30	He	He	He	7	preview	11	33	0	0	0	0	0	0
32	31	is	is	is	7	preview	11	34	111	0	0	0	0	111
33	32	due	due	due	7	preview	11	35	189	189	300	189	189	0
34	33	to	to	to	7	preview	11	36	0	0	0	0	0	0
35	34	speak	speak	speak	7	preview	11	37	178	178	178	178	178	0
36	35	to	to	to	7	preview	11	38	0	0	0	0	0	0
37	36	@entity0	Chelsea	Chelsea	7	preview	11	39	180	180	180	180	180	0
38	37	next	next	next	7	preview	11	40	0	0	0	0	0	0
39	38	week	week	week	7	preview	11	41	432	432	432	254	432	0
40	39	ahead	ahead	ahead	7	preview	11	42	0	0	0	0	0	0
41	40	of	of	of	7	preview	11	43	256	256	256	256	256	0
42	41	a	a	a	7	preview	11	44	0	0	0	0	0	0
43	42	proposed	proposed	proposed	7	preview	11	45	314	314	314	232	314	0
44	43	move	move	move	7	preview	11	46	0	0	0	0	0	0
45	44	to	to	to	7	preview	11	47	345	0	0	0	0	345
46	45	@entity8	Stamford	Stamford	7	preview	11	48	334	157	679	157	334	177
47			Bridge	Bridge	7	preview	11	49	0	0	0	0	0	0
48	46	which	which	which	7	preview	11	50	0	0	0	0	0	0
49	47	would	would	would	7	preview	11	51	570	319	319	191	319	251
50	48	likely	likely	likely	7	preview	11	52	0	0	0	0	0	0
51	49	see	see	see	7	preview	11	53	181	181	181	181	181	0
52	50	him	him	him	7	preview	11	54	0	0	0	0	0	0
53	51	loaned	loaned	loaned	7	preview	11	55	404	404	404	404	404	0
54	52	out	out	out.	7	preview	11	56	0	0	0	0	0	0
	53	.	.		7	preview	11	57						
55	54	@entity6	Atletico	Manchester	7	preview	11	58	233	233	233	233	233	0
			Paranaense		7	preview	11	59						
	55	attacking	attacking		7	preview	11	60						
	56	midfielder	midfielder		7	preview	11	61						
	57	@entity2	Nathan		7	preview	11	62						
	58	is	is		7	preview	11	63						
	59	attracting	attracting		7	preview	11	64						
	60	interest	interest		7	preview	11	65						
	61	from	from		7	preview	11	66						
	62	@entity0	Chelsea		7	preview	11	67						
	63	and	and		7	preview	11	68						
	64	@entity1	Manchester		7	preview	11	69						
56	65	@entity11	City	City	7	preview	11	70	0	0	0	0	0	0
57			Jose	have	7	preview	11	71	120	120	120	120	120	0
58			Mourinho	been	7	preview	11	72	0	0	0	0	0	0
	66	and	and		7	preview	11	73						
	67	@entity12	Manuel		7	preview	11	74						
			Pellegrini		7	preview	11	75						
	68	will	will		7	preview	11	76						
	69	go	go		7	preview	11	77						
	70	head	head		7	preview	11	78						
59	71	-	-	keen	7	preview	11	79	282	282	282	282	282	0
	72	to	to		7	preview	11	80						
	73	-	-		7	preview	11	81						
	74	head	head		7	preview	11	82						
60	75	to	to	on	7	preview	11	83	0	0	0	0	0	0
61	76	sign	sign	Nathan	7	preview	11	84	0	0	0	0	0	0
	77	@entity3	Brazilian		7	preview	11	85						
	78	starlet	starlet		7	preview	11	86						
	79	@entity2	Nathan		7	preview	11	87						
62	80	@entity1	Manchester	following	7	preview	11	88	137	137	137	137	137	0
			City		7	preview	11	89						
	81	have	have		7	preview	11	90						
	82	been	been		7	preview	11	91						
	83	keen	keen		7	preview	11	92						
	84	on	on		7	preview	11	93						
	85	@entity2	Nathan		7	preview	11	94						
	86	following	following		7	preview	11	95						
63	87	his	his	his	7	preview	11	96	150	0	0	0	0	150
64	88	performances	performances	performances	7	preview	11	97	344	199	494	199	344	145
65	89	in	in	in	7	preview	11	98	0	0	0	0	0	0
66	90	the	the	the	7	preview	11	99	0	0	0	0	0	0
67	91	@entity16	World	World	7	preview	11	100	178	178	178	178	178	0
68			U17	U17	7	preview	11	101	215	215	215	215	215	0
69			Championships	Championships	7	preview	11	102	244	244	244	244	244	0
70	92	two	two	two	7	preview	11	103	413	413	413	413	413	0
71	93	years	years	years	7	preview	11	104	0	0	0	0	0	0
72	94	ago	ago	ago	7	preview	11	105	444	0	0	0	0	444
73	95	and	and	and	7	preview	11	106	146	146	590	146	146	0
74	96	he	he	he	7	preview	11	107	0	0	0	0	0	0
75	97	has	has	has	7	preview	11	108	0	0	0	0	0	0
76	98	since	since	since	7	preview	11	109	237	237	237	237	237	0
77	99	broken	broken	broken	7	preview	11	110	159	0	0	0	0	159
78	100	into	into	into	7	preview	11	111	436	174	333	174	174	262
79	101	@entity6	Paranaense	Paranaense-s	7	preview	11	112	423	423	423	218	423	0
	102	-s	-s		7	preview	11	113						
80	103	first	first	first	7	preview	11	114	273	273	535	273	273	0
81	104	team	team	team.	7	preview	11	115	0	0	0	0	0	0
	105	.	.		7	preview	11	116						
82	106	@entity0	Chelsea	Chelsea	7	preview	11	117	213	213	213	213	213	0
83	107	have	have	have	7	preview	11	118	0	0	0	0	0	0
84	108	a	a	a	7	preview	11	119	0	0	0	0	0	0
85	109	strong	strong	strong	7	preview	11	120	259	259	259	259	259	0
86	110	@entity3	Brazilian	Brazilian	7	preview	11	121	0	0	0	0	0	0
87	111	contingency	contingency	contingency	7	preview	11	122	219	219	219	219	219	0
88	112	with	with	with	7	preview	11	123	0	0	0	0	0	0
89	113	the	the	the	7	preview	11	124	0	0	0	0	0	0
90	114	likes	likes	likes	7	preview	11	125	234	234	234	234	234	0
91	115	of	of	of	7	preview	11	126	0	0	0	0	0	0
92	116	@entity20	Willian	Willian,	7	preview	11	127	185	185	185	185	185	0
	117	,	,		7	preview	11	128						
93	118	@entity21	Ramires	Ramires,	7	preview	11	129	225	225	225	225	225	0
	119	,	,		7	preview	11	130						
94	120	@entity22	Filipe	Filipe	7	preview	11	131	237	237	237	237	237	0
95			Luis	Luis	7	preview	11	132	0	0	0	0	0	0
96	121	and	and	and	7	preview	11	133	144	144	144	144	144	0
97	122	@entity23	Oscar	Oscar	7	preview	11	134	186	186	186	186	186	0
98	123	while	while	while	7	preview	11	135	0	0	0	0	0	0
99	124	21	21	21-year-old	7	preview	11	136	284	284	284	129	284	0
	125	-	-		7	preview	11	137						
	126	year	year		7	preview	11	138						
	127	-	-		7	preview	11	139						
	128	old	old		7	preview	11	140						
100	129	@entity24	Lucas	Lucas	7	preview	11	141	175	175	175	175	175	0
101			Piazon	Piazon	7	preview	11	142	145	145	145	145	145	0
102	130	is	is	is	7	preview	11	143	0	0	0	0	0	0
103	131	on	on	on	7	preview	11	144	0	0	0	0	0	0
104	132	loan	loan	loan	7	preview	11	145	374	374	374	374	374	0
105	133	at	at	at	7	preview	11	146	0	0	0	0	0	0
106	134	@entity26	Eintracht	Eintracht	7	preview	11	147	425	425	425	219	425	0
107			Frankfurt	Frankfurt.	7	preview	11	148	395	395	646	395	395	0
	135	.	.		7	preview	11	149						
