HumanPosition	AnonymizedPosition	AnonymizedToken	OriginalToken	ExperimentToken	Participant	Condition	TextNo	JointPosition	tt	fp	rp	ff
1	0	(	(	In	2	preview	9	1	0	0	0	0
2	1	@entity0	CNN	cities	2	preview	9	2	675	140	140	140
	2	)	)		2	preview	9	3				
	3	[	[		2	preview	9	4				
	4	Breaking	Breaking		2	preview	9	5				
	5	news	news		2	preview	9	6				
	6	update	update		2	preview	9	7				
	7	,	,		2	preview	9	8				
	8	posted	posted		2	preview	9	9				
	9	at	at		2	preview	9	10				
	10	11:52	11:52		2	preview	9	11				
	11	p.m.	p.m.		2	preview	9	12				
	12	ET	ET		2	preview	9	13				
	13	]	]		2	preview	9	14				
	14	@entity3	Denver		2	preview	9	15				
	15	police	police		2	preview	9	16				
	16	report	report		2	preview	9	17				
	17	nine	nine		2	preview	9	18				
	18	arrests	arrests		2	preview	9	19				
	19	in	in		2	preview	9	20				
	20	Wednesday	Wednesday		2	preview	9	21				
	21	-s	-s		2	preview	9	22				
	22	demonstrations	demonstrations		2	preview	9	23				
	23	.	.		2	preview	9	24				
	24	The	The		2	preview	9	25				
	25	charges	charges		2	preview	9	26				
	26	include	include		2	preview	9	27				
	27	assault	assault		2	preview	9	28				
	28	of	of		2	preview	9	29				
	29	a	a		2	preview	9	30				
	30	police	police		2	preview	9	31				
	31	officer	officer		2	preview	9	32				
	32	,	,		2	preview	9	33				
	33	robbery	robbery		2	preview	9	34				
	34	,	,		2	preview	9	35				
	35	resisting	resisting		2	preview	9	36				
	36	police	police		2	preview	9	37				
	37	,	,		2	preview	9	38				
	38	disobedience	disobedience		2	preview	9	39				
	39	to	to		2	preview	9	40				
	40	lawful	lawful		2	preview	9	41				
	41	orders	orders		2	preview	9	42				
	42	,	,		2	preview	9	43				
	43	obstructing	obstructing		2	preview	9	44				
	44	roadways	roadways		2	preview	9	45				
	45	,	,		2	preview	9	46				
	46	and	and		2	preview	9	47				
	47	interference	interference		2	preview	9	48				
	48	.	.		2	preview	9	49				
	49	[	[		2	preview	9	50				
	50	Previous	Previous		2	preview	9	51				
	51	story	story		2	preview	9	52				
	52	,	,		2	preview	9	53				
	53	posted	posted		2	preview	9	54				
	54	at	at		2	preview	9	55				
	55	10:54	10:54		2	preview	9	56				
	56	p.m.	p.m.		2	preview	9	57				
	57	ET	ET		2	preview	9	58				
	58	]	]		2	preview	9	59				
	59	(	(		2	preview	9	60				
	60	@entity0	CNN		2	preview	9	61				
	61	)	)		2	preview	9	62				
	62	--	--		2	preview	9	63				
	63	In	In		2	preview	9	64				
	64	cities	cities		2	preview	9	65				
3	65	across	across	across	2	preview	9	66	143	143	143	143
4	66	the	the	the	2	preview	9	67	0	0	0	0
5	67	@entity17	United	United	2	preview	9	68	125	125	125	125
6			States	States,	2	preview	9	69	0	0	0	0
	68	,	,		2	preview	9	70				
7	69	marchers	marchers	marchers	2	preview	9	71	203	203	203	203
8	70	took	took	took	2	preview	9	72	0	0	0	0
9	71	to	to	to	2	preview	9	73	144	144	144	144
10	72	the	the	the	2	preview	9	74	0	0	0	0
11	73	streets	streets	streets	2	preview	9	75	166	166	166	166
12	74	to	to	to	2	preview	9	76	0	0	0	0
13	75	show	show	show	2	preview	9	77	0	0	0	0
14	76	support	support	support	2	preview	9	78	402	237	937	117
15	77	for	for	for	2	preview	9	79	0	0	0	0
16	78	protesters	protesters	protesters	2	preview	9	80	0	0	0	0
17	79	in	in	in	2	preview	9	81	0	0	0	0
18	80	@entity21	Baltimore	Baltimore	2	preview	9	82	0	0	0	0
19	81	and	and	and	2	preview	9	83	0	0	0	0
20	82	to	to	to	2	preview	9	84	0	0	0	0
21	83	complain	complain	complain	2	preview	9	85	524	524	524	166
22	84	about	about	about	2	preview	9	86	0	0	0	0
23	85	police	police	police	2	preview	9	87	179	179	179	179
24	86	violence	violence	violence	2	preview	9	88	137	137	137	137
25	87	in	in	in	2	preview	9	89	0	0	0	0
26	88	their	their	their	2	preview	9	90	0	0	0	0
27	89	own	own	own	2	preview	9	91	137	137	137	137
28	90	towns	towns	towns.	2	preview	9	92	0	0	0	0
	91	.	.		2	preview	9	93				
29	92	On	On	On	2	preview	9	94	0	0	0	0
30	93	Wednesday	Wednesday	Wednesday	2	preview	9	95	235	235	235	127
31	94	night	night	night,	2	preview	9	96	0	0	0	0
	95	,	,		2	preview	9	97				
32	96	several	several	several	2	preview	9	98	0	0	0	0
33	97	hundred	hundred	hundred	2	preview	9	99	133	133	133	133
34	98	people	people	people	2	preview	9	100	0	0	0	0
35	99	streamed	streamed	streamed	2	preview	9	101	176	176	176	176
36	100	into	into	into	2	preview	9	102	0	0	0	0
37	101	@entity25	Union	Union	2	preview	9	103	213	213	213	213
38			Square	Square	2	preview	9	104	0	0	0	0
39	102	for	for	for	2	preview	9	105	0	0	0	0
40	103	an	an	an	2	preview	9	106	0	0	0	0
41	104	-	-	-NYC	2	preview	9	107	233	233	233	123
	105	@entity26	NYC		2	preview	9	108				
42			Rise	Rise	2	preview	9	109	0	0	0	0
43			Up	Up	2	preview	9	110	0	0	0	0
44	106	&	&	&	2	preview	9	111	181	181	181	181
45	107	Shut	Shut	Shut	2	preview	9	112	0	0	0	0
46	108	It	It	It	2	preview	9	113	159	159	159	159
47	109	Down	Down	Down	2	preview	9	114	0	0	0	0
48	110	With	With	With	2	preview	9	115	0	0	0	0
49	111	@entity21	Baltimore	Baltimore-	2	preview	9	116	154	154	154	154
	112	-	-		2	preview	9	117				
50	113	rally	rally	rally.	2	preview	9	118	161	161	161	161
	114	.	.		2	preview	9	119				
51	115	Protesters	Protesters	Protesters	2	preview	9	120	202	202	202	202
52	116	headed	headed	headed	2	preview	9	121	188	188	188	188
53	117	west	west	west	2	preview	9	122	0	0	0	0
54	118	on	on	on	2	preview	9	123	132	132	132	132
55	119	17th	17th	17th	2	preview	9	124	0	0	0	0
56	120	Street	Street	Street	2	preview	9	125	124	124	124	124
57	121	and	and	and	2	preview	9	126	0	0	0	0
58	122	were	were	were	2	preview	9	127	260	0	0	0
59	123	met	met	met	2	preview	9	128	281	281	281	281
60	124	by	by	by	2	preview	9	129	0	0	0	0
61	125	@entity31	New	New	2	preview	9	130	0	0	0	0
62			York	York	2	preview	9	131	287	158	158	158
63			City	City	2	preview	9	132	0	0	0	0
64			Police	Police	2	preview	9	133	172	172	172	172
65	126	officers	officers	officers	2	preview	9	134	145	145	534	145
66	127	who	who	who	2	preview	9	135	160	160	160	160
67	128	pushed	pushed	pushed	2	preview	9	136	136	136	136	136
68	129	them	them	them	2	preview	9	137	0	0	0	0
69	130	back	back	back.	2	preview	9	138	90	90	90	90
	131	.	.		2	preview	9	139				
70	132	A	A	A	2	preview	9	140	0	0	0	0
71	133	small	small	small	2	preview	9	141	158	158	158	158
72	134	scuffle	scuffle	scuffle	2	preview	9	142	130	130	130	130
73	135	broke	broke	broke	2	preview	9	143	96	96	96	96
74	136	out	out	out	2	preview	9	144	115	0	0	0
75	137	between	between	between	2	preview	9	145	203	203	318	203
76	138	the	the	the	2	preview	9	146	0	0	0	0
77	139	two	two	two	2	preview	9	147	203	203	203	203
78	140	front	front	front	2	preview	9	148	0	0	0	0
79	141	lines	lines	lines	2	preview	9	149	117	117	117	117
80	142	and	and	and	2	preview	9	150	0	0	0	0
81	143	police	police	police	2	preview	9	151	185	185	185	185
82	144	placed	placed	placed	2	preview	9	152	156	156	156	156
83	145	at	at	at	2	preview	9	153	0	0	0	0
84	146	least	least	least	2	preview	9	154	0	0	0	0
85	147	20	20	20	2	preview	9	155	192	192	192	192
86	148	people	people	people	2	preview	9	156	0	0	0	0
87	149	in	in	in	2	preview	9	157	0	0	0	0
88	150	zip	zip	zip	2	preview	9	158	102	102	102	102
89	151	ties	ties	ties	2	preview	9	159	90	90	90	90
90	152	in	in	in	2	preview	9	160	0	0	0	0
91	153	the	the	the	2	preview	9	161	0	0	0	0
92	154	street	street	street.	2	preview	9	162	209	209	209	209
	155	.	.		2	preview	9	163				
93	156	The	The	The	2	preview	9	164	0	0	0	0
94	157	@entity31	NYPD	NYPD	2	preview	9	165	209	209	209	209
95	158	also	also	also	2	preview	9	166	185	185	185	185
96	159	handed	handed	handed	2	preview	9	167	138	138	138	138
97	160	out	out	out	2	preview	9	168	0	0	0	0
98	161	fliers	fliers	fliers	2	preview	9	169	173	173	173	173
99	162	and	and	and	2	preview	9	170	0	0	0	0
100	163	used	used	used	2	preview	9	171	174	174	174	174
101	164	loudspeakers	loudspeakers	loudspeakers	2	preview	9	172	138	138	138	138
102	165	to	to	to	2	preview	9	173	0	0	0	0
103	166	tell	tell	tell	2	preview	9	174	152	152	152	152
104	167	protesters	protesters	protesters	2	preview	9	175	0	0	0	0
105	168	and	and	and	2	preview	9	176	115	0	0	0
106	169	pedestrians	pedestrians	pedestrians	2	preview	9	177	112	112	227	112
107	170	to	to	to	2	preview	9	178	0	0	0	0
108	171	stay	stay	stay	2	preview	9	179	0	0	0	0
109	172	on	on	on	2	preview	9	180	0	0	0	0
110	173	the	the	the	2	preview	9	181	140	140	140	140
111	174	sidewalk	sidewalk	sidewalk.	2	preview	9	182	0	0	0	0
	175	.	.		2	preview	9	183				
112	176	One	One	One	2	preview	9	184	131	0	0	0
113	177	person	person	person	2	preview	9	185	270	141	401	141
114	178	was	was	was	2	preview	9	186	87	0	0	0
115	179	placed	placed	placed	2	preview	9	187	361	147	448	147
116	180	in	in	in	2	preview	9	188	129	0	0	0
117	181	ambulance	ambulance	ambulance	2	preview	9	189	86	86	86	86
118	182	and	and	and	2	preview	9	190	371	371	500	371
119	183	taken	taken	taken	2	preview	9	191	94	94	94	94
120	184	away	away	away.	2	preview	9	192	134	0	0	0
	185	.	.		2	preview	9	193				
121	186	The	The	The	2	preview	9	194	116	116	250	116
122	187	crowd	crowd	crowd	2	preview	9	195	176	176	176	176
123	188	headed	headed	headed	2	preview	9	196	155	155	155	155
124	189	toward	toward	toward	2	preview	9	197	147	147	147	147
125	190	@entity47	Times	Times	2	preview	9	198	0	0	0	0
126			Square	Square.	2	preview	9	199	129	129	129	129
	191	.	.		2	preview	9	200				
127	192	A	A	A	2	preview	9	201	0	0	0	0
128	193	law	law	law	2	preview	9	202	0	0	0	0
129	194	enforcement	enforcement	enforcement	2	preview	9	203	277	277	277	168
130	195	source	source	source	2	preview	9	204	253	253	253	253
131	196	told	told	told	2	preview	9	205	0	0	0	0
132	197	@entity0	CNN	CNN	2	preview	9	206	163	163	163	163
133	198	that	that	that	2	preview	9	207	0	0	0	0
134	199	more	more	more	2	preview	9	208	122	0	0	0
135	200	than	than	than	2	preview	9	209	135	135	257	135
136	201	60	60	60	2	preview	9	210	0	0	0	0
137	202	people	people	people	2	preview	9	211	113	113	113	113
138	203	were	were	were	2	preview	9	212	0	0	0	0
139	204	arrested	arrested	arrested	2	preview	9	213	181	181	181	181
140	205	during	during	during	2	preview	9	214	122	122	122	122
141	206	the	the	the	2	preview	9	215	0	0	0	0
142	207	demonstrations	demonstrations	demonstrations.	2	preview	9	216	93	93	93	93
	208	.	.		2	preview	9	217				
143	209	The	The	The	2	preview	9	218	0	0	0	0
144	210	rally	rally	rally	2	preview	9	219	191	191	191	191
145	211	was	was	was	2	preview	9	220	0	0	0	0
146	212	organized	organized	organized	2	preview	9	221	214	214	214	132
147	213	through	through	through	2	preview	9	222	185	185	185	185
148	214	social	social	social	2	preview	9	223	157	157	157	157
149	215	media	media	media,	2	preview	9	224	0	0	0	0
	216	,	,		2	preview	9	225				
150	217	much	much	much	2	preview	9	226	0	0	0	0
151	218	like	like	like	2	preview	9	227	170	170	170	170
152	219	protests	protests	protests	2	preview	9	228	226	226	226	226
153	220	over	over	over	2	preview	9	229	0	0	0	0
154	221	the	the	the	2	preview	9	230	172	172	172	172
155	222	killing	killing	killing	2	preview	9	231	150	150	150	150
156	223	of	of	of	2	preview	9	232	0	0	0	0
157	224	@entity55	Eric	Eric	2	preview	9	233	161	161	161	161
158			Garner	Garner,	2	preview	9	234	0	0	0	0
	225	,	,		2	preview	9	235				
159	226	who	who	who	2	preview	9	236	170	170	170	170
160	227	died	died	died	2	preview	9	237	0	0	0	0
161	228	while	while	while	2	preview	9	238	162	162	162	162
162	229	police	police	police	2	preview	9	239	225	115	115	115
163	230	held	held	held	2	preview	9	240	189	189	189	189
164	231	him	him	him	2	preview	9	241	0	0	0	0
165	232	in	in	in	2	preview	9	242	141	141	141	141
166	233	what	what	what	2	preview	9	243	0	0	0	0
167	234	appeared	appeared	appeared	2	preview	9	244	165	165	165	165
168	235	to	to	to	2	preview	9	245	0	0	0	0
169	236	be	be	be	2	preview	9	246	0	0	0	0
170	237	a	a	a	2	preview	9	247	0	0	0	0
171	238	chokehold	chokehold	chokehold.	2	preview	9	248	454	454	454	263
	239	.	.		2	preview	9	249				
172	240	The	The	The	2	preview	9	250	0	0	0	0
173	241	demonstrators	demonstrators	demonstrators	2	preview	9	251	310	310	420	183
174	242	chanted	chanted	chanted	2	preview	9	252	0	0	110	0
175	243	-	-	-Black	2	preview	9	253	189	189	189	189
	244	@entity60	Black		2	preview	9	254				
176			Lives	Lives	2	preview	9	255	86	86	86	86
177			Matter	Matter-	2	preview	9	256	0	0	0	0
	245	-	-		2	preview	9	257				
178	246	and	and	and	2	preview	9	258	0	0	0	0
179	247	-	-	-Justice	2	preview	9	259	282	282	282	139
	248	@entity61	Justice		2	preview	9	260				
180			for	for	2	preview	9	261	0	0	0	0
181			Freddie	Freddie	2	preview	9	262	172	172	172	172
182			Gray	Gray-	2	preview	9	263	145	145	145	145
	249	-	-		2	preview	9	264				
183	250	--	--	--	2	preview	9	265	0	0	0	0
184	251	the	the	the	2	preview	9	266	0	0	0	0
185	252	@entity21	Baltimore	Baltimore	2	preview	9	267	420	420	420	257
186	253	man	man	man	2	preview	9	268	240	240	240	240
187	254	whose	whose	whose	2	preview	9	269	0	0	0	0
188	255	death	death	death	2	preview	9	270	166	166	166	166
189	256	sparked	sparked	sparked	2	preview	9	271	586	258	258	258
190	257	street	street	street	2	preview	9	272	216	132	544	132
191	258	confrontations	confrontations	confrontations	2	preview	9	273	130	130	130	130
192	259	in	in	in	2	preview	9	274	0	0	0	0
193	260	@entity21	Baltimore	Baltimore.	2	preview	9	275	215	215	215	215
	261	.	.		2	preview	9	276				
194	262	@entity0	CNN	CNN	2	preview	9	277	128	128	128	128
195	263	affiliate	affiliate	affiliate	2	preview	9	278	174	174	174	174
196	264	@entity65	WCBS	WCBS	2	preview	9	279	0	0	0	0
197	265	reported	reported	reported	2	preview	9	280	343	343	343	83
198	266	Mayor	Mayor	Mayor	2	preview	9	281	374	181	181	181
199	267	@entity66	Bill	Bill	2	preview	9	282	395	120	588	120
200			de	de	2	preview	9	283	0	0	0	0
201			Blasio	Blasio	2	preview	9	284	208	208	208	208
202	268	sent	sent	sent	2	preview	9	285	190	190	190	190
203	269	a	a	a	2	preview	9	286	0	0	0	0
204	270	message	message	message	2	preview	9	287	142	142	142	142
205	271	to	to	to	2	preview	9	288	0	0	0	0
206	272	the	the	the	2	preview	9	289	0	0	0	0
207	273	protesters	protesters	protesters:	2	preview	9	290	280	280	280	141
208	274	:	:	-I-d	2	preview	9	291	108	0	0	0
	275	-	-		2	preview	9	292				
	276	I	I		2	preview	9	293				
	277	-d	-d		2	preview	9	294				
209	278	say	say	say	2	preview	9	295	128	128	236	128
210	279	that	that	that	2	preview	9	296	228	228	228	228
211	280	if	if	if	2	preview	9	297	0	0	0	0
212	281	you	you	you	2	preview	9	298	201	201	201	201
213	282	want	want	want	2	preview	9	299	233	233	233	233
214	283	to	to	to	2	preview	9	300	0	0	0	0
215	284	make	make	make	2	preview	9	301	261	261	261	261
216	285	change	change	change,	2	preview	9	302	214	214	214	214
	286	,	,		2	preview	9	303				
217	287	keep	keep	keep	2	preview	9	304	741	741	741	120
218	288	things	things	things	2	preview	9	305	272	272	272	272
219	289	peaceful	peaceful	peaceful.-	2	preview	9	306	382	382	382	214
	290	.	.		2	preview	9	307				
220	291	-	-	A	2	preview	9	308	0	0	0	0
221	292	A	A	smaller	2	preview	9	309	186	186	186	186
	293	smaller	smaller		2	preview	9	310				
222	294	rally	rally	rally	2	preview	9	311	167	167	167	167
223	295	was	was	was	2	preview	9	312	0	0	0	0
224	296	held	held	held	2	preview	9	313	347	347	347	195
225	297	Tuesday	Tuesday	Tuesday	2	preview	9	314	476	476	476	352
226	298	in	in	in	2	preview	9	315	0	0	0	0
227	299	@entity73	New	New	2	preview	9	316	192	192	192	192
228			York	York.	2	preview	9	317	0	0	0	0
	300	.	.		2	preview	9	318				
229	301	In	In	In	2	preview	9	319	159	159	159	159
230	302	@entity76	Washington	Washington,	2	preview	9	320	679	679	679	193
	303	,	,		2	preview	9	321				
231	304	about	about	about	2	preview	9	322	118	0	0	0
232	305	500	500	500	2	preview	9	323	137	137	255	137
233	306	protesters	protesters	protesters,	2	preview	9	324	0	0	0	0
	307	,	,		2	preview	9	325				
234	308	mostly	mostly	mostly	2	preview	9	326	181	181	181	181
235	309	in	in	in	2	preview	9	327	0	0	0	0
236	310	their	their	their	2	preview	9	328	148	148	148	148
237	311	20s	20s	20s,	2	preview	9	329	0	0	0	0
	312	,	,		2	preview	9	330				
238	313	gathered	gathered	gathered	2	preview	9	331	185	185	185	185
239	314	in	in	in	2	preview	9	332	0	0	0	0
240	315	the	the	the	2	preview	9	333	0	0	0	0
241	316	middle	middle	middle	2	preview	9	334	0	0	0	0
242	317	of	of	of	2	preview	9	335	0	0	0	0
243	318	@entity78	H	H	2	preview	9	336	0	0	0	0
244			Street	Street	2	preview	9	337	0	0	0	0
245	319	and	and	and	2	preview	9	338	0	0	0	0
246	320	7th	7th	7th	2	preview	9	339	0	0	0	0
247	321	and	and	and	2	preview	9	340	0	0	0	0
248	322	chanted	chanted	chanted,	2	preview	9	341	150	0	0	0
	323	,	,		2	preview	9	342				
249	324	-	-	-All	2	preview	9	343	0	0	0	0
	325	All	All		2	preview	9	344				
250	326	night	night	night,	2	preview	9	345	175	0	0	0
	327	,	,		2	preview	9	346				
251	328	all	all	all	2	preview	9	347	0	0	0	0
252	329	day	day	day,	2	preview	9	348	160	0	0	0
	330	,	,		2	preview	9	349				
253	331	we	we	we-re	2	preview	9	350	0	0	0	0
	332	-re	-re		2	preview	9	351				
254	333	gon	gon	gonna	2	preview	9	352	218	0	0	0
	334	na	na		2	preview	9	353				
255	335	fight	fight	fight	2	preview	9	354	98	0	0	0
256	336	for	for	for	2	preview	9	355	0	0	0	0
257	337	@entity79	Freddie	Freddie	2	preview	9	356	150	0	0	0
258			Gray	Gray.-	2	preview	9	357	0	0	0	0
	338	.	.		2	preview	9	358				
259	339	-	-	The	2	preview	9	359	401	222	1352	222
260	340	The	The	mood	2	preview	9	360	0	0	0	0
	341	mood	mood		2	preview	9	361				
261	342	seemed	seemed	seemed	2	preview	9	362	171	171	171	171
262	343	more	more	more	2	preview	9	363	0	0	0	0
263	344	festive	festive	festive	2	preview	9	364	147	147	147	147
264	345	than	than	than	2	preview	9	365	0	0	0	0
265	346	confrontational	confrontational	confrontational,	2	preview	9	366	186	186	186	186
	347	,	,		2	preview	9	367				
266	348	with	with	with	2	preview	9	368	0	0	0	0
267	349	songs	songs	songs	2	preview	9	369	195	195	195	195
268	350	by	by	by	2	preview	9	370	0	0	0	0
269	351	@entity82	Public	Public	2	preview	9	371	190	190	190	190
270			Enemy	Enemy	2	preview	9	372	0	0	0	0
271	352	like	like	like	2	preview	9	373	0	0	0	0
272	353	-	-	-Fight	2	preview	9	374	138	138	138	138
	354	@entity86	Fight		2	preview	9	375				
273			the	the	2	preview	9	376	0	0	0	0
274			Power	Power-	2	preview	9	377	235	235	235	143
	355	-	-		2	preview	9	378				
275	356	playing	playing	playing	2	preview	9	379	0	0	0	0
276	357	and	and	and	2	preview	9	380	0	0	0	0
277	358	sign	sign	sign-language	2	preview	9	381	148	148	148	148
	359	-	-		2	preview	9	382				
	360	language	language		2	preview	9	383				
278	361	interpreters	interpreters	interpreters	2	preview	9	384	0	0	0	0
279	362	translating	translating	translating	2	preview	9	385	186	186	186	186
280	363	the	the	the	2	preview	9	386	0	0	0	0
281	364	music	music	music	2	preview	9	387	0	0	0	0
282	365	and	and	and	2	preview	9	388	0	0	0	0
283	366	chants	chants	chants.	2	preview	9	389	0	0	0	0
	367	.	.		2	preview	9	390				
284	368	The	The	The	2	preview	9	391	0	0	0	0
285	369	protest	protest	protest	2	preview	9	392	127	0	0	0
286	370	moved	moved	moved	2	preview	9	393	105	0	0	0
287	371	to	to	to	2	preview	9	394	0	0	0	0
288	372	the	the	the	2	preview	9	395	0	0	0	0
289	373	@entity88	White	White	2	preview	9	396	188	0	0	0
290			House	House	2	preview	9	397	82	0	0	0
291	374	where	where	where	2	preview	9	398	0	0	0	0
292	375	most	most	most	2	preview	9	399	132	0	0	0
293	376	of	of	of	2	preview	9	400	0	0	0	0
294	377	the	the	the	2	preview	9	401	0	0	0	0
295	378	crowd	crowd	crowd	2	preview	9	402	0	0	0	0
296	379	dispersed	dispersed	dispersed.	2	preview	9	403	101	101	735	101
	380	.	.		2	preview	9	404				
297	381	It	It	It	2	preview	9	405	0	0	0	0
298	382	started	started	started	2	preview	9	406	226	226	226	116
299	383	after	after	after	2	preview	9	407	0	0	0	0
300	384	most	most	most	2	preview	9	408	119	119	119	119
301	385	office	office	office	2	preview	9	409	0	0	0	0
302	386	workers	workers	workers	2	preview	9	410	0	0	0	0
303	387	had	had	had	2	preview	9	411	0	0	0	0
304	388	headed	headed	headed	2	preview	9	412	0	0	0	0
305	389	home	home	home	2	preview	9	413	0	0	0	0
306	390	and	and	and	2	preview	9	414	155	155	155	155
307	391	did	did	didn-t	2	preview	9	415	0	0	0	0
	392	n-t	n-t		2	preview	9	416				
308	393	disrupt	disrupt	disrupt	2	preview	9	417	0	0	0	0
309	394	the	the	the	2	preview	9	418	0	0	0	0
310	395	@entity76	Washington	Washington	2	preview	9	419	175	175	175	175
311	396	workforce	workforce	workforce	2	preview	9	420	0	0	0	0
312	397	badly	badly	badly.	2	preview	9	421	179	179	179	179
	398	.	.		2	preview	9	422				
313	399	One	One	One	2	preview	9	423	0	0	0	0
314	400	of	of	of	2	preview	9	424	136	136	136	136
315	401	the	the	the	2	preview	9	425	0	0	0	0
316	402	groups	groups	groups	2	preview	9	426	148	148	148	148
317	403	involved	involved	involved	2	preview	9	427	126	126	126	126
318	404	in	in	in	2	preview	9	428	0	0	0	0
319	405	the	the	the	2	preview	9	429	0	0	0	0
320	406	protest	protest	protest	2	preview	9	430	153	153	153	153
321	407	is	is	is	2	preview	9	431	0	0	0	0
322	408	the	the	the	2	preview	9	432	0	0	0	0
323	409	@entity95	DC	DC	2	preview	9	433	207	207	207	207
324			Ferguson	Ferguson	2	preview	9	434	108	108	108	108
325			Movement	Movement.	2	preview	9	435	0	0	0	0
	410	.	.		2	preview	9	436				
326	411	Organizer	Organizer	Organizer	2	preview	9	437	261	261	261	261
327	412	@entity96	Eugene	Eugene	2	preview	9	438	126	126	126	126
328			Puryear	Puryear	2	preview	9	439	0	0	0	0
329	413	said	said	said	2	preview	9	440	0	0	0	0
330	414	the	the	the	2	preview	9	441	182	182	182	182
331	415	march	march	march	2	preview	9	442	108	108	108	108
332	416	was	was	was	2	preview	9	443	0	0	0	0
333	417	called	called	called	2	preview	9	444	167	167	167	167
334	418	to	to	to	2	preview	9	445	0	0	0	0
335	419	show	show	show	2	preview	9	446	122	0	0	0
336	420	solidarity	solidarity	solidarity	2	preview	9	447	236	236	358	236
337	421	with	with	with	2	preview	9	448	0	0	0	0
338	422	the	the	the	2	preview	9	449	0	0	0	0
339	423	residents	residents	residents	2	preview	9	450	0	0	0	0
340	424	in	in	in	2	preview	9	451	0	0	0	0
341	425	@entity21	Baltimore	Baltimore	2	preview	9	452	164	164	164	164
342	426	and	and	and	2	preview	9	453	0	0	0	0
343	427	to	to	to	2	preview	9	454	163	163	163	163
344	428	highlight	highlight	highlight	2	preview	9	455	112	112	112	112
345	429	that	that	that	2	preview	9	456	0	0	0	0
346	430	police	police	police	2	preview	9	457	167	167	167	167
347	431	brutality	brutality	brutality	2	preview	9	458	133	133	133	133
348	432	is	is	is	2	preview	9	459	0	0	0	0
349	433	a	a	a	2	preview	9	460	0	0	0	0
350	434	national	national	national	2	preview	9	461	141	141	141	141
351	435	issue	issue	issue.	2	preview	9	462	0	0	0	0
	436	.	.		2	preview	9	463				
352	437	Several	Several	Several	2	preview	9	464	193	193	193	193
353	438	hundred	hundred	hundred	2	preview	9	465	106	106	106	106
354	439	people	people	people	2	preview	9	466	0	0	0	0
355	440	gathered	gathered	gathered	2	preview	9	467	279	279	279	166
356	441	in	in	in	2	preview	9	468	0	0	0	0
357	442	@entity103	Gold	Gold	2	preview	9	469	187	187	187	187
358			Medal	Medal	2	preview	9	470	0	0	0	0
359			Park	Park	2	preview	9	471	144	144	144	144
360	443	in	in	in	2	preview	9	472	0	0	0	0
361	444	@entity104	Minneapolis	Minneapolis	2	preview	9	473	175	175	175	175
362	445	for	for	for	2	preview	9	474	0	0	0	0
363	446	a	a	a	2	preview	9	475	0	0	0	0
364	447	rally	rally	rally	2	preview	9	476	206	206	206	206
365	448	organized	organized	organized	2	preview	9	477	219	219	219	219
366	449	by	by	by	2	preview	9	478	0	0	0	0
367	450	the	the	the	2	preview	9	479	0	0	0	0
368	451	group	group	group	2	preview	9	480	0	0	0	0
369	452	of	of	of	2	preview	9	481	0	0	0	0
370	453	#	#	#BlackLivesMatter.	2	preview	9	482	368	368	368	183
	454	@entity107	BlackLivesMatter		2	preview	9	483				
	455	.	.		2	preview	9	484				
371	456	The	The	The	2	preview	9	485	0	0	0	0
372	457	@entity104	Minneapolis	Minneapolis	2	preview	9	486	327	327	327	195
373	458	group	group	group	2	preview	9	487	159	159	159	159
374	459	held	held	held	2	preview	9	488	0	0	0	0
375	460	similar	similar	similar	2	preview	9	489	122	122	122	122
376	461	events	events	events	2	preview	9	490	260	260	260	128
377	462	in	in	in	2	preview	9	491	0	0	0	0
378	463	the	the	the	2	preview	9	492	0	0	0	0
379	464	past	past	past	2	preview	9	493	160	160	160	160
380	465	in	in	in	2	preview	9	494	0	0	0	0
381	466	response	response	response	2	preview	9	495	0	0	0	0
382	467	to	to	to	2	preview	9	496	0	0	0	0
383	468	alleged	alleged	alleged	2	preview	9	497	0	0	0	0
384	469	police	police	police	2	preview	9	498	235	235	235	235
385	470	brutality	brutality	brutality	2	preview	9	499	0	0	0	0
386	471	across	across	across	2	preview	9	500	0	0	0	0
387	472	the	the	the	2	preview	9	501	0	0	0	0
388	473	country	country	country.	2	preview	9	502	96	96	96	96
	474	.	.		2	preview	9	503				
389	475	Protests	Protests	Protests	2	preview	9	504	189	189	189	189
390	476	also	also	also	2	preview	9	505	169	169	169	169
391	477	were	were	were	2	preview	9	506	0	0	0	0
392	478	held	held	held	2	preview	9	507	143	143	143	143
393	479	in	in	in	2	preview	9	508	0	0	0	0
394	480	@entity115	Boston	Boston	2	preview	9	509	746	140	140	140
395	481	and	and	and	2	preview	9	510	0	0	0	0
396	482	@entity116	Houston	Houston.	2	preview	9	511	602	99	1208	99
	483	.	.		2	preview	9	512				
397	484	On	On	On	2	preview	9	513	0	0	0	0
398	485	Tuesday	Tuesday	Tuesday,	2	preview	9	514	541	367	367	367
	486	,	,		2	preview	9	515				
399	487	violent	violent	violent	2	preview	9	516	583	215	215	215
400	488	protests	protests	protests	2	preview	9	517	213	213	487	213
401	489	took	took	took	2	preview	9	518	105	105	105	105
402	490	place	place	place	2	preview	9	519	230	0	0	0
403	491	in	in	in	2	preview	9	520	222	222	222	222
404	492	@entity120	Ferguson	Ferguson,	2	preview	9	521	296	160	160	160
	493	,	,		2	preview	9	522				
405	494	@entity121	Missouri	Missouri,	2	preview	9	523	229	229	863	229
	495	,	,		2	preview	9	524				
406	496	where	where	where	2	preview	9	525	0	0	0	0
407	497	three	three	three	2	preview	9	526	0	0	0	0
408	498	people	people	people	2	preview	9	527	0	0	0	0
409	499	were	were	were	2	preview	9	528	209	209	209	209
410	500	shot	shot	shot,	2	preview	9	529	0	0	0	0
	501	,	,		2	preview	9	530				
411	502	the	the	the	2	preview	9	531	0	0	0	0
412	503	city	city	city	2	preview	9	532	127	127	127	127
413	504	police	police	police	2	preview	9	533	0	0	0	0
414	505	reported	reported	reported.	2	preview	9	534	0	0	0	0
	506	.	.		2	preview	9	535				
415	507	Police	Police	Police	2	preview	9	536	216	0	0	0
416	508	said	said	said	2	preview	9	537	112	112	328	112
417	509	they	they	they	2	preview	9	538	0	0	0	0
418	510	did	did	didn-t	2	preview	9	539	0	0	0	0
	511	n-t	n-t		2	preview	9	540				
419	512	do	do	do	2	preview	9	541	0	0	0	0
420	513	the	the	the	2	preview	9	542	0	0	0	0
421	514	shooting	shooting	shooting.	2	preview	9	543	164	164	164	164
	515	.	.		2	preview	9	544				
422	516	A	A	A	2	preview	9	545	0	0	0	0
423	517	20	20	20-year-old	2	preview	9	546	177	177	177	177
	518	-	-		2	preview	9	547				
	519	year	year		2	preview	9	548				
	520	-	-		2	preview	9	549				
	521	old	old		2	preview	9	550				
424	522	man	man	man	2	preview	9	551	0	0	0	0
425	523	was	was	was	2	preview	9	552	198	198	198	198
426	524	arrested	arrested	arrested	2	preview	9	553	0	0	0	0
427	525	and	and	and	2	preview	9	554	0	0	0	0
428	526	the	the	the	2	preview	9	555	99	99	99	99
429	527	three	three	three	2	preview	9	556	0	0	0	0
430	528	victims	victims	victims	2	preview	9	557	222	222	222	222
431	529	were	were	were	2	preview	9	558	0	0	0	0
432	530	in	in	in	2	preview	9	559	0	0	0	0
433	531	stable	stable	stable	2	preview	9	560	141	141	141	141
434	532	condition	condition	condition	2	preview	9	561	0	0	0	0
435	533	--	--	--	2	preview	9	562	0	0	0	0
436	534	two	two	two	2	preview	9	563	0	0	0	0
437	535	with	with	with	2	preview	9	564	211	211	211	211
438	536	wounds	wounds	wounds	2	preview	9	565	0	0	0	0
439	537	to	to	to	2	preview	9	566	0	0	0	0
440	538	the	the	the	2	preview	9	567	0	0	0	0
441	539	neck	neck	neck,	2	preview	9	568	157	157	157	157
	540	,	,		2	preview	9	569				
442	541	one	one	one	2	preview	9	570	0	0	0	0
443	542	in	in	in	2	preview	9	571	210	210	210	210
444	543	the	the	the	2	preview	9	572	0	0	0	0
445	544	leg	leg	leg,	2	preview	9	573	0	0	0	0
	545	,	,		2	preview	9	574				
446	546	police	police	police	2	preview	9	575	258	258	258	134
447	547	said	said	said.	2	preview	9	576	0	0	0	0
	548	.	.		2	preview	9	577				
448	549	Police	Police	Police	2	preview	9	578	178	178	178	178
449	550	said	said	said	2	preview	9	579	0	0	0	0
450	551	about	about	about	2	preview	9	580	143	143	143	143
451	552	300	300	300	2	preview	9	581	0	0	0	0
452	553	people	people	people	2	preview	9	582	153	153	153	153
453	554	marched	marched	marched,	2	preview	9	583	145	145	145	145
	555	,	,		2	preview	9	584				
454	556	with	with	with	2	preview	9	585	0	0	0	0
455	557	protesters	protesters	protesters	2	preview	9	586	164	164	164	164
456	558	throwing	throwing	throwing	2	preview	9	587	228	228	228	228
457	559	rocks	rocks	rocks	2	preview	9	588	0	0	0	0
458	560	at	at	at	2	preview	9	589	0	0	0	0
459	561	police	police	police,	2	preview	9	590	159	0	0	0
	562	,	,		2	preview	9	591				
460	563	damaging	damaging	damaging	2	preview	9	592	173	0	0	0
461	564	four	four	four	2	preview	9	593	0	0	0	0
462	565	police	police	police	2	preview	9	594	0	0	0	0
463	566	cars	cars	cars	2	preview	9	595	210	0	0	0
464	567	and	and	and	2	preview	9	596	0	0	0	0
465	568	setting	setting	setting	2	preview	9	597	167	0	0	0
466	569	trash	trash	trash	2	preview	9	598	0	0	0	0
467	570	and	and	and	2	preview	9	599	126	0	0	0
468	571	debris	debris	debris	2	preview	9	600	0	0	0	0
469	572	on	on	on	2	preview	9	601	0	0	0	0
470	573	fire	fire	fire	2	preview	9	602	129	0	0	0
471	574	near	near	near	2	preview	9	603	0	0	0	0
472	575	@entity139	Northwinds	Northwinds	2	preview	9	604	180	0	0	0
473			Estates	Estates	2	preview	9	605	172	172	1316	172
474	576	and	and	and	2	preview	9	606	0	0	0	0
475	577	@entity140	West	West	2	preview	9	607	0	0	0	0
476			Florissant	Florissant,	2	preview	9	608	222	222	222	222
	578	,	,		2	preview	9	609				
477	579	police	police	police	2	preview	9	610	0	0	0	0
478	580	said	said	said.	2	preview	9	611	0	0	0	0
	581	.	.		2	preview	9	612				
479	582	One	One	One	2	preview	9	613	168	168	168	168
480	583	business	business	business	2	preview	9	614	0	0	0	0
481	584	in	in	in	2	preview	9	615	0	0	0	0
482	585	@entity142	Dellwood	Dellwood	2	preview	9	616	292	292	292	168
483	586	was	was	was	2	preview	9	617	0	0	0	0
484	587	damaged	damaged	damaged,	2	preview	9	618	216	216	216	216
	588	,	,		2	preview	9	619				
485	589	police	police	police	2	preview	9	620	152	152	152	152
486	590	said	said	said.	2	preview	9	621	0	0	0	0
	591	.	.		2	preview	9	622				
487	592	No	No	No	2	preview	9	623	0	0	0	0
488	593	officers	officers	officers	2	preview	9	624	182	182	182	182
489	594	were	were	were	2	preview	9	625	0	0	0	0
490	595	injured	injured	injured	2	preview	9	626	175	175	175	175
491	596	as	as	as	2	preview	9	627	183	183	183	183
492	597	police	police	police	2	preview	9	628	0	0	0	0
493	598	conducted	conducted	conducted	2	preview	9	629	268	268	268	135
494	599	anti-riot	anti-riot	anti-riot	2	preview	9	630	82	82	82	82
495	600	activities	activities	activities	2	preview	9	631	230	230	230	230
496	601	until	until	until	2	preview	9	632	0	0	0	0
497	602	3	3	3	2	preview	9	633	162	162	162	162
498	603	a.m.	a.m.	a.m.	2	preview	9	634	0	0	0	0
499	604	In	In	In	2	preview	9	635	0	0	0	0
500	605	@entity147	Los	Los	2	preview	9	636	245	245	245	245
501			Angeles	Angeles,	2	preview	9	637	0	0	0	0
	606	,	,		2	preview	9	638				
502	607	six	six	six	2	preview	9	639	198	198	198	198
503	608	people	people	people	2	preview	9	640	115	115	115	115
504	609	protesting	protesting	protesting	2	preview	9	641	182	182	182	182
505	610	against	against	against	2	preview	9	642	153	153	153	153
506	611	police	police	police	2	preview	9	643	0	0	0	0
507	612	brutality	brutality	brutality	2	preview	9	644	215	215	215	215
508	613	were	were	were	2	preview	9	645	231	231	231	231
509	614	arrested	arrested	arrested	2	preview	9	646	0	0	0	0
510	615	Monday	Monday	Monday	2	preview	9	647	163	163	163	163
511	616	night	night	night	2	preview	9	648	115	115	115	115
512	617	when	when	when	2	preview	9	649	0	0	0	0
513	618	they	they	they	2	preview	9	650	178	178	178	178
514	619	failed	failed	failed	2	preview	9	651	0	0	0	0
515	620	to	to	to	2	preview	9	652	0	0	0	0
516	621	disperse	disperse	disperse,	2	preview	9	653	165	165	165	165
	622	,	,		2	preview	9	654				
517	623	reported	reported	reported	2	preview	9	655	130	130	130	130
518	624	@entity0	CNN	CNN	2	preview	9	656	0	0	0	0
519	625	affiliate	affiliate	affiliate	2	preview	9	657	152	152	152	152
520	626	@entity148	KABC	KABC.	2	preview	9	658	0	0	0	0
	627	.	.		2	preview	9	659				
521	628	About	About	About	2	preview	9	660	119	0	0	0
522	629	50	50	50	2	preview	9	661	123	123	242	123
523	630	people	people	people	2	preview	9	662	144	144	144	144
524	631	marched	marched	marched,	2	preview	9	663	173	173	173	173
	632	,	,		2	preview	9	664				
525	633	@entity148	KABC	KABC	2	preview	9	665	191	191	191	191
526	634	said	said	said.	2	preview	9	666	0	0	0	0
	635	.	.		2	preview	9	667				
527	636	On	On	On	2	preview	9	668	0	0	0	0
528	637	Tuesday	Tuesday	Tuesday,	2	preview	9	669	304	304	304	167
	638	,	,		2	preview	9	670				
529	639	protesters	protesters	protesters	2	preview	9	671	186	186	186	186
530	640	gathered	gathered	gathered	2	preview	9	672	231	231	231	231
531	641	outside	outside	outside	2	preview	9	673	132	132	132	132
532	642	the	the	the	2	preview	9	674	0	0	0	0
533	643	@entity152	Stapes	Stapes	2	preview	9	675	213	213	213	213
534			Center	Center,	2	preview	9	676	0	0	0	0
	644	,	,		2	preview	9	677				
535	645	where	where	where	2	preview	9	678	170	170	170	170
536	646	the	the	the	2	preview	9	679	0	0	0	0
537	647	@entity153	Los	Los	2	preview	9	680	0	0	0	0
538			Angeles	Angeles	2	preview	9	681	182	182	182	182
539			Clippers	Clippers	2	preview	9	682	140	140	140	140
540	648	and	and	and	2	preview	9	683	0	0	0	0
541	649	the	the	the	2	preview	9	684	0	0	0	0
542	650	@entity154	San	San	2	preview	9	685	133	133	133	133
543			Antonio	Antonio	2	preview	9	686	0	0	0	0
544			Spurs	Spurs	2	preview	9	687	0	0	0	0
545	651	were	were	were	2	preview	9	688	0	0	0	0
546	652	playing	playing	playing	2	preview	9	689	156	156	156	156
547	653	an	an	an	2	preview	9	690	0	0	0	0
548	654	@entity156	NBA	NBA	2	preview	9	691	0	0	0	0
549	655	playoff	playoff	playoff	2	preview	9	692	217	217	217	217
550	656	game	game	game.	2	preview	9	693	0	0	0	0
	657	.	.		2	preview	9	694				
551	658	They	They	They	2	preview	9	695	161	161	161	161
552	659	disrupted	disrupted	disrupted	2	preview	9	696	147	147	147	147
553	660	traffic	traffic	traffic	2	preview	9	697	215	215	215	215
554	661	and	and	and	2	preview	9	698	0	0	0	0
555	662	carried	carried	carried	2	preview	9	699	197	197	197	197
556	663	protest	protest	protest	2	preview	9	700	174	174	174	174
557	664	signs	signs	signs.	2	preview	9	701	0	0	0	0
	665	.	.		2	preview	9	702				
558	666	In	In	In	2	preview	9	703	0	0	0	0
559	667	@entity161	Chicago	Chicago,	2	preview	9	704	265	265	265	265
	668	,	,		2	preview	9	705				
560	669	hundreds	hundreds	hundreds	2	preview	9	706	189	189	189	189
561	670	of	of	of	2	preview	9	707	0	0	0	0
562	671	protesters	protesters	protesters	2	preview	9	708	191	191	191	191
563	672	marched	marched	marched	2	preview	9	709	188	188	188	188
564	673	Tuesday	Tuesday	Tuesday	2	preview	9	710	173	173	173	173
565	674	from	from	from	2	preview	9	711	0	0	0	0
566	675	police	police	police	2	preview	9	712	120	120	120	120
567	676	headquarters	headquarters	headquarters	2	preview	9	713	0	0	0	0
568	677	at	at	at	2	preview	9	714	0	0	0	0
569	678	35th	35th	35th	2	preview	9	715	0	0	0	0
570	679	and	and	and	2	preview	9	716	0	0	0	0
571	680	@entity163	Michigan	Michigan	2	preview	9	717	221	221	221	221
572	681	through	through	through	2	preview	9	718	0	0	0	0
573	682	the	the	the	2	preview	9	719	151	151	151	151
574	683	@entity164	Southside	Southside,	2	preview	9	720	135	135	135	135
	684	,	,		2	preview	9	721				
575	685	@entity0	CNN	CNN	2	preview	9	722	0	0	0	0
576	686	affiliate	affiliate	affiliate	2	preview	9	723	173	173	173	173
577	687	@entity159	WGN	WGN	2	preview	9	724	0	0	0	0
578	688	reported	reported	reported.	2	preview	9	725	126	126	126	126
	689	.	.		2	preview	9	726				
579	690	Police	Police	Police	2	preview	9	727	147	147	147	147
580	691	made	made	made	2	preview	9	728	103	103	103	103
581	692	one	one	one	2	preview	9	729	0	0	0	0
582	693	arrest	arrest	arrest,	2	preview	9	730	214	214	214	214
	694	,	,		2	preview	9	731				
583	695	for	for	for	2	preview	9	732	0	0	0	0
584	696	reckless	reckless	reckless	2	preview	9	733	228	228	228	228
585	697	conduct	conduct	conduct.	2	preview	9	734	102	102	102	102
	698	.	.		2	preview	9	735				
586	699	@entity159	WGN	WGN	2	preview	9	736	0	0	0	0
587	700	said	said	said	2	preview	9	737	199	199	199	199
588	701	protesters	protesters	protesters	2	preview	9	738	0	0	0	0
589	702	spoke	spoke	spoke	2	preview	9	739	0	0	0	0
590	703	about	about	about	2	preview	9	740	193	193	193	193
591	704	police	police	police	2	preview	9	741	0	0	0	0
592	705	violence	violence	violence	2	preview	9	742	113	113	113	113
593	706	and	and	and	2	preview	9	743	0	0	0	0
594	707	the	the	the	2	preview	9	744	0	0	0	0
595	708	death	death	death	2	preview	9	745	0	0	0	0
596	709	of	of	of	2	preview	9	746	166	166	166	166
597	710	@entity171	Rekia	Rekia	2	preview	9	747	0	0	0	0
598			Boyd	Boyd,	2	preview	9	748	178	178	178	178
	711	,	,		2	preview	9	749				
599	712	who	who	who	2	preview	9	750	0	0	0	0
600	713	was	was	was	2	preview	9	751	167	167	167	167
601	714	killed	killed	killed	2	preview	9	752	0	0	0	0
602	715	by	by	by	2	preview	9	753	128	128	128	128
603	716	an	an	an	2	preview	9	754	0	0	0	0
604	717	off	off	off-duty	2	preview	9	755	145	145	145	145
	718	-	-		2	preview	9	756				
	719	duty	duty		2	preview	9	757				
605	720	officer	officer	officer	2	preview	9	758	0	0	0	0
606	721	in	in	in	2	preview	9	759	0	0	0	0
607	722	2012	2012	2012.	2	preview	9	760	0	0	0	0
	723	.	.		2	preview	9	761				
608	724	That	That	That	2	preview	9	762	0	0	0	0
609	725	officer	officer	officer	2	preview	9	763	267	267	267	267
610	726	was	was	was	2	preview	9	764	0	0	0	0
611	727	acquitted	acquitted	acquitted	2	preview	9	765	186	186	186	186
612	728	last	last	last	2	preview	9	766	0	0	0	0
613	729	week	week	week.	2	preview	9	767	122	122	122	122
	730	.	.		2	preview	9	768				
614	731	The	The	The	2	preview	9	769	0	0	0	0
615	732	group	group	group	2	preview	9	770	185	185	185	185
616	733	plans	plans	plans	2	preview	9	771	128	128	128	128
617	734	to	to	to	2	preview	9	772	0	0	0	0
618	735	gather	gather	gather	2	preview	9	773	168	168	168	168
619	736	Wednesday	Wednesday	Wednesday	2	preview	9	774	0	0	0	0
620	737	night	night	night	2	preview	9	775	140	140	140	140
621	738	at	at	at	2	preview	9	776	0	0	0	0
622	739	the	the	the	2	preview	9	777	0	0	0	0
623	740	@entity175	DePaul	DePaul	2	preview	9	778	143	143	143	143
624			Law	Law	2	preview	9	779	0	0	0	0
625			School	School.	2	preview	9	780	167	167	167	167
	741	.	.		2	preview	9	781				
626	742	About	About	About	2	preview	9	782	0	0	0	0
627	743	100	100	100	2	preview	9	783	171	171	171	171
628	744	people	people	people	2	preview	9	784	0	0	0	0
629	745	marched	marched	marched	2	preview	9	785	213	213	213	213
630	746	Monday	Monday	Monday	2	preview	9	786	145	145	145	145
631	747	night	night	night	2	preview	9	787	138	138	138	138
632	748	in	in	in	2	preview	9	788	0	0	0	0
633	749	@entity177	Oakland	Oakland	2	preview	9	789	143	143	143	143
634	750	in	in	in	2	preview	9	790	0	0	0	0
635	751	support	support	support	2	preview	9	791	0	0	0	0
636	752	of	of	of	2	preview	9	792	148	148	148	148
637	753	@entity21	Baltimore	Baltimore	2	preview	9	793	0	0	0	0
638	754	protesters	protesters	protesters,	2	preview	9	794	161	161	161	161
	755	,	,		2	preview	9	795				
639	756	reported	reported	reported	2	preview	9	796	170	170	170	170
640	757	@entity0	CNN	CNN	2	preview	9	797	0	0	0	0
641	758	affiliate	affiliate	affiliate	2	preview	9	798	182	182	182	182
642	759	@entity148	KABC	KABC.	2	preview	9	799	0	0	0	0
	760	.	.		2	preview	9	800				
643	761	A	A	A	2	preview	9	801	0	0	0	0
644	762	protest	protest	protest	2	preview	9	802	206	206	206	206
645	763	is	is	is	2	preview	9	803	0	0	0	0
646	764	planned	planned	planned	2	preview	9	804	160	160	160	160
647	765	for	for	for	2	preview	9	805	0	0	0	0
648	766	Thursday	Thursday	Thursday	2	preview	9	806	137	137	137	137
649	767	in	in	in	2	preview	9	807	0	0	0	0
650	768	@entity181	Cincinnati	Cincinnati,	2	preview	9	808	214	214	214	214
	769	,	,		2	preview	9	809				
651	770	reported	reported	reported	2	preview	9	810	189	189	189	189
652	771	@entity0	CNN	CNN	2	preview	9	811	196	196	196	196
653	772	affiliate	affiliate	affiliate	2	preview	9	812	0	0	0	0
654	773	@entity182	WXIX	WXIX.	2	preview	9	813	185	185	185	185
	774	.	.		2	preview	9	814				
655	775	@entity183	Philly.com	Philly.com	2	preview	9	815	153	153	153	153
656	776	said	said	said	2	preview	9	816	0	0	0	0
657	777	a	a	a	2	preview	9	817	0	0	0	0
658	778	-	-	-Philly	2	preview	9	818	145	145	145	145
	779	@entity185	Philly		2	preview	9	819				
659	780	is	is	is	2	preview	9	820	0	0	0	0
660	781	@entity21	Baltimore	Baltimore-	2	preview	9	821	126	126	126	126
	782	-	-		2	preview	9	822				
661	783	protest	protest	protest	2	preview	9	823	182	182	182	182
662	784	will	will	will	2	preview	9	824	0	0	0	0
663	785	be	be	be	2	preview	9	825	0	0	0	0
664	786	held	held	held	2	preview	9	826	0	0	0	0
665	787	Thursday	Thursday	Thursday	2	preview	9	827	0	0	0	0
666	788	at	at	at	2	preview	9	828	0	0	0	0
667	789	@entity186	Philadelphia	Philadelphia	2	preview	9	829	120	120	120	120
668			City	City	2	preview	9	830	0	0	0	0
669			Hall	Hall.	2	preview	9	831	0	0	0	0
	790	.	.		2	preview	9	832				
