HumanPosition	AnonymizedPosition	AnonymizedToken	OriginalToken	ExperimentToken	Participant	Condition	TextNo	JointPosition	tt	fp	rp	ff	rb	sp
0	0	@entity0	Raheem	Raheem	4	preview	10	1	348	0	0	0	0	348
2			Sterling	Sterling	4	preview	10	2	87	87	221	87	87	0
3	1	has	has	has	4	preview	10	3	0	0	0	0	0	0
4	2	admitted	admitted	admitted	4	preview	10	4	0	0	0	0	0	0
5	3	he	he	he	4	preview	10	5	0	0	0	0	0	0
6	4	is	is	is	4	preview	10	6	0	0	0	0	0	0
7	5	not	not	not	4	preview	10	7	252	0	0	0	0	252
8	6	ready	ready	ready	4	preview	10	8	0	0	0	0	0	0
9	7	to	to	to	4	preview	10	9	0	0	0	0	0	0
10	8	sign	sign	sign	4	preview	10	10	672	216	216	216	216	456
11	9	a	a	a	4	preview	10	11	0	0	0	0	0	0
12	10	new	new	new	4	preview	10	12	173	0	0	0	0	173
13	11	contract	contract	contract	4	preview	10	13	513	161	161	161	161	352
14	12	at	at	at	4	preview	10	14	258	0	0	0	0	258
15	13	@entity3	Liverpool	Liverpool	4	preview	10	15	552	350	350	350	350	202
16	14	deal	deal	deal	4	preview	10	16	514	0	0	0	0	514
17	15	despite	despite	despite	4	preview	10	17	918	130	333	130	130	788
18	16	being	being	being	4	preview	10	18	402	100	245	100	100	302
19	17	offered	offered	offered	4	preview	10	19	248	0	0	0	0	248
20	18	a	a	a	4	preview	10	20	0	0	0	0	0	0
21	19	£	£	£100,000-a-week	4	preview	10	21	1412	415	415	239	415	997
	20	100,000	100,000		4	preview	10	22						
	21	-	-		4	preview	10	23						
	22	a	a		4	preview	10	24						
	23	-	-		4	preview	10	25						
	24	week	week		4	preview	10	26						
22	25	deal	deal	deal	4	preview	10	27	366	173	173	173	173	193
23	26	to	to	to	4	preview	10	28	712	0	0	0	0	712
24	27	stay	stay	stay	4	preview	10	29	0	0	0	0	0	0
25	28	with	with	with	4	preview	10	30	0	0	0	0	0	0
26	29	the	the	the	4	preview	10	31	339	173	173	173	173	166
27	30	@entity6	Merseyside	Merseyside	4	preview	10	32	846	317	2038	317	415	529
28	31	club	club	club.	4	preview	10	33	0	0	0	0	0	0
	32	.	.		4	preview	10	34						
29	33	The	The	The	4	preview	10	35	0	0	0	0	0	0
30	34	20	20	20-year-old	4	preview	10	36	332	0	0	0	0	332
	35	-	-		4	preview	10	37						
	36	year	year		4	preview	10	38						
	37	-	-		4	preview	10	39						
	38	old	old		4	preview	10	40						
31	39	wideman	wideman	wideman	4	preview	10	41	414	414	414	164	414	0
32	40	edged	edged	edged	4	preview	10	42	536	144	144	144	144	392
33	41	closer	closer	closer	4	preview	10	43	375	196	196	196	196	179
34	42	towards	towards	towards	4	preview	10	44	321	0	0	0	0	321
35	43	an	an	an	4	preview	10	45	0	0	0	0	0	0
36	44	@entity9	Anfield	Anfield	4	preview	10	46	521	135	135	135	135	386
37	45	exit	exit	exit	4	preview	10	47	176	176	176	176	176	0
38	46	after	after	after	4	preview	10	48	229	0	0	0	0	229
39	47	revealing	revealing	revealing	4	preview	10	49	576	271	1193	271	465	305
40	48	in	in	in	4	preview	10	50	0	0	0	0	0	0
41	49	an	an	an	4	preview	10	51	0	0	0	0	0	0
42	50	interview	interview	interview	4	preview	10	52	346	0	0	0	0	346
43	51	with	with	with	4	preview	10	53	140	140	337	140	140	0
44	52	the	the	the	4	preview	10	54	0	0	0	0	0	0
45	53	@entity11	BBC	BBC	4	preview	10	55	349	130	130	130	130	219
46	54	on	on	on	4	preview	10	56	0	0	0	0	0	0
47	55	Wednesday	Wednesday	Wednesday	4	preview	10	57	0	0	0	0	0	0
48	56	that	that	that	4	preview	10	58	0	0	0	0	0	0
49	57	he	he	he	4	preview	10	59	331	118	118	118	118	213
50	58	would	would	would	4	preview	10	60	156	156	156	156	156	0
51	59	have	have	have	4	preview	10	61	0	0	0	0	0	0
52	60	signed	signed	signed	4	preview	10	62	497	296	296	296	296	201
53	61	for	for	for	4	preview	10	63	245	0	0	0	0	245
54	62	a	a	a	4	preview	10	64	0	0	0	0	0	0
55	63	lot	lot	lot	4	preview	10	65	633	239	682	239	437	394
56	64	less	less	less	4	preview	10	66	110	0	0	0	0	110
57	65	a	a	a	4	preview	10	67	0	0	0	0	0	0
58	66	year	year	year	4	preview	10	68	0	0	0	0	0	0
59	67	ago	ago	ago.	4	preview	10	69	502	0	0	0	0	502
	68	.	.		4	preview	10	70						
60	69	However	However	However,	4	preview	10	71	621	150	598	150	285	471
	70	,	,		4	preview	10	72						
61	71	despite	despite	despite	4	preview	10	73	148	148	148	148	148	0
62	72	being	being	being	4	preview	10	74	242	0	0	0	0	242
63	73	one	one	one	4	preview	10	75	0	0	0	0	0	0
64	74	of	of	of	4	preview	10	76	370	191	191	191	191	179
65	75	@entity3	Liverpool	Liverpool-s	4	preview	10	77	0	0	0	0	0	0
	76	-s	-s		4	preview	10	78						
66	77	star	star	star	4	preview	10	79	443	250	250	250	250	193
67	78	men	men	men,	4	preview	10	80	0	0	0	0	0	0
	79	,	,		4	preview	10	81						
68	80	@entity0	Sterling	Sterling	4	preview	10	82	212	212	212	212	212	0
69	81	has	has	has	4	preview	10	83	0	0	0	0	0	0
70	82	struggled	struggled	struggled	4	preview	10	84	336	206	206	206	206	130
71	83	to	to	to	4	preview	10	85	0	0	0	0	0	0
72	84	repeat	repeat	repeat	4	preview	10	86	397	0	0	0	0	397
73	85	the	the	the	4	preview	10	87	259	128	316	128	128	131
74	86	impressive	impressive	impressive	4	preview	10	88	571	186	186	186	186	385
75	87	form	form	form	4	preview	10	89	528	0	0	0	0	528
76	88	he	he	he	4	preview	10	90	288	288	456	288	288	0
77	89	showed	showed	showed	4	preview	10	91	555	145	145	145	145	410
78	90	for	for	for	4	preview	10	92	0	0	0	0	0	0
79	91	the	the	the	4	preview	10	93	223	223	223	223	223	0
80	92	@entity18	Reds	Reds	4	preview	10	94	222	0	0	0	0	222
81	93	last	last	last	4	preview	10	95	482	0	0	0	0	482
82	94	season	season	season.	4	preview	10	96	275	120	260	120	120	155
	95	.	.		4	preview	10	97						
83	96	The	The	The	4	preview	10	98	279	0	0	0	0	279
84	97	@entity19	England	England	4	preview	10	99	696	424	1158	275	537	272
85	98	international	international	international	4	preview	10	100	444	227	227	227	227	217
86	99	has	has	has	4	preview	10	101	0	0	0	0	0	0
87	100	managed	managed	managed	4	preview	10	102	541	229	229	229	229	312
88	101	just	just	just	4	preview	10	103	0	0	0	0	0	0
89	102	six	six	six	4	preview	10	104	318	318	318	318	318	0
90	103	goals	goals	goals	4	preview	10	105	0	0	0	0	0	0
91	104	this	this	this	4	preview	10	106	0	0	0	0	0	0
92	105	season	season	season	4	preview	10	107	148	148	148	148	148	0
93	106	-	-	-	4	preview	10	108	0	0	0	0	0	0
94	107	one	one	one	4	preview	10	109	0	0	0	0	0	0
95	108	less	less	less	4	preview	10	110	132	132	132	132	132	0
96	109	than	than	than	4	preview	10	111	0	0	0	0	0	0
97	110	@entity23	Stoke	Stoke	4	preview	10	112	294	294	294	294	294	0
98	111	frontman	frontman	frontman	4	preview	10	113	0	0	0	0	0	0
99	112	@entity22	Jon	Jon	4	preview	10	114	0	0	0	0	0	0
100			Walters	Walters	4	preview	10	115	563	0	0	0	0	563
101	113	-	-	-	4	preview	10	116	201	201	201	201	201	0
102	114	while	while	while	4	preview	10	117	0	0	0	0	0	0
103	115	his	his	his	4	preview	10	118	321	321	620	321	321	0
104	116	conversion	conversion	conversion	4	preview	10	119	311	190	190	190	190	121
105	117	rate	rate	rate	4	preview	10	120	165	0	0	0	0	165
106	118	and	and	and	4	preview	10	121	263	263	428	263	263	0
107	119	minutes	minutes	minutes	4	preview	10	122	234	234	234	234	234	0
108	120	per	per	per	4	preview	10	123	0	0	0	0	0	0
109	121	goal	goal	goal	4	preview	10	124	0	0	0	0	0	0
110	122	ratio	ratio	ratio	4	preview	10	125	0	0	0	0	0	0
111	123	have	have	have	4	preview	10	126	242	242	242	242	242	0
112	124	worsened	worsened	worsened.	4	preview	10	127	93	93	93	93	93	0
	125	as	as		4	preview	10	128						
113	126	the	the	Raheem	4	preview	10	129	602	0	0	0	0	602
	127	graphic	graphic		4	preview	10	130						
	128	below	below		4	preview	10	131						
	129	shows	shows		4	preview	10	132						
	130	.	.		4	preview	10	133						
	131	@entity0	Raheem		4	preview	10	134						
114			Sterling	Sterling	4	preview	10	135	368	135	569	135	265	233
115	132	has	has	has	4	preview	10	136	0	0	0	0	0	0
116	133	managed	managed	managed	4	preview	10	137	505	218	218	218	218	287
117	134	just	just	just	4	preview	10	138	0	0	0	0	0	0
118	135	six	six	six	4	preview	10	139	252	252	252	252	252	0
119	136	goals	goals	goals	4	preview	10	140	0	0	0	0	0	0
120	137	this	this	this	4	preview	10	141	0	0	0	0	0	0
121	138	season	season	season	4	preview	10	142	202	202	9987	202	202	0
122	139	-	-	-	4	preview	10	143	0	0	0	0	0	0
123	140	one	one	one	4	preview	10	144	0	0	0	0	0	0
124	141	less	less	less	4	preview	10	145	0	0	0	0	0	0
125	142	than	than	than	4	preview	10	146	0	0	0	0	0	0
126	143	@entity23	Stoke	Stoke	4	preview	10	147	0	0	0	0	0	0
127	144	forward	forward	forward	4	preview	10	148	0	0	0	0	0	0
128	145	@entity22	Jon	Jon	4	preview	10	149	0	0	0	0	0	0
129			Walters	Walters.	4	preview	10	150	237	237	1951	237	237	0
	146	(	(		4	preview	10	151						
