HumanPosition	AnonymizedPosition	AnonymizedToken	OriginalToken	ExperimentToken	Participant	Condition	TextNo	JointPosition	tt	fp	rp	ff	rb	sp
1	0	A	A	A	4	preview	18	1	0	0	0	0	0	0
2	1	man	man	man	4	preview	18	2	140	0	0	0	0	140
3	2	was	was	was	4	preview	18	3	99	99	239	99	99	0
4	3	horrified	horrified	horrified	4	preview	18	4	0	0	0	0	0	0
5	4	after	after	after	4	preview	18	5	0	0	0	0	0	0
6	5	finding	finding	finding	4	preview	18	6	0	0	0	0	0	0
7	6	a	a	a	4	preview	18	7	0	0	0	0	0	0
8	7	five	five	five	4	preview	18	8	0	0	0	0	0	0
9	8	inch	inch	inch	4	preview	18	9	185	185	185	185	185	0
10	9	piece	piece	piece	4	preview	18	10	157	157	157	157	157	0
11	10	of	of	of	4	preview	18	11	0	0	0	0	0	0
12	11	TIMBER	TIMBER	TIMBER	4	preview	18	12	89	89	89	89	89	0
13	12	in	in	in	4	preview	18	13	0	0	0	0	0	0
14	13	his	his	his	4	preview	18	14	189	189	189	189	189	0
15	14	frozen	frozen	frozen	4	preview	18	15	0	0	0	0	0	0
16	15	curry	curry	curry.	4	preview	18	16	0	0	0	0	0	0
	16	.	.		4	preview	18	17						
17	17	@entity5	John	John	4	preview	18	18	0	0	0	0	0	0
18			Foran	Foran-s	4	preview	18	19	394	211	211	211	211	183
	18	’s	’s		4	preview	18	20						
19	19	wife	wife	wife	4	preview	18	21	0	0	0	0	0	0
20	20	@entity4	Nita	Nita	4	preview	18	22	193	193	193	193	193	0
21	21	was	was	was	4	preview	18	23	0	0	0	0	0	0
22	22	preparing	preparing	preparing	4	preview	18	24	184	184	184	184	184	0
23	23	a	a	a	4	preview	18	25	0	0	0	0	0	0
24	24	chicken	chicken	chicken	4	preview	18	26	202	202	202	202	202	0
25	25	tikka	tikka	tikka	4	preview	18	27	0	0	0	0	0	0
26	26	biryani	biryani	biryani	4	preview	18	28	249	249	249	249	249	0
27	27	stir	stir	stir-fry	4	preview	18	29	137	137	137	137	137	0
	28	-	-		4	preview	18	30						
	29	fry	fry		4	preview	18	31						
28	30	on	on	on	4	preview	18	32	112	112	112	112	112	0
29	31	Tuesday	Tuesday	Tuesday	4	preview	18	33	0	0	0	0	0	0
30	32	April	April	April	4	preview	18	34	0	0	0	0	0	0
31	33	7	7	7	4	preview	18	35	0	0	0	0	0	0
32	34	when	when	when	4	preview	18	36	0	0	0	0	0	0
33	35	he	he	he	4	preview	18	37	0	0	0	0	0	0
34	36	found	found	found	4	preview	18	38	158	158	158	158	158	0
35	37	the	the	the	4	preview	18	39	0	0	0	0	0	0
36	38	splinter	splinter	splinter-covered	4	preview	18	40	216	216	216	216	216	0
	39	-	-		4	preview	18	41						
	40	covered	covered		4	preview	18	42						
37	41	shard	shard	shard.	4	preview	18	43	105	105	105	105	105	0
	42	.	.		4	preview	18	44						
38	43	The	The	The	4	preview	18	45	0	0	0	0	0	0
39	44	£	£	£2	4	preview	18	46	0	0	0	0	0	0
	45	2	2		4	preview	18	47						
40	46	ready	ready	ready	4	preview	18	48	218	218	218	218	218	0
41	47	meal	meal	meal	4	preview	18	49	130	130	130	130	130	0
42	48	was	was	was	4	preview	18	50	0	0	0	0	0	0
43	49	bought	bought	bought	4	preview	18	51	117	117	117	117	117	0
44	50	from	from	from	4	preview	18	52	0	0	0	0	0	0
45	51	an	an	an	4	preview	18	53	0	0	0	0	0	0
46	52	@entity11	Iceland	Iceland	4	preview	18	54	222	222	222	222	222	0
47			Foods	Foods	4	preview	18	55	0	0	0	0	0	0
48	53	store	store	store	4	preview	18	56	238	238	238	238	238	0
49	54	in	in	in	4	preview	18	57	0	0	0	0	0	0
50	55	@entity12	Spytty	Spytty	4	preview	18	58	521	521	521	521	521	0
51			Retail	Retail	4	preview	18	59	185	185	185	185	185	0
52			Park	Park	4	preview	18	60	0	0	0	0	0	0
53	56	near	near	near	4	preview	18	61	0	0	0	0	0	0
54	57	the	the	the	4	preview	18	62	212	212	212	212	212	0
55	58	couple	couple	couple-s	4	preview	18	63	0	0	0	0	0	0
	59	’s	’s		4	preview	18	64						
56	60	home	home	home	4	preview	18	65	0	0	0	0	0	0
57	61	in	in	in	4	preview	18	66	207	207	207	207	207	0
58	62	@entity15	Newport	Newport,	4	preview	18	67	192	192	192	192	192	0
	63	,	,		4	preview	18	68						
59	64	@entity16	South	South	4	preview	18	69	167	167	167	167	167	0
60			Wales	Wales,	4	preview	18	70	0	0	0	0	0	0
	65	,	,		4	preview	18	71						
61	66	within	within	within	4	preview	18	72	239	239	239	239	239	0
62	67	the	the	the	4	preview	18	73	0	0	0	0	0	0
63	68	last	last	last	4	preview	18	74	158	158	158	158	158	0
64	69	two	two	two	4	preview	18	75	0	0	0	0	0	0
65	70	weeks	weeks	weeks.	4	preview	18	76	173	173	173	173	173	0
	71	.	.		4	preview	18	77						
66	72	@entity5	John	John,	4	preview	18	78	0	0	0	0	0	0
			Foran		4	preview	18	79						
	73	was	was		4	preview	18	80						
67	74	horrified	horrified	59,	4	preview	18	81	345	345	345	345	345	0
	75	to	to		4	preview	18	82						
	76	find	find		4	preview	18	83						
	77	a	a		4	preview	18	84						
68	78	five	five	said:	4	preview	18	85	0	0	0	0	0	0
	79	inch	inch		4	preview	18	86						
	80	piece	piece		4	preview	18	87						
	81	of	of		4	preview	18	88						
	82	timber	timber		4	preview	18	89						
	83	in	in		4	preview	18	90						
	84	his	his		4	preview	18	91						
	85	@entity11	Iceland		4	preview	18	92						
	86	chicken	chicken		4	preview	18	93						
	87	tikka	tikka		4	preview	18	94						
	88	biryani	biryani		4	preview	18	95						
	89	curry	curry		4	preview	18	96						
	90	@entity5	John		4	preview	18	97						
	91	,	,		4	preview	18	98						
	92	59	59		4	preview	18	99						
	93	,	,		4	preview	18	100						
	94	said	said		4	preview	18	101						
69	95	:	:	-When	4	preview	18	102	0	0	0	0	0	0
	96	-	-		4	preview	18	103						
	97	When	When		4	preview	18	104						
70	98	it	it	it	4	preview	18	105	0	0	0	0	0	0
71	99	fell	fell	fell	4	preview	18	106	292	164	164	164	164	128
72	100	out	out	out	4	preview	18	107	0	0	0	0	0	0
73	101	of	of	of	4	preview	18	108	0	0	0	0	0	0
74	102	the	the	the	4	preview	18	109	236	236	364	236	236	0
75	103	bag	bag	bag	4	preview	18	110	0	0	0	0	0	0
76	104	I	I	I	4	preview	18	111	0	0	0	0	0	0
77	105	could	could	couldn-t	4	preview	18	112	164	0	0	0	0	164
	106	n’t	n’t		4	preview	18	113						
78	107	believe	believe	believe	4	preview	18	114	152	152	316	152	152	0
79	108	it	it	it.	4	preview	18	115	0	0	0	0	0	0
	109	.	.		4	preview	18	116						
80	110	-	-	-As	4	preview	18	117	0	0	0	0	0	0
	111	As	As		4	preview	18	118						
81	112	@entity4	Nita	Nita	4	preview	18	119	261	261	261	261	261	0
82	113	was	was	was	4	preview	18	120	0	0	0	0	0	0
83	114	putting	putting	putting	4	preview	18	121	167	167	167	167	167	0
84	115	it	it	it	4	preview	18	122	0	0	0	0	0	0
85	116	in	in	in	4	preview	18	123	0	0	0	0	0	0
86	117	the	the	the	4	preview	18	124	0	0	0	0	0	0
87	118	stir	stir	stir	4	preview	18	125	243	243	243	243	243	0
88	119	fry	fry	fry	4	preview	18	126	0	0	0	0	0	0
89	120	dish	dish	dish,	4	preview	18	127	0	0	0	0	0	0
	121	,	,		4	preview	18	128						
90	122	she	she	she	4	preview	18	129	0	0	0	0	0	0
91	123	thought	thought	thought	4	preview	18	130	208	208	208	208	208	0
92	124	it	it	it	4	preview	18	131	83	83	83	83	83	0
93	125	was	was	was	4	preview	18	132	0	0	0	0	0	0
94	126	just	just	just	4	preview	18	133	0	0	0	0	0	0
95	127	a	a	a	4	preview	18	134	0	0	0	0	0	0
96	128	big	big	big	4	preview	18	135	196	196	196	196	196	0
97	129	bit	bit	bit	4	preview	18	136	0	0	0	0	0	0
98	130	of	of	of	4	preview	18	137	245	245	245	245	245	0
99	131	veg	veg	veg.	4	preview	18	138	0	0	0	0	0	0
	132	.	.		4	preview	18	139						
100	133	-	-	-It	4	preview	18	140	0	0	0	0	0	0
	134	It	It		4	preview	18	141						
101	135	was	was	was	4	preview	18	142	482	141	141	141	141	341
102	136	a	a	a	4	preview	18	143	0	0	0	0	0	0
103	137	piece	piece	piece	4	preview	18	144	174	174	174	174	174	0
104	138	of	of	of	4	preview	18	145	0	0	0	0	0	0
105	139	wood	wood	wood	4	preview	18	146	0	0	0	0	0	0
106	140	with	with	with	4	preview	18	147	240	154	154	154	154	86
107	141	splinters	splinters	splinters	4	preview	18	148	177	177	177	177	177	0
108	142	coming	coming	coming	4	preview	18	149	220	220	647	220	220	0
109	143	off	off	off	4	preview	18	150	0	0	427	0	0	0
110	144	it	it	it.	4	preview	18	151	0	0	0	0	0	0
	145	.	.		4	preview	18	152						
111	146	-	-	-I	4	preview	18	153	103	103	103	103	103	0
	147	I	I		4	preview	18	154						
112	148	just	just	just	4	preview	18	155	0	0	0	0	0	0
113	149	do	do	don-t	4	preview	18	156	0	0	0	0	0	0
	150	n’t	n’t		4	preview	18	157						
114	151	understand	understand	understand	4	preview	18	158	238	238	238	150	238	0
115	152	how	how	how	4	preview	18	159	0	0	0	0	0	0
116	153	it	it	it	4	preview	18	160	0	0	0	0	0	0
117	154	got	got	got	4	preview	18	161	166	0	0	0	0	166
118	155	inside	inside	inside.-	4	preview	18	162	196	196	362	196	196	0
	156	.	.		4	preview	18	163						
119	157	-	-	Shocked	4	preview	18	164	0	0	0	0	0	0
	158	@entity11	Iceland		4	preview	18	165						
	159	said	said		4	preview	18	166						
	160	they	they		4	preview	18	167						
	161	are	are		4	preview	18	168						
	162	carrying	carrying		4	preview	18	169						
	163	out	out		4	preview	18	170						
	164	a	a		4	preview	18	171						
	165	thorough	thorough		4	preview	18	172						
	166	investigation	investigation		4	preview	18	173						
	167	into	into		4	preview	18	174						
	168	how	how		4	preview	18	175						
	169	the	the		4	preview	18	176						
	170	timber	timber		4	preview	18	177						
	171	shard	shard		4	preview	18	178						
	172	came	came		4	preview	18	179						
	173	to	to		4	preview	18	180						
	174	be	be		4	preview	18	181						
	175	in	in		4	preview	18	182						
	176	the	the		4	preview	18	183						
	177	curry	curry		4	preview	18	184						
	178	Shocked	Shocked		4	preview	18	185						
120	179	@entity5	John	John	4	preview	18	186	215	215	215	215	215	0
121	180	immediately	immediately	immediately	4	preview	18	187	0	0	0	0	0	0
122	181	contacted	contacted	contacted	4	preview	18	188	249	249	249	249	249	0
123	182	@entity11	Iceland	Iceland	4	preview	18	189	138	138	138	138	138	0
124	183	who	who	who	4	preview	18	190	0	0	0	0	0	0
125	184	are	are	are	4	preview	18	191	0	0	0	0	0	0
126	185	currently	currently	currently	4	preview	18	192	282	282	282	282	282	0
127	186	investigating	investigating	investigating	4	preview	18	193	101	101	101	101	101	0
128	187	the	the	the	4	preview	18	194	0	0	0	0	0	0
129	188	matter	matter	matter.	4	preview	18	195	163	163	163	163	163	0
	189	.	.		4	preview	18	196						
130	190	He	He	He	4	preview	18	197	0	0	0	0	0	0
131	191	said	said	said:	4	preview	18	198	84	84	84	84	84	0
132	192	:	:	-It	4	preview	18	199	0	0	0	0	0	0
	193	“	“		4	preview	18	200						
133	194	It	It	may	4	preview	18	201	0	0	0	0	0	0
134	195	may	may	only	4	preview	18	202	111	111	111	111	111	0
135	196	only	only	have	4	preview	18	203	0	0	0	0	0	0
	197	have	have		4	preview	18	204						
136	198	been	been	been	4	preview	18	205	0	0	0	0	0	0
137	199	£	£	£2	4	preview	18	206	0	0	0	0	0	0
	200	2	2		4	preview	18	207						
138	201	but	but	but	4	preview	18	208	0	0	0	0	0	0
139	202	that	that	that-s	4	preview	18	209	0	0	0	0	0	0
	203	’s	’s		4	preview	18	210						
140	204	beside	beside	beside	4	preview	18	211	202	202	202	202	202	0
141	205	the	the	the	4	preview	18	212	0	0	0	0	0	0
142	206	point	point	point.	4	preview	18	213	194	194	194	194	194	0
	207	.	.		4	preview	18	214						
143	208	-	-	-Things	4	preview	18	215	187	0	0	0	0	187
	209	Things	Things		4	preview	18	216						
144	210	like	like	like	4	preview	18	217	437	234	234	234	234	203
145	211	this	this	this	4	preview	18	218	195	0	0	0	0	195
146	212	should	should	should	4	preview	18	219	0	0	0	0	0	0
147	213	not	not	not	4	preview	18	220	166	166	166	166	166	0
148	214	be	be	be	4	preview	18	221	0	0	0	0	0	0
149	215	in	in	in	4	preview	18	222	0	0	0	0	0	0
150	216	your	your	your	4	preview	18	223	207	207	792	207	207	0
151	217	food	food	food.	4	preview	18	224	0	0	0	0	0	0
	218	.	.		4	preview	18	225						
152	219	-	-	-I	4	preview	18	226	117	117	117	117	117	0
	220	I	I		4	preview	18	227						
153	221	contacted	contacted	contacted	4	preview	18	228	0	0	0	0	0	0
154	222	@entity11	Iceland	Iceland	4	preview	18	229	0	0	0	0	0	0
155	223	and	and	and	4	preview	18	230	218	218	218	218	218	0
156	224	all	all	all	4	preview	18	231	0	0	0	0	0	0
157	225	they	they	they	4	preview	18	232	0	0	0	0	0	0
158	226	said	said	said	4	preview	18	233	222	222	222	222	222	0
159	227	was	was	was	4	preview	18	234	0	0	0	0	0	0
160	228	take	take	take	4	preview	18	235	0	0	0	0	0	0
161	229	it	it	it	4	preview	18	236	206	206	206	206	206	0
162	230	back	back	back	4	preview	18	237	0	0	0	0	0	0
163	231	to	to	to	4	preview	18	238	0	0	0	0	0	0
164	232	the	the	the	4	preview	18	239	0	0	0	0	0	0
165	233	shop	shop	shop	4	preview	18	240	198	198	198	198	198	0
166	234	and	and	and	4	preview	18	241	0	0	0	0	0	0
167	235	that	that	that	4	preview	18	242	0	0	0	0	0	0
168	236	they	they	they-ll	4	preview	18	243	273	182	182	182	182	91
	237	’ll	’ll		4	preview	18	244						
169	238	be	be	be	4	preview	18	245	0	0	0	0	0	0
170	239	in	in	in	4	preview	18	246	207	207	481	207	207	0
171	240	touch	touch	touch.	4	preview	18	247	0	0	0	0	0	0
	241	.	.		4	preview	18	248						
172	242	-	-	-But	4	preview	18	249	0	0	0	0	0	0
	243	But	But		4	preview	18	250						
173	244	I	I	I	4	preview	18	251	134	0	0	0	0	134
174	245	want	want	want	4	preview	18	252	126	126	260	126	126	0
175	246	people	people	people	4	preview	18	253	0	0	0	0	0	0
176	247	to	to	to	4	preview	18	254	0	0	0	0	0	0
177	248	know	know	know	4	preview	18	255	0	0	0	0	0	0
178	249	what	what	what	4	preview	18	256	0	0	0	0	0	0
179	250	could	could	could	4	preview	18	257	0	0	0	0	0	0
180	251	be	be	be	4	preview	18	258	206	206	206	206	206	0
181	252	hiding	hiding	hiding	4	preview	18	259	0	0	0	0	0	0
182	253	in	in	in	4	preview	18	260	0	0	0	0	0	0
183	254	their	their	their	4	preview	18	261	229	229	229	229	229	0
184	255	meal	meal	meal.-	4	preview	18	262	0	0	0	0	0	0
	256	.	.		4	preview	18	263						
185	257	”	”	An	4	preview	18	264	0	0	0	0	0	0
186	258	An	An	Iceland	4	preview	18	265	123	123	123	123	123	0
	259	@entity11	Iceland		4	preview	18	266						
187	260	spokeswoman	spokeswoman	spokeswoman	4	preview	18	267	0	0	0	0	0	0
188	261	said	said	said:	4	preview	18	268	0	0	0	0	0	0
189	262	:	:	-Please	4	preview	18	269	0	0	0	0	0	0
	263	’	’		4	preview	18	270						
	264	Please	Please		4	preview	18	271						
190	265	be	be	be	4	preview	18	272	0	0	0	0	0	0
191	266	assured	assured	assured	4	preview	18	273	142	142	142	142	142	0
192	267	that	that	that	4	preview	18	274	0	0	0	0	0	0
193	268	we	we	we	4	preview	18	275	0	0	0	0	0	0
194	269	take	take	take	4	preview	18	276	0	0	0	0	0	0
195	270	all	all	all	4	preview	18	277	454	234	234	234	234	220
196	271	complaints	complaints	complaints	4	preview	18	278	0	0	0	0	0	0
197	272	extremely	extremely	extremely	4	preview	18	279	326	326	546	172	326	0
198	273	seriously	seriously	seriously.	4	preview	18	280	0	0	0	0	0	0
	274	.	.		4	preview	18	281						
199	275	We	We	We	4	preview	18	282	0	0	0	0	0	0
200	276	can	can	can	4	preview	18	283	154	0	0	0	0	154
201	277	confirm	confirm	confirm	4	preview	18	284	196	196	350	196	196	0
202	278	that	that	that	4	preview	18	285	0	0	0	0	0	0
203	279	Mr	Mr	Mr	4	preview	18	286	0	0	0	0	0	0
204	280	@entity5	Foran	Foran	4	preview	18	287	168	168	168	168	168	0
205	281	has	has	has	4	preview	18	288	0	0	0	0	0	0
206	282	now	now	now	4	preview	18	289	0	0	0	0	0	0
207	283	been	been	been	4	preview	18	290	0	0	0	0	0	0
208	284	in	in	in	4	preview	18	291	198	198	198	198	198	0
209	285	touch	touch	touch	4	preview	18	292	0	0	0	0	0	0
210	286	with	with	with	4	preview	18	293	0	0	0	0	0	0
211	287	our	our	our	4	preview	18	294	0	0	0	0	0	0
212	288	customer	customer	customer	4	preview	18	295	89	89	89	89	89	0
213	289	care	care	care	4	preview	18	296	0	0	0	0	0	0
214	290	department	department	department	4	preview	18	297	96	96	96	96	96	0
215	291	regarding	regarding	regarding	4	preview	18	298	177	0	0	0	0	177
216	292	the	the	the	4	preview	18	299	0	0	0	0	0	0
217	293	foreign	foreign	foreign	4	preview	18	300	267	267	444	267	267	0
218	294	body	body	body	4	preview	18	301	0	0	0	0	0	0
219	295	found	found	found	4	preview	18	302	0	0	0	0	0	0
220	296	in	in	in	4	preview	18	303	188	188	188	188	188	0
221	297	his	his	his	4	preview	18	304	0	0	0	0	0	0
222	298	ready	ready	ready	4	preview	18	305	117	117	117	117	117	0
223	299	meal	meal	meal.	4	preview	18	306	0	0	0	0	0	0
	300	.	.		4	preview	18	307						
224	301	-	-	-Mr	4	preview	18	308	0	0	0	0	0	0
	302	Mr	Mr		4	preview	18	309						
225	303	@entity5	Foran	Foran	4	preview	18	310	217	217	217	217	217	0
226	304	is	is	is	4	preview	18	311	0	0	0	0	0	0
227	305	returning	returning	returning	4	preview	18	312	193	193	193	193	193	0
228	306	the	the	the	4	preview	18	313	113	113	113	113	113	0
229	307	item	item	item	4	preview	18	314	0	0	0	0	0	0
230	308	to	to	to	4	preview	18	315	0	0	0	0	0	0
231	309	the	the	the	4	preview	18	316	0	0	0	0	0	0
232	310	store	store	store	4	preview	18	317	237	237	237	237	237	0
233	311	and	and	and	4	preview	18	318	0	0	0	0	0	0
234	312	the	the	the	4	preview	18	319	0	0	0	0	0	0
235	313	foreign	foreign	foreign	4	preview	18	320	241	241	241	241	241	0
236	314	body	body	body	4	preview	18	321	0	0	0	0	0	0
237	315	will	will	will	4	preview	18	322	0	0	0	0	0	0
238	316	be	be	be	4	preview	18	323	0	0	0	0	0	0
239	317	collected	collected	collected	4	preview	18	324	182	182	182	182	182	0
240	318	by	by	by	4	preview	18	325	0	0	0	0	0	0
241	319	our	our	our	4	preview	18	326	0	0	0	0	0	0
242	320	supplier	supplier	supplier	4	preview	18	327	234	234	234	234	234	0
243	321	in	in	in	4	preview	18	328	0	0	0	0	0	0
244	322	order	order	order	4	preview	18	329	0	0	0	0	0	0
245	323	for	for	for	4	preview	18	330	0	0	0	0	0	0
246	324	them	them	them	4	preview	18	331	0	0	0	0	0	0
247	325	to	to	to	4	preview	18	332	0	0	0	0	0	0
248	326	carry	carry	carry	4	preview	18	333	0	0	0	0	0	0
249	327	out	out	out	4	preview	18	334	0	0	0	0	0	0
250	328	a	a	a	4	preview	18	335	0	0	0	0	0	0
251	329	thorough	thorough	thorough	4	preview	18	336	0	0	0	0	0	0
252	330	investigation	investigation	investigation.	4	preview	18	337	0	0	0	0	0	0
	331	.	.		4	preview	18	338						
253	332	As	As	As	4	preview	18	339	0	0	0	0	0	0
254	333	soon	soon	soon	4	preview	18	340	173	0	0	0	0	173
255	334	as	as	as	4	preview	18	341	0	0	0	0	0	0
256	335	we	we	we	4	preview	18	342	150	150	323	150	150	0
257	336	have	have	have	4	preview	18	343	0	0	0	0	0	0
258	337	the	the	the	4	preview	18	344	0	0	0	0	0	0
259	338	results	results	results	4	preview	18	345	125	125	125	125	125	0
260	339	of	of	of	4	preview	18	346	0	0	0	0	0	0
261	340	this	this	this	4	preview	18	347	0	0	0	0	0	0
262	341	investigation	investigation	investigation	4	preview	18	348	238	238	238	238	238	0
263	342	we	we	we	4	preview	18	349	0	0	0	0	0	0
264	343	will	will	will	4	preview	18	350	180	0	0	0	0	180
265	344	get	get	get	4	preview	18	351	0	0	0	0	0	0
266	345	back	back	back	4	preview	18	352	186	186	186	186	186	0
267	346	in	in	in	4	preview	18	353	0	0	0	0	0	0
268	347	touch	touch	touch	4	preview	18	354	0	0	0	0	0	0
269	348	with	with	with	4	preview	18	355	364	106	544	106	364	258
270	349	Mr	Mr	Mr	4	preview	18	356	0	0	0	0	0	0
271	350	@entity5	Foran	Foran.-	4	preview	18	357	170	170	170	170	170	0
	351	.	.		4	preview	18	358						
