HumanPosition	AnonymizedPosition	AnonymizedToken	OriginalToken	ExperimentToken	Participant	Condition	TextNo	JointPosition	tt	fp	rp	ff	rb	sp
1	0	(	(	Good	4	preview	3	1	0	0	0	0	0	0
	1	The	The		4	preview	3	2						
	2	@entity0	Hollywood		4	preview	3	3						
			Reporter		4	preview	3	4						
	3	)	)		4	preview	3	5						
	4	Good	Good		4	preview	3	6						
2	5	news	news	news	4	preview	3	7	298	298	298	109	298	0
3	6	arrived	arrived	arrived	4	preview	3	8	172	0	0	0	0	172
4	7	Thursday	Thursday	Thursday	4	preview	3	9	324	191	191	191	191	133
5	8	for	for	for	4	preview	3	10	0	0	0	0	0	0
6	9	-	-	-Fifty	4	preview	3	11	316	316	621	316	316	0
	10	@entity3	Fifty		4	preview	3	12						
7			Shades	Shades	4	preview	3	13	0	0	0	0	0	0
8			of	of	4	preview	3	14	0	0	0	0	0	0
9			Grey	Grey-	4	preview	3	15	0	0	0	0	0	0
	11	-	-		4	preview	3	16						
10	12	fans	fans	fans.	4	preview	3	17	144	144	144	144	144	0
	13	.	.		4	preview	3	18						
11	14	@entity4	Universal	Universal	4	preview	3	19	184	184	184	184	184	0
12	15	announced	announced	announced	4	preview	3	20	0	0	0	0	0	0
13	16	Thursday	Thursday	Thursday	4	preview	3	21	189	189	189	189	189	0
14	17	that	that	that	4	preview	3	22	0	0	0	0	0	0
15	18	the	the	the	4	preview	3	23	0	0	0	0	0	0
16	19	sequel	sequel	sequel	4	preview	3	24	187	187	187	187	187	0
17	20	to	to	to	4	preview	3	25	0	0	0	0	0	0
18	21	the	the	the	4	preview	3	26	0	0	0	0	0	0
19	22	box	box	box	4	preview	3	27	178	178	178	178	178	0
20	23	office	office	office	4	preview	3	28	0	0	0	0	0	0
21	24	blockbuster	blockbuster	blockbuster	4	preview	3	29	114	114	114	114	114	0
22	25	will	will	will	4	preview	3	30	0	0	0	0	0	0
23	26	hit	hit	hit	4	preview	3	31	0	0	0	0	0	0
24	27	theaters	theaters	theaters	4	preview	3	32	379	201	201	201	201	178
25	28	on	on	on	4	preview	3	33	129	129	129	129	129	0
26	29	Feb.	Feb.	Feb.	4	preview	3	34	126	0	0	0	0	126
27	30	10	10	10,	4	preview	3	35	0	0	0	0	0	0
	31	,	,		4	preview	3	36						
28	32	2017	2017	2017.	4	preview	3	37	84	0	0	0	0	84
	33	.	.		4	preview	3	38						
29	34	The	The	The	4	preview	3	39	427	266	266	266	266	161
30	35	third	third	third	4	preview	3	40	259	0	0	0	0	259
31	36	film	film	film	4	preview	3	41	0	0	0	0	0	0
32	37	in	in	in	4	preview	3	42	0	0	0	0	0	0
33	38	the	the	the	4	preview	3	43	235	0	0	0	0	235
34	39	series	series	series	4	preview	3	44	176	176	176	176	176	0
35	40	will	will	will	4	preview	3	45	0	0	0	0	0	0
36	41	debut	debut	debut	4	preview	3	46	368	210	862	210	368	158
37	42	Feb.	Feb.	Feb.	4	preview	3	47	0	0	0	0	0	0
38	43	9	9	9,	4	preview	3	48	163	163	163	163	163	0
	44	,	,		4	preview	3	49						
39	45	2018	2018	2018.	4	preview	3	50	435	175	175	175	175	260
	46	.	.		4	preview	3	51						
40	47	The	The	The	4	preview	3	52	0	0	0	0	0	0
41	48	news	news	news	4	preview	3	53	294	183	183	183	183	111
42	49	came	came	came	4	preview	3	54	177	91	1097	91	177	86
43	50	one	one	one	4	preview	3	55	0	0	0	0	0	0
44	51	day	day	day	4	preview	3	56	0	0	0	0	0	0
45	52	after	after	after	4	preview	3	57	0	0	0	0	0	0
46	53	@entity0	The	The	4	preview	3	58	275	275	275	275	275	0
47			Hollywood	Hollywood	4	preview	3	59	0	0	0	0	0	0
48			Reporter	Reporter	4	preview	3	60	186	186	186	186	186	0
49	54	reported	reported	reported	4	preview	3	61	232	232	232	232	232	0
50	55	exclusively	exclusively	exclusively	4	preview	3	62	0	0	0	0	0	0
51	56	that	that	that	4	preview	3	63	0	0	0	0	0	0
52	57	the	the	the	4	preview	3	64	243	243	243	243	243	0
53	58	husband	husband	husband	4	preview	3	65	151	151	151	151	151	0
54	59	of	of	of	4	preview	3	66	0	0	0	0	0	0
55	60	@entity12	EL	EL	4	preview	3	67	0	0	0	0	0	0
56			James	James,	4	preview	3	68	0	0	0	0	0	0
	61	,	,		4	preview	3	69						
57	62	author	author	author	4	preview	3	70	153	0	0	0	0	153
58	63	of	of	of	4	preview	3	71	0	0	0	0	0	0
59	64	the	the	the	4	preview	3	72	0	0	0	0	0	0
60	65	-	-	-Fifty	4	preview	3	73	177	177	330	177	177	0
	66	@entity3	Fifty		4	preview	3	74						
61			Shades	Shades-	4	preview	3	75	108	0	0	0	0	108
	67	-	-		4	preview	3	76						
62	68	trilogy	trilogy	trilogy,	4	preview	3	77	368	186	186	186	186	182
	69	,	,		4	preview	3	78						
63	70	will	will	will	4	preview	3	79	152	0	0	0	0	152
64	71	write	write	write	4	preview	3	80	402	181	181	181	181	221
65	72	the	the	the	4	preview	3	81	0	0	0	0	0	0
66	73	script	script	script	4	preview	3	82	126	126	126	126	126	0
67	74	for	for	for	4	preview	3	83	0	0	0	0	0	0
68	75	the	the	the	4	preview	3	84	0	0	0	0	0	0
69	76	second	second	second	4	preview	3	85	152	152	152	152	152	0
70	77	film	film	film.	4	preview	3	86	0	0	0	0	0	0
	78	.	.		4	preview	3	87						
71	79	@entity16	Niall	Niall	4	preview	3	88	0	0	0	0	0	0
72			Leonard	Leonard,	4	preview	3	89	440	328	328	126	328	112
	80	,	,		4	preview	3	90						
73	81	who	who	who	4	preview	3	91	162	0	0	0	0	162
74	82	is	is	is	4	preview	3	92	0	0	0	0	0	0
75	83	married	married	married	4	preview	3	93	372	372	372	372	372	0
76	84	and	and	and	4	preview	3	94	0	0	0	0	0	0
77	85	has	has	has	4	preview	3	95	212	0	0	0	0	212
78	86	two	two	two	4	preview	3	96	367	196	196	196	196	171
79	87	sons	sons	sons	4	preview	3	97	212	0	0	0	0	212
80	88	with	with	with	4	preview	3	98	271	0	0	0	0	271
81	89	the	the	the	4	preview	3	99	0	0	0	0	0	0
82	90	@entity19	British	British	4	preview	3	100	188	188	188	188	188	0
83	91	author	author	author,	4	preview	3	101	226	95	2029	95	226	131
	92	,	,		4	preview	3	102						
84	93	is	is	is	4	preview	3	103	157	0	1934	0	0	157
85	94	an	an	an	4	preview	3	104	189	189	346	189	189	0
86	95	author	author	author	4	preview	3	105	0	0	0	0	0	0
87	96	himself	himself	himself,	4	preview	3	106	266	266	266	266	266	0
	97	,	,		4	preview	3	107						
88	98	in	in	in	4	preview	3	108	0	0	0	0	0	0
89	99	addition	addition	addition	4	preview	3	109	241	241	241	241	241	0
90	100	to	to	to	4	preview	3	110	0	0	0	0	0	0
91	101	being	being	being	4	preview	3	111	152	152	152	152	152	0
92	102	a	a	a	4	preview	3	112	0	0	0	0	0	0
93	103	screenwriter	screenwriter	screenwriter.	4	preview	3	113	150	150	150	150	150	0
	104	.	.		4	preview	3	114						
94	105	@entity12	James	James,	4	preview	3	115	192	192	192	192	192	0
	106	,	,		4	preview	3	116						
95	107	whose	whose	whose	4	preview	3	117	0	0	0	0	0	0
96	108	real	real	real	4	preview	3	118	0	0	0	0	0	0
97	109	name	name	name	4	preview	3	119	0	0	0	0	0	0
98	110	is	is	is	4	preview	3	120	251	251	251	251	251	0
99	111	@entity12	Erika	Erika	4	preview	3	121	0	0	0	0	0	0
100			Leonard	Leonard,	4	preview	3	122	188	0	0	0	0	188
	112	,	,		4	preview	3	123						
101	113	has	has	has	4	preview	3	124	151	151	339	151	151	0
102	114	been	been	been	4	preview	3	125	318	0	0	0	0	318
103	115	credited	credited	credited	4	preview	3	126	673	236	554	236	449	437
104	116	with	with	with	4	preview	3	127	0	0	0	0	0	0
105	117	keeping	keeping	keeping	4	preview	3	128	842	181	1279	181	842	661
106	118	a	a	a	4	preview	3	129	0	0	0	0	0	0
107	119	strong	strong	strong	4	preview	3	130	197	197	197	197	197	0
108	120	amount	amount	amount	4	preview	3	131	296	155	155	155	155	141
109	121	of	of	of	4	preview	3	132	0	0	0	0	0	0
110	122	creative	creative	creative	4	preview	3	133	0	0	0	0	0	0
111	123	control	control	control	4	preview	3	134	174	0	0	0	0	174
112	124	when	when	when	4	preview	3	135	128	128	128	128	128	0
113	125	it	it	it	4	preview	3	136	0	0	0	0	0	0
114	126	comes	comes	comes	4	preview	3	137	401	0	0	0	0	401
115	127	to	to	to	4	preview	3	138	316	316	717	316	316	0
116	128	@entity4	Universal	Universal-s	4	preview	3	139	216	216	216	216	216	0
	129	-s	-s		4	preview	3	140						
117	130	adaptations	adaptations	adaptations	4	preview	3	141	206	206	521	206	206	0
118	131	of	of	of	4	preview	3	142	0	0	0	0	0	0
119	132	her	her	her	4	preview	3	143	0	0	0	0	0	0
120	133	books	books	books,	4	preview	3	144	0	0	315	0	0	0
	134	,	,		4	preview	3	145						
121	135	the	the	the	4	preview	3	146	212	0	0	0	0	212
122	136	second	second	second	4	preview	3	147	0	0	0	0	0	0
123	137	of	of	of	4	preview	3	148	0	0	0	0	0	0
124	138	which	which	which	4	preview	3	149	152	0	0	0	0	152
125	139	is	is	is	4	preview	3	150	241	0	0	0	0	241
126	140	titled	titled	titled	4	preview	3	151	88	88	88	88	88	0
127	141	-	-	-Fifty	4	preview	3	152	0	0	0	0	0	0
	142	@entity32	Fifty		4	preview	3	153						
128			Shades	Shades	4	preview	3	154	223	0	0	0	0	223
129			Darker	Darker.-	4	preview	3	155	157	157	380	157	157	0
	143	.	.		4	preview	3	156						
130	144	-	-	After	4	preview	3	157	88	88	693	88	88	0
	145	After	After		4	preview	3	158						
131	146	clashing	clashing	clashing	4	preview	3	159	438	438	438	438	438	0
132	147	with	with	with	4	preview	3	160	0	0	0	0	0	0
133	148	@entity12	James	James,	4	preview	3	161	216	216	216	216	216	0
	149	,	,		4	preview	3	162						
134	150	@entity33	Sam	Sam	4	preview	3	163	239	0	0	0	0	239
135			Taylor	Taylor-Johnson	4	preview	3	164	139	0	0	0	0	139
			-		4	preview	3	165						
			Johnson		4	preview	3	166						
136	151	is	is	isn-t	4	preview	3	167	162	0	0	0	0	162
	152	n-t	n-t		4	preview	3	168						
137	153	returning	returning	returning	4	preview	3	169	0	0	0	0	0	0
138	154	to	to	to	4	preview	3	170	83	0	0	0	0	83
139	155	direct	direct	direct	4	preview	3	171	0	0	0	0	0	0
140	156	the	the	the	4	preview	3	172	0	0	0	0	0	0
141	157	sequel	sequel	sequel.	4	preview	3	173	0	0	0	0	0	0
	158	.	.		4	preview	3	174						
142	159	Stars	Stars	Stars	4	preview	3	175	418	0	0	0	0	418
143	160	@entity35	Dakota	Dakota	4	preview	3	176	198	198	1239	198	198	0
144			Johnson	Johnson	4	preview	3	177	0	0	0	0	0	0
145	161	and	and	and	4	preview	3	178	0	0	0	0	0	0
146	162	@entity36	Jamie	Jamie	4	preview	3	179	0	0	0	0	0	0
147			Dornan	Dornan	4	preview	3	180	0	0	0	0	0	0
148	163	are	are	are	4	preview	3	181	0	0	0	0	0	0
149	164	negotiating	negotiating	negotiating	4	preview	3	182	0	0	0	0	0	0
150	165	for	for	for	4	preview	3	183	0	0	0	0	0	0
151	166	more	more	more	4	preview	3	184	0	0	0	0	0	0
152	167	money	money	money	4	preview	3	185	0	0	0	0	0	0
153	168	for	for	for	4	preview	3	186	0	0	0	0	0	0
154	169	the	the	the	4	preview	3	187	144	144	144	144	144	0
155	170	sequel	sequel	sequel	4	preview	3	188	0	0	0	0	0	0
156	171	after	after	after	4	preview	3	189	0	0	0	0	0	0
157	172	the	the	the	4	preview	3	190	0	0	0	0	0	0
158	173	first	first	first	4	preview	3	191	0	0	0	0	0	0
159	174	film	film	film,	4	preview	3	192	0	0	0	0	0	0
	175	,	,		4	preview	3	193						
160	176	release	release	release	4	preview	3	194	153	153	153	153	153	0
161	177	over	over	over	4	preview	3	195	210	210	210	210	210	0
162	178	@entity40	Valentine	Valentine-s	4	preview	3	196	153	153	153	153	153	0
			-s		4	preview	3	197						
163			Day	Day	4	preview	3	198	0	0	0	0	0	0
164	179	weekend	weekend	weekend	4	preview	3	199	88	88	88	88	88	0
165	180	of	of	of	4	preview	3	200	0	0	0	0	0	0
166	181	this	this	this	4	preview	3	201	0	0	0	0	0	0
167	182	year	year	year,	4	preview	3	202	0	0	0	0	0	0
	183	,	,		4	preview	3	203						
168	184	earned	earned	earned	4	preview	3	204	198	198	198	198	198	0
169	185	a	a	a	4	preview	3	205	0	0	0	0	0	0
170	186	massive	massive	massive	4	preview	3	206	0	0	0	0	0	0
171	187	$	$	$568.8	4	preview	3	207	502	502	502	233	502	0
	188	568.8	568.8		4	preview	3	208						
172	189	million	million	million	4	preview	3	209	0	0	0	0	0	0
173	190	worldwide	worldwide	worldwide.	4	preview	3	210	0	0	0	0	0	0
	191	.	.		4	preview	3	211						
