HumanPosition	AnonymizedPosition	AnonymizedToken	OriginalToken	ExperimentToken	Participant	Condition	TextNo	JointPosition	tt	fp	rp	ff
1	0	A	A	A	4	nopreview	17	1	0	0	0	0
2	1	boxing	boxing	boxing	4	nopreview	17	2	155	0	0	0
3	2	fight	fight	fight	4	nopreview	17	3	720	0	0	0
4	3	had	had	had	4	nopreview	17	4	171	0	0	0
5	4	to	to	to	4	nopreview	17	5	325	177	177	177
6	5	be	be	be	4	nopreview	17	6	0	0	0	0
7	6	halted	halted	halted	4	nopreview	17	7	614	193	516	193
8	7	after	after	after	4	nopreview	17	8	336	0	0	0
9	8	a	a	a	4	nopreview	17	9	551	282	282	282
10	9	fighter	fighter	fighter-s	4	nopreview	17	10	610	0	0	0
	10	-s	-s		4	nopreview	17	11				
11	11	cell	cell	cell	4	nopreview	17	12	320	125	262	125
12	12	phone	phone	phone	4	nopreview	17	13	579	103	103	103
13	13	fell	fell	fell	4	nopreview	17	14	101	0	0	0
14	14	out	out	out	4	nopreview	17	15	352	176	176	176
15	15	of	of	of	4	nopreview	17	16	447	0	0	0
16	16	his	his	his	4	nopreview	17	17	385	238	2404	238
17	17	trunks	trunks	trunks.	4	nopreview	17	18	167	167	1913	167
	18	.	.		4	nopreview	17	19				
18	19	@entity4	Marvin	Marvin	4	nopreview	17	20	536	188	188	188
19			-	-Papi	4	nopreview	17	21	727	0	0	0
			Papi		4	nopreview	17	22				
20			Gallo	Gallo-	4	nopreview	17	23	259	0	0	0
			-		4	nopreview	17	24				
21			Jones	Jones	4	nopreview	17	25	704	233	233	233
22	20	and	and	and	4	nopreview	17	26	354	0	0	0
23	21	@entity5	Ramon	Ramon	4	nopreview	17	27	581	0	0	0
24			Luis	Luis	4	nopreview	17	28	527	172	172	172
25			Nicolas	Nicolas	4	nopreview	17	29	210	0	0	0
26	22	were	were	were	4	nopreview	17	30	577	158	158	158
27	23	in	in	in	4	nopreview	17	31	0	0	0	0
28	24	the	the	the	4	nopreview	17	32	250	250	250	250
29	25	middle	middle	middle	4	nopreview	17	33	389	0	0	0
30	26	of	of	of	4	nopreview	17	34	392	144	144	144
31	27	a	a	a	4	nopreview	17	35	0	0	0	0
32	28	bout	bout	bout	4	nopreview	17	36	0	0	0	0
33	29	when	when	when	4	nopreview	17	37	447	447	447	320
34	30	the	the	the	4	nopreview	17	38	0	0	0	0
35	31	black	black	black	4	nopreview	17	39	141	141	141	141
36	32	phone	phone	phone	4	nopreview	17	40	0	0	0	0
37	33	slipped	slipped	slipped	4	nopreview	17	41	261	261	261	261
38	34	out	out	out	4	nopreview	17	42	0	0	0	0
39	35	from	from	from	4	nopreview	17	43	226	0	0	0
40	36	@entity4	Jones	Jones-	4	nopreview	17	44	427	207	207	207
	37	-	-		4	nopreview	17	45				
41	38	black	black	black	4	nopreview	17	46	491	176	176	176
42	39	and	and	and	4	nopreview	17	47	0	0	0	0
43	40	red	red	red	4	nopreview	17	48	0	0	0	0
44	41	shorts	shorts	shorts	4	nopreview	17	49	102	102	102	102
45	42	at	at	at	4	nopreview	17	50	0	0	0	0
46	43	the	the	the	4	nopreview	17	51	0	0	0	0
47	44	ring	ring	ring	4	nopreview	17	52	529	237	237	237
48	45	in	in	in	4	nopreview	17	53	0	0	0	0
49	46	@entity11	Arcadia	Arcadia,	4	nopreview	17	54	478	221	1027	221
	47	,	,		4	nopreview	17	55				
50	48	@entity12	Florida	Florida.	4	nopreview	17	56	201	201	201	201
	49	.	.		4	nopreview	17	57				
51	50	Referee	Referee	Referee	4	nopreview	17	58	228	0	0	0
52	51	@entity13	Frankie	Frankie	4	nopreview	17	59	564	173	173	173
53			Santore	Santore	4	nopreview	17	60	100	100	100	100
54			Jr.	Jr.	4	nopreview	17	61	135	0	0	0
55	52	went	went	went	4	nopreview	17	62	288	288	288	288
56	53	over	over	over	4	nopreview	17	63	0	0	0	0
57	54	to	to	to	4	nopreview	17	64	0	0	0	0
58	55	pick	pick	pick	4	nopreview	17	65	163	163	163	163
59	56	up	up	up	4	nopreview	17	66	0	0	0	0
60	57	the	the	the	4	nopreview	17	67	0	0	0	0
61	58	@entity14	Samsung	Samsung	4	nopreview	17	68	338	199	199	199
62			Galaxy	Galaxy	4	nopreview	17	69	146	0	0	0
63	59	and	and	and	4	nopreview	17	70	249	249	249	249
64	60	looked	looked	looked	4	nopreview	17	71	543	268	268	268
65	61	like	like	like	4	nopreview	17	72	133	0	0	0
66	62	he	he	he	4	nopreview	17	73	823	0	0	0
67	63	was	was	was	4	nopreview	17	74	0	0	0	0
68	64	chastising	chastising	chastising	4	nopreview	17	75	677	168	1908	168
69	65	@entity4	Jones	Jones,	4	nopreview	17	76	233	233	233	233
	66	,	,		4	nopreview	17	77				
70	67	who	who	who	4	nopreview	17	78	0	0	0	0
71	68	seemed	seemed	seemed	4	nopreview	17	79	243	243	243	243
72	69	confused	confused	confused.	4	nopreview	17	80	245	245	245	245
	70	.	.		4	nopreview	17	81				
73	71	Scroll	Scroll	Jones,	4	nopreview	17	82	282	282	282	282
	72	down	down		4	nopreview	17	83				
	73	for	for		4	nopreview	17	84				
	74	video	video		4	nopreview	17	85				
	75	@entity4	Marvin		4	nopreview	17	86				
			-		4	nopreview	17	87				
			Papi		4	nopreview	17	88				
			Gallo		4	nopreview	17	89				
			-		4	nopreview	17	90				
			Jones		4	nopreview	17	91				
	76	(	(		4	nopreview	17	92				
74	77	right	right	32,	4	nopreview	17	93	0	0	0	0
	78	)	)		4	nopreview	17	94				
	79	and	and		4	nopreview	17	95				
75	80	@entity5	Ramon	held	4	nopreview	17	96	167	167	167	167
			Luis		4	nopreview	17	97				
			Nicolas		4	nopreview	17	98				
	81	(	(		4	nopreview	17	99				
	82	left	left		4	nopreview	17	100				
76	83	)	)	his	4	nopreview	17	101	286	286	286	286
77	84	were	were	hands	4	nopreview	17	102	107	107	107	107
	85	in	in		4	nopreview	17	103				
	86	the	the		4	nopreview	17	104				
	87	middle	middle		4	nopreview	17	105				
	88	of	of		4	nopreview	17	106				
	89	a	a		4	nopreview	17	107				
	90	bout	bout		4	nopreview	17	108				
	91	when	when		4	nopreview	17	109				
	92	the	the		4	nopreview	17	110				
	93	black	black		4	nopreview	17	111				
	94	phone	phone		4	nopreview	17	112				
	95	slipped	slipped		4	nopreview	17	113				
	96	out	out		4	nopreview	17	114				
	97	from	from		4	nopreview	17	115				
	98	@entity4	Jones		4	nopreview	17	116				
78	99	-	-	up	4	nopreview	17	117	0	0	0	0
79	100	black	black	as	4	nopreview	17	118	156	156	156	156
	101	and	and		4	nopreview	17	119				
80	102	red	red	the	4	nopreview	17	120	0	0	0	0
81	103	shorts	shorts	referee	4	nopreview	17	121	0	0	0	0
	104	at	at		4	nopreview	17	122				
	105	the	the		4	nopreview	17	123				
	106	ring	ring		4	nopreview	17	124				
	107	in	in		4	nopreview	17	125				
	108	@entity11	Arcadia		4	nopreview	17	126				
	109	,	,		4	nopreview	17	127				
	110	@entity12	Florida		4	nopreview	17	128				
	111	@entity4	Jones		4	nopreview	17	129				
	112	,	,		4	nopreview	17	130				
	113	32	32		4	nopreview	17	131				
	114	,	,		4	nopreview	17	132				
	115	held	held		4	nopreview	17	133				
	116	his	his		4	nopreview	17	134				
	117	hands	hands		4	nopreview	17	135				
	118	up	up		4	nopreview	17	136				
	119	as	as		4	nopreview	17	137				
	120	the	the		4	nopreview	17	138				
	121	referee	referee		4	nopreview	17	139				
82	122	took	took	took	4	nopreview	17	140	230	230	230	230
83	123	the	the	the	4	nopreview	17	141	0	0	0	0
84	124	phone	phone	phone	4	nopreview	17	142	219	219	219	219
85	125	over	over	over	4	nopreview	17	143	0	0	0	0
86	126	to	to	to	4	nopreview	17	144	0	0	0	0
87	127	the	the	the	4	nopreview	17	145	199	199	199	199
88	128	side	side	side	4	nopreview	17	146	0	0	199	0
89	129	of	of	of	4	nopreview	17	147	0	0	0	0
90	130	the	the	the	4	nopreview	17	148	0	0	0	0
91	131	ring	ring	ring.	4	nopreview	17	149	0	0	0	0
	132	.	.		4	nopreview	17	150				
92	133	The	The	The	4	nopreview	17	151	0	0	0	0
93	134	audience	audience	audience	4	nopreview	17	152	270	270	270	270
94	135	and	and	and	4	nopreview	17	153	138	138	138	138
95	136	viewers	viewers	viewers	4	nopreview	17	154	184	184	184	184
96	137	were	were	were	4	nopreview	17	155	0	0	0	0
97	138	baffled	baffled	baffled	4	nopreview	17	156	156	156	156	156
98	139	as	as	as	4	nopreview	17	157	0	0	0	0
99	140	to	to	to	4	nopreview	17	158	133	0	0	0
100	141	why	why	why	4	nopreview	17	159	163	163	296	163
101	142	@entity4	Jones	Jones	4	nopreview	17	160	0	0	0	0
102	143	had	had	had	4	nopreview	17	161	0	0	0	0
103	144	his	his	his	4	nopreview	17	162	114	114	114	114
104	145	phone	phone	phone	4	nopreview	17	163	162	162	162	162
105	146	in	in	in	4	nopreview	17	164	0	0	0	0
106	147	his	his	his	4	nopreview	17	165	0	0	0	0
107	148	shorts	shorts	shorts.	4	nopreview	17	166	121	121	121	121
	149	.	.		4	nopreview	17	167				
108	150	But	But	But	4	nopreview	17	168	0	0	0	0
109	151	@entity4	Jones	Jones	4	nopreview	17	169	298	298	298	298
110	152	later	later	later	4	nopreview	17	170	115	115	115	115
111	153	told	told	told	4	nopreview	17	171	0	0	0	0
112	154	@entity26	TMZ	TMZ	4	nopreview	17	172	240	240	240	240
113			Sports	Sports	4	nopreview	17	173	167	167	167	167
114	155	that	that	that	4	nopreview	17	174	0	0	0	0
115	156	he	he	he	4	nopreview	17	175	0	0	0	0
116	157	was	was	was	4	nopreview	17	176	184	184	184	184
117	158	listening	listening	listening	4	nopreview	17	177	149	149	149	149
118	159	to	to	to	4	nopreview	17	178	0	0	0	0
119	160	music	music	music	4	nopreview	17	179	0	0	0	0
120	161	before	before	before	4	nopreview	17	180	207	207	207	207
121	162	the	the	the	4	nopreview	17	181	0	0	0	0
122	163	fight	fight	fight	4	nopreview	17	182	214	214	214	214
123	164	on	on	on	4	nopreview	17	183	0	0	0	0
124	165	Friday	Friday	Friday	4	nopreview	17	184	0	0	0	0
125	166	and	and	and	4	nopreview	17	185	0	0	0	0
126	167	put	put	put	4	nopreview	17	186	143	143	143	143
127	168	his	his	his	4	nopreview	17	187	117	117	117	117
128	169	phone	phone	phone	4	nopreview	17	188	159	159	159	159
129	170	in	in	in	4	nopreview	17	189	119	0	0	0
130	171	his	his	his	4	nopreview	17	190	0	0	0	0
131	172	shorts	shorts	shorts.	4	nopreview	17	191	119	119	238	119
	173	.	.		4	nopreview	17	192				
132	174	When	When	When	4	nopreview	17	193	212	212	212	212
133	175	he	he	he	4	nopreview	17	194	0	0	0	0
134	176	got	got	got	4	nopreview	17	195	193	193	193	193
135	177	to	to	to	4	nopreview	17	196	375	0	0	0
136	178	the	the	the	4	nopreview	17	197	0	0	0	0
137	179	ring	ring	ring,	4	nopreview	17	198	186	186	561	186
	180	,	,		4	nopreview	17	199				
138	181	he	he	he	4	nopreview	17	200	0	0	0	0
139	182	pulled	pulled	pulled	4	nopreview	17	201	333	333	333	333
140	183	out	out	out	4	nopreview	17	202	0	0	0	0
141	184	his	his	his	4	nopreview	17	203	318	0	0	0
142	185	headphones	headphones	headphones,	4	nopreview	17	204	193	193	511	193
	186	,	,		4	nopreview	17	205				
143	187	but	but	but	4	nopreview	17	206	209	209	209	209
144	188	missed	missed	missed	4	nopreview	17	207	157	157	157	157
145	189	his	his	his	4	nopreview	17	208	0	0	0	0
146	190	phone	phone	phone.	4	nopreview	17	209	149	149	149	149
	191	.	.		4	nopreview	17	210				
147	192	@entity4	Jones	Jones	4	nopreview	17	211	0	0	0	0
148	193	believes	believes	believes	4	nopreview	17	212	256	256	256	130
149	194	the	the	the	4	nopreview	17	213	0	0	0	0
150	195	mishap	mishap	mishap	4	nopreview	17	214	366	366	366	366
151	196	cost	cost	cost	4	nopreview	17	215	0	0	0	0
152	197	him	him	him	4	nopreview	17	216	338	338	338	338
153	198	the	the	the	4	nopreview	17	217	0	0	0	0
154	199	fight	fight	fight	4	nopreview	17	218	218	218	218	218
155	200	as	as	as	4	nopreview	17	219	0	0	0	0
156	201	he	he	he	4	nopreview	17	220	0	0	0	0
157	202	kept	kept	kept	4	nopreview	17	221	409	167	167	167
158	203	thinking	thinking	thinking,	4	nopreview	17	222	202	202	444	202
	204	,	,		4	nopreview	17	223				
159	205	-	-	-Man,	4	nopreview	17	224	160	0	0	0
	206	Man	Man		4	nopreview	17	225				
	207	,	,		4	nopreview	17	226				
160	208	my	my	my	4	nopreview	17	227	161	161	321	161
161	209	cell	cell	cell	4	nopreview	17	228	0	0	0	0
162	210	phone	phone	phone	4	nopreview	17	229	138	138	138	138
163	211	just	just	just	4	nopreview	17	230	0	0	0	0
164	212	fell	fell	fell	4	nopreview	17	231	219	219	219	219
165	213	out	out	out	4	nopreview	17	232	0	0	0	0
166	214	in	in	in	4	nopreview	17	233	127	127	127	127
167	215	the	the	the	4	nopreview	17	234	0	0	0	0
168	216	ring	ring	ring	4	nopreview	17	235	0	0	0	0
169	217	–	–	-	4	nopreview	17	236	150	150	150	150
170	218	and	and	and	4	nopreview	17	237	0	0	0	0
171	219	on	on	on	4	nopreview	17	238	352	0	0	0
172	220	TV	TV	TV!-	4	nopreview	17	239	150	150	502	150
	221	!	!		4	nopreview	17	240				
	222	-	-		4	nopreview	17	241				
173	223	He	He	He	4	nopreview	17	242	0	0	0	0
174	224	has	has	has	4	nopreview	17	243	237	237	237	237
175	225	decided	decided	decided	4	nopreview	17	244	395	395	395	395
176	226	that	that	that	4	nopreview	17	245	391	391	6295	391
177	227	for	for	for	4	nopreview	17	246	0	0	0	0
178	228	his	his	his	4	nopreview	17	247	0	0	0	0
179	229	next	next	next	4	nopreview	17	248	0	0	0	0
180	230	fight	fight	fight	4	nopreview	17	249	0	0	0	0
181	231	he	he	he	4	nopreview	17	250	0	0	0	0
182	232	will	will	will	4	nopreview	17	251	0	0	0	0
183	233	make	make	make	4	nopreview	17	252	0	0	0	0
184	234	sure	sure	sure	4	nopreview	17	253	0	0	0	0
185	235	someone	someone	someone	4	nopreview	17	254	0	0	0	0
186	236	pats	pats	pats	4	nopreview	17	255	0	0	0	0
187	237	him	him	him	4	nopreview	17	256	0	0	0	0
188	238	down	down	down.	4	nopreview	17	257	0	0	0	0
	239	.	.		4	nopreview	17	258				
