HumanPosition	AnonymizedPosition	AnonymizedToken	OriginalToken	ExperimentToken	Participant	Condition	TextNo	JointPosition	tt	fp	rp	ff
1	0	(	(	The	4	nopreview	6	1	0	0	0	0
2	1	@entity0	CNN	underwater	4	nopreview	6	2	437	0	0	0
	2	)	)		4	nopreview	6	3				
	3	The	The		4	nopreview	6	4				
	4	underwater	underwater		4	nopreview	6	5				
3	5	search	search	search	4	nopreview	6	6	232	114	551	114
4	6	area	area	area	4	nopreview	6	7	191	191	309	191
5	7	for	for	for	4	nopreview	6	8	105	0	118	0
6	8	missing	missing	missing	4	nopreview	6	9	252	0	0	0
7	9	@entity2	Malaysia	Malaysia	4	nopreview	6	10	477	134	491	134
8			Airlines	Airlines	4	nopreview	6	11	414	177	286	177
9			Flight	Flight	4	nopreview	6	12	159	159	159	159
10			370	370	4	nopreview	6	13	0	0	0	0
11	10	looks	looks	looks	4	nopreview	6	14	0	0	0	0
12	11	set	set	set	4	nopreview	6	15	0	0	0	0
13	12	to	to	to	4	nopreview	6	16	0	0	0	0
14	13	double	double	double	4	nopreview	6	17	267	0	0	0
15	14	in	in	in	4	nopreview	6	18	0	0	0	0
16	15	size	size	size.	4	nopreview	6	19	150	150	417	150
	16	.	.		4	nopreview	6	20				
17	17	Teams	Teams	Teams	4	nopreview	6	21	201	201	201	201
18	18	are	are	are	4	nopreview	6	22	163	163	163	163
19	19	scouring	scouring	scouring	4	nopreview	6	23	119	119	119	119
20	20	the	the	the	4	nopreview	6	24	0	0	0	0
21	21	depths	depths	depths	4	nopreview	6	25	284	284	284	284
22	22	of	of	of	4	nopreview	6	26	0	0	0	0
23	23	a	a	a	4	nopreview	6	27	0	0	0	0
24	24	remote	remote	remote	4	nopreview	6	28	374	374	374	374
25	25	part	part	part	4	nopreview	6	29	0	0	0	0
26	26	of	of	of	4	nopreview	6	30	212	212	212	212
27	27	the	the	the	4	nopreview	6	31	0	0	0	0
28	28	southern	southern	southern	4	nopreview	6	32	0	0	0	0
29	29	@entity7	Indian	Indian	4	nopreview	6	33	0	0	0	0
30			Ocean	Ocean	4	nopreview	6	34	0	0	0	0
31	30	for	for	for	4	nopreview	6	35	216	0	0	0
32	31	the	the	the	4	nopreview	6	36	0	0	0	0
33	32	remains	remains	remains	4	nopreview	6	37	449	0	0	0
34	33	of	of	of	4	nopreview	6	38	0	0	0	0
35	34	the	the	the	4	nopreview	6	39	0	0	0	0
36	35	passenger	passenger	passenger	4	nopreview	6	40	216	0	0	0
37	36	jet	jet	jet	4	nopreview	6	41	0	0	0	0
38	37	that	that	that	4	nopreview	6	42	223	0	0	0
39	38	disappeared	disappeared	disappeared	4	nopreview	6	43	249	0	0	0
40	39	more	more	more	4	nopreview	6	44	0	0	0	0
41	40	than	than	than	4	nopreview	6	45	181	0	0	0
42	41	a	a	a	4	nopreview	6	46	0	0	0	0
43	42	year	year	year	4	nopreview	6	47	0	0	0	0
44	43	ago	ago	ago	4	nopreview	6	48	358	158	1710	158
45	44	with	with	with	4	nopreview	6	49	0	0	0	0
46	45	239	239	239	4	nopreview	6	50	0	0	0	0
47	46	people	people	people	4	nopreview	6	51	331	0	0	0
48	47	on	on	on	4	nopreview	6	52	241	0	0	0
49	48	board	board	board.	4	nopreview	6	53	361	0	0	0
	49	.	.		4	nopreview	6	54				
50	50	So	So	So	4	nopreview	6	55	145	0	0	0
51	51	far	far	far,	4	nopreview	6	56	297	0	0	0
	52	,	,		4	nopreview	6	57				
52	53	they	they	they-ve	4	nopreview	6	58	678	0	0	0
	54	-ve	-ve		4	nopreview	6	59				
53	55	covered	covered	covered	4	nopreview	6	60	640	0	0	0
54	56	about	about	about	4	nopreview	6	61	93	0	0	0
55	57	60	60	60%	4	nopreview	6	62	761	0	0	0
	58	%	%		4	nopreview	6	63				
56	59	of	of	of	4	nopreview	6	64	356	0	0	0
57	60	the	the	the	4	nopreview	6	65	186	0	0	0
58	61	priority	priority	priority	4	nopreview	6	66	272	0	0	0
59	62	search	search	search	4	nopreview	6	67	573	0	0	0
60	63	zone	zone	zone	4	nopreview	6	68	289	199	4576	199
61	64	without	without	without	4	nopreview	6	69	179	179	179	179
62	65	reporting	reporting	reporting	4	nopreview	6	70	0	0	0	0
63	66	any	any	any	4	nopreview	6	71	360	0	0	0
64	67	trace	trace	trace	4	nopreview	6	72	175	175	348	175
65	68	of	of	of	4	nopreview	6	73	423	155	155	155
66	69	the	the	the	4	nopreview	6	74	0	0	0	0
67	70	airliner	airliner	airliner.	4	nopreview	6	75	92	92	360	92
	71	.	.		4	nopreview	6	76				
68	72	Families	Families	Families	4	nopreview	6	77	361	361	361	361
69	73	of	of	of	4	nopreview	6	78	0	0	0	0
70	74	passengers	passengers	passengers	4	nopreview	6	79	565	565	565	241
71	75	and	and	and	4	nopreview	6	80	0	0	0	0
72	76	crew	crew	crew	4	nopreview	6	81	0	0	0	0
73	77	members	members	members	4	nopreview	6	82	349	349	349	218
74	78	still	still	still	4	nopreview	6	83	207	207	207	207
75	79	have	have	have	4	nopreview	6	84	0	0	0	0
76	80	no	no	no	4	nopreview	6	85	111	0	0	0
77	81	answers	answers	answers	4	nopreview	6	86	384	100	495	100
78	82	about	about	about	4	nopreview	6	87	0	0	0	0
79	83	what	what	what	4	nopreview	6	88	242	242	242	159
80	84	happened	happened	happened	4	nopreview	6	89	163	163	163	163
81	85	to	to	to	4	nopreview	6	90	0	0	0	0
82	86	their	their	their	4	nopreview	6	91	334	334	334	334
83	87	loved	loved	loved	4	nopreview	6	92	0	0	0	0
84	88	ones	ones	ones.	4	nopreview	6	93	185	185	185	185
	89	.	.		4	nopreview	6	94				
85	90	If	If	If	4	nopreview	6	95	0	0	0	0
86	91	the	the	the	4	nopreview	6	96	106	0	0	0
87	92	searchers	searchers	searchers	4	nopreview	6	97	428	218	534	218
88	93	have	have	haven-t	4	nopreview	6	98	147	147	147	147
	94	n-t	n-t		4	nopreview	6	99				
89	95	found	found	found	4	nopreview	6	100	0	0	0	0
90	96	anything	anything	anything	4	nopreview	6	101	228	228	228	228
91	97	by	by	by	4	nopreview	6	102	0	0	0	0
92	98	the	the	the	4	nopreview	6	103	161	161	161	161
93	99	time	time	time	4	nopreview	6	104	176	176	176	176
94	100	they	they	they-ve	4	nopreview	6	105	257	0	0	0
	101	-ve	-ve		4	nopreview	6	106				
95	102	covered	covered	covered	4	nopreview	6	107	426	117	117	117
96	103	the	the	the	4	nopreview	6	108	185	0	0	0
97	104	entire	entire	entire	4	nopreview	6	109	542	92	1036	92
98	105	60,000	60,000	60,000-square-kilometer	4	nopreview	6	110	674	674	674	259
	106	-	-		4	nopreview	6	111				
	107	square	square		4	nopreview	6	112				
	108	-	-		4	nopreview	6	113				
	109	kilometer	kilometer		4	nopreview	6	114				
99	110	priority	priority	priority	4	nopreview	6	115	194	194	194	194
100	111	zone	zone	zone,	4	nopreview	6	116	0	0	0	0
	112	,	,		4	nopreview	6	117				
101	113	the	the	the	4	nopreview	6	118	263	263	263	103
102	114	search	search	search	4	nopreview	6	119	0	0	0	0
103	115	will	will	will	4	nopreview	6	120	228	228	388	228
104	116	stretch	stretch	stretch	4	nopreview	6	121	281	281	281	281
105	117	into	into	into	4	nopreview	6	122	0	0	0	0
106	118	a	a	a	4	nopreview	6	123	0	0	0	0
107	119	new	new	new	4	nopreview	6	124	388	0	0	0
108	120	equally	equally	equally	4	nopreview	6	125	413	123	301	123
109	121	vast	vast	vast	4	nopreview	6	126	548	265	265	265
110	122	area	area	area,	4	nopreview	6	127	492	187	1137	187
	123	,	,		4	nopreview	6	128				
111	124	government	government	government	4	nopreview	6	129	879	879	879	879
112	125	officials	officials	officials	4	nopreview	6	130	119	0	0	0
113	126	from	from	from	4	nopreview	6	131	223	0	0	0
114	127	@entity23	Malaysia	Malaysia,	4	nopreview	6	132	262	94	213	94
	128	,	,		4	nopreview	6	133				
115	129	@entity24	Australia	Australia	4	nopreview	6	134	431	218	218	132
116	130	and	and	and	4	nopreview	6	135	0	0	0	0
117	131	@entity25	China	China	4	nopreview	6	136	159	0	0	0
118	132	announced	announced	announced	4	nopreview	6	137	312	312	312	167
119	133	Thursday	Thursday	Thursday.	4	nopreview	6	138	92	0	0	0
	134	.	.		4	nopreview	6	139				
120	135	-	-	-Ministers	4	nopreview	6	140	138	0	0	0
	136	Ministers	Ministers		4	nopreview	6	141				
121	137	remain	remain	remain	4	nopreview	6	142	291	148	429	148
122	138	committed	committed	committed	4	nopreview	6	143	281	110	110	110
123	139	to	to	to	4	nopreview	6	144	145	145	316	145
124	140	bring	bring	bring	4	nopreview	6	145	225	225	541	225
125	141	closure	closure	closure	4	nopreview	6	146	186	186	186	186
126	142	and	and	and	4	nopreview	6	147	0	0	0	0
127	143	some	some	some	4	nopreview	6	148	195	0	0	0
128	144	peace	peace	peace	4	nopreview	6	149	110	110	305	110
129	145	to	to	to	4	nopreview	6	150	0	0	0	0
130	146	the	the	the	4	nopreview	6	151	0	0	0	0
131	147	families	families	families	4	nopreview	6	152	0	0	0	0
132	148	and	and	and	4	nopreview	6	153	201	201	201	201
133	149	loved	loved	loved	4	nopreview	6	154	0	0	0	0
134	150	ones	ones	ones	4	nopreview	6	155	0	0	0	0
135	151	of	of	of	4	nopreview	6	156	109	109	109	109
136	152	those	those	those	4	nopreview	6	157	0	0	0	0
137	153	on	on	on	4	nopreview	6	158	131	131	131	131
138	154	board	board	board	4	nopreview	6	159	168	168	168	168
139	155	@entity2	Malaysia	Malaysia	4	nopreview	6	160	0	0	0	0
140			Airlines	Airlines	4	nopreview	6	161	0	0	0	0
141			Flight	Flight	4	nopreview	6	162	0	0	0	0
142			MH370	MH370,-	4	nopreview	6	163	111	111	111	111
	156	,	,		4	nopreview	6	164				
	157	-	-		4	nopreview	6	165				
143	158	the	the	the	4	nopreview	6	166	127	0	0	0
144	159	three	three	three	4	nopreview	6	167	0	0	0	0
145	160	countries	countries	countries	4	nopreview	6	168	328	108	455	108
146	161	said	said	said	4	nopreview	6	169	0	0	0	0
147	162	in	in	in	4	nopreview	6	170	0	0	0	0
148	163	a	a	a	4	nopreview	6	171	540	154	154	154
149	164	joint	joint	joint	4	nopreview	6	172	264	264	3387	264
150	165	statement	statement	statement.	4	nopreview	6	173	0	0	0	0
	166	.	.		4	nopreview	6	174				
151	167	The	The	The	4	nopreview	6	175	0	0	0	0
152	168	search	search	search	4	nopreview	6	176	0	0	0	0
153	169	of	of	of	4	nopreview	6	177	113	113	113	113
154	170	the	the	the	4	nopreview	6	178	0	0	0	0
155	171	current	current	current	4	nopreview	6	179	243	243	243	243
156	172	priority	priority	priority	4	nopreview	6	180	164	0	0	0
157	173	zone	zone	zone	4	nopreview	6	181	222	222	386	222
158	174	is	is	is	4	nopreview	6	182	0	0	0	0
159	175	expected	expected	expected	4	nopreview	6	183	235	235	399	235
160	176	to	to	to	4	nopreview	6	184	0	0	0	0
161	177	be	be	be	4	nopreview	6	185	0	0	0	0
162	178	completed	completed	completed	4	nopreview	6	186	392	228	228	228
163	179	in	in	in	4	nopreview	6	187	0	0	0	0
164	180	May	May	May.	4	nopreview	6	188	187	187	351	187
	181	.	.		4	nopreview	6	189				
165	182	Covering	Covering	Covering	4	nopreview	6	190	193	193	193	193
166	183	the	the	the	4	nopreview	6	191	0	0	0	0
167	184	new	new	new	4	nopreview	6	192	332	332	332	246
168	185	zone	zone	zone	4	nopreview	6	193	0	0	0	0
169	186	could	could	could	4	nopreview	6	194	203	203	203	203
170	187	take	take	take	4	nopreview	6	195	0	0	0	0
171	188	as	as	as	4	nopreview	6	196	0	0	0	0
172	189	long	long	long	4	nopreview	6	197	148	0	0	0
173	190	as	as	as	4	nopreview	6	198	223	223	371	223
174	191	a	a	a	4	nopreview	6	199	0	0	0	0
175	192	year	year	year.	4	nopreview	6	200	154	154	154	154
	193	.	.		4	nopreview	6	201				
176	194	At	At	At	4	nopreview	6	202	0	0	0	0
177	195	that	that	that	4	nopreview	6	203	138	0	0	0
178	196	point	point	point,	4	nopreview	6	204	408	163	301	163
	197	,	,		4	nopreview	6	205				
179	198	-	-	-all	4	nopreview	6	206	88	88	333	88
	199	all	all		4	nopreview	6	207				
180	200	high	high	high	4	nopreview	6	208	452	316	316	316
181	201	probability	probability	probability	4	nopreview	6	209	646	463	782	300
182	202	search	search	search	4	nopreview	6	210	341	341	341	151
183	203	areas	areas	areas	4	nopreview	6	211	0	0	190	0
184	204	would	would	would	4	nopreview	6	212	157	157	157	157
185	205	have	have	have	4	nopreview	6	213	144	0	0	0
186	206	been	been	been	4	nopreview	6	214	0	0	0	0
187	207	covered	covered	covered,-	4	nopreview	6	215	119	119	263	119
	208	,	,		4	nopreview	6	216				
	209	-	-		4	nopreview	6	217				
188	210	the	the	the	4	nopreview	6	218	187	0	0	0
189	211	governments	governments	governments	4	nopreview	6	219	96	96	283	96
190	212	said	said	said	4	nopreview	6	220	0	0	0	0
191	213	Thursday	Thursday	Thursday.	4	nopreview	6	221	157	157	157	157
	214	.	.		4	nopreview	6	222				
192	215	The	The	The	4	nopreview	6	223	0	0	0	0
193	216	size	size	size	4	nopreview	6	224	173	0	0	0
194	217	of	of	of	4	nopreview	6	225	155	155	328	155
195	218	the	the	the	4	nopreview	6	226	265	265	265	265
196	219	doubled	doubled	doubled	4	nopreview	6	227	789	458	458	212
197	220	search	search	search	4	nopreview	6	228	142	142	473	142
198	221	area	area	area,	4	nopreview	6	229	245	245	964	245
	222	,	,		4	nopreview	6	230				
199	223	the	the	the	4	nopreview	6	231	0	0	0	0
200	224	equivalent	equivalent	equivalent	4	nopreview	6	232	284	284	284	284
201	225	of	of	of	4	nopreview	6	233	0	0	0	0
202	226	more	more	more	4	nopreview	6	234	295	295	295	295
203	227	than	than	than	4	nopreview	6	235	0	0	0	0
204	228	46,000	46,000	46,000	4	nopreview	6	236	434	434	434	434
205	229	square	square	square	4	nopreview	6	237	175	175	175	175
206	230	miles	miles	miles,	4	nopreview	6	238	0	0	0	0
	231	,	,		4	nopreview	6	239				
207	232	would	would	would	4	nopreview	6	240	0	0	0	0
208	233	be	be	be	4	nopreview	6	241	0	0	0	0
209	234	bigger	bigger	bigger	4	nopreview	6	242	0	0	0	0
210	235	than	than	than	4	nopreview	6	243	0	0	0	0
211	236	the	the	the	4	nopreview	6	244	310	211	211	211
212	237	@entity50	U.S.	U.S.	4	nopreview	6	245	0	0	0	0
213	238	state	state	state	4	nopreview	6	246	201	201	201	201
214	239	of	of	of	4	nopreview	6	247	0	0	0	0
215	240	@entity51	Pennsylvania	Pennsylvania.	4	nopreview	6	248	154	154	154	154
	241	.	.		4	nopreview	6	249				
216	242	Flight	Flight	Flight	4	nopreview	6	250	116	116	116	116
217	243	370	370	370	4	nopreview	6	251	174	174	290	174
218	244	vanished	vanished	vanished	4	nopreview	6	252	216	216	216	216
219	245	after	after	after	4	nopreview	6	253	0	0	0	0
220	246	taking	taking	taking	4	nopreview	6	254	301	301	301	301
221	247	off	off	off	4	nopreview	6	255	0	0	0	0
222	248	from	from	from	4	nopreview	6	256	265	0	0	0
223	249	@entity53	Kuala	Kuala	4	nopreview	6	257	298	298	662	298
224			Lumpur	Lumpur,	4	nopreview	6	258	251	0	0	0
	250	,	,		4	nopreview	6	259				
225	251	@entity23	Malaysia	Malaysia,	4	nopreview	6	260	131	131	131	131
	252	,	,		4	nopreview	6	261				
226	253	on	on	on	4	nopreview	6	262	0	0	0	0
227	254	March	March	March	4	nopreview	6	263	370	135	621	135
228	255	8	8	8,	4	nopreview	6	264	0	0	621	0
	256	,	,		4	nopreview	6	265				
229	257	2014	2014	2014,	4	nopreview	6	266	279	279	279	279
	258	,	,		4	nopreview	6	267				
230	259	bound	bound	bound	4	nopreview	6	268	335	0	0	0
231	260	for	for	for	4	nopreview	6	269	182	182	517	182
232	261	@entity54	Beijing	Beijing.	4	nopreview	6	270	0	0	0	0
	262	.	.		4	nopreview	6	271				
233	263	Officials	Officials	Officials	4	nopreview	6	272	185	185	185	185
234	264	are	are	are	4	nopreview	6	273	0	0	0	0
235	265	still	still	still	4	nopreview	6	274	428	428	428	428
236	266	trying	trying	trying	4	nopreview	6	275	224	224	224	224
237	267	to	to	to	4	nopreview	6	276	0	0	0	0
238	268	figure	figure	figure	4	nopreview	6	277	190	190	190	190
239	269	out	out	out	4	nopreview	6	278	0	0	0	0
240	270	why	why	why	4	nopreview	6	279	113	113	113	113
241	271	it	it	it	4	nopreview	6	280	177	0	0	0
242	272	veered	veered	veered	4	nopreview	6	281	150	150	327	150
243	273	dramatically	dramatically	dramatically	4	nopreview	6	282	334	334	334	168
244	274	off	off	off	4	nopreview	6	283	0	0	0	0
245	275	course	course	course	4	nopreview	6	284	242	242	242	242
246	276	over	over	over	4	nopreview	6	285	0	0	0	0
247	277	the	the	the	4	nopreview	6	286	118	118	118	118
248	278	sea	sea	sea	4	nopreview	6	287	0	0	0	0
249	279	between	between	between	4	nopreview	6	288	440	440	440	275
250	280	@entity23	Malaysia	Malaysia	4	nopreview	6	289	227	227	227	227
251	281	and	and	and	4	nopreview	6	290	88	88	88	88
252	282	@entity58	Vietnam	Vietnam	4	nopreview	6	291	115	115	115	115
253	283	and	and	and	4	nopreview	6	292	0	0	0	0
254	284	where	where	where	4	nopreview	6	293	415	152	152	152
255	285	exactly	exactly	exactly	4	nopreview	6	294	368	217	631	217
256	286	it	it	it	4	nopreview	6	295	0	0	0	0
257	287	ended	ended	ended	4	nopreview	6	296	271	271	271	166
258	288	up	up	up.	4	nopreview	6	297	0	0	0	0
	289	.	.		4	nopreview	6	298				
259	290	An	An	An	4	nopreview	6	299	0	0	0	0
260	291	international	international	international	4	nopreview	6	300	229	229	229	229
261	292	team	team	team	4	nopreview	6	301	0	0	0	0
262	293	of	of	of	4	nopreview	6	302	0	0	0	0
263	294	experts	experts	experts	4	nopreview	6	303	120	0	0	0
264	295	used	used	used	4	nopreview	6	304	148	148	148	148
265	296	satellite	satellite	satellite	4	nopreview	6	305	165	165	165	165
266	297	data	data	data	4	nopreview	6	306	215	215	215	215
267	298	to	to	to	4	nopreview	6	307	0	0	0	0
268	299	calculate	calculate	calculate	4	nopreview	6	308	356	356	571	356
269	300	that	that	that	4	nopreview	6	309	0	0	0	0
270	301	the	the	the	4	nopreview	6	310	0	0	0	0
271	302	plane	plane	plane	4	nopreview	6	311	296	296	296	212
272	303	eventually	eventually	eventually	4	nopreview	6	312	466	279	279	279
273	304	went	went	went	4	nopreview	6	313	112	112	419	112
274	305	down	down	down	4	nopreview	6	314	0	0	0	0
275	306	in	in	in	4	nopreview	6	315	0	0	0	0
276	307	the	the	the	4	nopreview	6	316	0	0	0	0
277	308	southern	southern	southern	4	nopreview	6	317	0	0	0	0
278	309	@entity7	Indian	Indian	4	nopreview	6	318	0	0	0	0
279			Ocean	Ocean,	4	nopreview	6	319	156	156	156	156
	310	,	,		4	nopreview	6	320				
280	311	far	far	far	4	nopreview	6	321	129	0	0	0
281	312	off	off	off	4	nopreview	6	322	221	0	0	0
282	313	the	the	the	4	nopreview	6	323	94	94	444	94
283	314	coast	coast	coast	4	nopreview	6	324	0	0	0	0
284	315	of	of	of	4	nopreview	6	325	0	0	0	0
285	316	@entity24	Western	Western	4	nopreview	6	326	255	255	255	255
286			Australia	Australia.	4	nopreview	6	327	0	0	0	0
	317	.	.		4	nopreview	6	328				
287	318	The	The	The	4	nopreview	6	329	149	149	149	149
288	319	people	people	people	4	nopreview	6	330	226	226	226	226
289	320	on	on	on	4	nopreview	6	331	0	0	0	0
290	321	board	board	board	4	nopreview	6	332	221	221	221	221
291	322	the	the	the	4	nopreview	6	333	0	0	0	0
292	323	@entity64	Boeing	Boeing	4	nopreview	6	334	138	138	138	138
293			777	777	4	nopreview	6	335	0	0	0	0
294	324	came	came	came	4	nopreview	6	336	0	0	0	0
295	325	from	from	from	4	nopreview	6	337	513	513	513	122
296	326	various	various	various	4	nopreview	6	338	0	0	391	0
297	327	nations	nations	nations,	4	nopreview	6	339	289	289	289	161
	328	,	,		4	nopreview	6	340				
298	329	but	but	but	4	nopreview	6	341	84	0	0	0
299	330	the	the	the	4	nopreview	6	342	400	170	254	170
300	331	majority	majority	majority	4	nopreview	6	343	0	0	0	0
301	332	were	were	were	4	nopreview	6	344	599	502	829	160
302	333	@entity25	Chinese	Chinese.	4	nopreview	6	345	0	0	0	0
	334	.	.		4	nopreview	6	346				
