HumanPosition	AnonymizedPosition	AnonymizedToken	OriginalToken	ExperimentToken	Participant	Condition	TextNo	JointPosition	tt	fp	rp	ff
0	0	@entity0	Alejandro	Alejandro	8	nopreview	12	1	1504	0	0	0
2			Valverde	Valverde	8	nopreview	12	2	3004	0	0	0
3	1	successfully	successfully	successfully	8	nopreview	12	3	341	0	0	0
4	2	defended	defended	defended	8	nopreview	12	4	0	0	0	0
5	3	his	his	his	8	nopreview	12	5	0	0	0	0
6	4	@entity2	Fleche	Fleche	8	nopreview	12	6	0	0	0	0
7			Wallonne	Wallonne	8	nopreview	12	7	0	0	0	0
8	5	title	title	title	8	nopreview	12	8	0	0	0	0
9	6	on	on	on	8	nopreview	12	9	0	0	0	0
10	7	Wednesday	Wednesday	Wednesday	8	nopreview	12	10	0	0	0	0
11	8	as	as	as	8	nopreview	12	11	0	0	0	0
12	9	@entity3	Chris	Chris	8	nopreview	12	12	833	0	0	0
13			Froome	Froome	8	nopreview	12	13	1477	0	0	0
14	10	finished	finished	finished	8	nopreview	12	14	410	0	0	0
15	11	back	back	back	8	nopreview	12	15	197	0	0	0
16	12	in	in	in	8	nopreview	12	16	0	0	0	0
17	13	123rd	123rd	123rd	8	nopreview	12	17	116	0	0	0
18	14	after	after	after	8	nopreview	12	18	293	0	0	0
19	15	a	a	a	8	nopreview	12	19	209	0	0	0
20	16	fall	fall	fall.	8	nopreview	12	20	1001	0	0	0
	17	.	.		8	nopreview	12	21				
21	18	@entity4	Movistar	Movistar	8	nopreview	12	22	957	0	0	0
22	19	rider	rider	rider	8	nopreview	12	23	163	0	0	0
23	20	@entity0	Valverde	Valverde	8	nopreview	12	24	699	0	0	0
24	21	sprinted	sprinted	sprinted	8	nopreview	12	25	515	0	0	0
25	22	to	to	to	8	nopreview	12	26	0	0	0	0
26	23	victory	victory	victory	8	nopreview	12	27	175	0	0	0
27	24	ahead	ahead	ahead	8	nopreview	12	28	326	0	0	0
28	25	of	of	of	8	nopreview	12	29	0	0	0	0
29	26	@entity6	Julian	Julian	8	nopreview	12	30	180	0	0	0
30			Alaphilippe	Alaphilippe	8	nopreview	12	31	959	0	0	0
31	27	and	and	and	8	nopreview	12	32	236	0	0	0
32	28	@entity7	Michael	Michael	8	nopreview	12	33	247	0	0	0
33			Albasini	Albasini	8	nopreview	12	34	675	0	0	0
34	29	in	in	in	8	nopreview	12	35	0	0	0	0
35	30	a	a	a	8	nopreview	12	36	0	0	0	0
36	31	race	race	race	8	nopreview	12	37	703	0	0	0
37	32	which	which	which	8	nopreview	12	38	411	0	0	0
38	33	saw	saw	saw	8	nopreview	12	39	0	0	0	0
39	34	former	former	former	8	nopreview	12	40	156	0	0	0
40	35	winner	winner	winner	8	nopreview	12	41	300	0	0	0
41	36	@entity9	Philippe	Philippe	8	nopreview	12	42	446	0	0	0
42			Gilbert	Gilbert	8	nopreview	12	43	212	0	0	0
43	37	pull	pull	pull	8	nopreview	12	44	630	0	0	0
44	38	out	out	out	8	nopreview	12	45	646	0	0	0
45	39	after	after	after	8	nopreview	12	46	0	0	0	0
46	40	a	a	a	8	nopreview	12	47	0	0	0	0
47	41	bad	bad	bad	8	nopreview	12	48	0	0	0	0
48	42	crash	crash	crash	8	nopreview	12	49	350	0	0	0
49	43	some	some	some	8	nopreview	12	50	980	0	0	0
50	44	50	50	50	8	nopreview	12	51	0	0	0	0
51	45	kilometres	kilometres	kilometres	8	nopreview	12	52	240	0	0	0
52	46	from	from	from	8	nopreview	12	53	100	0	0	0
53	47	the	the	the	8	nopreview	12	54	113	0	0	0
54	48	end	end	end.	8	nopreview	12	55	172	0	0	0
	49	.	.		8	nopreview	12	56				
55	50	@entity3	Froome	Froome	8	nopreview	12	57	159	0	0	0
56	51	was	was	was	8	nopreview	12	58	0	0	0	0
57	52	involved	involved	involved	8	nopreview	12	59	130	0	0	0
58	53	in	in	in	8	nopreview	12	60	117	0	0	0
59	54	a	a	a	8	nopreview	12	61	0	0	0	0
60	55	crash	crash	crash	8	nopreview	12	62	232	0	0	0
61	56	in	in	in	8	nopreview	12	63	0	0	0	0
62	57	the	the	the	8	nopreview	12	64	0	0	0	0
63	58	final	final	final	8	nopreview	12	65	259	0	0	0
64	59	12	12	12	8	nopreview	12	66	0	0	0	0
65	60	kilometres	kilometres	kilometres	8	nopreview	12	67	966	0	0	0
66	61	but	but	but	8	nopreview	12	68	211	0	0	0
67	62	was	was	was	8	nopreview	12	69	0	0	0	0
68	63	able	able	able	8	nopreview	12	70	0	0	0	0
69	64	to	to	to	8	nopreview	12	71	195	0	0	0
70	65	get	get	get	8	nopreview	12	72	174	0	0	0
71	66	back	back	back	8	nopreview	12	73	0	0	0	0
72	67	on	on	on	8	nopreview	12	74	0	0	0	0
73	68	his	his	his	8	nopreview	12	75	0	0	0	0
74	69	bike	bike	bike	8	nopreview	12	76	408	0	0	0
75	70	and	and	and	8	nopreview	12	77	0	0	0	0
76	71	finish	finish	finish.	8	nopreview	12	78	155	0	0	0
	72	.	.		8	nopreview	12	79				
77	73	@entity14	Spain	Team	8	nopreview	12	80	274	0	0	0
	74	-s	-s		8	nopreview	12	81				
	75	@entity0	Alejandro		8	nopreview	12	82				
			Valverde		8	nopreview	12	83				
	76	(	(		8	nopreview	12	84				
	77	centre	centre		8	nopreview	12	85				
	78	)	)		8	nopreview	12	86				
	79	realises	realises		8	nopreview	12	87				
	80	he	he		8	nopreview	12	88				
78	81	-s	-s	Sky-s	8	nopreview	12	89	533	0	0	0
	82	done	done		8	nopreview	12	90				
	83	enough	enough		8	nopreview	12	91				
	84	to	to		8	nopreview	12	92				
79	85	claim	claim	sports	8	nopreview	12	93	498	0	0	0
	86	victory	victory		8	nopreview	12	94				
	87	in	in		8	nopreview	12	95				
	88	@entity17	Belgium		8	nopreview	12	96				
	89	-s	-s		8	nopreview	12	97				
	90	@entity2	Fleche		8	nopreview	12	98				
	91	@entity0	Wallonne		8	nopreview	12	99				
			Valverde		8	nopreview	12	100				
	92	(	(		8	nopreview	12	101				
	93	centre	centre		8	nopreview	12	102				
	94	)	)		8	nopreview	12	103				
	95	finished	finished		8	nopreview	12	104				
	96	ahead	ahead		8	nopreview	12	105				
	97	of	of		8	nopreview	12	106				
	98	@entity6	Julian		8	nopreview	12	107				
			Alaphilippe		8	nopreview	12	108				
	99	(	(		8	nopreview	12	109				
	100	left	left		8	nopreview	12	110				
	101	)	)		8	nopreview	12	111				
	102	and	and		8	nopreview	12	112				
	103	@entity7	Michael		8	nopreview	12	113				
			Albasini		8	nopreview	12	114				
	104	(	(		8	nopreview	12	115				
	105	right	right		8	nopreview	12	116				
	106	)	)		8	nopreview	12	117				
	107	on	on		8	nopreview	12	118				
	108	Wednesday	Wednesday		8	nopreview	12	119				
	109	@entity20	Team		8	nopreview	12	120				
			Sky		8	nopreview	12	121				
	110	-s	-s		8	nopreview	12	122				
	111	sports	sports		8	nopreview	12	123				
80	112	director	director	director	8	nopreview	12	124	815	223	223	223
81	113	@entity19	Gabriel	Gabriel	8	nopreview	12	125	455	166	20880	166
82			Rasch	Rasch	8	nopreview	12	126	265	0	0	0
83	114	praised	praised	praised	8	nopreview	12	127	514	195	195	195
84	115	@entity3	Froome	Froome	8	nopreview	12	128	424	174	174	174
85	116	for	for	for	8	nopreview	12	129	200	200	4059	200
86	117	finishing	finishing	finishing	8	nopreview	12	130	154	0	0	0
87	118	the	the	the	8	nopreview	12	131	270	0	0	0
88	119	race	race	race	8	nopreview	12	132	92	92	1324	92
89	120	and	and	and	8	nopreview	12	133	0	0	0	0
90	121	said	said	said	8	nopreview	12	134	0	0	0	0
91	122	he	he	he	8	nopreview	12	135	101	101	101	101
92	123	expects	expects	expects	8	nopreview	12	136	0	0	0	0
93	124	the	the	the	8	nopreview	12	137	0	0	0	0
94	125	former	former	former	8	nopreview	12	138	172	172	172	172
95	126	@entity23	Tour	Tour	8	nopreview	12	139	452	452	452	452
96			de	de	8	nopreview	12	140	0	0	0	0
97			France	France	8	nopreview	12	141	325	325	325	325
98	127	winner	winner	winner	8	nopreview	12	142	186	186	186	186
99	128	will	will	will	8	nopreview	12	143	0	0	0	0
100	129	be	be	be	8	nopreview	12	144	0	0	0	0
101	130	fine	fine	fine	8	nopreview	12	145	186	186	186	186
102	131	to	to	to	8	nopreview	12	146	0	0	0	0
103	132	take	take	take	8	nopreview	12	147	211	0	0	0
104	133	part	part	part	8	nopreview	12	148	0	0	0	0
105	134	in	in	in	8	nopreview	12	149	100	100	311	100
106	135	the	the	the	8	nopreview	12	150	0	0	0	0
107	136	@entity25	Tour	Tour	8	nopreview	12	151	163	0	0	0
108			de	de	8	nopreview	12	152	193	193	356	193
109			Romandie	Romandie	8	nopreview	12	153	525	525	525	143
110	137	next	next	next	8	nopreview	12	154	0	0	0	0
111	138	week	week	week.	8	nopreview	12	155	0	0	0	0
	139	.	.		8	nopreview	12	156				
112	140	@entity19	Rasch	Rasch	8	nopreview	12	157	168	168	168	168
113	141	told	told	told	8	nopreview	12	158	0	0	0	0
114	142	@entity26	TeamSky.com	TeamSky.com:	8	nopreview	12	159	277	277	277	114
115	143	:	:	-Chris	8	nopreview	12	160	386	260	443	260
	144	-	-		8	nopreview	12	161				
	145	@entity3	Chris		8	nopreview	12	162				
116	146	was	was	was	8	nopreview	12	163	0	0	0	0
117	147	pretty	pretty	pretty	8	nopreview	12	164	129	0	0	0
118	148	banged	banged	banged	8	nopreview	12	165	127	0	0	0
119	149	up	up	up	8	nopreview	12	166	94	0	0	0
120	150	but	but	but	8	nopreview	12	167	0	0	0	0
121	151	showed	showed	showed	8	nopreview	12	168	170	0	0	0
122	152	real	real	real	8	nopreview	12	169	0	0	0	0
123	153	courage	courage	courage	8	nopreview	12	170	201	0	0	0
124	154	to	to	to	8	nopreview	12	171	0	0	0	0
125	155	finish	finish	finish	8	nopreview	12	172	439	0	0	0
126	156	the	the	the	8	nopreview	12	173	0	0	0	0
127	157	race	race	race	8	nopreview	12	174	151	0	0	0
128	158	and	and	and	8	nopreview	12	175	0	0	0	0
129	159	we	we	we-ll	8	nopreview	12	176	151	0	0	0
	160	-ll	-ll		8	nopreview	12	177				
130	161	assess	assess	assess	8	nopreview	12	178	325	172	1913	172
131	162	his	his	his	8	nopreview	12	179	0	0	0	0
132	163	injuries	injuries	injuries	8	nopreview	12	180	180	0	0	0
133	164	overnight	overnight	overnight.	8	nopreview	12	181	293	107	473	107
	165	.	.		8	nopreview	12	182				
134	166	-	-	-He	8	nopreview	12	183	0	0	0	0
	167	He	He		8	nopreview	12	184				
135	168	has	has	hasn-t	8	nopreview	12	185	214	214	214	214
	169	n-t	n-t		8	nopreview	12	186				
136	170	needed	needed	needed	8	nopreview	12	187	201	201	201	201
137	171	to	to	to	8	nopreview	12	188	0	0	0	0
138	172	go	go	go	8	nopreview	12	189	121	0	0	0
139	173	to	to	to	8	nopreview	12	190	0	0	0	0
140	174	hospital	hospital	hospital	8	nopreview	12	191	165	165	286	165
141	175	and	and	and	8	nopreview	12	192	190	0	0	0
142	176	right	right	right	8	nopreview	12	193	366	217	217	217
143	177	now	now	now,	8	nopreview	12	194	0	0	0	0
	178	,	,		8	nopreview	12	195				
144	179	as	as	as	8	nopreview	12	196	173	0	0	0
145	180	things	things	things	8	nopreview	12	197	185	185	697	185
146	181	stand	stand	stand,	8	nopreview	12	198	149	0	0	0
	182	,	,		8	nopreview	12	199				
147	183	we	we	we-re	8	nopreview	12	200	107	107	256	107
	184	-re	-re		8	nopreview	12	201				
148	185	still	still	still	8	nopreview	12	202	0	0	0	0
149	186	expecting	expecting	expecting	8	nopreview	12	203	232	232	232	232
150	187	him	him	him	8	nopreview	12	204	232	232	232	232
151	188	to	to	to	8	nopreview	12	205	0	0	0	0
152	189	line	line	line	8	nopreview	12	206	200	200	200	200
153	190	up	up	up	8	nopreview	12	207	0	0	0	0
154	191	at	at	at	8	nopreview	12	208	0	0	0	0
155	192	the	the	the	8	nopreview	12	209	254	254	254	254
156	193	@entity25	Tour	Tour	8	nopreview	12	210	181	181	181	181
157			de	de	8	nopreview	12	211	0	0	0	0
158			Romandie	Romandie	8	nopreview	12	212	285	285	285	285
159	194	next	next	next	8	nopreview	12	213	116	0	0	0
160	195	Tuesday	Tuesday	Tuesday.-	8	nopreview	12	214	359	247	913	143
	196	.	.		8	nopreview	12	215				
161	197	-	-	Team	8	nopreview	12	216	0	0	0	0
	198	@entity20	Team		8	nopreview	12	217				
162			Sky	Sky-s	8	nopreview	12	218	476	0	0	0
	199	-s	-s		8	nopreview	12	219				
163	200	@entity3	Chris	Chris	8	nopreview	12	220	600	0	0	0
164			Froome	Froome	8	nopreview	12	221	350	0	0	0
165	201	fell	fell	fell	8	nopreview	12	222	182	0	0	0
166	202	in	in	in	8	nopreview	12	223	168	0	0	0
167	203	the	the	the	8	nopreview	12	224	136	0	0	0
168	204	closing	closing	closing	8	nopreview	12	225	609	0	0	0
169	205	12km	12km	12km	8	nopreview	12	226	0	0	0	0
170	206	but	but	but	8	nopreview	12	227	219	0	0	0
171	207	fought	fought	fought	8	nopreview	12	228	0	0	0	0
172	208	on	on	on	8	nopreview	12	229	0	0	0	0
173	209	to	to	to	8	nopreview	12	230	0	0	0	0
174	210	finish	finish	finish	8	nopreview	12	231	142	0	0	0
175	211	the	the	the	8	nopreview	12	232	0	0	0	0
176	212	race	race	race	8	nopreview	12	233	0	0	0	0
177	213	despite	despite	despite	8	nopreview	12	234	295	0	0	0
178	214	being	being	being	8	nopreview	12	235	178	0	0	0
179	215	-	-	-banged	8	nopreview	12	236	238	139	3593	139
	216	banged	banged		8	nopreview	12	237				
180	217	up	up	up-.	8	nopreview	12	238	0	0	0	0
	218	-	-		8	nopreview	12	239				
