HumanPosition	AnonymizedPosition	AnonymizedToken	OriginalToken	ExperimentToken	Participant	Condition	TextNo	JointPosition	tt	fp	rp	ff
1	0	(	(	Blues	8	nopreview	5	1	902	0	0	0
	1	@entity2	CNN		8	nopreview	5	2				
	2	)	)		8	nopreview	5	3				
	3	@entity1	Blues		8	nopreview	5	4				
2	4	legend	legend	legend	8	nopreview	5	5	370	0	0	0
3	5	@entity0	B.B.	B.B.	8	nopreview	5	6	717	0	0	0
4			King	King	8	nopreview	5	7	775	0	0	0
5	6	was	was	was	8	nopreview	5	8	0	0	0	0
6	7	hospitalized	hospitalized	hospitalized	8	nopreview	5	9	611	0	0	0
7	8	for	for	for	8	nopreview	5	10	0	0	0	0
8	9	dehydration	dehydration	dehydration,	8	nopreview	5	11	593	0	0	0
	10	,	,		8	nopreview	5	12				
9	11	though	though	though	8	nopreview	5	13	376	0	0	0
10	12	the	the	the	8	nopreview	5	14	0	0	0	0
11	13	ailment	ailment	ailment	8	nopreview	5	15	211	0	0	0
12	14	did	did	didn-t	8	nopreview	5	16	244	0	0	0
	15	n-t	n-t		8	nopreview	5	17				
13	16	keep	keep	keep	8	nopreview	5	18	180	0	0	0
14	17	him	him	him	8	nopreview	5	19	0	0	0	0
15	18	out	out	out	8	nopreview	5	20	338	0	0	0
16	19	for	for	for	8	nopreview	5	21	249	0	0	0
17	20	long	long	long.	8	nopreview	5	22	0	0	0	0
	21	.	.		8	nopreview	5	23				
18	22	@entity0	King	King-s	8	nopreview	5	24	237	0	0	0
	23	-s	-s		8	nopreview	5	25				
19	24	dehydration	dehydration	dehydration	8	nopreview	5	26	508	0	0	0
20	25	was	was	was	8	nopreview	5	27	0	0	0	0
21	26	caused	caused	caused	8	nopreview	5	28	259	0	0	0
22	27	by	by	by	8	nopreview	5	29	256	0	0	0
23	28	his	his	his	8	nopreview	5	30	223	0	0	0
24	29	Type	Type	Type	8	nopreview	5	31	0	0	0	0
25	30	II	II	II	8	nopreview	5	32	243	0	0	0
26	31	diabetes	diabetes	diabetes,	8	nopreview	5	33	141	0	0	0
	32	,	,		8	nopreview	5	34				
27	33	but	but	but	8	nopreview	5	35	199	0	0	0
28	34	he	he	he	8	nopreview	5	36	0	0	0	0
29	35	-	-	-is	8	nopreview	5	37	0	0	0	0
	36	is	is		8	nopreview	5	38				
30	37	much	much	much	8	nopreview	5	39	247	0	0	0
31	38	better	better	better,-	8	nopreview	5	40	266	0	0	0
	39	,	,		8	nopreview	5	41				
	40	-	-		8	nopreview	5	42				
32	41	his	his	his	8	nopreview	5	43	0	0	0	0
33	42	daughter	daughter	daughter,	8	nopreview	5	44	211	0	0	0
	43	,	,		8	nopreview	5	45				
34	44	@entity6	Claudette	Claudette	8	nopreview	5	46	374	0	0	0
35			King	King,	8	nopreview	5	47	0	0	0	0
	45	,	,		8	nopreview	5	48				
36	46	told	told	told	8	nopreview	5	49	177	0	0	0
37	47	the	the	the	8	nopreview	5	50	0	0	0	0
38	48	@entity9	Los	Los	8	nopreview	5	51	0	0	0	0
39			Angeles	Angeles	8	nopreview	5	52	196	0	0	0
40			Times	Times.	8	nopreview	5	53	135	0	0	0
	49	.	.		8	nopreview	5	54				
41	50	The	The	The	8	nopreview	5	55	241	0	0	0
42	51	legendary	legendary	legendary	8	nopreview	5	56	349	0	0	0
43	52	guitarist	guitarist	guitarist	8	nopreview	5	57	382	0	0	0
44	53	and	and	and	8	nopreview	5	58	0	0	0	0
45	54	vocalist	vocalist	vocalist	8	nopreview	5	59	288	0	0	0
46	55	released	released	released	8	nopreview	5	60	301	0	0	0
47	56	a	a	a	8	nopreview	5	61	0	0	0	0
48	57	statement	statement	statement	8	nopreview	5	62	193	0	0	0
49	58	thanking	thanking	thanking	8	nopreview	5	63	440	0	0	0
50	59	those	those	those	8	nopreview	5	64	324	0	0	0
51	60	who	who	who	8	nopreview	5	65	0	0	0	0
52	61	have	have	have	8	nopreview	5	66	218	0	0	0
53	62	expressed	expressed	expressed	8	nopreview	5	67	192	0	0	0
54	63	their	their	their	8	nopreview	5	68	0	0	0	0
55	64	concerns	concerns	concerns.	8	nopreview	5	69	0	0	0	0
	65	.	.		8	nopreview	5	70				
56	66	-	-	-I-m	8	nopreview	5	71	141	0	0	0
	67	I	I		8	nopreview	5	72				
	68	-m	-m		8	nopreview	5	73				
57	69	feeling	feeling	feeling	8	nopreview	5	74	0	0	0	0
58	70	much	much	much	8	nopreview	5	75	0	0	0	0
59	71	better	better	better	8	nopreview	5	76	137	0	0	0
60	72	and	and	and	8	nopreview	5	77	0	0	0	0
61	73	am	am	am	8	nopreview	5	78	0	0	0	0
62	74	leaving	leaving	leaving	8	nopreview	5	79	273	0	0	0
63	75	the	the	the	8	nopreview	5	80	97	0	0	0
64	76	hospital	hospital	hospital	8	nopreview	5	81	127	0	0	0
65	77	today	today	today,-	8	nopreview	5	82	255	0	0	0
	78	,	,		8	nopreview	5	83				
	79	-	-		8	nopreview	5	84				
66	80	@entity0	King	King	8	nopreview	5	85	0	0	0	0
67	81	said	said	said	8	nopreview	5	86	210	0	0	0
68	82	in	in	in	8	nopreview	5	87	0	0	0	0
69	83	a	a	a	8	nopreview	5	88	0	0	0	0
70	84	message	message	message	8	nopreview	5	89	167	0	0	0
71	85	Tuesday	Tuesday	Tuesday.	8	nopreview	5	90	361	0	0	0
	86	.	.		8	nopreview	5	91				
72	87	@entity17	Angela	Angela	8	nopreview	5	92	210	0	0	0
73			Moore	Moore,	8	nopreview	5	93	138	138	13362	138
	88	,	,		8	nopreview	5	94				
74	89	a	a	a	8	nopreview	5	95	0	0	0	0
75	90	publicist	publicist	publicist	8	nopreview	5	96	123	123	123	123
76	91	for	for	for	8	nopreview	5	97	0	0	0	0
77	92	@entity6	Claudette	Claudette	8	nopreview	5	98	162	162	162	162
78			King	King,	8	nopreview	5	99	221	221	221	221
	93	,	,		8	nopreview	5	100				
79	94	said	said	said	8	nopreview	5	101	0	0	0	0
80	95	later	later	later	8	nopreview	5	102	203	0	0	0
81	96	in	in	in	8	nopreview	5	103	286	107	489	107
82	97	the	the	the	8	nopreview	5	104	0	0	0	0
83	98	day	day	day	8	nopreview	5	105	0	0	0	0
84	99	that	that	that	8	nopreview	5	106	289	289	289	289
85	100	he	he	he	8	nopreview	5	107	0	0	0	0
86	101	was	was	was	8	nopreview	5	108	336	336	336	336
87	102	back	back	back	8	nopreview	5	109	0	0	0	0
88	103	home	home	home	8	nopreview	5	110	274	274	274	274
89	104	resting	resting	resting	8	nopreview	5	111	0	0	0	0
90	105	and	and	and	8	nopreview	5	112	145	145	145	145
91	106	enjoying	enjoying	enjoying	8	nopreview	5	113	190	190	190	190
92	107	time	time	time	8	nopreview	5	114	0	0	0	0
93	108	with	with	with	8	nopreview	5	115	134	134	134	134
94	109	his	his	his	8	nopreview	5	116	139	139	139	139
95	110	grandchildren	grandchildren	grandchildren.	8	nopreview	5	117	232	232	232	232
	111	.	.		8	nopreview	5	118				
96	112	-	-	-He	8	nopreview	5	119	0	0	0	0
	113	He	He		8	nopreview	5	120				
97	114	was	was	was	8	nopreview	5	121	104	104	104	104
98	115	struggling	struggling	struggling	8	nopreview	5	122	0	0	104	0
99	116	before	before	before,	8	nopreview	5	123	294	294	294	294
	117	,	,		8	nopreview	5	124				
100	118	and	and	and	8	nopreview	5	125	0	0	0	0
101	119	he	he	he	8	nopreview	5	126	0	0	0	0
102	120	is	is	is	8	nopreview	5	127	286	286	286	286
103	121	a	a	a	8	nopreview	5	128	0	0	0	0
104	122	trouper	trouper	trouper,-	8	nopreview	5	129	161	161	161	161
	123	,	,		8	nopreview	5	130				
	124	-	-		8	nopreview	5	131				
105	125	@entity17	Moore	Moore	8	nopreview	5	132	304	304	304	304
106	126	said	said	said.	8	nopreview	5	133	299	146	146	146
	127	.	.		8	nopreview	5	134				
107	128	-	-	-He	8	nopreview	5	135	219	219	565	219
	129	He	He		8	nopreview	5	136				
108	130	was	was	wasn-t	8	nopreview	5	137	167	0	0	0
	131	n-t	n-t		8	nopreview	5	138				
109	132	going	going	going	8	nopreview	5	139	132	132	299	132
110	133	to	to	to	8	nopreview	5	140	0	0	0	0
111	134	let	let	let	8	nopreview	5	141	187	187	187	187
112	135	his	his	his	8	nopreview	5	142	0	0	0	0
113	136	fans	fans	fans	8	nopreview	5	143	86	86	86	86
114	137	down	down	down.-	8	nopreview	5	144	226	226	226	226
	138	.	.		8	nopreview	5	145				
115	139	-	-	No	8	nopreview	5	146	299	299	299	299
116	140	No	No	more	8	nopreview	5	147	0	0	0	0
117	141	more	more	information	8	nopreview	5	148	97	97	97	97
	142	information	information		8	nopreview	5	149				
118	143	on	on	on	8	nopreview	5	150	0	0	0	0
119	144	@entity0	King	King-s	8	nopreview	5	151	0	0	0	0
	145	-s	-s		8	nopreview	5	152				
120	146	condition	condition	condition	8	nopreview	5	153	246	246	246	246
121	147	or	or	or	8	nopreview	5	154	0	0	0	0
122	148	where	where	where	8	nopreview	5	155	0	0	0	0
123	149	he	he	he	8	nopreview	5	156	0	0	0	0
124	150	was	was	was	8	nopreview	5	157	201	0	0	0
125	151	hospitalized	hospitalized	hospitalized	8	nopreview	5	158	113	113	314	113
126	152	was	was	was	8	nopreview	5	159	225	0	0	0
127	153	immediately	immediately	immediately	8	nopreview	5	160	483	206	206	206
128	154	available	available	available.	8	nopreview	5	161	564	311	1066	311
	155	.	.		8	nopreview	5	162				
129	156	@entity0	B.B.	B.B.	8	nopreview	5	163	0	0	0	0
130	157	is	is	is	8	nopreview	5	164	0	0	0	0
131	158	short	short	short	8	nopreview	5	165	199	199	199	199
132	159	for	for	for	8	nopreview	5	166	0	0	0	0
133	160	@entity24	Blues	Blues	8	nopreview	5	167	273	273	273	273
134			Boy	Boy,	8	nopreview	5	168	149	149	149	149
	161	,	,		8	nopreview	5	169				
135	162	part	part	part	8	nopreview	5	170	141	141	141	141
136	163	of	of	of	8	nopreview	5	171	0	0	0	0
137	164	the	the	the	8	nopreview	5	172	0	0	0	0
138	165	name	name	name	8	nopreview	5	173	314	314	314	115
139	166	he	he	he	8	nopreview	5	174	0	0	0	0
140	167	used	used	used	8	nopreview	5	175	89	89	89	89
141	168	as	as	as	8	nopreview	5	176	0	0	0	0
142	169	a	a	a	8	nopreview	5	177	0	0	0	0
143	170	@entity27	Memphis	Memphis	8	nopreview	5	178	113	113	113	113
144	171	disc	disc	disc	8	nopreview	5	179	0	0	0	0
145	172	jockey	jockey	jockey,	8	nopreview	5	180	327	327	327	327
	173	,	,		8	nopreview	5	181				
146	174	the	the	the	8	nopreview	5	182	0	0	0	0
147	175	@entity0	Beale	Beale	8	nopreview	5	183	497	497	497	497
148			Street	Street	8	nopreview	5	184	443	443	4377	156
149			Blues	Blues	8	nopreview	5	185	177	177	177	177
150			Boy	Boy.	8	nopreview	5	186	347	202	202	202
	176	.	.		8	nopreview	5	187				
151	177	He	He	He	8	nopreview	5	188	361	361	1233	361
152	178	was	was	was	8	nopreview	5	189	112	112	112	112
153	179	inducted	inducted	inducted	8	nopreview	5	190	718	718	718	370
154	180	into	into	into	8	nopreview	5	191	0	0	0	0
155	181	the	the	the	8	nopreview	5	192	95	95	95	95
156	182	@entity28	Rock	Rock	8	nopreview	5	193	0	0	0	0
157			and	and	8	nopreview	5	194	0	0	0	0
158			Roll	Roll	8	nopreview	5	195	0	0	0	0
159			Hall	Hall	8	nopreview	5	196	154	154	154	154
160			of	of	8	nopreview	5	197	0	0	0	0
161			Fame	Fame	8	nopreview	5	198	167	167	167	167
162	183	in	in	in	8	nopreview	5	199	0	0	0	0
163	184	1987	1987	1987,	8	nopreview	5	200	298	298	298	106
	185	,	,		8	nopreview	5	201				
164	186	and	and	and	8	nopreview	5	202	0	0	0	0
165	187	has	has	has	8	nopreview	5	203	0	0	0	0
166	188	30	30	30	8	nopreview	5	204	179	179	179	179
167	189	@entity30	Grammy	Grammy	8	nopreview	5	205	128	0	0	0
168	190	nominations	nominations	nominations.	8	nopreview	5	206	266	151	394	151
	191	.	.		8	nopreview	5	207				
169	192	@entity0	King	King,	8	nopreview	5	208	257	0	0	0
	193	,	,		8	nopreview	5	209				
170	194	89	89	89,	8	nopreview	5	210	113	113	370	113
	195	,	,		8	nopreview	5	211				
171	196	has	has	has	8	nopreview	5	212	0	0	0	0
172	197	used	used	used	8	nopreview	5	213	256	256	256	256
173	198	various	various	various	8	nopreview	5	214	216	216	216	216
174	199	models	models	models	8	nopreview	5	215	320	176	176	176
175	200	of	of	of	8	nopreview	5	216	0	0	0	0
176	201	@entity33	Gibson	Gibson	8	nopreview	5	217	562	389	706	389
177	202	guitars	guitars	guitars	8	nopreview	5	218	423	423	740	271
178	203	over	over	over	8	nopreview	5	219	0	0	0	0
179	204	the	the	the	8	nopreview	5	220	162	162	162	162
180	205	years	years	years,	8	nopreview	5	221	0	0	0	0
	206	,	,		8	nopreview	5	222				
181	207	and	and	and	8	nopreview	5	223	0	0	0	0
182	208	named	named	named	8	nopreview	5	224	189	189	189	189
183	209	each	each	each	8	nopreview	5	225	99	99	99	99
184	210	one	one	one	8	nopreview	5	226	0	0	0	0
185	211	of	of	of	8	nopreview	5	227	223	0	0	0
186	212	them	them	them	8	nopreview	5	228	118	118	341	118
187	213	@entity35	Lucille	Lucille.	8	nopreview	5	229	491	491	5434	267
	214	.	.		8	nopreview	5	230				
188	215	In	In	In	8	nopreview	5	231	0	0	0	0
189	216	the	the	the	8	nopreview	5	232	141	141	141	141
190	217	1980s	1980s	1980s,	8	nopreview	5	233	326	326	326	326
	218	,	,		8	nopreview	5	234				
191	219	@entity33	Gibson	Gibson	8	nopreview	5	235	579	330	330	330
192	220	officially	officially	officially	8	nopreview	5	236	490	213	739	213
193	221	dropped	dropped	dropped	8	nopreview	5	237	620	305	305	305
194	222	the	the	the	8	nopreview	5	238	0	0	0	0
195	223	model	model	model	8	nopreview	5	239	494	309	309	309
196	224	number	number	number	8	nopreview	5	240	541	299	299	299
197	225	on	on	on	8	nopreview	5	241	142	0	0	0
198	226	the	the	the	8	nopreview	5	242	179	179	1063	179
199	227	guitar	guitar	guitar	8	nopreview	5	243	157	0	0	0
200	228	he	he	he	8	nopreview	5	244	115	115	272	115
201	229	used	used	used	8	nopreview	5	245	113	0	0	0
202	230	last	last	last	8	nopreview	5	246	300	300	413	300
203	231	and	and	and	8	nopreview	5	247	0	0	0	0
204	232	most	most	most.	8	nopreview	5	248	225	225	225	225
	233	.	.		8	nopreview	5	249				
205	234	It	It	It	8	nopreview	5	250	0	0	0	0
206	235	became	became	became	8	nopreview	5	251	712	291	291	291
207	236	a	a	a	8	nopreview	5	252	0	0	0	0
208	237	custom	custom	custom-made	8	nopreview	5	253	434	82	855	82
	238	-	-		8	nopreview	5	254				
	239	made	made		8	nopreview	5	255				
209	240	signature	signature	signature	8	nopreview	5	256	327	327	327	159
210	241	model	model	model	8	nopreview	5	257	297	95	95	95
211	242	named	named	named	8	nopreview	5	258	331	174	174	174
212	243	@entity35	Lucille	Lucille,	8	nopreview	5	259	571	86	930	86
	244	,	,		8	nopreview	5	260				
213	245	manufactured	manufactured	manufactured	8	nopreview	5	261	261	261	261	132
214	246	exclusively	exclusively	exclusively	8	nopreview	5	262	114	114	114	114
215	247	for	for	for	8	nopreview	5	263	0	0	0	0
216	248	the	the	the	8	nopreview	5	264	0	0	0	0
217	249	-	-	-King	8	nopreview	5	265	0	0	0	0
	250	@entity40	King		8	nopreview	5	266				
218			of	of	8	nopreview	5	267	0	0	0	0
219			the	the	8	nopreview	5	268	0	0	0	0
220			Blues	Blues.-	8	nopreview	5	269	186	186	186	186
	251	.	.		8	nopreview	5	270				
221	252	-	-	Some	8	nopreview	5	271	0	0	0	0
	253	Some	Some		8	nopreview	5	272				
222	254	of	of	of	8	nopreview	5	273	333	333	333	166
223	255	his	his	his	8	nopreview	5	274	0	0	0	0
224	256	hits	hits	hits	8	nopreview	5	275	163	163	163	163
225	257	include	include	include	8	nopreview	5	276	186	186	186	186
226	258	-	-	-The	8	nopreview	5	277	0	0	0	0
	259	The	The		8	nopreview	5	278				
227	260	Thrill	Thrill	Thrill	8	nopreview	5	279	180	180	180	180
228	261	Is	Is	Is	8	nopreview	5	280	0	0	0	0
229	262	Gone	Gone	Gone,-	8	nopreview	5	281	244	244	244	244
	263	,	,		8	nopreview	5	282				
	264	-	-		8	nopreview	5	283				
230	265	which	which	which	8	nopreview	5	284	183	183	183	183
231	266	won	won	won	8	nopreview	5	285	0	0	0	0
232	267	him	him	him	8	nopreview	5	286	238	238	238	238
233	268	his	his	his	8	nopreview	5	287	183	183	183	183
234	269	first	first	first	8	nopreview	5	288	268	134	134	134
235	270	Grammy	Grammy	Grammy	8	nopreview	5	289	0	0	0	0
236	271	in	in	in	8	nopreview	5	290	0	0	0	0
237	272	1970	1970	1970,	8	nopreview	5	291	253	253	253	253
	273	,	,		8	nopreview	5	292				
238	274	-	-	-There	8	nopreview	5	293	0	0	0	0
	275	@entity44	There		8	nopreview	5	294				
239			Must	Must	8	nopreview	5	295	220	220	220	220
240			be	be	8	nopreview	5	296	0	0	0	0
241			a	a	8	nopreview	5	297	0	0	0	0
242			Better	Better	8	nopreview	5	298	209	209	209	209
243			World	World	8	nopreview	5	299	152	0	0	0
244			Somewhere	Somewhere-	8	nopreview	5	300	340	187	492	187
	276	-	-		8	nopreview	5	301				
245	277	and	and	and	8	nopreview	5	302	0	0	0	0
246	278	-	-	-When	8	nopreview	5	303	0	0	0	0
	279	@entity45	When		8	nopreview	5	304				
247			Love	Love	8	nopreview	5	305	233	233	233	233
248			Comes	Comes	8	nopreview	5	306	289	289	289	289
249			to	to	8	nopreview	5	307	0	0	0	0
250			Town	Town,-	8	nopreview	5	308	368	97	97	97
	280	,	,		8	nopreview	5	309				
	281	-	-		8	nopreview	5	310				
251	282	a	a	a	8	nopreview	5	311	0	0	0	0
252	283	collaboration	collaboration	collaboration	8	nopreview	5	312	118	118	118	118
253	284	with	with	with	8	nopreview	5	313	0	0	0	0
254	285	@entity47	U2	U2.	8	nopreview	5	314	326	326	326	326
	286	.	.		8	nopreview	5	315				
255	287	Last	Last	Last	8	nopreview	5	316	191	191	191	191
256	288	year	year	year,	8	nopreview	5	317	115	115	115	115
	289	,	,		8	nopreview	5	318				
257	290	the	the	the	8	nopreview	5	319	0	0	0	0
258	291	bluesman	bluesman	bluesman	8	nopreview	5	320	329	329	329	111
259	292	suffered	suffered	suffered	8	nopreview	5	321	117	117	117	117
260	293	from	from	from	8	nopreview	5	322	0	0	0	0
261	294	dehydration	dehydration	dehydration	8	nopreview	5	323	211	127	127	127
262	295	and	and	and	8	nopreview	5	324	0	0	0	0
263	296	exhaustion	exhaustion	exhaustion	8	nopreview	5	325	269	161	161	161
264	297	after	after	after	8	nopreview	5	326	0	0	0	0
265	298	a	a	a	8	nopreview	5	327	166	166	166	166
266	299	show	show	show	8	nopreview	5	328	0	0	0	0
267	300	in	in	in	8	nopreview	5	329	153	153	153	153
268	301	@entity52	Chicago	Chicago,	8	nopreview	5	330	84	84	84	84
	302	,	,		8	nopreview	5	331				
269	303	forcing	forcing	forcing	8	nopreview	5	332	254	0	0	0
270	304	him	him	him	8	nopreview	5	333	0	0	0	0
271	305	to	to	to	8	nopreview	5	334	0	0	0	0
272	306	cancel	cancel	cancel	8	nopreview	5	335	313	141	1164	141
273	307	the	the	the	8	nopreview	5	336	0	0	0	0
274	308	remainder	remainder	remainder	8	nopreview	5	337	0	0	597	0
275	309	of	of	of	8	nopreview	5	338	0	0	0	0
276	310	his	his	his	8	nopreview	5	339	0	0	0	0
277	311	tour	tour	tour.	8	nopreview	5	340	0	0	0	0
	312	.	.		8	nopreview	5	341				
