HumanPosition	AnonymizedPosition	AnonymizedToken	OriginalToken	ExperimentToken	Participant	Condition	TextNo	JointPosition	tt	fp	rp	ff
1	0	(	(	Two	2	nopreview	1	1	0	0	0	0
2	1	@entity1	CNN	passengers	2	nopreview	1	2	429	429	429	134
	2	)	)		2	nopreview	1	3				
	3	Two	Two		2	nopreview	1	4				
	4	passengers	passengers		2	nopreview	1	5				
3	5	found	found	found	2	nopreview	1	6	414	414	414	236
4	6	dead	dead	dead	2	nopreview	1	7	365	365	365	365
5	7	on	on	on	2	nopreview	1	8	163	0	0	0
6	8	a	a	a	2	nopreview	1	9	0	0	0	0
7	9	cruise	cruise	cruise	2	nopreview	1	10	260	260	423	260
8	10	ship	ship	ship	2	nopreview	1	11	224	224	224	224
9	11	in	in	in	2	nopreview	1	12	0	0	0	0
10	12	@entity4	Puerto	Puerto	2	nopreview	1	13	426	426	426	257
11			Rico	Rico	2	nopreview	1	14	0	0	0	0
12	13	appear	appear	appear	2	nopreview	1	15	389	389	389	250
13	14	to	to	to	2	nopreview	1	16	114	114	114	114
14	15	have	have	have	2	nopreview	1	17	234	234	234	234
15	16	died	died	died	2	nopreview	1	18	200	200	200	200
16	17	in	in	in	2	nopreview	1	19	263	263	263	263
17	18	a	a	a	2	nopreview	1	20	0	0	0	0
18	19	murder	murder	murder-suicide,	2	nopreview	1	21	778	778	778	137
	20	-	-		2	nopreview	1	22				
	21	suicide	suicide		2	nopreview	1	23				
	22	,	,		2	nopreview	1	24				
19	23	the	the	the	2	nopreview	1	25	179	179	179	179
20	24	cruise	cruise	cruise	2	nopreview	1	26	254	254	254	254
21	25	line	line	line	2	nopreview	1	27	332	332	332	332
22	26	said	said	said.	2	nopreview	1	28	0	0	0	0
	27	.	.		2	nopreview	1	29				
23	28	@entity6	Holland	Holland	2	nopreview	1	30	629	629	629	172
24			America	America	2	nopreview	1	31	616	424	424	424
25			Line	Line	2	nopreview	1	32	179	179	371	179
26	29	said	said	said	2	nopreview	1	33	430	430	430	238
27	30	two	two	two	2	nopreview	1	34	289	289	289	289
28	31	guests	guests	guests	2	nopreview	1	35	0	0	0	0
29	32	were	were	were	2	nopreview	1	36	232	232	232	232
30	33	found	found	found	2	nopreview	1	37	193	193	193	193
31	34	dead	dead	dead	2	nopreview	1	38	231	0	0	0
32	35	inside	inside	inside	2	nopreview	1	39	325	131	362	131
33	36	their	their	their	2	nopreview	1	40	164	164	164	164
34	37	stateroom	stateroom	stateroom	2	nopreview	1	41	419	181	181	181
35	38	on	on	on	2	nopreview	1	42	0	0	0	0
36	39	the	the	the	2	nopreview	1	43	120	120	358	120
37	40	@entity9	ms	ms	2	nopreview	1	44	324	204	204	204
38			Ryndam	Ryndam	2	nopreview	1	45	838	225	958	225
39	41	at	at	at	2	nopreview	1	46	0	0	0	0
40	42	11:30	11:30	11:30	2	nopreview	1	47	788	788	788	499
41	43	a.m.	a.m.	a.m.	2	nopreview	1	48	265	0	0	0
42	44	Thursday	Thursday	Thursday.	2	nopreview	1	49	490	250	755	250
	45	.	.		2	nopreview	1	50				
43	46	-	-	-The	2	nopreview	1	51	266	266	266	266
	47	The	The		2	nopreview	1	52				
44	48	cabin	cabin	cabin	2	nopreview	1	53	211	211	211	211
45	49	was	was	was	2	nopreview	1	54	191	191	191	191
46	50	immediately	immediately	immediately	2	nopreview	1	55	326	326	326	326
47	51	secured	secured	secured,	2	nopreview	1	56	446	446	446	446
	52	,	,		2	nopreview	1	57				
48	53	and	and	and	2	nopreview	1	58	191	191	191	191
49	54	the	the	the	2	nopreview	1	59	128	128	128	128
50	55	authorities	authorities	authorities	2	nopreview	1	60	218	218	218	218
51	56	were	were	were	2	nopreview	1	61	246	246	246	246
52	57	notified	notified	notified,	2	nopreview	1	62	225	225	225	225
	58	,	,		2	nopreview	1	63				
53	59	including	including	including	2	nopreview	1	64	408	408	408	268
54	60	the	the	the	2	nopreview	1	65	213	213	213	213
55	61	@entity12	FBI	FBI,-	2	nopreview	1	66	602	602	602	602
	62	,	,		2	nopreview	1	67				
	63	-	-		2	nopreview	1	68				
56	64	@entity6	Holland	Holland	2	nopreview	1	69	446	446	446	241
57			America	America	2	nopreview	1	70	750	579	944	122
58	65	said	said	said.	2	nopreview	1	71	639	639	639	639
	66	.	.		2	nopreview	1	72				
59	67	-	-	-We	2	nopreview	1	73	169	169	169	169
	68	We	We		2	nopreview	1	74				
60	69	are	are	are	2	nopreview	1	75	0	0	0	0
61	70	cooperating	cooperating	cooperating	2	nopreview	1	76	440	440	440	270
62	71	fully	fully	fully	2	nopreview	1	77	219	219	219	219
63	72	with	with	with	2	nopreview	1	78	0	0	0	0
64	73	the	the	the	2	nopreview	1	79	260	260	260	260
65	74	investigation	investigation	investigation,	2	nopreview	1	80	250	250	250	250
	75	,	,		2	nopreview	1	81				
66	76	and	and	and	2	nopreview	1	82	200	200	200	200
67	77	the	the	the	2	nopreview	1	83	0	0	0	0
68	78	authorities	authorities	authorities	2	nopreview	1	84	386	386	386	198
69	79	will	will	will	2	nopreview	1	85	292	0	0	0
70	80	make	make	make	2	nopreview	1	86	415	164	707	164
71	81	the	the	the	2	nopreview	1	87	142	142	142	142
72	82	official	official	official	2	nopreview	1	88	0	0	0	0
73	83	determination	determination	determination	2	nopreview	1	89	609	478	478	177
74	84	on	on	on	2	nopreview	1	90	0	0	0	0
75	85	what	what	what	2	nopreview	1	91	570	570	570	224
76	86	occurred	occurred	occurred.-	2	nopreview	1	92	561	416	416	416
	87	.	.		2	nopreview	1	93				
77	88	-	-	FBI	2	nopreview	1	94	0	0	0	0
78	89	@entity12	FBI	spokesman	2	nopreview	1	95	1251	1104	1104	569
	90	spokesman	spokesman		2	nopreview	1	96				
79	91	@entity17	Moises	Moises	2	nopreview	1	97	589	589	589	181
80			Quiñones	Quinones	2	nopreview	1	98	982	982	982	459
81	92	said	said	said	2	nopreview	1	99	1061	0	0	0
82	93	authorities	authorities	authorities	2	nopreview	1	100	540	158	2024	158
83	94	were	were	were	2	nopreview	1	101	229	229	229	229
84	95	on	on	on	2	nopreview	1	102	352	196	196	196
85	96	scene	scene	scene	2	nopreview	1	103	206	206	362	206
86	97	investigating	investigating	investigating.	2	nopreview	1	104	225	225	225	225
	98	.	.		2	nopreview	1	105				
87	99	The	The	The	2	nopreview	1	106	0	0	0	0
88	100	ship	ship	ship	2	nopreview	1	107	118	118	118	118
89	101	left	left	left	2	nopreview	1	108	168	168	168	168
90	102	@entity21	Tampa	Tampa,	2	nopreview	1	109	458	458	458	148
	103	,	,		2	nopreview	1	110				
91	104	@entity22	Florida	Florida,	2	nopreview	1	111	256	256	256	256
	105	,	,		2	nopreview	1	112				
92	106	on	on	on	2	nopreview	1	113	344	344	344	344
93	107	March	March	March	2	nopreview	1	114	747	747	747	747
94	108	29	29	29	2	nopreview	1	115	353	353	353	353
95	109	on	on	on	2	nopreview	1	116	134	0	0	0
96	110	a	a	a	2	nopreview	1	117	467	467	601	467
97	111	14	14	14-day	2	nopreview	1	118	144	144	144	144
	112	-	-		2	nopreview	1	119				
	113	day	day		2	nopreview	1	120				
98	114	@entity24	Southern	Southern	2	nopreview	1	121	234	234	234	234
99			Caribbean	Caribbean	2	nopreview	1	122	203	203	203	203
100	115	cruise	cruise	cruise.	2	nopreview	1	123	390	390	390	390
	116	.	.		2	nopreview	1	124				
101	117	It	It	It-s	2	nopreview	1	125	244	244	244	244
	118	-s	-s		2	nopreview	1	126				
102	119	currently	currently	currently	2	nopreview	1	127	184	184	184	184
103	120	in	in	in	2	nopreview	1	128	94	0	0	0
104	121	@entity26	San	San	2	nopreview	1	129	302	302	396	302
105			Juan	Juan,	2	nopreview	1	130	190	190	190	190
	122	,	,		2	nopreview	1	131				
106	123	@entity4	Puerto	Puerto	2	nopreview	1	132	373	373	373	373
107			Rico	Rico.	2	nopreview	1	133	0	0	0	0
	124	.	.		2	nopreview	1	134				
108	125	@entity28	Puerto	Puerto	2	nopreview	1	135	292	0	0	0
109			Rico	Rico	2	nopreview	1	136	693	143	736	143
110			Port	Port	2	nopreview	1	137	368	151	151	151
111			Authority	Authority	2	nopreview	1	138	855	514	514	201
112	126	spokesman	spokesman	spokesman	2	nopreview	1	139	883	440	440	279
113	127	@entity27	Efraín	Efrain	2	nopreview	1	140	701	544	544	544
114			Santiago	Santiago	2	nopreview	1	141	659	439	439	439
115	128	told	told	told	2	nopreview	1	142	490	490	490	490
116	129	@entity30	El	El	2	nopreview	1	143	0	0	0	0
117			Nuevo	Nuevo	2	nopreview	1	144	772	772	772	330
118			Dia	Dia	2	nopreview	1	145	454	231	231	231
119	130	newspaper	newspaper	newspaper	2	nopreview	1	146	917	480	2767	480
120	131	that	that	that	2	nopreview	1	147	163	163	163	163
121	132	the	the	the	2	nopreview	1	148	315	315	315	315
122	133	cleaning	cleaning	cleaning	2	nopreview	1	149	447	447	447	297
123	134	staff	staff	staff	2	nopreview	1	150	115	115	115	115
124	135	on	on	on	2	nopreview	1	151	257	0	0	0
125	136	the	the	the	2	nopreview	1	152	318	318	575	318
126	137	ship	ship	ship	2	nopreview	1	153	145	145	145	145
127	138	had	had	had	2	nopreview	1	154	163	163	163	163
128	139	discovered	discovered	discovered	2	nopreview	1	155	330	330	330	330
129	140	the	the	the	2	nopreview	1	156	157	157	157	157
130	141	deceased	deceased	deceased	2	nopreview	1	157	435	435	435	222
131	142	passengers	passengers	passengers	2	nopreview	1	158	185	185	185	185
132	143	after	after	after	2	nopreview	1	159	264	264	264	264
133	144	knocking	knocking	knocking	2	nopreview	1	160	198	198	198	198
134	145	on	on	on	2	nopreview	1	161	0	0	0	0
135	146	the	the	the	2	nopreview	1	162	0	0	0	0
136	147	cabin	cabin	cabin-s	2	nopreview	1	163	0	0	0	0
	148	-s	-s		2	nopreview	1	164				
137	149	door	door	door.	2	nopreview	1	165	0	0	0	0
	150	.	.		2	nopreview	1	166				
