HumanPosition	AnonymizedPosition	AnonymizedToken	OriginalToken	ExperimentToken	Participant	Condition	TextNo	JointPosition	tt	fp	rp	ff
0	0	@entity0	Chelsea	Chelsea	2	nopreview	11	1	709	0	0	0
2	1	are	are	are	2	nopreview	11	2	860	0	0	0
3	2	looking	looking	looking	2	nopreview	11	3	835	0	0	0
4	3	to	to	to	2	nopreview	11	4	150	0	0	0
5	4	beat	beat	beat	2	nopreview	11	5	583	0	0	0
6	5	@entity1	Manchester	Manchester	2	nopreview	11	6	374	0	0	0
7			City	City	2	nopreview	11	7	460	0	0	0
8	6	to	to	to	2	nopreview	11	8	208	0	0	0
9	7	sign	sign	sign	2	nopreview	11	9	556	0	0	0
10	8	@entity3	Brazilian	Brazilian	2	nopreview	11	10	1255	0	0	0
11	9	prospect	prospect	prospect	2	nopreview	11	11	1983	0	0	0
12	10	@entity2	Nathan	Nathan.	2	nopreview	11	12	1323	0	0	0
	11	.	.		2	nopreview	11	13				
13	12	The	The	The	2	nopreview	11	14	445	0	0	0
14	13	attacking	attacking	attacking	2	nopreview	11	15	445	0	0	0
15	14	midfielder	midfielder	midfielder	2	nopreview	11	16	936	0	0	0
16	15	turned	turned	turned	2	nopreview	11	17	1074	0	0	0
17	16	19	19	19	2	nopreview	11	18	331	0	0	0
18	17	last	last	last	2	nopreview	11	19	809	0	0	0
19	18	month	month	month	2	nopreview	11	20	520	0	0	0
20	19	but	but	but	2	nopreview	11	21	301	0	0	0
21	20	has	has	has	2	nopreview	11	22	576	0	0	0
22	21	been	been	been	2	nopreview	11	23	639	0	0	0
23	22	in	in	in	2	nopreview	11	24	0	0	0	0
24	23	contract	contract	contract	2	nopreview	11	25	1549	0	0	0
25	24	dispute	dispute	dispute	2	nopreview	11	26	618	0	0	0
26	25	with	with	with	2	nopreview	11	27	876	0	0	0
27	26	his	his	his	2	nopreview	11	28	0	0	0	0
28	27	club	club	club	2	nopreview	11	29	405	0	0	0
29	28	@entity6	Atletico	Atletico	2	nopreview	11	30	770	0	0	0
30			Paranaense	Paranaense.	2	nopreview	11	31	2020	0	0	0
	29	.	.		2	nopreview	11	32				
31	30	He	He	He	2	nopreview	11	33	186	0	0	0
32	31	is	is	is	2	nopreview	11	34	0	0	0	0
33	32	due	due	due	2	nopreview	11	35	357	0	0	0
34	33	to	to	to	2	nopreview	11	36	0	0	0	0
35	34	speak	speak	speak	2	nopreview	11	37	702	0	0	0
36	35	to	to	to	2	nopreview	11	38	276	0	0	0
37	36	@entity0	Chelsea	Chelsea	2	nopreview	11	39	305	0	0	0
38	37	next	next	next	2	nopreview	11	40	602	0	0	0
39	38	week	week	week	2	nopreview	11	41	261	0	0	0
40	39	ahead	ahead	ahead	2	nopreview	11	42	376	0	0	0
41	40	of	of	of	2	nopreview	11	43	0	0	0	0
42	41	a	a	a	2	nopreview	11	44	484	0	0	0
43	42	proposed	proposed	proposed	2	nopreview	11	45	639	0	0	0
44	43	move	move	move	2	nopreview	11	46	326	0	0	0
45	44	to	to	to	2	nopreview	11	47	0	0	0	0
46	45	@entity8	Stamford	Stamford	2	nopreview	11	48	1062	0	0	0
47			Bridge	Bridge	2	nopreview	11	49	190	0	0	0
48	46	which	which	which	2	nopreview	11	50	496	0	0	0
49	47	would	would	would	2	nopreview	11	51	242	0	0	0
50	48	likely	likely	likely	2	nopreview	11	52	0	0	0	0
51	49	see	see	see	2	nopreview	11	53	628	223	18995	223
52	50	him	him	him	2	nopreview	11	54	236	0	0	0
53	51	loaned	loaned	loaned	2	nopreview	11	55	313	313	549	313
54	52	out	out	out.	2	nopreview	11	56	154	154	154	154
	53	.	.		2	nopreview	11	57				
55	54	@entity6	Atletico	Manchester	2	nopreview	11	58	1395	999	999	321
			Paranaense		2	nopreview	11	59				
	55	attacking	attacking		2	nopreview	11	60				
	56	midfielder	midfielder		2	nopreview	11	61				
	57	@entity2	Nathan		2	nopreview	11	62				
	58	is	is		2	nopreview	11	63				
	59	attracting	attracting		2	nopreview	11	64				
	60	interest	interest		2	nopreview	11	65				
	61	from	from		2	nopreview	11	66				
	62	@entity0	Chelsea		2	nopreview	11	67				
	63	and	and		2	nopreview	11	68				
	64	@entity1	Manchester		2	nopreview	11	69				
56	65	@entity11	City	City	2	nopreview	11	70	199	199	199	199
57			Jose	have	2	nopreview	11	71	324	324	324	324
58			Mourinho	been	2	nopreview	11	72	279	0	0	0
	66	and	and		2	nopreview	11	73				
	67	@entity12	Manuel		2	nopreview	11	74				
			Pellegrini		2	nopreview	11	75				
	68	will	will		2	nopreview	11	76				
	69	go	go		2	nopreview	11	77				
	70	head	head		2	nopreview	11	78				
59	71	-	-	keen	2	nopreview	11	79	669	143	948	143
	72	to	to		2	nopreview	11	80				
	73	-	-		2	nopreview	11	81				
	74	head	head		2	nopreview	11	82				
60	75	to	to	on	2	nopreview	11	83	0	0	0	0
61	76	sign	sign	Nathan	2	nopreview	11	84	710	261	261	261
	77	@entity3	Brazilian		2	nopreview	11	85				
	78	starlet	starlet		2	nopreview	11	86				
	79	@entity2	Nathan		2	nopreview	11	87				
62	80	@entity1	Manchester	following	2	nopreview	11	88	528	528	528	313
			City		2	nopreview	11	89				
	81	have	have		2	nopreview	11	90				
	82	been	been		2	nopreview	11	91				
	83	keen	keen		2	nopreview	11	92				
	84	on	on		2	nopreview	11	93				
	85	@entity2	Nathan		2	nopreview	11	94				
	86	following	following		2	nopreview	11	95				
63	87	his	his	his	2	nopreview	11	96	620	620	620	620
64	88	performances	performances	performances	2	nopreview	11	97	142	142	142	142
65	89	in	in	in	2	nopreview	11	98	0	0	0	0
66	90	the	the	the	2	nopreview	11	99	99	99	99	99
67	91	@entity16	World	World	2	nopreview	11	100	354	206	206	206
68			U17	U17	2	nopreview	11	101	535	224	683	224
69			Championships	Championships	2	nopreview	11	102	532	532	532	289
70	92	two	two	two	2	nopreview	11	103	407	407	407	407
71	93	years	years	years	2	nopreview	11	104	611	611	1060	193
72	94	ago	ago	ago	2	nopreview	11	105	281	281	281	281
73	95	and	and	and	2	nopreview	11	106	0	0	0	0
74	96	he	he	he	2	nopreview	11	107	282	282	282	282
75	97	has	has	has	2	nopreview	11	108	273	273	273	273
76	98	since	since	since	2	nopreview	11	109	345	176	176	176
77	99	broken	broken	broken	2	nopreview	11	110	218	218	387	218
78	100	into	into	into	2	nopreview	11	111	325	325	325	194
79	101	@entity6	Paranaense	Paranaense-s	2	nopreview	11	112	336	336	336	336
	102	-s	-s		2	nopreview	11	113				
80	103	first	first	first	2	nopreview	11	114	173	173	173	173
81	104	team	team	team.	2	nopreview	11	115	225	225	225	225
	105	.	.		2	nopreview	11	116				
82	106	@entity0	Chelsea	Chelsea	2	nopreview	11	117	357	357	357	234
83	107	have	have	have	2	nopreview	11	118	183	183	183	183
84	108	a	a	a	2	nopreview	11	119	303	0	0	0
85	109	strong	strong	strong	2	nopreview	11	120	383	196	686	196
86	110	@entity3	Brazilian	Brazilian	2	nopreview	11	121	306	306	306	306
87	111	contingency	contingency	contingency	2	nopreview	11	122	378	378	378	215
88	112	with	with	with	2	nopreview	11	123	198	198	198	198
89	113	the	the	the	2	nopreview	11	124	294	294	294	294
90	114	likes	likes	likes	2	nopreview	11	125	136	136	136	136
91	115	of	of	of	2	nopreview	11	126	0	0	0	0
92	116	@entity20	Willian	Willian,	2	nopreview	11	127	244	244	244	244
	117	,	,		2	nopreview	11	128				
93	118	@entity21	Ramires	Ramires,	2	nopreview	11	129	423	423	423	423
	119	,	,		2	nopreview	11	130				
94	120	@entity22	Filipe	Filipe	2	nopreview	11	131	832	624	624	624
95			Luis	Luis	2	nopreview	11	132	424	241	632	241
96	121	and	and	and	2	nopreview	11	133	0	0	0	0
97	122	@entity23	Oscar	Oscar	2	nopreview	11	134	1116	963	963	357
98	123	while	while	while	2	nopreview	11	135	690	272	843	272
99	124	21	21	21-year-old	2	nopreview	11	136	333	333	333	135
	125	-	-		2	nopreview	11	137				
	126	year	year		2	nopreview	11	138				
	127	-	-		2	nopreview	11	139				
	128	old	old		2	nopreview	11	140				
100	129	@entity24	Lucas	Lucas	2	nopreview	11	141	257	257	257	162
101			Piazon	Piazon	2	nopreview	11	142	250	250	250	250
102	130	is	is	is	2	nopreview	11	143	429	429	429	429
103	131	on	on	on	2	nopreview	11	144	0	0	0	0
104	132	loan	loan	loan	2	nopreview	11	145	0	0	0	0
105	133	at	at	at	2	nopreview	11	146	168	168	168	168
106	134	@entity26	Eintracht	Eintracht	2	nopreview	11	147	437	437	437	437
107			Frankfurt	Frankfurt.	2	nopreview	11	148	406	406	10549	406
	135	.	.		2	nopreview	11	149				
