HumanPosition	AnonymizedPosition	AnonymizedToken	OriginalToken	ExperimentToken	Participant	Condition	TextNo	JointPosition	tt	fp	rp	ff
1	0	A	A	A	2	nopreview	20	1	0	0	0	0
2	1	physician	physician	physician,	2	nopreview	20	2	510	0	0	0
	2	,	,		2	nopreview	20	3				
3	3	93	93	93,	2	nopreview	20	4	336	0	0	0
	4	,	,		2	nopreview	20	5				
4	5	who	who	who	2	nopreview	20	6	686	132	1290	132
5				was	2	nopreview	20	7	299	0	0	0
6	6	team	team	team	2	nopreview	20	8	430	196	971	196
7	7	doctor	doctor	doctor	2	nopreview	20	9	380	380	380	380
8	8	for	for	for	2	nopreview	20	10	0	0	0	0
9	9	five	five	five	2	nopreview	20	11	328	328	328	328
10	10	@entity6	U.S.	U.S.	2	nopreview	20	12	0	0	0	0
11	11	men	men	men-s	2	nopreview	20	13	1010	1010	1010	272
	12	-s	-s		2	nopreview	20	14				
12	13	@entity4	Olympic	Olympic	2	nopreview	20	15	440	186	186	186
13	14	hockey	hockey	hockey	2	nopreview	20	16	391	193	645	193
14	15	squads	squads	squads,	2	nopreview	20	17	222	222	222	222
	16	,	,		2	nopreview	20	18				
15	17	including	including	including	2	nopreview	20	19	384	384	384	245
16	18	the	the	the	2	nopreview	20	20	0	0	0	0
17	19	-	-	-Miracle	2	nopreview	20	21	221	221	221	221
	20	@entity8	Miracle		2	nopreview	20	22				
18			on	on	2	nopreview	20	23	191	191	191	191
19			Ice	Ice-	2	nopreview	20	24	136	136	136	136
	21	-	-		2	nopreview	20	25				
20	22	team	team	team	2	nopreview	20	26	325	325	325	325
21	23	that	that	that	2	nopreview	20	27	0	0	0	0
22	24	won	won	won	2	nopreview	20	28	375	375	375	375
23	25	in	in	in	2	nopreview	20	29	0	0	0	0
24	26	the	the	the	2	nopreview	20	30	249	249	249	249
25	27	1980	1980	1980-s,	2	nopreview	20	31	132	132	132	132
	28	-s	-s		2	nopreview	20	32				
	29	,	,		2	nopreview	20	33				
26	30	has	has	has	2	nopreview	20	34	125	125	125	125
27	31	suffered	suffered	suffered	2	nopreview	20	35	451	451	451	254
28	32	serious	serious	serious	2	nopreview	20	36	238	238	238	238
29	33	injuries	injuries	injuries	2	nopreview	20	37	242	0	0	0
30	34	in	in	in	2	nopreview	20	38	136	136	378	136
31	35	an	an	an	2	nopreview	20	39	173	173	173	173
32	36	attack	attack	attack	2	nopreview	20	40	196	196	196	196
33	37	while	while	while	2	nopreview	20	41	0	0	0	0
34	38	visiting	visiting	visiting	2	nopreview	20	42	328	328	328	164
35	39	his	his	his	2	nopreview	20	43	119	0	0	0
36	40	wife	wife	wife-s	2	nopreview	20	44	482	232	351	232
	41	-s	-s		2	nopreview	20	45				
37	42	grave	grave	grave	2	nopreview	20	46	388	176	426	176
38	43	on	on	on	2	nopreview	20	47	377	169	589	169
39	44	Sunday	Sunday	Sunday.	2	nopreview	20	48	163	163	163	163
	45	.	.		2	nopreview	20	49				
40	46	@entity13	George	George	2	nopreview	20	50	291	291	291	291
41			Nagobads	Nagobads	2	nopreview	20	51	1440	1440	1440	242
42	47	was	was	was	2	nopreview	20	52	342	342	342	342
43	48	allegedly	allegedly	allegedly	2	nopreview	20	53	387	387	387	131
44	49	mugged	mugged	mugged	2	nopreview	20	54	425	425	425	425
45	50	by	by	by	2	nopreview	20	55	322	322	322	322
46	51	a	a	a	2	nopreview	20	56	0	0	0	0
47	52	teenager	teenager	teenager	2	nopreview	20	57	375	375	375	375
48	53	on	on	on	2	nopreview	20	58	0	0	0	0
49	54	Sunday	Sunday	Sunday	2	nopreview	20	59	228	228	228	228
50	55	afternoon	afternoon	afternoon	2	nopreview	20	60	491	491	491	491
51	56	at	at	at	2	nopreview	20	61	111	0	0	0
52	57	the	the	the	2	nopreview	20	62	367	367	478	367
53	58	@entity15	Crystal	Crystal	2	nopreview	20	63	245	245	245	245
54			Lake	Lake	2	nopreview	20	64	148	148	148	148
55			Cemetery	Cemetery	2	nopreview	20	65	339	339	339	339
56	59	in	in	in	2	nopreview	20	66	224	224	224	224
57	60	@entity16	Minneapolis	Minneapolis	2	nopreview	20	67	381	381	381	141
58	61	while	while	while	2	nopreview	20	68	335	335	335	192
59	62	laying	laying	laying	2	nopreview	20	69	265	265	265	265
60	63	flowers	flowers	flowers	2	nopreview	20	70	150	150	150	150
61	64	on	on	on	2	nopreview	20	71	236	236	236	236
62	65	his	his	his	2	nopreview	20	72	141	0	0	0
63	66	wife	wife	wife	2	nopreview	20	73	172	172	313	172
64	67	@entity18	Velta	Velta-s	2	nopreview	20	74	430	222	222	222
	68	-s	-s		2	nopreview	20	75				
65	69	grave	grave	grave.	2	nopreview	20	76	383	383	591	383
	70	.	.		2	nopreview	20	77				
66	71	He	He	He	2	nopreview	20	78	0	0	0	0
67	72	was	was	was	2	nopreview	20	79	440	0	0	0
68	73	released	released	released	2	nopreview	20	80	461	176	901	176
69	74	from	from	from	2	nopreview	20	81	314	314	314	314
70	75	the	the	the	2	nopreview	20	82	189	189	189	189
71	76	hospital	hospital	hospital	2	nopreview	20	83	395	395	395	133
72	77	on	on	on	2	nopreview	20	84	264	264	264	264
73	78	Tuesday	Tuesday	Tuesday	2	nopreview	20	85	158	158	158	158
74	79	with	with	with	2	nopreview	20	86	304	304	304	304
75	80	18	18	18	2	nopreview	20	87	272	272	272	272
76	81	stitches	stitches	stitches	2	nopreview	20	88	230	230	230	230
77	82	in	in	in	2	nopreview	20	89	251	0	0	0
78	83	his	his	his	2	nopreview	20	90	185	185	436	185
79	84	head	head	head.	2	nopreview	20	91	212	212	212	212
	85	.	.		2	nopreview	20	92				
80	86	Scroll	Scroll	After	2	nopreview	20	93	239	239	239	239
	87	down	down		2	nopreview	20	94				
	88	for	for		2	nopreview	20	95				
81	89	video	video	allegedly	2	nopreview	20	96	300	300	300	92
	90	Injured	Injured		2	nopreview	20	97				
	91	:	:		2	nopreview	20	98				
	92	Dr.	Dr.		2	nopreview	20	99				
	93	@entity13	George		2	nopreview	20	100				
			Nagobads		2	nopreview	20	101				
	94	,	,		2	nopreview	20	102				
	95	pictured	pictured		2	nopreview	20	103				
	96	in	in		2	nopreview	20	104				
	97	2010	2010		2	nopreview	20	105				
	98	with	with		2	nopreview	20	106				
	99	his	his		2	nopreview	20	107				
	100	@entity25	Hall		2	nopreview	20	108				
			of		2	nopreview	20	109				
			Fame		2	nopreview	20	110				
	101	plaque	plaque		2	nopreview	20	111				
	102	,	,		2	nopreview	20	112				
	103	was	was		2	nopreview	20	113				
	104	allegedly	allegedly		2	nopreview	20	114				
82	105	attacked	attacked	being	2	nopreview	20	115	263	263	263	263
	106	on	on		2	nopreview	20	116				
	107	Sunday	Sunday		2	nopreview	20	117				
	108	by	by		2	nopreview	20	118				
	109	a	a		2	nopreview	20	119				
	110	teenager	teenager		2	nopreview	20	120				
	111	in	in		2	nopreview	20	121				
83	112	a	a	attacked	2	nopreview	20	122	307	307	307	195
	113	cemetary	cemetary		2	nopreview	20	123				
	114	Visiting	Visiting		2	nopreview	20	124				
	115	his	his		2	nopreview	20	125				
	116	wife	wife		2	nopreview	20	126				
	117	:	:		2	nopreview	20	127				
	118	@entity13	Nagobads		2	nopreview	20	128				
	119	was	was		2	nopreview	20	129				
	120	visiting	visiting		2	nopreview	20	130				
	121	his	his		2	nopreview	20	131				
	122	wife	wife		2	nopreview	20	132				
	123	-s	-s		2	nopreview	20	133				
	124	grave	grave		2	nopreview	20	134				
	125	at	at		2	nopreview	20	135				
	126	The	The		2	nopreview	20	136				
	127	@entity15	Crystal		2	nopreview	20	137				
			Lake		2	nopreview	20	138				
			Cemetery		2	nopreview	20	139				
	128	when	when		2	nopreview	20	140				
	129	he	he		2	nopreview	20	141				
	130	was	was		2	nopreview	20	142				
	131	allegedly	allegedly		2	nopreview	20	143				
	132	beaten	beaten		2	nopreview	20	144				
	133	with	with		2	nopreview	20	145				
	134	a	a		2	nopreview	20	146				
	135	snowbrush	snowbrush		2	nopreview	20	147				
	136	After	After		2	nopreview	20	148				
	137	allegedly	allegedly		2	nopreview	20	149				
	138	being	being		2	nopreview	20	150				
	139	attacked	attacked		2	nopreview	20	151				
84	140	by	by	by	2	nopreview	20	152	215	215	215	215
85	141	a	a	a	2	nopreview	20	153	0	0	0	0
86	142	snowbrush	snowbrush	snowbrush	2	nopreview	20	154	864	864	864	321
87	143	on	on	on	2	nopreview	20	155	0	0	383	0
88	144	Sunday	Sunday	Sunday,	2	nopreview	20	156	383	383	383	383
	145	,	,		2	nopreview	20	157				
89	146	a	a	a	2	nopreview	20	158	0	0	0	0
90	147	bloodied	bloodied	bloodied	2	nopreview	20	159	1056	632	632	437
91	148	@entity31	Nagobads	Nagobads	2	nopreview	20	160	1035	1035	1035	643
92	149	managed	managed	managed	2	nopreview	20	161	440	440	440	143
93	150	to	to	to	2	nopreview	20	162	240	240	240	240
94	151	get	get	get	2	nopreview	20	163	0	0	0	0
95	152	back	back	back	2	nopreview	20	164	356	356	356	174
96	153	in	in	in	2	nopreview	20	165	0	0	0	0
97	154	his	his	his	2	nopreview	20	166	430	430	430	430
98	155	car	car	car	2	nopreview	20	167	0	0	0	0
99	156	and	and	and	2	nopreview	20	168	0	0	0	0
100	157	drive	drive	drive	2	nopreview	20	169	302	302	302	302
101	158	away	away	away.	2	nopreview	20	170	322	0	0	0
	159	.	.		2	nopreview	20	171				
102	160	@entity31	Nagobads	Nagobads,	2	nopreview	20	172	816	133	1562	133
	161	,	,		2	nopreview	20	173				
103	162	who	who	who	2	nopreview	20	174	332	332	332	332
104	163	is	is	is	2	nopreview	20	175	326	326	326	152
105	164	recovering	recovering	recovering	2	nopreview	20	176	275	275	275	131
106	165	at	at	at	2	nopreview	20	177	0	0	0	0
107	166	home	home	home,	2	nopreview	20	178	197	197	197	197
	167	,	,		2	nopreview	20	179				
108	168	said	said	said	2	nopreview	20	180	402	402	402	402
109	169	on	on	on	2	nopreview	20	181	0	0	0	0
110	170	Tuesday	Tuesday	Tuesday	2	nopreview	20	182	179	179	179	179
111	171	that	that	that	2	nopreview	20	183	260	260	260	260
112	172	he	he	he	2	nopreview	20	184	0	0	0	0
113	173	sped	sped	sped	2	nopreview	20	185	503	375	375	164
114	174	to	to	to	2	nopreview	20	186	195	195	323	195
115	175	a	a	a	2	nopreview	20	187	0	0	0	0
116	176	nearby	nearby	nearby	2	nopreview	20	188	230	230	230	230
117	177	hospital	hospital	hospital	2	nopreview	20	189	339	339	339	134
118	178	following	following	following	2	nopreview	20	190	368	368	368	368
119	179	the	the	the	2	nopreview	20	191	0	0	0	0
120	180	beating	beating	beating.	2	nopreview	20	192	423	423	423	197
	181	.	.		2	nopreview	20	193				
121	182	He	He	He	2	nopreview	20	194	0	0	0	0
122	183	told	told	told	2	nopreview	20	195	379	379	379	379
123	184	@entity37	The	The	2	nopreview	20	196	243	243	243	243
124			Star	Star	2	nopreview	20	197	0	0	0	0
125			Tribune	Tribune	2	nopreview	20	198	431	431	431	205
126	185	that	that	that	2	nopreview	20	199	323	323	323	323
127	186	he	he	he	2	nopreview	20	200	0	0	0	0
128	187	suffered	suffered	suffered	2	nopreview	20	201	630	630	630	141
129	188	a	a	a	2	nopreview	20	202	0	0	0	0
130	189	slight	slight	slight	2	nopreview	20	203	197	197	197	197
131	190	concussion	concussion	concussion	2	nopreview	20	204	340	340	340	340
132	191	and	and	and	2	nopreview	20	205	476	284	284	284
133	192	was	was	was	2	nopreview	20	206	279	123	471	123
134	193	kept	kept	kept	2	nopreview	20	207	224	0	0	0
135	194	overnight	overnight	overnight	2	nopreview	20	208	398	247	622	247
136	195	for	for	for	2	nopreview	20	209	225	225	225	225
137	196	observation	observation	observation.	2	nopreview	20	210	276	276	276	276
	197	.	.		2	nopreview	20	211				
138	198	Video	Video	-I	2	nopreview	20	212	0	0	0	0
	199	courtesy	courtesy		2	nopreview	20	213				
	200	@entity40	Fox		2	nopreview	20	214				
			9		2	nopreview	20	215				
139	201	-	-	brought	2	nopreview	20	216	314	314	314	314
	202	I	I		2	nopreview	20	217				
	203	brought	brought		2	nopreview	20	218				
140	204	new	new	new	2	nopreview	20	219	471	471	471	471
141	205	flowers	flowers	flowers	2	nopreview	20	220	91	0	0	0
142	206	and	and	and	2	nopreview	20	221	173	173	173	173
143	207	was	was	was	2	nopreview	20	222	168	168	168	168
144	208	just	just	just	2	nopreview	20	223	428	213	213	213
145	209	stooping	stooping	stooping	2	nopreview	20	224	351	169	566	169
146	210	down	down	down,-	2	nopreview	20	225	160	160	160	160
	211	,	,		2	nopreview	20	226				
147	212	-	-	said	2	nopreview	20	227	992	992	992	992
	213	said	said		2	nopreview	20	228				
148	214	@entity13	Nagobads	Nagobads	2	nopreview	20	229	409	409	409	409
149	215	of	of	of	2	nopreview	20	230	378	378	378	378
150	216	honoring	honoring	honoring	2	nopreview	20	231	321	321	321	216
151	217	his	his	his	2	nopreview	20	232	259	259	259	259
152	218	wife	wife	wife	2	nopreview	20	233	0	0	0	0
153	219	@entity31	Velta	Velta	2	nopreview	20	234	240	240	240	240
154			Nagobads	Nagobads	2	nopreview	20	235	292	292	292	292
155	220	who	who	who	2	nopreview	20	236	0	0	0	0
156	221	died	died	died	2	nopreview	20	237	467	467	467	467
157	222	in	in	in	2	nopreview	20	238	254	254	345	254
158	223	2005	2005	2005.	2	nopreview	20	239	494	494	494	133
	224	.	.		2	nopreview	20	240				
159	225	Nagobads	Nagobads	Nagobads	2	nopreview	20	241	411	411	411	411
160	226	said	said	said	2	nopreview	20	242	307	307	307	307
161	227	that	that	that	2	nopreview	20	243	415	415	415	253
162	228	by	by	by	2	nopreview	20	244	0	0	0	0
163	229	throwing	throwing	throwing	2	nopreview	20	245	337	337	337	337
164	230	his	his	his	2	nopreview	20	246	258	258	258	258
165	231	wallet	wallet	wallet	2	nopreview	20	247	126	126	126	126
166	232	in	in	in	2	nopreview	20	248	223	0	0	0
167	233	attempt	attempt	attempt	2	nopreview	20	249	833	201	1056	201
168	234	to	to	to	2	nopreview	20	250	0	0	0	0
169	235	distract	distract	distract	2	nopreview	20	251	417	417	417	183
170	236	the	the	the	2	nopreview	20	252	377	377	377	377
171	237	teen	teen	teen	2	nopreview	20	253	235	235	235	235
172	238	he	he	he	2	nopreview	20	254	0	0	0	0
173	239	was	was	was	2	nopreview	20	255	235	0	0	0
174	240	able	able	able	2	nopreview	20	256	148	148	383	148
175	241	to	to	to	2	nopreview	20	257	0	0	0	0
176	242	get	get	get	2	nopreview	20	258	290	290	290	290
177	243	away	away	away	2	nopreview	20	259	140	0	0	0
178	244	without	without	without	2	nopreview	20	260	530	305	445	305
179	245	further	further	further	2	nopreview	20	261	369	369	594	219
180	246	harm	harm	harm.	2	nopreview	20	262	0	0	0	0
	247	.	.		2	nopreview	20	263				
181	248	-	-	-I-m	2	nopreview	20	264	0	0	0	0
	249	I	I		2	nopreview	20	265				
	250	’m	’m		2	nopreview	20	266				
182	251	so	so	so	2	nopreview	20	267	370	370	370	214
183	252	lucky	lucky	lucky.	2	nopreview	20	268	0	0	0	0
	253	.	.		2	nopreview	20	269				
184	254	…	…	...	2	nopreview	20	270	0	0	0	0
185	255	I	I	I	2	nopreview	20	271	0	0	0	0
186	256	used	used	used	2	nopreview	20	272	186	186	186	186
187	257	that	that	that	2	nopreview	20	273	509	509	509	509
188	258	little	little	little	2	nopreview	20	274	156	156	156	156
189	259	trick	trick	trick	2	nopreview	20	275	288	288	288	288
190	260	and	and	and	2	nopreview	20	276	0	0	0	0
191	261	threw	threw	threw	2	nopreview	20	277	372	372	372	372
192	262	the	the	the	2	nopreview	20	278	0	0	0	0
193	263	wallet	wallet	wallet	2	nopreview	20	279	281	281	281	281
194	264	to	to	to	2	nopreview	20	280	203	0	0	0
195	265	get	get	get	2	nopreview	20	281	195	195	398	195
196	266	to	to	to	2	nopreview	20	282	253	0	0	0
197	267	my	my	my	2	nopreview	20	283	0	0	0	0
198	268	car	car	car-	2	nopreview	20	284	347	347	600	347
	269	-	-		2	nopreview	20	285				
199	270	about	about	about	2	nopreview	20	286	275	275	275	275
200	271	40	40	40	2	nopreview	20	287	0	0	0	0
201	272	yards	yards	yards	2	nopreview	20	288	155	155	155	155
202	273	away	away	away,	2	nopreview	20	289	447	159	159	159
	274	,	,		2	nopreview	20	290				
203	275	the	the	the	2	nopreview	20	291	126	0	0	0
204	276	doctor	doctor	doctor	2	nopreview	20	292	1431	1248	1845	376
205	277	said	said	said.	2	nopreview	20	293	260	260	260	260
	278	.	.		2	nopreview	20	294				
206	279	As	As	As	2	nopreview	20	295	140	140	140	140
207	280	the	the	the	2	nopreview	20	296	0	0	0	0
208	281	boy	boy	boy	2	nopreview	20	297	235	0	0	0
209	282	picked	picked	picked	2	nopreview	20	298	322	127	557	127
210	283	up	up	up	2	nopreview	20	299	0	0	0	0
211	284	the	the	the	2	nopreview	20	300	333	333	333	333
212	285	wallet	wallet	wallet,	2	nopreview	20	301	0	0	0	0
	286	,	,		2	nopreview	20	302				
213	287	@entity31	Nagobads	Nagobads	2	nopreview	20	303	249	249	249	249
214	288	continued	continued	continued,	2	nopreview	20	304	285	285	285	285
	289	,	,		2	nopreview	20	305				
215	290	-	-	-I	2	nopreview	20	306	0	0	0	0
	291	I	I		2	nopreview	20	307				
216	292	was	was	was	2	nopreview	20	308	178	0	0	0
217	293	running	running	running	2	nopreview	20	309	186	186	364	186
218	294	…	…	...	2	nopreview	20	310	0	0	0	0
219	295	really	really	really	2	nopreview	20	311	414	414	414	414
220	296	fast	fast	fast.	2	nopreview	20	312	308	308	308	308
	297	.	.		2	nopreview	20	313				
221	298	I	I	I	2	nopreview	20	314	215	215	215	215
222	299	was	was	was	2	nopreview	20	315	0	0	0	0
223	300	surprised	surprised	surprised	2	nopreview	20	316	365	365	365	149
224	301	how	how	how	2	nopreview	20	317	451	179	179	179
225	302	I	I	I	2	nopreview	20	318	0	0	0	0
226	303	could	could	could	2	nopreview	20	319	301	163	573	163
227	304	run	run	run	2	nopreview	20	320	0	0	0	0
228	305	like	like	like	2	nopreview	20	321	226	226	226	226
229	306	this	this	this.-	2	nopreview	20	322	0	0	0	0
	307	.	.		2	nopreview	20	323				
230	308	-	-	Nagobads	2	nopreview	20	324	236	236	236	236
	309	Victory	Victory		2	nopreview	20	325				
	310	:	:		2	nopreview	20	326				
	311	He	He		2	nopreview	20	327				
	312	was	was		2	nopreview	20	328				
	313	the	the		2	nopreview	20	329				
	314	doctor	doctor		2	nopreview	20	330				
	315	fro	fro		2	nopreview	20	331				
	316	the	the		2	nopreview	20	332				
	317	-	-		2	nopreview	20	333				
	318	@entity8	Miracle		2	nopreview	20	334				
			on		2	nopreview	20	335				
			Ice		2	nopreview	20	336				
	319	-	-		2	nopreview	20	337				
	320	team	team		2	nopreview	20	338				
	321	that	that		2	nopreview	20	339				
	322	won	won		2	nopreview	20	340				
	323	the	the		2	nopreview	20	341				
	324	improbable	improbable		2	nopreview	20	342				
	325	gold	gold		2	nopreview	20	343				
	326	medal	medal		2	nopreview	20	344				
	327	in	in		2	nopreview	20	345				
	328	@entity62	Lake		2	nopreview	20	346				
	329	@entity8	Placid		2	nopreview	20	347				
			Miracle		2	nopreview	20	348				
			on		2	nopreview	20	349				
			Ice		2	nopreview	20	350				
	330	:	:		2	nopreview	20	351				
	331	Nagobads	Nagobads		2	nopreview	20	352				
231	332	was	was	said	2	nopreview	20	353	278	0	0	0
232	333	team	team	that	2	nopreview	20	354	374	168	446	168
233	334	doctor	doctor	he	2	nopreview	20	355	305	190	190	190
	335	for	for		2	nopreview	20	356				
234	336	the	the	bled	2	nopreview	20	357	264	264	264	264
235	337	famous	famous	heavily	2	nopreview	20	358	287	122	608	122
	338	-	-		2	nopreview	20	359				
	339	@entity8	Miracle		2	nopreview	20	360				
			on		2	nopreview	20	361				
			Ice		2	nopreview	20	362				
	340	-	-		2	nopreview	20	363				
	341	team	team		2	nopreview	20	364				
	342	that	that		2	nopreview	20	365				
	343	won	won		2	nopreview	20	366				
	344	@entity4	Olympic		2	nopreview	20	367				
	345	gold	gold		2	nopreview	20	368				
	346	in	in		2	nopreview	20	369				
	347	1980	1980		2	nopreview	20	370				
	348	and	and		2	nopreview	20	371				
	349	that	that		2	nopreview	20	372				
	350	inspired	inspired		2	nopreview	20	373				
	351	the	the		2	nopreview	20	374				
	352	2004	2004		2	nopreview	20	375				
	353	movie	movie		2	nopreview	20	376				
	354	-	-		2	nopreview	20	377				
	355	Miracle	Miracle		2	nopreview	20	378				
	356	-	-		2	nopreview	20	379				
	357	@entity13	Nagobads		2	nopreview	20	380				
	358	said	said		2	nopreview	20	381				
	359	that	that		2	nopreview	20	382				
	360	he	he		2	nopreview	20	383				
	361	bled	bled		2	nopreview	20	384				
	362	heavily	heavily		2	nopreview	20	385				
236	363	while	while	while	2	nopreview	20	386	135	135	135	135
237	364	behind	behind	behind	2	nopreview	20	387	508	256	256	256
238	365	the	the	the	2	nopreview	20	388	0	0	0	0
239	366	wheel	wheel	wheel	2	nopreview	20	389	156	156	408	156
240	367	of	of	of	2	nopreview	20	390	147	147	147	147
241	368	his	his	his	2	nopreview	20	391	148	148	148	148
242	369	car	car	car	2	nopreview	20	392	0	0	0	0
243	370	and	and	and	2	nopreview	20	393	0	0	0	0
244	371	risked	risked	risked	2	nopreview	20	394	347	347	347	347
245	372	being	being	being	2	nopreview	20	395	180	180	180	180
246	373	stopped	stopped	stopped	2	nopreview	20	396	423	263	263	263
247	374	by	by	by	2	nopreview	20	397	310	0	0	0
248	375	a	a	a	2	nopreview	20	398	0	0	0	0
249	376	cop	cop	cop.	2	nopreview	20	399	189	189	659	189
	377	.	.		2	nopreview	20	400				
250	378	-	-	-I	2	nopreview	20	401	0	0	0	0
	379	I	I		2	nopreview	20	402				
251	380	drove	drove	drove	2	nopreview	20	403	370	370	370	370
252	381	way	way	way	2	nopreview	20	404	0	0	0	0
253	382	over	over	over	2	nopreview	20	405	615	615	615	337
254	383	the	the	the	2	nopreview	20	406	139	139	139	139
255	384	speed	speed	speed	2	nopreview	20	407	395	395	395	169
256	385	limit	limit	limit.	2	nopreview	20	408	0	0	0	0
	386	.	.		2	nopreview	20	409				
257	387	If	If	If	2	nopreview	20	410	367	0	0	0
258	388	a	a	a	2	nopreview	20	411	261	261	628	261
259	389	cop	cop	cop	2	nopreview	20	412	0	0	0	0
260	390	catches	catches	catches	2	nopreview	20	413	392	392	392	157
261	391	me	me	me,	2	nopreview	20	414	0	0	0	0
	392	,	,		2	nopreview	20	415				
262	393	that	that	that-s	2	nopreview	20	416	327	327	327	327
	394	’s	’s		2	nopreview	20	417				
263	395	fine	fine	fine,-	2	nopreview	20	418	0	0	0	0
	396	,	,		2	nopreview	20	419				
264	397	-	-	he	2	nopreview	20	420	693	693	693	693
265	398	he	he	said	2	nopreview	20	421	0	0	0	0
	399	said	said		2	nopreview	20	422				
266	400	he	he	he	2	nopreview	20	423	240	0	0	0
267	401	thought	thought	thought	2	nopreview	20	424	200	200	440	200
268	402	after	after	after	2	nopreview	20	425	354	354	354	354
269	403	the	the	the	2	nopreview	20	426	0	0	0	0
270	404	attack	attack	attack	2	nopreview	20	427	269	269	269	269
271	405	on	on	on	2	nopreview	20	428	0	0	0	0
272	406	Sunday	Sunday	Sunday.	2	nopreview	20	429	637	454	454	138
	407	.	.		2	nopreview	20	430				
273	408	Witness	Witness	Witness	2	nopreview	20	431	733	494	916	494
274	409	@entity76	Justin	Justin	2	nopreview	20	432	471	471	471	471
275			McCarthy	McCarthy	2	nopreview	20	433	611	611	611	611
276	410	says	says	says	2	nopreview	20	434	559	559	559	334
277	411	he	he	he	2	nopreview	20	435	0	0	0	0
278	412	saw	saw	saw	2	nopreview	20	436	209	209	209	209
279	413	a	a	a	2	nopreview	20	437	0	0	0	0
280	414	young	young	young	2	nopreview	20	438	218	218	218	218
281	415	man	man	man	2	nopreview	20	439	314	314	314	314
282	416	around	around	around	2	nopreview	20	440	128	128	128	128
283	417	the	the	the	2	nopreview	20	441	101	0	0	0
284	418	age	age	age	2	nopreview	20	442	322	90	423	90
285	419	of	of	of	2	nopreview	20	443	0	0	0	0
286	420	14	14	14	2	nopreview	20	444	213	213	213	213
287	421	or	or	or	2	nopreview	20	445	170	170	170	170
288	422	15	15	15	2	nopreview	20	446	0	0	0	0
289	423	looking	looking	looking	2	nopreview	20	447	307	307	307	130
290	424	through	through	through	2	nopreview	20	448	452	173	173	173
291	425	a	a	a	2	nopreview	20	449	242	242	521	242
292	426	wallet	wallet	wallet	2	nopreview	20	450	0	0	0	0
293	427	near	near	near	2	nopreview	20	451	181	181	181	181
294	428	the	the	the	2	nopreview	20	452	0	0	0	0
295	429	mausoleum	mausoleum	mausoleum	2	nopreview	20	453	566	566	566	218
296	430	before	before	before	2	nopreview	20	454	371	230	230	230
297	431	fleeing	fleeing	fleeing	2	nopreview	20	455	267	267	408	267
298	432	by	by	by	2	nopreview	20	456	259	0	0	0
299	433	bicycle	bicycle	bicycle	2	nopreview	20	457	203	203	462	203
300	434	and	and	and	2	nopreview	20	458	0	0	0	0
301	435	jumping	jumping	jumping	2	nopreview	20	459	349	349	349	349
302	436	over	over	over	2	nopreview	20	460	333	0	0	0
303	437	a	a	a	2	nopreview	20	461	0	0	0	0
304	438	fence	fence	fence.	2	nopreview	20	462	140	140	473	140
	439	.	.		2	nopreview	20	463				
305	440	-	-	-I	2	nopreview	20	464	207	207	207	207
	441	I	I		2	nopreview	20	465				
306	442	saw	saw	saw	2	nopreview	20	466	0	0	0	0
307	443	the	the	the	2	nopreview	20	467	622	421	421	244
308	444	kid	kid	kid	2	nopreview	20	468	83	0	0	0
309	445	there	there	there.	2	nopreview	20	469	391	261	545	261
	446	.	.		2	nopreview	20	470				
310	447	I	I	I	2	nopreview	20	471	0	0	0	0
311	448	put	put	put	2	nopreview	20	472	0	0	0	0
312	449	two	two	two	2	nopreview	20	473	512	335	335	335
313	450	and	and	and	2	nopreview	20	474	212	0	0	0
314	451	two	two	two	2	nopreview	20	475	362	184	573	184
315	452	together	together	together,	2	nopreview	20	476	185	185	363	185
	453	,	,		2	nopreview	20	477				
316	454	and	and	and	2	nopreview	20	478	0	0	0	0
317	455	I	I	I	2	nopreview	20	479	0	0	0	0
318	456	just	just	just	2	nopreview	20	480	441	441	441	244
319	457	got	got	got	2	nopreview	20	481	0	0	0	0
320	458	really	really	really	2	nopreview	20	482	323	323	323	323
321	459	mad	mad	mad,-	2	nopreview	20	483	406	406	406	189
	460	,	,		2	nopreview	20	484				
322	461	-	-	said	2	nopreview	20	485	436	436	436	257
	462	said	said		2	nopreview	20	486				
323	463	@entity76	McCarthy	McCarthy.	2	nopreview	20	487	406	406	406	406
	464	.	.		2	nopreview	20	488				
324	465	@entity76	McCarthy	McCarthy	2	nopreview	20	489	186	186	186	186
325	466	said	said	said	2	nopreview	20	490	310	0	0	0
326	467	he	he	he	2	nopreview	20	491	0	0	0	0
327	468	chased	chased	chased	2	nopreview	20	492	121	121	431	121
328	469	the	the	the	2	nopreview	20	493	366	366	366	366
329	470	teen	teen	teen	2	nopreview	20	494	273	273	273	273
330	471	but	but	but	2	nopreview	20	495	275	172	172	172
331	472	not	not	not	2	nopreview	20	496	349	349	452	349
332	473	very	very	very	2	nopreview	20	497	306	306	306	306
333	474	far	far	far.	2	nopreview	20	498	211	211	211	211
	475	.	.		2	nopreview	20	499				
334	476	-	-	-I-m	2	nopreview	20	500	181	181	181	181
	477	I	I		2	nopreview	20	501				
	478	’m	’m		2	nopreview	20	502				
335	479	52	52	52	2	nopreview	20	503	300	300	430	300
336	480	and	and	and	2	nopreview	20	504	349	349	349	137
337	481	I	I	I-m	2	nopreview	20	505	505	505	505	300
	482	’m	’m		2	nopreview	20	506				
338	483	kind	kind	kind	2	nopreview	20	507	0	0	0	0
339	484	of	of	of	2	nopreview	20	508	0	0	205	0
340	485	fat	fat	fat.	2	nopreview	20	509	0	0	0	0
	486	.	.		2	nopreview	20	510				
341	487	It	It	It	2	nopreview	20	511	215	215	215	215
342	488	was	was	wasn-t	2	nopreview	20	512	489	489	489	209
	489	n’t	n’t		2	nopreview	20	513				
343	490	going	going	going	2	nopreview	20	514	298	298	298	298
344	491	to	to	to	2	nopreview	20	515	146	146	146	146
345	492	happen	happen	happen.	2	nopreview	20	516	0	0	0	0
	493	.	.		2	nopreview	20	517				
346	494	…	…	...	2	nopreview	20	518	0	0	0	0
347	495	I	I	I	2	nopreview	20	519	0	0	0	0
348	496	was	was	was	2	nopreview	20	520	321	321	321	321
349	497	completely	completely	completely	2	nopreview	20	521	0	0	0	0
350	498	exhausted	exhausted	exhausted,-	2	nopreview	20	522	517	517	517	257
	499	,	,		2	nopreview	20	523				
351	500	-	-	said	2	nopreview	20	524	383	383	383	383
	501	said	said		2	nopreview	20	525				
352	502	@entity76	McCarthy	McCarthy.	2	nopreview	20	526	318	0	0	0
	503	.	.		2	nopreview	20	527				
353	504	@entity87	Mccarthy	McCarthy	2	nopreview	20	528	330	123	648	123
354	505	said	said	said	2	nopreview	20	529	171	171	171	171
355	506	that	that	that	2	nopreview	20	530	379	379	379	188
356	507	@entity13	Nagobads	Nagobads	2	nopreview	20	531	491	491	491	202
357	508	told	told	told	2	nopreview	20	532	649	649	649	649
358	509	him	him	him,	2	nopreview	20	533	0	0	0	0
	510	,	,		2	nopreview	20	534				
359	511	-	-	-I	2	nopreview	20	535	0	0	0	0
	512	I	I		2	nopreview	20	536				
360	513	gave	gave	gave	2	nopreview	20	537	227	227	227	227
361	514	him	him	him	2	nopreview	20	538	781	251	251	251
362	515	my	my	my	2	nopreview	20	539	0	0	0	0
363	516	wallet	wallet	wallet,	2	nopreview	20	540	112	112	343	112
	517	,	,		2	nopreview	20	541				
364	518	and	and	and	2	nopreview	20	542	184	0	0	0
365	519	he	he	he	2	nopreview	20	543	214	214	398	214
366	520	still	still	still	2	nopreview	20	544	812	282	1111	282
367	521	tried	tried	tried	2	nopreview	20	545	382	0	0	0
368	522	to	to	to	2	nopreview	20	546	0	0	0	0
369	523	kill	kill	kill	2	nopreview	20	547	352	127	734	127
370	524	me	me	me.-	2	nopreview	20	548	0	0	0	0
	525	.	.		2	nopreview	20	549				
371	526	’	’	Nagobads	2	nopreview	20	550	1032	1032	1032	346
	527	@entity13	Nagobads		2	nopreview	20	551				
372	528	was	was	was	2	nopreview	20	552	370	370	370	370
373	529	the	the	the	2	nopreview	20	553	0	0	0	0
374	530	@entity89	University	University	2	nopreview	20	554	541	541	541	206
375			of	of	2	nopreview	20	555	0	0	0	0
376			Minnesota	Minnesota	2	nopreview	20	556	221	221	221	221
377	531	men	men	men-s	2	nopreview	20	557	272	272	272	272
	532	-s	-s		2	nopreview	20	558				
378	533	hockey	hockey	hockey	2	nopreview	20	559	312	312	312	312
379	534	team	team	team	2	nopreview	20	560	0	0	0	0
380	535	physician	physician	physician	2	nopreview	20	561	304	304	304	304
381	536	for	for	for	2	nopreview	20	562	246	246	246	246
382	537	34	34	34	2	nopreview	20	563	205	205	205	205
383	538	years	years	years	2	nopreview	20	564	0	0	0	0
384	539	until	until	until	2	nopreview	20	565	310	310	310	310
385	540	his	his	his	2	nopreview	20	566	0	0	0	0
386	541	retirement	retirement	retirement	2	nopreview	20	567	418	418	418	222
387	542	in	in	in	2	nopreview	20	568	290	290	290	290
388	543	1992	1992	1992.	2	nopreview	20	569	332	332	332	82
	544	.	.		2	nopreview	20	570				
389	545	He	He	He	2	nopreview	20	571	0	0	0	0
390	546	also	also	also	2	nopreview	20	572	887	887	887	536
391	547	worked	worked	worked	2	nopreview	20	573	236	236	236	236
392	548	for	for	for	2	nopreview	20	574	0	0	0	0
393	549	the	the	the	2	nopreview	20	575	390	167	167	167
394	550	@entity93	Minnesota	Minnesota	2	nopreview	20	576	162	162	162	162
395			North	North	2	nopreview	20	577	485	0	0	0
396			Stars	Stars	2	nopreview	20	578	911	135	642	135
397	551	in	in	in	2	nopreview	20	579	0	0	0	0
398	552	the	the	the	2	nopreview	20	580	384	384	384	211
399	553	late	late	late	2	nopreview	20	581	172	172	172	172
400	554	1980s	1980s	1980s	2	nopreview	20	582	186	186	186	186
401	555	and	and	and	2	nopreview	20	583	192	0	0	0
402	556	early	early	early	2	nopreview	20	584	378	378	378	378
403	557	1990s	1990s	1990s.	2	nopreview	20	585	408	408	940	408
	558	.	.		2	nopreview	20	586				
404	559	And	And	And	2	nopreview	20	587	0	0	0	0
405	560	he	he	he	2	nopreview	20	588	414	0	0	0
406	561	was	was	was	2	nopreview	20	589	894	224	1531	224
407	562	team	team	team	2	nopreview	20	590	901	901	901	139
408	563	doctor	doctor	doctor	2	nopreview	20	591	1041	1041	1041	1041
409	564	for	for	for	2	nopreview	20	592	0	0	0	0
410	565	the	the	the	2	nopreview	20	593	217	217	217	217
411	566	famous	famous	famous	2	nopreview	20	594	175	175	175	175
412	567	-	-	-Miracle	2	nopreview	20	595	498	326	326	134
	568	@entity8	Miracle		2	nopreview	20	596				
413			on	on	2	nopreview	20	597	404	404	404	404
414			Ice	Ice-	2	nopreview	20	598	229	0	0	0
	569	-	-		2	nopreview	20	599				
415	570	team	team	team	2	nopreview	20	600	357	357	357	357
416	571	that	that	that	2	nopreview	20	601	179	0	0	0
417	572	won	won	won	2	nopreview	20	602	406	406	406	406
418	573	@entity4	Olympic	Olympic	2	nopreview	20	603	175	0	0	0
419	574	gold	gold	gold	2	nopreview	20	604	495	139	139	139
420	575	in	in	in	2	nopreview	20	605	204	204	379	204
421	576	1980	1980	1980.	2	nopreview	20	606	230	230	230	230
	577	.	.		2	nopreview	20	607				
422	578	He	He	He	2	nopreview	20	608	0	0	0	0
423	579	was	was	was	2	nopreview	20	609	627	627	627	627
424	580	played	played	played	2	nopreview	20	610	1098	1098	1098	332
425	581	by	by	by	2	nopreview	20	611	0	0	0	0
426	582	@entity96	Kenneth	Kenneth	2	nopreview	20	612	497	497	497	327
427			Welsh	Welsh	2	nopreview	20	613	199	199	199	199
428	583	in	in	in	2	nopreview	20	614	304	0	0	0
429	584	the	the	the	2	nopreview	20	615	349	199	653	199
430	585	2004	2004	2004	2	nopreview	20	616	305	305	305	305
431	586	movie	movie	movie	2	nopreview	20	617	282	0	0	0
432	587	-	-	-Miracle,-	2	nopreview	20	618	431	188	713	188
	588	@entity98	Miracle		2	nopreview	20	619				
	589	,	,		2	nopreview	20	620				
433	590	-	-	about	2	nopreview	20	621	415	173	173	173
	591	about	about		2	nopreview	20	622				
434	592	the	the	the	2	nopreview	20	623	275	275	517	275
435	593	@entity6	USA	USA-s	2	nopreview	20	624	557	557	557	180
	594	’s	’s		2	nopreview	20	625				
436	595	improbable	improbable	improbable	2	nopreview	20	626	270	270	270	270
437	596	gold	gold	gold	2	nopreview	20	627	147	147	147	147
438	597	medal	medal	medal	2	nopreview	20	628	296	296	296	173
439	598	run	run	run	2	nopreview	20	629	237	0	0	0
440	599	in	in	in	2	nopreview	20	630	209	209	446	209
441	600	@entity62	Lake	Lake	2	nopreview	20	631	0	0	0	0
442			Placid	Placid.	2	nopreview	20	632	468	468	468	125
	601	.	.		2	nopreview	20	633				
443	602	The	The	The	2	nopreview	20	634	258	258	258	258
444	603	cemetery	cemetery	cemetery	2	nopreview	20	635	761	0	0	0
445	604	is	is	is	2	nopreview	20	636	1371	190	2132	190
446	605	owned	owned	owned	2	nopreview	20	637	675	253	253	253
447	606	by	by	by	2	nopreview	20	638	180	180	602	180
448	607	@entity101	Bill	Bill	2	nopreview	20	639	222	222	222	222
449			McReavy	McReavy,	2	nopreview	20	640	674	478	478	478
	608	,	,		2	nopreview	20	641				
450	609	who	who	who	2	nopreview	20	642	0	0	0	0
451	610	said	said	said,	2	nopreview	20	643	486	170	682	170
	611	,	,		2	nopreview	20	644				
452	612	-	-	-This	2	nopreview	20	645	195	0	0	0
	613	This	This		2	nopreview	20	646				
453	614	is	is	is	2	nopreview	20	647	162	162	357	162
454	615	an	an	an	2	nopreview	20	648	168	168	168	168
455	616	isolated	isolated	isolated	2	nopreview	20	649	256	256	256	256
456	617	incident	incident	incident	2	nopreview	20	650	407	407	407	128
457	618	and	and	and	2	nopreview	20	651	168	168	168	168
458	619	we	we	we	2	nopreview	20	652	0	0	0	0
459	620	are	are	are	2	nopreview	20	653	169	169	169	169
460	621	looking	looking	looking	2	nopreview	20	654	125	125	125	125
461	622	at	at	at	2	nopreview	20	655	0	0	0	0
462	623	it	it	it	2	nopreview	20	656	0	0	0	0
463	624	very	very	very	2	nopreview	20	657	146	146	146	146
464	625	closely	closely	closely.-	2	nopreview	20	658	204	204	204	204
	626	.	.		2	nopreview	20	659				
465	627	-	-	Unfortunately,	2	nopreview	20	660	285	285	285	285
	628	Unfortunately	Unfortunately		2	nopreview	20	661				
	629	,	,		2	nopreview	20	662				
466	630	It	It	it	2	nopreview	20	663	232	232	232	232
467	631	was	was	wasn-t	2	nopreview	20	664	315	315	315	315
	632	n-t	n-t		2	nopreview	20	665				
468	633	captured	captured	captured	2	nopreview	20	666	285	285	285	195
469	634	on	on	on	2	nopreview	20	667	0	0	0	0
470	635	security	security	security	2	nopreview	20	668	222	222	1572	222
471	636	video	video	video.	2	nopreview	20	669	0	0	0	0
	637	.	.		2	nopreview	20	670				
