HumanPosition	AnonymizedPosition	AnonymizedToken	OriginalToken	ExperimentToken	Participant	Condition	TextNo	JointPosition	tt	fp	rp	ff
1	0	(	(	Blues	2	nopreview	5	1	443	443	443	443
	1	@entity2	CNN		2	nopreview	5	2				
	2	)	)		2	nopreview	5	3				
	3	@entity1	Blues		2	nopreview	5	4				
2	4	legend	legend	legend	2	nopreview	5	5	316	316	316	316
3	5	@entity0	B.B.	B.B.	2	nopreview	5	6	330	330	330	330
4			King	King	2	nopreview	5	7	284	284	284	284
5	6	was	was	was	2	nopreview	5	8	206	0	0	0
6	7	hospitalized	hospitalized	hospitalized	2	nopreview	5	9	334	196	540	196
7	8	for	for	for	2	nopreview	5	10	213	0	0	0
8	9	dehydration	dehydration	dehydration,	2	nopreview	5	11	559	193	772	193
	10	,	,		2	nopreview	5	12				
9	11	though	though	though	2	nopreview	5	13	438	245	245	245
10	12	the	the	the	2	nopreview	5	14	214	0	0	0
11	13	ailment	ailment	ailment	2	nopreview	5	15	885	793	793	262
12	14	did	did	didn-t	2	nopreview	5	16	373	373	872	373
	15	n-t	n-t		2	nopreview	5	17				
13	16	keep	keep	keep	2	nopreview	5	18	238	0	0	0
14	17	him	him	him	2	nopreview	5	19	126	126	364	126
15	18	out	out	out	2	nopreview	5	20	370	370	370	370
16	19	for	for	for	2	nopreview	5	21	0	0	0	0
17	20	long	long	long.	2	nopreview	5	22	243	243	243	243
	21	.	.		2	nopreview	5	23				
18	22	@entity0	King	King-s	2	nopreview	5	24	172	172	172	172
	23	-s	-s		2	nopreview	5	25				
19	24	dehydration	dehydration	dehydration	2	nopreview	5	26	0	0	0	0
20	25	was	was	was	2	nopreview	5	27	263	263	263	263
21	26	caused	caused	caused	2	nopreview	5	28	0	0	0	0
22	27	by	by	by	2	nopreview	5	29	262	262	262	262
23	28	his	his	his	2	nopreview	5	30	256	256	256	256
24	29	Type	Type	Type	2	nopreview	5	31	303	303	303	303
25	30	II	II	II	2	nopreview	5	32	0	0	0	0
26	31	diabetes	diabetes	diabetes,	2	nopreview	5	33	1325	1325	1325	817
	32	,	,		2	nopreview	5	34				
27	33	but	but	but	2	nopreview	5	35	214	214	214	214
28	34	he	he	he	2	nopreview	5	36	216	216	216	216
29	35	-	-	-is	2	nopreview	5	37	0	0	0	0
	36	is	is		2	nopreview	5	38				
30	37	much	much	much	2	nopreview	5	39	855	0	0	0
31	38	better	better	better,-	2	nopreview	5	40	456	154	1311	154
	39	,	,		2	nopreview	5	41				
	40	-	-		2	nopreview	5	42				
32	41	his	his	his	2	nopreview	5	43	556	556	556	556
33	42	daughter	daughter	daughter,	2	nopreview	5	44	182	0	0	0
	43	,	,		2	nopreview	5	45				
34	44	@entity6	Claudette	Claudette	2	nopreview	5	46	1349	1349	1349	304
35			King	King,	2	nopreview	5	47	0	0	0	0
	45	,	,		2	nopreview	5	48				
36	46	told	told	told	2	nopreview	5	49	550	550	550	136
37	47	the	the	the	2	nopreview	5	50	0	0	0	0
38	48	@entity9	Los	Los	2	nopreview	5	51	84	84	84	84
39			Angeles	Angeles	2	nopreview	5	52	644	644	644	353
40			Times	Times.	2	nopreview	5	53	321	321	321	321
	49	.	.		2	nopreview	5	54				
41	50	The	The	The	2	nopreview	5	55	1062	1062	1062	205
42	51	legendary	legendary	legendary	2	nopreview	5	56	356	356	356	131
43	52	guitarist	guitarist	guitarist	2	nopreview	5	57	204	204	204	204
44	53	and	and	and	2	nopreview	5	58	241	241	241	241
45	54	vocalist	vocalist	vocalist	2	nopreview	5	59	161	161	161	161
46	55	released	released	released	2	nopreview	5	60	348	149	149	149
47	56	a	a	a	2	nopreview	5	61	0	0	0	0
48	57	statement	statement	statement	2	nopreview	5	62	357	204	556	204
49	58	thanking	thanking	thanking	2	nopreview	5	63	243	243	243	243
50	59	those	those	those	2	nopreview	5	64	319	319	319	163
51	60	who	who	who	2	nopreview	5	65	249	249	249	249
52	61	have	have	have	2	nopreview	5	66	141	141	141	141
53	62	expressed	expressed	expressed	2	nopreview	5	67	367	367	367	135
54	63	their	their	their	2	nopreview	5	68	607	607	607	301
55	64	concerns	concerns	concerns.	2	nopreview	5	69	0	0	0	0
	65	.	.		2	nopreview	5	70				
56	66	-	-	-I-m	2	nopreview	5	71	260	260	260	260
	67	I	I		2	nopreview	5	72				
	68	-m	-m		2	nopreview	5	73				
57	69	feeling	feeling	feeling	2	nopreview	5	74	0	0	0	0
58	70	much	much	much	2	nopreview	5	75	233	233	233	233
59	71	better	better	better	2	nopreview	5	76	144	144	144	144
60	72	and	and	and	2	nopreview	5	77	0	0	0	0
61	73	am	am	am	2	nopreview	5	78	334	334	334	334
62	74	leaving	leaving	leaving	2	nopreview	5	79	169	169	169	169
63	75	the	the	the	2	nopreview	5	80	0	0	0	0
64	76	hospital	hospital	hospital	2	nopreview	5	81	498	498	498	366
65	77	today	today	today,-	2	nopreview	5	82	793	793	793	140
	78	,	,		2	nopreview	5	83				
	79	-	-		2	nopreview	5	84				
66	80	@entity0	King	King	2	nopreview	5	85	0	0	0	0
67	81	said	said	said	2	nopreview	5	86	409	409	409	409
68	82	in	in	in	2	nopreview	5	87	0	0	0	0
69	83	a	a	a	2	nopreview	5	88	0	0	0	0
70	84	message	message	message	2	nopreview	5	89	0	0	0	0
71	85	Tuesday	Tuesday	Tuesday.	2	nopreview	5	90	0	0	0	0
	86	.	.		2	nopreview	5	91				
72	87	@entity17	Angela	Angela	2	nopreview	5	92	561	305	305	305
73			Moore	Moore,	2	nopreview	5	93	426	267	267	267
	88	,	,		2	nopreview	5	94				
74	89	a	a	a	2	nopreview	5	95	297	297	297	297
75	90	publicist	publicist	publicist	2	nopreview	5	96	381	381	381	381
76	91	for	for	for	2	nopreview	5	97	180	180	180	180
77	92	@entity6	Claudette	Claudette	2	nopreview	5	98	749	500	500	257
78			King	King,	2	nopreview	5	99	0	0	0	0
	93	,	,		2	nopreview	5	100				
79	94	said	said	said	2	nopreview	5	101	0	0	0	0
80	95	later	later	later	2	nopreview	5	102	339	339	339	164
81	96	in	in	in	2	nopreview	5	103	901	0	0	0
82	97	the	the	the	2	nopreview	5	104	539	539	1037	539
83	98	day	day	day	2	nopreview	5	105	0	0	0	0
84	99	that	that	that	2	nopreview	5	106	141	0	0	0
85	100	he	he	he	2	nopreview	5	107	117	117	661	117
86	101	was	was	was	2	nopreview	5	108	180	180	180	180
87	102	back	back	back	2	nopreview	5	109	0	0	0	0
88	103	home	home	home	2	nopreview	5	110	0	0	0	0
89	104	resting	resting	resting	2	nopreview	5	111	438	438	438	438
90	105	and	and	and	2	nopreview	5	112	0	0	0	0
91	106	enjoying	enjoying	enjoying	2	nopreview	5	113	336	336	336	336
92	107	time	time	time	2	nopreview	5	114	0	0	0	0
93	108	with	with	with	2	nopreview	5	115	309	309	309	309
94	109	his	his	his	2	nopreview	5	116	0	0	0	0
95	110	grandchildren	grandchildren	grandchildren.	2	nopreview	5	117	830	830	830	160
	111	.	.		2	nopreview	5	118				
96	112	-	-	-He	2	nopreview	5	119	158	158	158	158
	113	He	He		2	nopreview	5	120				
97	114	was	was	was	2	nopreview	5	121	0	0	0	0
98	115	struggling	struggling	struggling	2	nopreview	5	122	625	379	379	200
99	116	before	before	before,	2	nopreview	5	123	179	179	425	179
	117	,	,		2	nopreview	5	124				
100	118	and	and	and	2	nopreview	5	125	152	0	0	0
101	119	he	he	he	2	nopreview	5	126	686	686	686	686
102	120	is	is	is	2	nopreview	5	127	557	0	0	0
103	121	a	a	a	2	nopreview	5	128	0	0	0	0
104	122	trouper	trouper	trouper,-	2	nopreview	5	129	684	684	684	684
	123	,	,		2	nopreview	5	130				
	124	-	-		2	nopreview	5	131				
105	125	@entity17	Moore	Moore	2	nopreview	5	132	451	451	451	451
106	126	said	said	said.	2	nopreview	5	133	677	393	393	393
	127	.	.		2	nopreview	5	134				
107	128	-	-	-He	2	nopreview	5	135	404	265	929	265
	129	He	He		2	nopreview	5	136				
108	130	was	was	wasn-t	2	nopreview	5	137	460	460	460	163
	131	n-t	n-t		2	nopreview	5	138				
109	132	going	going	going	2	nopreview	5	139	139	139	139	139
110	133	to	to	to	2	nopreview	5	140	0	0	0	0
111	134	let	let	let	2	nopreview	5	141	258	258	258	258
112	135	his	his	his	2	nopreview	5	142	371	371	371	371
113	136	fans	fans	fans	2	nopreview	5	143	199	199	199	199
114	137	down	down	down.-	2	nopreview	5	144	0	0	0	0
	138	.	.		2	nopreview	5	145				
115	139	-	-	No	2	nopreview	5	146	494	494	1626	494
116	140	No	No	more	2	nopreview	5	147	0	0	0	0
117	141	more	more	information	2	nopreview	5	148	0	0	0	0
	142	information	information		2	nopreview	5	149				
118	143	on	on	on	2	nopreview	5	150	492	0	0	0
119	144	@entity0	King	King-s	2	nopreview	5	151	480	0	0	0
	145	-s	-s		2	nopreview	5	152				
120	146	condition	condition	condition	2	nopreview	5	153	590	0	0	0
121	147	or	or	or	2	nopreview	5	154	0	0	0	0
122	148	where	where	where	2	nopreview	5	155	345	0	0	0
123	149	he	he	he	2	nopreview	5	156	268	268	268	268
124	150	was	was	was	2	nopreview	5	157	0	0	0	0
125	151	hospitalized	hospitalized	hospitalized	2	nopreview	5	158	218	218	218	218
126	152	was	was	was	2	nopreview	5	159	0	0	0	0
127	153	immediately	immediately	immediately	2	nopreview	5	160	140	140	140	140
128	154	available	available	available.	2	nopreview	5	161	281	281	2188	281
	155	.	.		2	nopreview	5	162				
129	156	@entity0	B.B.	B.B.	2	nopreview	5	163	163	0	0	0
130	157	is	is	is	2	nopreview	5	164	173	0	0	0
131	158	short	short	short	2	nopreview	5	165	616	0	0	0
132	159	for	for	for	2	nopreview	5	166	199	0	0	0
133	160	@entity24	Blues	Blues	2	nopreview	5	167	214	0	0	0
134			Boy	Boy,	2	nopreview	5	168	416	0	0	0
	161	,	,		2	nopreview	5	169				
135	162	part	part	part	2	nopreview	5	170	135	0	0	0
136	163	of	of	of	2	nopreview	5	171	0	0	0	0
137	164	the	the	the	2	nopreview	5	172	233	233	233	233
138	165	name	name	name	2	nopreview	5	173	0	0	0	0
139	166	he	he	he	2	nopreview	5	174	0	0	0	0
140	167	used	used	used	2	nopreview	5	175	173	173	173	173
141	168	as	as	as	2	nopreview	5	176	0	0	0	0
142	169	a	a	a	2	nopreview	5	177	187	187	187	187
143	170	@entity27	Memphis	Memphis	2	nopreview	5	178	148	148	148	148
144	171	disc	disc	disc	2	nopreview	5	179	387	387	387	387
145	172	jockey	jockey	jockey,	2	nopreview	5	180	247	247	247	247
	173	,	,		2	nopreview	5	181				
146	174	the	the	the	2	nopreview	5	182	224	224	2322	224
147	175	@entity0	Beale	Beale	2	nopreview	5	183	0	0	0	0
148			Street	Street	2	nopreview	5	184	0	0	0	0
149			Blues	Blues	2	nopreview	5	185	0	0	0	0
150			Boy	Boy.	2	nopreview	5	186	0	0	0	0
	176	.	.		2	nopreview	5	187				
151	177	He	He	He	2	nopreview	5	188	0	0	0	0
152	178	was	was	was	2	nopreview	5	189	0	0	0	0
153	179	inducted	inducted	inducted	2	nopreview	5	190	0	0	0	0
154	180	into	into	into	2	nopreview	5	191	310	310	310	130
155	181	the	the	the	2	nopreview	5	192	181	181	181	181
156	182	@entity28	Rock	Rock	2	nopreview	5	193	0	0	0	0
157			and	and	2	nopreview	5	194	186	186	186	186
158			Roll	Roll	2	nopreview	5	195	0	0	0	0
159			Hall	Hall	2	nopreview	5	196	270	270	270	270
160			of	of	2	nopreview	5	197	0	0	0	0
161			Fame	Fame	2	nopreview	5	198	174	174	174	174
162	183	in	in	in	2	nopreview	5	199	0	0	0	0
163	184	1987	1987	1987,	2	nopreview	5	200	579	579	579	579
	185	,	,		2	nopreview	5	201				
164	186	and	and	and	2	nopreview	5	202	218	0	0	0
165	187	has	has	has	2	nopreview	5	203	245	245	245	245
166	188	30	30	30	2	nopreview	5	204	0	0	0	0
167	189	@entity30	Grammy	Grammy	2	nopreview	5	205	126	126	344	126
168	190	nominations	nominations	nominations.	2	nopreview	5	206	405	405	405	405
	191	.	.		2	nopreview	5	207				
169	192	@entity0	King	King,	2	nopreview	5	208	369	0	0	0
	193	,	,		2	nopreview	5	209				
170	194	89	89	89,	2	nopreview	5	210	280	131	649	131
	195	,	,		2	nopreview	5	211				
171	196	has	has	has	2	nopreview	5	212	268	268	268	268
172	197	used	used	used	2	nopreview	5	213	179	179	179	179
173	198	various	various	various	2	nopreview	5	214	246	246	246	246
174	199	models	models	models	2	nopreview	5	215	325	325	325	325
175	200	of	of	of	2	nopreview	5	216	159	159	159	159
176	201	@entity33	Gibson	Gibson	2	nopreview	5	217	231	231	231	231
177	202	guitars	guitars	guitars	2	nopreview	5	218	427	427	427	307
178	203	over	over	over	2	nopreview	5	219	337	337	337	164
179	204	the	the	the	2	nopreview	5	220	0	0	0	0
180	205	years	years	years,	2	nopreview	5	221	0	0	0	0
	206	,	,		2	nopreview	5	222				
181	207	and	and	and	2	nopreview	5	223	217	217	217	217
182	208	named	named	named	2	nopreview	5	224	717	717	717	267
183	209	each	each	each	2	nopreview	5	225	0	0	0	0
184	210	one	one	one	2	nopreview	5	226	246	0	0	0
185	211	of	of	of	2	nopreview	5	227	622	179	425	179
186	212	them	them	them	2	nopreview	5	228	426	281	281	281
187	213	@entity35	Lucille	Lucille.	2	nopreview	5	229	373	373	961	373
	214	.	.		2	nopreview	5	230				
188	215	In	In	In	2	nopreview	5	231	0	0	0	0
189	216	the	the	the	2	nopreview	5	232	301	301	301	301
190	217	1980s	1980s	1980s,	2	nopreview	5	233	528	528	528	183
	218	,	,		2	nopreview	5	234				
191	219	@entity33	Gibson	Gibson	2	nopreview	5	235	443	443	443	443
192	220	officially	officially	officially	2	nopreview	5	236	573	573	573	573
193	221	dropped	dropped	dropped	2	nopreview	5	237	1457	1457	1457	411
194	222	the	the	the	2	nopreview	5	238	573	573	573	573
195	223	model	model	model	2	nopreview	5	239	215	215	215	215
196	224	number	number	number	2	nopreview	5	240	504	504	504	287
197	225	on	on	on	2	nopreview	5	241	248	248	248	248
198	226	the	the	the	2	nopreview	5	242	199	199	199	199
199	227	guitar	guitar	guitar	2	nopreview	5	243	345	345	345	155
200	228	he	he	he	2	nopreview	5	244	693	0	0	0
201	229	used	used	used	2	nopreview	5	245	1077	256	1566	256
202	230	last	last	last	2	nopreview	5	246	415	0	0	0
203	231	and	and	and	2	nopreview	5	247	566	319	1185	319
204	232	most	most	most.	2	nopreview	5	248	0	0	0	0
	233	.	.		2	nopreview	5	249				
205	234	It	It	It	2	nopreview	5	250	230	230	230	230
206	235	became	became	became	2	nopreview	5	251	454	0	0	0
207	236	a	a	a	2	nopreview	5	252	0	0	0	0
208	237	custom	custom	custom-made	2	nopreview	5	253	697	214	1151	214
	238	-	-		2	nopreview	5	254				
	239	made	made		2	nopreview	5	255				
209	240	signature	signature	signature	2	nopreview	5	256	394	394	394	227
210	241	model	model	model	2	nopreview	5	257	418	418	418	418
211	242	named	named	named	2	nopreview	5	258	487	487	487	487
212	243	@entity35	Lucille	Lucille,	2	nopreview	5	259	0	0	0	0
	244	,	,		2	nopreview	5	260				
213	245	manufactured	manufactured	manufactured	2	nopreview	5	261	377	377	377	151
214	246	exclusively	exclusively	exclusively	2	nopreview	5	262	258	258	258	258
215	247	for	for	for	2	nopreview	5	263	325	325	325	325
216	248	the	the	the	2	nopreview	5	264	0	0	0	0
217	249	-	-	-King	2	nopreview	5	265	0	0	0	0
	250	@entity40	King		2	nopreview	5	266				
218			of	of	2	nopreview	5	267	0	0	0	0
219			the	the	2	nopreview	5	268	415	415	415	275
220			Blues	Blues.-	2	nopreview	5	269	0	0	0	0
	251	.	.		2	nopreview	5	270				
221	252	-	-	Some	2	nopreview	5	271	1080	421	421	421
	253	Some	Some		2	nopreview	5	272				
222	254	of	of	of	2	nopreview	5	273	1208	901	901	262
223	255	his	his	his	2	nopreview	5	274	1127	1127	2093	202
224	256	hits	hits	hits	2	nopreview	5	275	414	414	414	414
225	257	include	include	include	2	nopreview	5	276	195	195	195	195
226	258	-	-	-The	2	nopreview	5	277	82	82	82	82
	259	The	The		2	nopreview	5	278				
227	260	Thrill	Thrill	Thrill	2	nopreview	5	279	401	401	401	134
228	261	Is	Is	Is	2	nopreview	5	280	236	236	236	236
229	262	Gone	Gone	Gone,-	2	nopreview	5	281	0	0	0	0
	263	,	,		2	nopreview	5	282				
	264	-	-		2	nopreview	5	283				
230	265	which	which	which	2	nopreview	5	284	702	430	430	430
231	266	won	won	won	2	nopreview	5	285	130	130	402	130
232	267	him	him	him	2	nopreview	5	286	153	153	153	153
233	268	his	his	his	2	nopreview	5	287	0	0	0	0
234	269	first	first	first	2	nopreview	5	288	285	285	285	285
235	270	Grammy	Grammy	Grammy	2	nopreview	5	289	147	147	147	147
236	271	in	in	in	2	nopreview	5	290	0	0	0	0
237	272	1970	1970	1970,	2	nopreview	5	291	326	326	326	326
	273	,	,		2	nopreview	5	292				
238	274	-	-	-There	2	nopreview	5	293	521	0	0	0
	275	@entity44	There		2	nopreview	5	294				
239			Must	Must	2	nopreview	5	295	230	230	751	230
240			be	be	2	nopreview	5	296	93	93	93	93
241			a	a	2	nopreview	5	297	0	0	0	0
242			Better	Better	2	nopreview	5	298	0	0	0	0
243			World	World	2	nopreview	5	299	460	460	460	460
244			Somewhere	Somewhere-	2	nopreview	5	300	269	269	269	269
	276	-	-		2	nopreview	5	301				
245	277	and	and	and	2	nopreview	5	302	0	0	0	0
246	278	-	-	-When	2	nopreview	5	303	223	223	223	223
	279	@entity45	When		2	nopreview	5	304				
247			Love	Love	2	nopreview	5	305	0	0	0	0
248			Comes	Comes	2	nopreview	5	306	159	159	159	159
249			to	to	2	nopreview	5	307	0	0	0	0
250			Town	Town,-	2	nopreview	5	308	279	279	279	279
	280	,	,		2	nopreview	5	309				
	281	-	-		2	nopreview	5	310				
251	282	a	a	a	2	nopreview	5	311	233	233	233	233
252	283	collaboration	collaboration	collaboration	2	nopreview	5	312	0	0	0	0
253	284	with	with	with	2	nopreview	5	313	231	231	231	231
254	285	@entity47	U2	U2.	2	nopreview	5	314	258	258	258	258
	286	.	.		2	nopreview	5	315				
255	287	Last	Last	Last	2	nopreview	5	316	846	846	846	586
256	288	year	year	year,	2	nopreview	5	317	0	0	0	0
	289	,	,		2	nopreview	5	318				
257	290	the	the	the	2	nopreview	5	319	290	290	290	141
258	291	bluesman	bluesman	bluesman	2	nopreview	5	320	375	375	375	232
259	292	suffered	suffered	suffered	2	nopreview	5	321	204	204	204	204
260	293	from	from	from	2	nopreview	5	322	247	247	247	247
261	294	dehydration	dehydration	dehydration	2	nopreview	5	323	136	136	136	136
262	295	and	and	and	2	nopreview	5	324	157	157	157	157
263	296	exhaustion	exhaustion	exhaustion	2	nopreview	5	325	149	149	149	149
264	297	after	after	after	2	nopreview	5	326	481	481	481	481
265	298	a	a	a	2	nopreview	5	327	0	0	0	0
266	299	show	show	show	2	nopreview	5	328	364	364	364	198
267	300	in	in	in	2	nopreview	5	329	0	0	0	0
268	301	@entity52	Chicago	Chicago,	2	nopreview	5	330	153	153	153	153
	302	,	,		2	nopreview	5	331				
269	303	forcing	forcing	forcing	2	nopreview	5	332	364	0	0	0
270	304	him	him	him	2	nopreview	5	333	342	129	706	129
271	305	to	to	to	2	nopreview	5	334	0	0	0	0
272	306	cancel	cancel	cancel	2	nopreview	5	335	452	250	250	250
273	307	the	the	the	2	nopreview	5	336	172	172	374	172
274	308	remainder	remainder	remainder	2	nopreview	5	337	454	454	454	236
275	309	of	of	of	2	nopreview	5	338	0	0	0	0
276	310	his	his	his	2	nopreview	5	339	167	167	167	167
277	311	tour	tour	tour.	2	nopreview	5	340	0	0	0	0
	312	.	.		2	nopreview	5	341				
