HumanPosition	AnonymizedPosition	AnonymizedToken	OriginalToken	ExperimentToken	Participant	Condition	TextNo	JointPosition	tt	fp	rp	ff
0	0	@entity0	Chelsea	Chelsea	9	nopreview	11	1	485	485	485	139
2	1	are	are	are	9	nopreview	11	2	912	311	311	311
3	2	looking	looking	looking	9	nopreview	11	3	461	311	311	311
4	3	to	to	to	9	nopreview	11	4	291	0	0	0
5	4	beat	beat	beat	9	nopreview	11	5	223	223	658	223
6	5	@entity1	Manchester	Manchester	9	nopreview	11	6	535	148	148	148
7			City	City	9	nopreview	11	7	0	0	0	0
8	6	to	to	to	9	nopreview	11	8	153	153	153	153
9	7	sign	sign	sign	9	nopreview	11	9	953	586	586	261
10	8	@entity3	Brazilian	Brazilian	9	nopreview	11	10	556	455	455	200
11	9	prospect	prospect	prospect	9	nopreview	11	11	1287	938	938	681
12	10	@entity2	Nathan	Nathan.	9	nopreview	11	12	1132	987	987	471
	11	.	.		9	nopreview	11	13				
13	12	The	The	The	9	nopreview	11	14	554	554	554	554
14	13	attacking	attacking	attacking	9	nopreview	11	15	921	144	144	144
15	14	midfielder	midfielder	midfielder	9	nopreview	11	16	590	459	6659	459
16	15	turned	turned	turned	9	nopreview	11	17	632	0	0	0
17	16	19	19	19	9	nopreview	11	18	273	273	905	273
18	17	last	last	last	9	nopreview	11	19	307	217	217	217
19	18	month	month	month	9	nopreview	11	20	462	0	0	0
20	19	but	but	but	9	nopreview	11	21	869	319	1181	319
21	20	has	has	has	9	nopreview	11	22	0	0	0	0
22	21	been	been	been	9	nopreview	11	23	425	275	665	275
23	22	in	in	in	9	nopreview	11	24	585	585	585	585
24	23	contract	contract	contract	9	nopreview	11	25	487	313	313	313
25	24	dispute	dispute	dispute	9	nopreview	11	26	637	637	637	286
26	25	with	with	with	9	nopreview	11	27	351	351	351	351
27	26	his	his	his	9	nopreview	11	28	0	0	0	0
28	27	club	club	club	9	nopreview	11	29	0	0	0	0
29	28	@entity6	Atletico	Atletico	9	nopreview	11	30	1183	785	785	161
30			Paranaense	Paranaense.	9	nopreview	11	31	330	330	330	330
	29	.	.		9	nopreview	11	32				
31	30	He	He	He	9	nopreview	11	33	581	581	581	581
32	31	is	is	is	9	nopreview	11	34	250	0	0	0
33	32	due	due	due	9	nopreview	11	35	611	318	672	318
34	33	to	to	to	9	nopreview	11	36	0	0	0	0
35	34	speak	speak	speak	9	nopreview	11	37	861	523	523	523
36	35	to	to	to	9	nopreview	11	38	597	0	0	0
37	36	@entity0	Chelsea	Chelsea	9	nopreview	11	39	638	367	643	367
38	37	next	next	next	9	nopreview	11	40	1018	158	158	158
39	38	week	week	week	9	nopreview	11	41	0	0	0	0
40	39	ahead	ahead	ahead	9	nopreview	11	42	1027	346	2671	346
41	40	of	of	of	9	nopreview	11	43	0	0	0	0
42	41	a	a	a	9	nopreview	11	44	472	0	0	0
43	42	proposed	proposed	proposed	9	nopreview	11	45	800	442	442	299
44	43	move	move	move	9	nopreview	11	46	220	0	0	0
45	44	to	to	to	9	nopreview	11	47	299	299	299	148
46	45	@entity8	Stamford	Stamford	9	nopreview	11	48	708	426	2593	226
47			Bridge	Bridge	9	nopreview	11	49	309	309	309	309
48	46	which	which	which	9	nopreview	11	50	254	254	254	254
49	47	would	would	would	9	nopreview	11	51	417	417	417	216
50	48	likely	likely	likely	9	nopreview	11	52	179	0	0	0
51	49	see	see	see	9	nopreview	11	53	263	263	442	263
52	50	him	him	him	9	nopreview	11	54	439	439	439	439
53	51	loaned	loaned	loaned	9	nopreview	11	55	885	885	885	353
54	52	out	out	out.	9	nopreview	11	56	0	0	0	0
	53	.	.		9	nopreview	11	57				
55	54	@entity6	Atletico	Manchester	9	nopreview	11	58	338	338	338	338
			Paranaense		9	nopreview	11	59				
	55	attacking	attacking		9	nopreview	11	60				
	56	midfielder	midfielder		9	nopreview	11	61				
	57	@entity2	Nathan		9	nopreview	11	62				
	58	is	is		9	nopreview	11	63				
	59	attracting	attracting		9	nopreview	11	64				
	60	interest	interest		9	nopreview	11	65				
	61	from	from		9	nopreview	11	66				
	62	@entity0	Chelsea		9	nopreview	11	67				
	63	and	and		9	nopreview	11	68				
	64	@entity1	Manchester		9	nopreview	11	69				
56	65	@entity11	City	City	9	nopreview	11	70	0	0	0	0
57			Jose	have	9	nopreview	11	71	0	0	0	0
58			Mourinho	been	9	nopreview	11	72	384	0	0	0
	66	and	and		9	nopreview	11	73				
	67	@entity12	Manuel		9	nopreview	11	74				
			Pellegrini		9	nopreview	11	75				
	68	will	will		9	nopreview	11	76				
	69	go	go		9	nopreview	11	77				
	70	head	head		9	nopreview	11	78				
59	71	-	-	keen	9	nopreview	11	79	263	0	0	0
	72	to	to		9	nopreview	11	80				
	73	-	-		9	nopreview	11	81				
	74	head	head		9	nopreview	11	82				
60	75	to	to	on	9	nopreview	11	83	829	0	0	0
61	76	sign	sign	Nathan	9	nopreview	11	84	452	0	0	0
	77	@entity3	Brazilian		9	nopreview	11	85				
	78	starlet	starlet		9	nopreview	11	86				
	79	@entity2	Nathan		9	nopreview	11	87				
62	80	@entity1	Manchester	following	9	nopreview	11	88	281	0	0	0
			City		9	nopreview	11	89				
	81	have	have		9	nopreview	11	90				
	82	been	been		9	nopreview	11	91				
	83	keen	keen		9	nopreview	11	92				
	84	on	on		9	nopreview	11	93				
	85	@entity2	Nathan		9	nopreview	11	94				
	86	following	following		9	nopreview	11	95				
63	87	his	his	his	9	nopreview	11	96	367	0	0	0
64	88	performances	performances	performances	9	nopreview	11	97	244	0	0	0
65	89	in	in	in	9	nopreview	11	98	0	0	0	0
66	90	the	the	the	9	nopreview	11	99	421	0	0	0
67	91	@entity16	World	World	9	nopreview	11	100	737	0	0	0
68			U17	U17	9	nopreview	11	101	1072	0	0	0
69			Championships	Championships	9	nopreview	11	102	569	208	5619	208
70	92	two	two	two	9	nopreview	11	103	0	0	0	0
71	93	years	years	years	9	nopreview	11	104	228	0	0	0
72	94	ago	ago	ago	9	nopreview	11	105	159	159	387	159
73	95	and	and	and	9	nopreview	11	106	0	0	0	0
74	96	he	he	he	9	nopreview	11	107	518	0	0	0
75	97	has	has	has	9	nopreview	11	108	579	434	434	434
76	98	since	since	since	9	nopreview	11	109	718	245	1381	245
77	99	broken	broken	broken	9	nopreview	11	110	547	547	547	216
78	100	into	into	into	9	nopreview	11	111	926	0	0	0
79	101	@entity6	Paranaense	Paranaense-s	9	nopreview	11	112	2211	214	1687	214
	102	-s	-s		9	nopreview	11	113				
80	103	first	first	first	9	nopreview	11	114	726	355	355	355
81	104	team	team	team.	9	nopreview	11	115	299	299	2120	299
	105	.	.		9	nopreview	11	116				
82	106	@entity0	Chelsea	Chelsea	9	nopreview	11	117	862	862	862	187
83	107	have	have	have	9	nopreview	11	118	1145	818	818	818
84	108	a	a	a	9	nopreview	11	119	0	0	0	0
85	109	strong	strong	strong	9	nopreview	11	120	1221	642	642	179
86	110	@entity3	Brazilian	Brazilian	9	nopreview	11	121	1366	479	479	479
87	111	contingency	contingency	contingency	9	nopreview	11	122	2159	608	608	292
88	112	with	with	with	9	nopreview	11	123	464	0	0	0
89	113	the	the	the	9	nopreview	11	124	171	0	0	0
90	114	likes	likes	likes	9	nopreview	11	125	1192	0	0	0
91	115	of	of	of	9	nopreview	11	126	218	0	0	0
92	116	@entity20	Willian	Willian,	9	nopreview	11	127	1018	0	0	0
	117	,	,		9	nopreview	11	128				
93	118	@entity21	Ramires	Ramires,	9	nopreview	11	129	1725	0	0	0
	119	,	,		9	nopreview	11	130				
94	120	@entity22	Filipe	Filipe	9	nopreview	11	131	1261	0	0	0
95			Luis	Luis	9	nopreview	11	132	426	0	0	0
96	121	and	and	and	9	nopreview	11	133	1344	0	0	0
97	122	@entity23	Oscar	Oscar	9	nopreview	11	134	1138	145	7637	145
98	123	while	while	while	9	nopreview	11	135	945	0	0	0
99	124	21	21	21-year-old	9	nopreview	11	136	1882	0	0	0
	125	-	-		9	nopreview	11	137				
	126	year	year		9	nopreview	11	138				
	127	-	-		9	nopreview	11	139				
	128	old	old		9	nopreview	11	140				
100	129	@entity24	Lucas	Lucas	9	nopreview	11	141	867	0	0	0
101			Piazon	Piazon	9	nopreview	11	142	146	0	0	0
102	130	is	is	is	9	nopreview	11	143	235	0	0	0
103	131	on	on	on	9	nopreview	11	144	396	0	0	0
104	132	loan	loan	loan	9	nopreview	11	145	554	0	0	0
105	133	at	at	at	9	nopreview	11	146	285	0	0	0
106	134	@entity26	Eintracht	Eintracht	9	nopreview	11	147	558	158	10532	158
107			Frankfurt	Frankfurt.	9	nopreview	11	148	393	393	2859	393
	135	.	.		9	nopreview	11	149				
