HumanPosition	AnonymizedPosition	AnonymizedToken	OriginalToken	ExperimentToken	Participant	Condition	TextNo	JointPosition	tt	fp	rp	ff	rb	sp
1	0	(	(	Two	1	nopreview	1	1	0	0	0	0	0	0
2	1	@entity1	CNN	passengers	1	nopreview	1	2	321	0	0	0	0	321
	2	)	)		1	nopreview	1	3						
	3	Two	Two		1	nopreview	1	4						
	4	passengers	passengers		1	nopreview	1	5						
3	5	found	found	found	1	nopreview	1	6	224	0	0	0	0	224
4	6	dead	dead	dead	1	nopreview	1	7	285	91	830	91	285	194
5	7	on	on	on	1	nopreview	1	8	0	0	0	0	0	0
6	8	a	a	a	1	nopreview	1	9	0	0	0	0	0	0
7	9	cruise	cruise	cruise	1	nopreview	1	10	294	294	294	197	294	0
8	10	ship	ship	ship	1	nopreview	1	11	0	0	0	0	0	0
9	11	in	in	in	1	nopreview	1	12	0	0	0	0	0	0
10	12	@entity4	Puerto	Puerto	1	nopreview	1	13	315	315	315	214	315	0
11			Rico	Rico	1	nopreview	1	14	382	382	382	217	382	0
12	13	appear	appear	appear	1	nopreview	1	15	249	249	249	249	249	0
13	14	to	to	to	1	nopreview	1	16	0	0	0	0	0	0
14	15	have	have	have	1	nopreview	1	17	201	201	201	201	201	0
15	16	died	died	died	1	nopreview	1	18	167	167	167	167	167	0
16	17	in	in	in	1	nopreview	1	19	0	0	0	0	0	0
17	18	a	a	a	1	nopreview	1	20	131	131	131	131	131	0
18	19	murder	murder	murder-suicide,	1	nopreview	1	21	566	433	433	130	433	133
	20	-	-		1	nopreview	1	22						
	21	suicide	suicide		1	nopreview	1	23						
	22	,	,		1	nopreview	1	24						
19	23	the	the	the	1	nopreview	1	25	0	0	0	0	0	0
20	24	cruise	cruise	cruise	1	nopreview	1	26	369	369	369	212	369	0
21	25	line	line	line	1	nopreview	1	27	0	0	0	0	0	0
22	26	said	said	said.	1	nopreview	1	28	708	708	708	274	708	0
	27	.	.		1	nopreview	1	29						
23	28	@entity6	Holland	Holland	1	nopreview	1	30	607	0	0	0	0	607
24			America	America	1	nopreview	1	31	658	131	676	131	381	527
25			Line	Line	1	nopreview	1	32	589	0	0	0	0	589
26	29	said	said	said	1	nopreview	1	33	254	254	1432	254	254	0
27	30	two	two	two	1	nopreview	1	34	288	288	288	288	288	0
28	31	guests	guests	guests	1	nopreview	1	35	525	525	525	136	525	0
29	32	were	were	were	1	nopreview	1	36	0	0	0	0	0	0
30	33	found	found	found	1	nopreview	1	37	412	412	545	209	412	0
31	34	dead	dead	dead	1	nopreview	1	38	0	0	0	0	0	0
32	35	inside	inside	inside	1	nopreview	1	39	287	287	287	112	287	0
33	36	their	their	their	1	nopreview	1	40	266	266	266	266	266	0
34	37	stateroom	stateroom	stateroom	1	nopreview	1	41	419	419	419	285	419	0
35	38	on	on	on	1	nopreview	1	42	0	0	0	0	0	0
36	39	the	the	the	1	nopreview	1	43	198	0	0	0	0	198
37	40	@entity9	ms	ms	1	nopreview	1	44	239	239	239	239	239	0
38			Ryndam	Ryndam	1	nopreview	1	45	833	112	1031	112	833	721
39	41	at	at	at	1	nopreview	1	46	0	0	0	0	0	0
40	42	11:30	11:30	11:30	1	nopreview	1	47	241	241	241	241	241	0
41	43	a.m.	a.m.	a.m.	1	nopreview	1	48	444	444	444	249	444	0
42	44	Thursday	Thursday	Thursday.	1	nopreview	1	49	516	516	516	516	516	0
	45	.	.		1	nopreview	1	50						
43	46	-	-	-The	1	nopreview	1	51	0	0	0	0	0	0
	47	The	The		1	nopreview	1	52						
44	48	cabin	cabin	cabin	1	nopreview	1	53	558	558	558	240	558	0
45	49	was	was	was	1	nopreview	1	54	130	130	130	130	130	0
46	50	immediately	immediately	immediately	1	nopreview	1	55	256	256	256	256	256	0
47	51	secured	secured	secured,	1	nopreview	1	56	252	252	252	252	252	0
	52	,	,		1	nopreview	1	57						
48	53	and	and	and	1	nopreview	1	58	0	0	0	0	0	0
49	54	the	the	the	1	nopreview	1	59	0	0	0	0	0	0
50	55	authorities	authorities	authorities	1	nopreview	1	60	688	688	688	215	688	0
51	56	were	were	were	1	nopreview	1	61	0	0	0	0	0	0
52	57	notified	notified	notified,	1	nopreview	1	62	315	315	315	315	315	0
	58	,	,		1	nopreview	1	63						
53	59	including	including	including	1	nopreview	1	64	301	301	301	301	301	0
54	60	the	the	the	1	nopreview	1	65	0	0	0	0	0	0
55	61	@entity12	FBI	FBI,-	1	nopreview	1	66	424	424	424	192	424	0
	62	,	,		1	nopreview	1	67						
	63	-	-		1	nopreview	1	68						
56	64	@entity6	Holland	Holland	1	nopreview	1	69	205	205	205	205	205	0
57			America	America	1	nopreview	1	70	147	0	0	0	0	147
58	65	said	said	said.	1	nopreview	1	71	344	145	491	145	344	199
	66	.	.		1	nopreview	1	72						
59	67	-	-	-We	1	nopreview	1	73	0	0	0	0	0	0
	68	We	We		1	nopreview	1	74						
60	69	are	are	are	1	nopreview	1	75	172	0	0	0	0	172
61	70	cooperating	cooperating	cooperating	1	nopreview	1	76	411	157	583	157	411	254
62	71	fully	fully	fully	1	nopreview	1	77	271	271	271	271	271	0
63	72	with	with	with	1	nopreview	1	78	0	0	0	0	0	0
64	73	the	the	the	1	nopreview	1	79	0	0	0	0	0	0
65	74	investigation	investigation	investigation,	1	nopreview	1	80	582	582	582	169	582	0
	75	,	,		1	nopreview	1	81						
66	76	and	and	and	1	nopreview	1	82	0	0	0	0	0	0
67	77	the	the	the	1	nopreview	1	83	0	0	0	0	0	0
68	78	authorities	authorities	authorities	1	nopreview	1	84	275	275	275	174	275	0
69	79	will	will	will	1	nopreview	1	85	0	0	0	0	0	0
70	80	make	make	make	1	nopreview	1	86	163	0	0	0	0	163
71	81	the	the	the	1	nopreview	1	87	155	155	318	155	155	0
72	82	official	official	official	1	nopreview	1	88	195	195	195	195	195	0
73	83	determination	determination	determination	1	nopreview	1	89	292	292	292	292	292	0
74	84	on	on	on	1	nopreview	1	90	0	0	0	0	0	0
75	85	what	what	what	1	nopreview	1	91	333	0	0	0	0	333
76	86	occurred	occurred	occurred.-	1	nopreview	1	92	502	342	835	200	502	160
	87	.	.		1	nopreview	1	93						
77	88	-	-	FBI	1	nopreview	1	94	0	0	0	0	0	0
78	89	@entity12	FBI	spokesman	1	nopreview	1	95	623	623	623	242	623	0
	90	spokesman	spokesman		1	nopreview	1	96						
79	91	@entity17	Moises	Moises	1	nopreview	1	97	274	274	274	274	274	0
80			Quiñones	Quinones	1	nopreview	1	98	608	608	608	227	608	0
81	92	said	said	said	1	nopreview	1	99	0	0	0	0	0	0
82	93	authorities	authorities	authorities	1	nopreview	1	100	499	499	499	115	499	0
83	94	were	were	were	1	nopreview	1	101	0	0	0	0	0	0
84	95	on	on	on	1	nopreview	1	102	0	0	0	0	0	0
85	96	scene	scene	scene	1	nopreview	1	103	225	225	225	225	225	0
86	97	investigating	investigating	investigating.	1	nopreview	1	104	865	865	865	221	865	0
	98	.	.		1	nopreview	1	105						
87	99	The	The	The	1	nopreview	1	106	0	0	0	0	0	0
88	100	ship	ship	ship	1	nopreview	1	107	0	0	0	0	0	0
89	101	left	left	left	1	nopreview	1	108	524	298	298	298	298	226
90	102	@entity21	Tampa	Tampa,	1	nopreview	1	109	381	275	607	275	381	106
	103	,	,		1	nopreview	1	110						
91	104	@entity22	Florida	Florida,	1	nopreview	1	111	706	706	706	117	706	0
	105	,	,		1	nopreview	1	112						
92	106	on	on	on	1	nopreview	1	113	0	0	0	0	0	0
93	107	March	March	March	1	nopreview	1	114	1105	1105	1105	312	1105	0
94	108	29	29	29	1	nopreview	1	115	0	0	0	0	0	0
95	109	on	on	on	1	nopreview	1	116	191	0	0	0	0	191
96	110	a	a	a	1	nopreview	1	117	168	0	0	0	0	168
97	111	14	14	14-day	1	nopreview	1	118	836	113	733	113	374	723
	112	-	-		1	nopreview	1	119						
	113	day	day		1	nopreview	1	120						
98	114	@entity24	Southern	Southern	1	nopreview	1	121	1008	466	1306	466	844	542
99			Caribbean	Caribbean	1	nopreview	1	122	612	232	776	232	612	380
100	115	cruise	cruise	cruise.	1	nopreview	1	123	612	612	612	204	612	0
	116	.	.		1	nopreview	1	124						
101	117	It	It	It-s	1	nopreview	1	125	0	0	0	0	0	0
	118	-s	-s		1	nopreview	1	126						
102	119	currently	currently	currently	1	nopreview	1	127	290	290	290	159	290	0
103	120	in	in	in	1	nopreview	1	128	271	271	271	271	271	0
104	121	@entity26	San	San	1	nopreview	1	129	0	0	0	0	0	0
105			Juan	Juan,	1	nopreview	1	130	420	420	420	256	420	0
	122	,	,		1	nopreview	1	131						
106	123	@entity4	Puerto	Puerto	1	nopreview	1	132	229	229	229	229	229	0
107			Rico	Rico.	1	nopreview	1	133	234	234	234	234	234	0
	124	.	.		1	nopreview	1	134						
108	125	@entity28	Puerto	Puerto	1	nopreview	1	135	143	0	0	0	0	143
109			Rico	Rico	1	nopreview	1	136	166	166	309	166	166	0
110			Port	Port	1	nopreview	1	137	608	356	356	356	356	252
111			Authority	Authority	1	nopreview	1	138	570	316	316	316	316	254
112	126	spokesman	spokesman	spokesman	1	nopreview	1	139	566	227	1072	227	566	339
113	127	@entity27	Efraín	Efrain	1	nopreview	1	140	256	256	256	256	256	0
114			Santiago	Santiago	1	nopreview	1	141	387	387	387	163	387	0
115	128	told	told	told	1	nopreview	1	142	271	271	271	271	271	0
116	129	@entity30	El	El	1	nopreview	1	143	0	0	0	0	0	0
117			Nuevo	Nuevo	1	nopreview	1	144	469	469	469	241	469	0
118			Dia	Dia	1	nopreview	1	145	272	272	272	272	272	0
119	130	newspaper	newspaper	newspaper	1	nopreview	1	146	801	801	801	330	801	0
120	131	that	that	that	1	nopreview	1	147	130	130	130	130	130	0
121	132	the	the	the	1	nopreview	1	148	0	0	0	0	0	0
122	133	cleaning	cleaning	cleaning	1	nopreview	1	149	361	361	361	154	361	0
123	134	staff	staff	staff	1	nopreview	1	150	277	277	277	277	277	0
124	135	on	on	on	1	nopreview	1	151	0	0	0	0	0	0
125	136	the	the	the	1	nopreview	1	152	0	0	0	0	0	0
126	137	ship	ship	ship	1	nopreview	1	153	379	379	379	168	379	0
127	138	had	had	had	1	nopreview	1	154	0	0	0	0	0	0
128	139	discovered	discovered	discovered	1	nopreview	1	155	790	790	790	259	790	0
129	140	the	the	the	1	nopreview	1	156	0	0	0	0	0	0
130	141	deceased	deceased	deceased	1	nopreview	1	157	521	521	521	209	521	0
131	142	passengers	passengers	passengers	1	nopreview	1	158	250	250	250	250	250	0
132	143	after	after	after	1	nopreview	1	159	0	0	0	0	0	0
133	144	knocking	knocking	knocking	1	nopreview	1	160	440	440	440	198	440	0
134	145	on	on	on	1	nopreview	1	161	0	0	0	0	0	0
135	146	the	the	the	1	nopreview	1	162	119	119	119	119	119	0
136	147	cabin	cabin	cabin-s	1	nopreview	1	163	93	0	0	0	0	93
	148	-s	-s		1	nopreview	1	164						
137	149	door	door	door.	1	nopreview	1	165	408	307	501	140	408	101
	150	.	.		1	nopreview	1	166						
