HumanPosition	AnonymizedPosition	AnonymizedToken	OriginalToken	ExperimentToken	Participant	Condition	TextNo	JointPosition	tt	fp	rp	ff	rb	sp
1	0	One	One	One	1	nopreview	14	1	126	0	0	0	0	126
2	1	@entity1	Wall	Wall	1	nopreview	14	2	357	0	0	0	0	357
3			Street	Street	1	nopreview	14	3	519	96	1002	96	519	423
4	2	trader	trader	trader	1	nopreview	14	4	306	306	306	306	306	0
5	3	closed	closed	closed	1	nopreview	14	5	445	445	445	229	445	0
6	4	out	out	out	1	nopreview	14	6	0	0	0	0	0	0
7	5	his	his	his	1	nopreview	14	7	398	398	398	220	398	0
8	6	week	week	week	1	nopreview	14	8	197	0	0	0	0	197
9	7	a	a	a	1	nopreview	14	9	132	132	329	132	132	0
10	8	few	few	few	1	nopreview	14	10	331	331	331	211	331	0
11	9	million	million	million	1	nopreview	14	11	213	213	213	213	213	0
12	10	dollars	dollars	dollars	1	nopreview	14	12	393	393	393	242	393	0
13	11	richer	richer	richer	1	nopreview	14	13	207	207	207	207	207	0
14	12	last	last	last	1	nopreview	14	14	0	0	0	0	0	0
15	13	Friday	Friday	Friday	1	nopreview	14	15	270	270	270	270	270	0
16	14	-	-	-	1	nopreview	14	16	0	0	0	0	0	0
17	15	and	and	and	1	nopreview	14	17	145	0	0	0	0	145
18	16	it	it	it	1	nopreview	14	18	173	173	318	173	173	0
19	17	was	was	was	1	nopreview	14	19	351	176	176	176	176	175
20	18	all	all	all	1	nopreview	14	20	0	0	0	0	0	0
21	19	thanks	thanks	thanks	1	nopreview	14	21	404	284	579	284	404	120
22	20	to	to	to	1	nopreview	14	22	0	0	0	0	0	0
23	21	social	social	social	1	nopreview	14	23	218	218	218	218	218	0
24	22	media	media	media.	1	nopreview	14	24	325	325	325	325	325	0
	23	.	.		1	nopreview	14	25						
25	24	The	The	The	1	nopreview	14	26	0	0	0	0	0	0
26	25	unnamed	unnamed	unnamed	1	nopreview	14	27	413	413	413	221	413	0
27	26	trader	trader	trader	1	nopreview	14	28	403	403	403	293	403	0
28	27	used	used	used	1	nopreview	14	29	0	0	0	0	0	0
29	28	perfect	perfect	perfect	1	nopreview	14	30	576	576	576	257	576	0
30	29	timing	timing	timing	1	nopreview	14	31	248	248	248	248	248	0
31	30	to	to	to	1	nopreview	14	32	0	0	0	0	0	0
32	31	capitalize	capitalize	capitalize	1	nopreview	14	33	429	298	298	131	298	131
33	32	on	on	on	1	nopreview	14	34	0	0	0	0	0	0
34	33	one	one	one	1	nopreview	14	35	259	259	259	259	259	0
35	34	of	of	of	1	nopreview	14	36	0	0	0	0	0	0
36	35	the	the	the	1	nopreview	14	37	0	0	0	0	0	0
37	36	biggest	biggest	biggest	1	nopreview	14	38	215	215	215	215	215	0
38	37	deals	deals	deals	1	nopreview	14	39	390	390	390	245	390	0
39	38	of	of	of	1	nopreview	14	40	200	200	200	200	200	0
40	39	the	the	the	1	nopreview	14	41	0	0	0	0	0	0
41	40	year	year	year	1	nopreview	14	42	231	231	231	231	231	0
42	41	when	when	when	1	nopreview	14	43	407	148	148	148	148	259
43	42	@entity10	Wall	Wall	1	nopreview	14	44	241	241	379	241	241	0
44			Street	Street	1	nopreview	14	45	495	495	495	268	495	0
45			Journal	Journal	1	nopreview	14	46	186	0	0	0	0	186
46	43	mergers	mergers	mergers	1	nopreview	14	47	468	158	785	158	468	310
47	44	and	and	and	1	nopreview	14	48	0	0	0	0	0	0
48	45	acquisitions	acquisitions	acquisitions	1	nopreview	14	49	307	307	307	169	307	0
49	46	reporter	reporter	reporter	1	nopreview	14	50	361	361	361	194	361	0
50	47	@entity9	Dana	Dana	1	nopreview	14	51	445	0	0	0	0	445
51			Mattioli	Mattioli	1	nopreview	14	52	2054	373	1259	193	1060	1681
52	48	took	took	took	1	nopreview	14	53	247	247	1487	247	247	0
53	49	to	to	to	1	nopreview	14	54	296	296	296	296	296	0
54	50	@entity11	Twitter	Twitter	1	nopreview	14	55	169	0	0	0	0	169
55	51	to	to	to	1	nopreview	14	56	122	122	291	122	122	0
56	52	announce	announce	announce	1	nopreview	14	57	419	419	419	245	419	0
57	53	that	that	that	1	nopreview	14	58	0	0	0	0	0	0
58	54	@entity12	Intel	Intel	1	nopreview	14	59	351	351	351	351	351	0
59	55	was	was	was	1	nopreview	14	60	111	111	111	111	111	0
60	56	in	in	in	1	nopreview	14	61	144	144	144	144	144	0
61	57	talks	talks	talks	1	nopreview	14	62	160	160	160	160	160	0
62	58	to	to	to	1	nopreview	14	63	0	0	0	0	0	0
63	59	buy	buy	buy	1	nopreview	14	64	210	210	210	210	210	0
64	60	one	one	one	1	nopreview	14	65	0	0	0	0	0	0
65	61	of	of	of	1	nopreview	14	66	0	0	0	0	0	0
66	62	its	its	its	1	nopreview	14	67	179	179	179	179	179	0
67	63	competitors	competitors	competitors,	1	nopreview	14	68	134	134	134	134	134	0
	64	,	,		1	nopreview	14	69						
68	65	chipmaker	chipmaker	chipmaker	1	nopreview	14	70	495	495	495	179	495	0
69	66	@entity16	Altera	Altera.	1	nopreview	14	71	264	264	264	264	264	0
	67	.	.		1	nopreview	14	72						
70	68	Seconds	Seconds	Seconds	1	nopreview	14	73	441	441	441	197	441	0
71	69	later	later	later,	1	nopreview	14	74	347	347	347	347	347	0
	70	,	,		1	nopreview	14	75						
72	71	the	the	the	1	nopreview	14	76	0	0	0	0	0	0
73	72	trader	trader	trader	1	nopreview	14	77	556	386	386	279	386	170
74	73	had	had	had	1	nopreview	14	78	264	150	434	150	264	114
75	74	snapped	snapped	snapped	1	nopreview	14	79	202	0	0	0	0	202
76	75	up	up	up	1	nopreview	14	80	139	139	341	139	139	0
77	76	3,158	3,158	3,158	1	nopreview	14	81	1208	1208	1208	231	1208	0
78	77	contracts	contracts	contracts	1	nopreview	14	82	438	438	438	438	438	0
79	78	of	of	of	1	nopreview	14	83	0	0	0	0	0	0
80	79	@entity16	Altera	Altera,	1	nopreview	14	84	376	376	376	253	376	0
	80	,	,		1	nopreview	14	85						
81	81	with	with	with	1	nopreview	14	86	0	0	0	0	0	0
82	82	each	each	each	1	nopreview	14	87	478	250	250	250	250	228
83	83	option	option	option	1	nopreview	14	88	274	274	502	274	274	0
84	84	contract	contract	contract	1	nopreview	14	89	565	565	565	192	565	0
85	85	giving	giving	giving	1	nopreview	14	90	0	0	0	0	0	0
86	86	them	them	them	1	nopreview	14	91	437	437	437	232	437	0
87	87	the	the	the	1	nopreview	14	92	0	0	0	0	0	0
88	88	right	right	right	1	nopreview	14	93	209	209	209	209	209	0
89	89	to	to	to	1	nopreview	14	94	0	0	0	0	0	0
90	90	purchase	purchase	purchase	1	nopreview	14	95	312	312	312	197	312	0
91	91	100	100	100	1	nopreview	14	96	0	0	0	0	0	0
92	92	shares	shares	shares.	1	nopreview	14	97	461	461	461	250	461	0
	93	.	.		1	nopreview	14	98						
93	94	Scroll	Scroll	CNBC	1	nopreview	14	99	262	262	262	262	262	0
	95	down	down		1	nopreview	14	100						
	96	for	for		1	nopreview	14	101						
	97	video	video		1	nopreview	14	102						
	98	An	An		1	nopreview	14	103						
	99	unnamed	unnamed		1	nopreview	14	104						
	100	@entity1	Wall		1	nopreview	14	105						
			Street		1	nopreview	14	106						
	101	trader	trader		1	nopreview	14	107						
	102	made	made		1	nopreview	14	108						
	103	a	a		1	nopreview	14	109						
	104	profit	profit		1	nopreview	14	110						
	105	of	of		1	nopreview	14	111						
	106	approximately	approximately		1	nopreview	14	112						
	107	$	$		1	nopreview	14	113						
	108	2.5million	2.5million		1	nopreview	14	114						
	109	on	on		1	nopreview	14	115						
	110	Friday	Friday		1	nopreview	14	116						
	111	thanks	thanks		1	nopreview	14	117						
	112	to	to		1	nopreview	14	118						
	113	a	a		1	nopreview	14	119						
	114	tweet	tweet		1	nopreview	14	120						
	115	from	from		1	nopreview	14	121						
	116	the	the		1	nopreview	14	122						
	117	@entity10	Wall		1	nopreview	14	123						
			Street		1	nopreview	14	124						
			Journal		1	nopreview	14	125						
	118	The	The		1	nopreview	14	126						
	119	trader	trader		1	nopreview	14	127						
	120	purchased	purchased		1	nopreview	14	128						
	121	315,800	315,800		1	nopreview	14	129						
	122	shares	shares		1	nopreview	14	130						
	123	of	of		1	nopreview	14	131						
	124	chipmaker	chipmaker		1	nopreview	14	132						
	125	@entity16	Altera		1	nopreview	14	133						
	126	one	one		1	nopreview	14	134						
	127	minute	minute		1	nopreview	14	135						
	128	after	after		1	nopreview	14	136						
	129	the	the		1	nopreview	14	137						
	130	@entity10	Journal		1	nopreview	14	138						
	131	reported	reported		1	nopreview	14	139						
	132	@entity12	Intel		1	nopreview	14	140						
	133	was	was		1	nopreview	14	141						
	134	in	in		1	nopreview	14	142						
	135	talks	talks		1	nopreview	14	143						
	136	to	to		1	nopreview	14	144						
	137	purchase	purchase		1	nopreview	14	145						
	138	them	them		1	nopreview	14	146						
	139	@entity32	CNBC		1	nopreview	14	147						
94	140	reports	reports	reports	1	nopreview	14	148	733	733	733	204	733	0
95	141	that	that	that	1	nopreview	14	149	0	0	0	0	0	0
96	142	the	the	the	1	nopreview	14	150	160	160	160	160	160	0
97	143	trader	trader	trader	1	nopreview	14	151	95	0	0	0	0	95
98	144	paid	paid	paid	1	nopreview	14	152	202	202	297	202	202	0
99	145	$	$	$36	1	nopreview	14	153	237	237	237	237	237	0
	146	36	36		1	nopreview	14	154						
100	147	a	a	a	1	nopreview	14	155	257	257	257	257	257	0
101	148	share	share	share,	1	nopreview	14	156	406	406	406	230	406	0
	149	,	,		1	nopreview	14	157						
102	150	and	and	and	1	nopreview	14	158	0	0	0	0	0	0
103	151	the	the	the	1	nopreview	14	159	223	223	223	223	223	0
104	152	call	call	call	1	nopreview	14	160	168	168	168	168	168	0
105	153	option	option	option	1	nopreview	14	161	521	0	0	0	0	521
106	154	was	was	was	1	nopreview	14	162	0	0	0	0	0	0
107	155	a	a	a	1	nopreview	14	163	0	0	0	0	0	0
108	156	mere	mere	mere	1	nopreview	14	164	444	118	965	118	444	326
109	157	35	35	35	1	nopreview	14	165	188	188	188	188	188	0
110	158	cents	cents	cents	1	nopreview	14	166	129	129	129	129	129	0
111	159	as	as	as	1	nopreview	14	167	164	164	164	164	164	0
112	160	options	options	options	1	nopreview	14	168	246	246	246	246	246	0
113	161	on	on	on	1	nopreview	14	169	0	0	0	0	0	0
114	162	the	the	the	1	nopreview	14	170	0	0	0	0	0	0
115	163	stock	stock	stock,	1	nopreview	14	171	427	427	427	234	427	0
	164	,	,		1	nopreview	14	172						
116	165	at	at	at	1	nopreview	14	173	0	0	0	0	0	0
117	166	that	that	that	1	nopreview	14	174	0	0	0	0	0	0
118	167	point	point	point	1	nopreview	14	175	201	201	201	201	201	0
119	168	valued	valued	valued	1	nopreview	14	176	520	284	284	151	284	236
120	169	at	at	at	1	nopreview	14	177	728	213	213	213	213	515
121	170	$	$	$34.76	1	nopreview	14	178	1207	224	1800	224	1049	983
	171	34.76	34.76		1	nopreview	14	179						
122	172	a	a	a	1	nopreview	14	180	598	182	756	182	598	416
123	173	share	share	share,	1	nopreview	14	181	260	260	260	165	260	0
	174	,	,		1	nopreview	14	182						
124	175	were	were	were	1	nopreview	14	183	0	0	0	0	0	0
125	176	set	set	set	1	nopreview	14	184	401	244	244	129	244	157
126	177	to	to	to	1	nopreview	14	185	0	0	0	0	0	0
127	178	expire	expire	expire	1	nopreview	14	186	425	181	582	181	425	244
128	179	in	in	in	1	nopreview	14	187	0	0	0	0	0	0
129	180	just	just	just	1	nopreview	14	188	187	0	0	0	0	187
130	181	a	a	a	1	nopreview	14	189	158	158	345	158	158	0
131	182	few	few	few	1	nopreview	14	190	0	0	0	0	0	0
132	183	weeks	weeks	weeks.	1	nopreview	14	191	328	328	328	158	328	0
	184	.	.		1	nopreview	14	192						
133	185	3:32pm	3:32pm	When	1	nopreview	14	193	0	0	0	0	0	0
	186	:	:		1	nopreview	14	194						
	187	The	The		1	nopreview	14	195						
134	188	@entity10	Wall	the	1	nopreview	14	196	0	0	0	0	0	0
			Street		1	nopreview	14	197						
			Journal		1	nopreview	14	198						
	189	reports	reports		1	nopreview	14	199						
	190	that	that		1	nopreview	14	200						
135	191	@entity12	Intel	market	1	nopreview	14	201	248	248	248	248	248	0
	192	is	is		1	nopreview	14	202						
	193	in	in		1	nopreview	14	203						
	194	talks	talks		1	nopreview	14	204						
	195	to	to		1	nopreview	14	205						
	196	buy	buy		1	nopreview	14	206						
	197	@entity16	Altera		1	nopreview	14	207						
	198	.	.		1	nopreview	14	208						
	199	3:33pm	3:33pm		1	nopreview	14	209						
	200	:	:		1	nopreview	14	210						
	201	Trader	Trader		1	nopreview	14	211						
	202	purchases	purchases		1	nopreview	14	212						
	203	315,800	315,800		1	nopreview	14	213						
	204	shares	shares		1	nopreview	14	214						
	205	of	of		1	nopreview	14	215						
	206	@entity16	Altera		1	nopreview	14	216						
	207	at	at		1	nopreview	14	217						
	208	$	$		1	nopreview	14	218						
	209	36	36		1	nopreview	14	219						
	210	a	a		1	nopreview	14	220						
	211	share	share		1	nopreview	14	221						
	212	for	for		1	nopreview	14	222						
	213	a	a		1	nopreview	14	223						
	214	total	total		1	nopreview	14	224						
	215	cost	cost		1	nopreview	14	225						
	216	of	of		1	nopreview	14	226						
	217	$	$		1	nopreview	14	227						
	218	11,368,000	11,368,000		1	nopreview	14	228						
	219	plus	plus		1	nopreview	14	229						
	220	$	$		1	nopreview	14	230						
	221	110,530	110,530		1	nopreview	14	231						
	222	for	for		1	nopreview	14	232						
	223	a	a		1	nopreview	14	233						
	224	$	$		1	nopreview	14	234						
	225	0.35	0.35		1	nopreview	14	235						
	226	call	call		1	nopreview	14	236						
	227	option	option		1	nopreview	14	237						
	228	.	.		1	nopreview	14	238						
	229	3:35pm	3:35pm		1	nopreview	14	239						
	230	:	:		1	nopreview	14	240						
	231	@entity46	Nasdaq		1	nopreview	14	241						
	232	suspends	suspends		1	nopreview	14	242						
	233	trading	trading		1	nopreview	14	243						
	234	of	of		1	nopreview	14	244						
	235	@entity16	Altera		1	nopreview	14	245						
	236	in	in		1	nopreview	14	246						
	237	the	the		1	nopreview	14	247						
	238	wake	wake		1	nopreview	14	248						
136	239	of	of	closed	1	nopreview	14	249	436	262	262	262	262	174
	240	the	the		1	nopreview	14	250						
	241	@entity10	Journal		1	nopreview	14	251						
	242	-s	-s		1	nopreview	14	252						
	243	tweet	tweet		1	nopreview	14	253						
	244	.	.		1	nopreview	14	254						
	245	4:00pm	4:00pm		1	nopreview	14	255						
	246	:	:		1	nopreview	14	256						
	247	Trader	Trader		1	nopreview	14	257						
	248	sells	sells		1	nopreview	14	258						
	249	@entity16	Altera		1	nopreview	14	259						
	250	at	at		1	nopreview	14	260						
	251	the	the		1	nopreview	14	261						
	252	new	new		1	nopreview	14	262						
	253	share	share		1	nopreview	14	263						
	254	price	price		1	nopreview	14	264						
	255	of	of		1	nopreview	14	265						
	256	$	$		1	nopreview	14	266						
	257	44.39	44.39		1	nopreview	14	267						
	258	for	for		1	nopreview	14	268						
	259	a	a		1	nopreview	14	269						
	260	total	total		1	nopreview	14	270						
	261	of	of		1	nopreview	14	271						
	262	$	$		1	nopreview	14	272						
	263	14,018,362	14,018,362		1	nopreview	14	273						
	264	.	.		1	nopreview	14	274						
	265	This	This		1	nopreview	14	275						
	266	,	,		1	nopreview	14	276						
	267	after	after		1	nopreview	14	277						
	268	factoring	factoring		1	nopreview	14	278						
	269	in	in		1	nopreview	14	279						
	270	the	the		1	nopreview	14	280						
	271	intital	intital		1	nopreview	14	281						
	272	share	share		1	nopreview	14	282						
	273	price	price		1	nopreview	14	283						
	274	and	and		1	nopreview	14	284						
	275	call	call		1	nopreview	14	285						
	276	option	option		1	nopreview	14	286						
	277	,	,		1	nopreview	14	287						
	278	leaves	leaves		1	nopreview	14	288						
	279	them	them		1	nopreview	14	289						
	280	with	with		1	nopreview	14	290						
	281	a	a		1	nopreview	14	291						
	282	profit	profit		1	nopreview	14	292						
	283	of	of		1	nopreview	14	293						
	284	approximately	approximately		1	nopreview	14	294						
	285	$	$		1	nopreview	14	295						
	286	2,539.832	2,539.832		1	nopreview	14	296						
	287	.	.		1	nopreview	14	297						
	288	This	This		1	nopreview	14	298						
	289	call	call		1	nopreview	14	299						
	290	option	option		1	nopreview	14	300						
	291	allowed	allowed		1	nopreview	14	301						
137	292	the	the	for	1	nopreview	14	302	0	0	0	0	0	0
138	293	trader	trader	the	1	nopreview	14	303	212	212	386	212	212	0
	294	the	the		1	nopreview	14	304						
139	295	right	right	day,	1	nopreview	14	305	159	159	159	159	159	0
	296	to	to		1	nopreview	14	306						
	297	purchase	purchase		1	nopreview	14	307						
	298	more	more		1	nopreview	14	308						
	299	shares	shares		1	nopreview	14	309						
	300	in	in		1	nopreview	14	310						
140	301	the	the	Altera	1	nopreview	14	311	335	335	335	134	335	0
	302	company	company		1	nopreview	14	312						
	303	,	,		1	nopreview	14	313						
	304	in	in		1	nopreview	14	314						
	305	this	this		1	nopreview	14	315						
	306	case	case		1	nopreview	14	316						
	307	315,800	315,800		1	nopreview	14	317						
	308	shares	shares		1	nopreview	14	318						
	309	,	,		1	nopreview	14	319						
	310	at	at		1	nopreview	14	320						
	311	the	the		1	nopreview	14	321						
	312	cost	cost		1	nopreview	14	322						
	313	of	of		1	nopreview	14	323						
	314	$	$		1	nopreview	14	324						
	315	36	36		1	nopreview	14	325						
	316	,	,		1	nopreview	14	326						
	317	even	even		1	nopreview	14	327						
	318	though	though		1	nopreview	14	328						
	319	the	the		1	nopreview	14	329						
	320	value	value		1	nopreview	14	330						
	321	of	of		1	nopreview	14	331						
	322	shares	shares		1	nopreview	14	332						
	323	quickly	quickly		1	nopreview	14	333						
	324	began	began		1	nopreview	14	334						
	325	to	to		1	nopreview	14	335						
	326	rise	rise		1	nopreview	14	336						
	327	.	.		1	nopreview	14	337						
	328	Just	Just		1	nopreview	14	338						
	329	28	28		1	nopreview	14	339						
	330	minutes	minutes		1	nopreview	14	340						
	331	later	later		1	nopreview	14	341						
141	332	,	,	was	1	nopreview	14	342	0	0	0	0	0	0
142	333	when	when	valued	1	nopreview	14	343	288	288	288	288	288	0
	334	the	the		1	nopreview	14	344						
	335	market	market		1	nopreview	14	345						
	336	closed	closed		1	nopreview	14	346						
	337	for	for		1	nopreview	14	347						
	338	the	the		1	nopreview	14	348						
	339	day	day		1	nopreview	14	349						
	340	,	,		1	nopreview	14	350						
	341	@entity16	Altera		1	nopreview	14	351						
	342	was	was		1	nopreview	14	352						
	343	valued	valued		1	nopreview	14	353						
143	344	at	at	at	1	nopreview	14	354	0	0	0	0	0	0
144	345	$	$	$44.39	1	nopreview	14	355	1207	1207	1207	291	1207	0
	346	44.39	44.39		1	nopreview	14	356						
145	347	per	per	per	1	nopreview	14	357	224	0	0	0	0	224
146	348	share	share	share.	1	nopreview	14	358	1046	181	1270	181	1046	865
	349	.	.		1	nopreview	14	359						
147	350	That	That	That	1	nopreview	14	360	0	0	0	0	0	0
148	351	was	was	was	1	nopreview	14	361	0	0	0	0	0	0
149	352	an	an	an	1	nopreview	14	362	189	189	189	189	189	0
150	353	increase	increase	increase	1	nopreview	14	363	178	178	178	178	178	0
151	354	of	of	of	1	nopreview	14	364	0	0	0	0	0	0
152	355	28	28	28%,	1	nopreview	14	365	556	556	556	190	556	0
	356	%	%		1	nopreview	14	366						
	357	,	,		1	nopreview	14	367						
153	358	but	but	but	1	nopreview	14	368	0	0	0	0	0	0
154	359	because	because	because	1	nopreview	14	369	255	255	255	255	255	0
155	360	of	of	of	1	nopreview	14	370	251	251	251	251	251	0
156	361	the	the	the	1	nopreview	14	371	181	181	181	181	181	0
157	362	call	call	call	1	nopreview	14	372	0	0	0	0	0	0
158	363	option	option	option,	1	nopreview	14	373	226	226	226	226	226	0
	364	,	,		1	nopreview	14	374						
159	365	the	the	the	1	nopreview	14	375	0	0	0	0	0	0
160	366	trader	trader	trader	1	nopreview	14	376	262	262	262	179	262	0
161	367	was	was	was	1	nopreview	14	377	0	0	0	0	0	0
162	368	able	able	able	1	nopreview	14	378	354	240	240	240	240	114
163	369	to	to	to	1	nopreview	14	379	0	0	0	0	0	0
164	370	sell	sell	sell	1	nopreview	14	380	268	268	382	268	268	0
165	371	their	their	their	1	nopreview	14	381	181	0	0	0	0	181
166	372	stocks	stocks	stocks	1	nopreview	14	382	649	352	830	352	649	297
167	373	at	at	at	1	nopreview	14	383	0	0	0	0	0	0
168	374	a	a	a	1	nopreview	14	384	0	0	0	0	0	0
169	375	far	far	far	1	nopreview	14	385	0	0	0	0	0	0
170	376	greater	greater	greater	1	nopreview	14	386	459	459	459	202	459	0
171	377	profit	profit	profit.	1	nopreview	14	387	346	346	467	346	346	0
	378	.	.		1	nopreview	14	388						
172	379	So	So	So	1	nopreview	14	389	0	0	0	0	0	0
173	380	instead	instead	instead	1	nopreview	14	390	246	246	246	110	246	0
174	381	of	of	of	1	nopreview	14	391	0	0	0	0	0	0
175	382	making	making	making	1	nopreview	14	392	0	0	0	0	0	0
176	383	a	a	a	1	nopreview	14	393	0	0	0	0	0	0
177	384	28	28	28%	1	nopreview	14	394	295	295	295	295	295	0
	385	%	%		1	nopreview	14	395						
178	386	profit	profit	profit,	1	nopreview	14	396	0	0	0	0	0	0
	387	,	,		1	nopreview	14	397						
179	388	the	the	the	1	nopreview	14	398	259	259	259	259	259	0
180	389	trader	trader	trader	1	nopreview	14	399	343	343	343	228	343	0
181	390	made	made	made	1	nopreview	14	400	0	0	0	0	0	0
182	391	a	a	a	1	nopreview	14	401	263	263	263	263	263	0
183	392	2,220	2,220	2,220%	1	nopreview	14	402	1167	1167	1167	888	1167	0
	393	%	%		1	nopreview	14	403						
184	394	profit	profit	profit	1	nopreview	14	404	673	673	673	156	673	0
185	395	of	of	of	1	nopreview	14	405	0	0	0	0	0	0
186	396	roughly	roughly	roughly	1	nopreview	14	406	363	363	363	213	363	0
187	397	$	$	$2.5million	1	nopreview	14	407	842	714	714	131	714	128
	398	2.5million	2.5million		1	nopreview	14	408						
188	399	when	when	when	1	nopreview	14	409	0	0	0	0	0	0
189	400	they	they	they	1	nopreview	14	410	279	0	0	0	0	279
190	401	sold	sold	sold	1	nopreview	14	411	102	102	381	102	102	0
191	402	their	their	their	1	nopreview	14	412	218	218	218	86	218	0
192	403	shares	shares	shares.	1	nopreview	14	413	187	187	187	93	187	0
	404	.	.		1	nopreview	14	414						
193	405	Even	Even	Even	1	nopreview	14	415	0	0	0	0	0	0
194	406	more	more	more	1	nopreview	14	416	289	289	289	156	289	0
195	407	impressive	impressive	impressive	1	nopreview	14	417	459	459	459	175	459	0
196	408	is	is	is	1	nopreview	14	418	0	0	0	0	0	0
197	409	that	that	that	1	nopreview	14	419	234	234	234	234	234	0
198	410	the	the	the	1	nopreview	14	420	224	224	224	224	224	0
199	411	trader	trader	trader	1	nopreview	14	421	154	154	282	154	154	0
200	412	managed	managed	managed	1	nopreview	14	422	183	183	183	183	183	0
201	413	to	to	to	1	nopreview	14	423	0	0	0	0	0	0
202	414	make	make	make	1	nopreview	14	424	227	227	227	227	227	0
203	415	the	the	the	1	nopreview	14	425	0	0	0	0	0	0
204	416	purchase	purchase	purchase	1	nopreview	14	426	255	255	255	255	255	0
205	417	just	just	just	1	nopreview	14	427	0	0	0	0	0	0
206	418	minutes	minutes	minutes	1	nopreview	14	428	482	482	482	151	482	0
207	419	before	before	before	1	nopreview	14	429	0	0	0	0	0	0
208	420	@entity46	Nasdaq	Nasdaq	1	nopreview	14	430	773	773	773	155	773	0
209	421	suspended	suspended	suspended	1	nopreview	14	431	454	454	454	256	454	0
210	422	trading	trading	trading	1	nopreview	14	432	402	402	402	219	402	0
211	423	of	of	of	1	nopreview	14	433	0	0	0	0	0	0
212	424	@entity16	Altera	Altera	1	nopreview	14	434	221	221	221	221	221	0
213	425	because	because	because	1	nopreview	14	435	564	0	0	0	0	564
214	426	of	of	of	1	nopreview	14	436	119	119	278	119	119	0
215	427	the	the	the	1	nopreview	14	437	228	0	0	0	0	228
216	428	tweet	tweet	tweet	1	nopreview	14	438	517	324	324	324	324	193
217	429	from	from	from	1	nopreview	14	439	315	315	315	315	315	0
218	430	@entity9	Mattioli	Mattioli.	1	nopreview	14	440	893	398	398	181	398	495
	431	.	.		1	nopreview	14	441						
219	432	What	What	What-s	1	nopreview	14	442	430	227	227	227	227	203
	433	-s	-s		1	nopreview	14	443						
220	434	more	more	more,	1	nopreview	14	444	465	219	219	219	219	246
	435	,	,		1	nopreview	14	445						
221	436	call	call	call	1	nopreview	14	446	0	0	0	0	0	0
222	437	options	options	options	1	nopreview	14	447	1300	658	658	658	658	642
223	438	for	for	for	1	nopreview	14	448	0	0	0	0	0	0
224	439	@entity16	Altera	Altera	1	nopreview	14	449	885	499	499	248	499	386
225	440	had	had	had	1	nopreview	14	450	0	0	0	0	0	0
226	441	at	at	at	1	nopreview	14	451	0	0	0	0	0	0
227	442	that	that	that	1	nopreview	14	452	2075	1735	1735	422	1735	340
228	443	point	point	point	1	nopreview	14	453	181	0	0	0	0	181
229	444	reached	reached	reached	1	nopreview	14	454	347	0	0	0	0	347
230	445	a	a	a	1	nopreview	14	455	0	0	0	0	0	0
231	446	price	price	price	1	nopreview	14	456	251	132	3917	132	251	119
232	447	of	of	of	1	nopreview	14	457	0	0	0	0	0	0
233	448	$	$	$8.10	1	nopreview	14	458	881	881	881	222	881	0
	449	8.10	8.10		1	nopreview	14	459						
234	450	by	by	by	1	nopreview	14	460	0	0	0	0	0	0
235	451	the	the	the	1	nopreview	14	461	0	0	0	0	0	0
236	452	end	end	end	1	nopreview	14	462	300	300	300	154	300	0
237	453	of	of	of	1	nopreview	14	463	435	131	131	131	131	304
238	454	the	the	the	1	nopreview	14	464	0	0	0	0	0	0
239	455	day	day	day.	1	nopreview	14	465	470	140	774	140	470	330
	456	.	.		1	nopreview	14	466						
240	457	There	There	There	1	nopreview	14	467	0	0	0	0	0	0
241	458	is	is	is	1	nopreview	14	468	109	0	0	0	0	109
242	459	also	also	also	1	nopreview	14	469	183	183	292	183	183	0
243	460	a	a	a	1	nopreview	14	470	128	0	0	0	0	128
244	461	chance	chance	chance,	1	nopreview	14	471	433	165	293	165	165	268
	462	,	,		1	nopreview	14	472						
245	463	reports	reports	reports	1	nopreview	14	473	233	127	359	127	233	106
246	464	@entity90	Matt	Matt	1	nopreview	14	474	321	0	0	0	0	321
247			Khouw	Khouw,	1	nopreview	14	475	668	170	491	170	170	498
	465	,	,		1	nopreview	14	476						
248	466	that	that	that	1	nopreview	14	477	0	0	0	0	0	0
249	467	the	the	the	1	nopreview	14	478	270	157	797	157	157	113
250	468	trader	trader	trader	1	nopreview	14	479	620	204	733	204	620	416
251	469	could	could	could	1	nopreview	14	480	435	435	435	269	435	0
252	470	have	have	have	1	nopreview	14	481	236	236	236	236	236	0
253	471	been	been	been	1	nopreview	14	482	0	0	0	0	0	0
254	472	aware	aware	aware	1	nopreview	14	483	323	323	323	211	323	0
255	473	of	of	of	1	nopreview	14	484	0	0	0	0	0	0
256	474	@entity12	Intel	Intel-s	1	nopreview	14	485	297	297	297	106	297	0
	475	-s	-s		1	nopreview	14	486						
257	476	plan	plan	plan	1	nopreview	14	487	234	234	234	234	234	0
258	477	to	to	to	1	nopreview	14	488	0	0	0	0	0	0
259	478	buy	buy	buy	1	nopreview	14	489	193	193	193	193	193	0
260	479	@entity16	Altera	Altera	1	nopreview	14	490	262	262	262	262	262	0
261	480	early	early	early,	1	nopreview	14	491	189	189	189	189	189	0
	481	,	,		1	nopreview	14	492						
262	482	or	or	or	1	nopreview	14	493	0	0	0	0	0	0
263	483	that	that	that	1	nopreview	14	494	196	196	196	196	196	0
264	484	they	they	they	1	nopreview	14	495	0	0	0	0	0	0
265	485	used	used	used	1	nopreview	14	496	607	351	351	258	351	256
266	486	a	a	a	1	nopreview	14	497	0	0	0	0	0	0
267	487	bot	bot	bot	1	nopreview	14	498	523	406	662	406	406	117
268	488	to	to	to	1	nopreview	14	499	162	162	279	162	162	0
269	489	quickly	quickly	quickly	1	nopreview	14	500	521	371	371	228	371	150
270	490	buy	buy	buy	1	nopreview	14	501	0	0	0	0	0	0
271	491	the	the	the	1	nopreview	14	502	342	0	0	0	0	342
272	492	shares	shares	shares.	1	nopreview	14	503	268	144	760	144	268	124
	493	.	.		1	nopreview	14	504						
273	494	-	-	-A	1	nopreview	14	505	0	0	0	0	0	0
	495	A	A		1	nopreview	14	506						
274	496	bot	bot	bot	1	nopreview	14	507	0	0	0	0	0	0
275	497	is	is	is	1	nopreview	14	508	337	337	337	162	337	0
276	498	not	not	not	1	nopreview	14	509	0	0	0	0	0	0
277	499	as	as	as	1	nopreview	14	510	474	474	474	474	474	0
278	500	outlandish	outlandish	outlandish	1	nopreview	14	511	555	555	555	173	555	0
279	501	as	as	as	1	nopreview	14	512	0	0	0	0	0	0
280	502	it	it	it	1	nopreview	14	513	253	0	0	0	0	253
281	503	sounds	sounds	sounds,-	1	nopreview	14	514	102	102	355	102	102	0
	504	,	,		1	nopreview	14	515						
282	505	-	-	Khouw	1	nopreview	14	516	128	128	128	128	128	0
	506	@entity90	Khouw		1	nopreview	14	517						
283	507	said	said	said.	1	nopreview	14	518	513	0	0	0	0	513
	508	.	.		1	nopreview	14	519						
284	509	-	-	-Traders	1	nopreview	14	520	558	286	1071	286	558	272
	510	Traders	Traders		1	nopreview	14	521						
285	511	need	need	need	1	nopreview	14	522	150	150	150	150	150	0
286	512	to	to	to	1	nopreview	14	523	0	0	0	0	0	0
287	513	aggregate	aggregate	aggregate	1	nopreview	14	524	344	344	344	190	344	0
288	514	and	and	and	1	nopreview	14	525	0	0	0	0	0	0
289	515	filter	filter	filter	1	nopreview	14	526	267	267	267	267	267	0
290	516	through	through	through	1	nopreview	14	527	0	0	0	0	0	0
291	517	tremendous	tremendous	tremendous	1	nopreview	14	528	438	438	438	257	438	0
292	518	amounts	amounts	amounts	1	nopreview	14	529	275	275	275	128	275	0
293	519	of	of	of	1	nopreview	14	530	0	0	0	0	0	0
294	520	data	data	data	1	nopreview	14	531	160	160	160	160	160	0
295	521	quickly	quickly	quickly	1	nopreview	14	532	170	170	170	170	170	0
296	522	and	and	and	1	nopreview	14	533	0	0	0	0	0	0
297	523	will	will	will	1	nopreview	14	534	0	0	0	0	0	0
298	524	rely	rely	rely	1	nopreview	14	535	219	219	219	219	219	0
299	525	on	on	on	1	nopreview	14	536	0	0	0	0	0	0
300	526	technology	technology	technology	1	nopreview	14	537	284	284	284	184	284	0
301	527	to	to	to	1	nopreview	14	538	0	0	0	0	0	0
302	528	help	help	help	1	nopreview	14	539	0	0	0	0	0	0
303	529	if	if	if	1	nopreview	14	540	224	224	224	224	224	0
304	530	it	it	it	1	nopreview	14	541	0	0	0	0	0	0
305	531	is	is	is	1	nopreview	14	542	214	214	214	214	214	0
306	532	available	available	available.-	1	nopreview	14	543	194	194	194	194	194	0
	533	.	.		1	nopreview	14	544						
307	534	-	-	As	1	nopreview	14	545	164	164	164	164	164	0
308	535	As	As	for	1	nopreview	14	546	165	0	0	0	0	165
309	536	for	for	Intel-s	1	nopreview	14	547	122	122	287	122	122	0
	537	@entity12	Intel		1	nopreview	14	548						
	538	-s	-s		1	nopreview	14	549						
310	539	reported	reported	reported	1	nopreview	14	550	454	454	454	157	454	0
311	540	purchase	purchase	purchase	1	nopreview	14	551	408	408	408	260	408	0
312	541	of	of	of	1	nopreview	14	552	0	0	0	0	0	0
313	542	@entity16	Altera	Altera,	1	nopreview	14	553	250	250	250	250	250	0
	543	,	,		1	nopreview	14	554						
314	544	that	that	that	1	nopreview	14	555	0	0	0	0	0	0
315	545	still	still	still	1	nopreview	14	556	877	877	877	220	877	0
316	546	has	has	has	1	nopreview	14	557	191	0	0	0	0	191
317	547	yet	yet	yet	1	nopreview	14	558	0	0	0	0	0	0
318	548	to	to	to	1	nopreview	14	559	595	325	325	325	325	270
319	549	happen	happen	happen.	1	nopreview	14	560	485	231	946	231	485	254
	550	.	.		1	nopreview	14	561						
320	551	Meanwhile	Meanwhile	Meanwhile,	1	nopreview	14	562	458	458	458	136	458	0
	552	,	,		1	nopreview	14	563						
321	553	@entity12	Intel	Intel	1	nopreview	14	564	166	0	0	0	0	166
322	554	share	share	share	1	nopreview	14	565	419	223	389	223	223	196
323	555	prices	prices	prices	1	nopreview	14	566	306	306	502	306	306	0
324	556	fell	fell	fell	1	nopreview	14	567	419	419	419	419	419	0
325	557	earlier	earlier	earlier	1	nopreview	14	568	0	0	0	0	0	0
326	558	this	this	this	1	nopreview	14	569	229	229	229	229	229	0
327	559	week	week	week	1	nopreview	14	570	286	286	286	286	286	0
328	560	in	in	in	1	nopreview	14	571	0	0	0	0	0	0
329	561	response	response	response	1	nopreview	14	572	256	256	256	256	256	0
330	562	to	to	to	1	nopreview	14	573	0	0	0	0	0	0
331	563	the	the	the	1	nopreview	14	574	0	0	0	0	0	0
332	564	news	news	news	1	nopreview	14	575	204	204	204	204	204	0
333	565	that	that	that	1	nopreview	14	576	205	205	205	205	205	0
334	566	they	they	they	1	nopreview	14	577	424	424	424	203	424	0
335	567	might	might	might	1	nopreview	14	578	210	210	210	210	210	0
336	568	purchase	purchase	purchase	1	nopreview	14	579	0	0	0	0	0	0
337	569	@entity16	Altera	Altera.	1	nopreview	14	580	0	0	0	0	0	0
	570	.	.		1	nopreview	14	581						
