HumanPosition	AnonymizedPosition	AnonymizedToken	OriginalToken	ExperimentToken	Participant	Condition	TextNo	JointPosition	tt	fp	rp	ff	rb	sp
1	0	A	A	A	1	nopreview	17	1	0	0	0	0	0	0
2	1	boxing	boxing	boxing	1	nopreview	17	2	250	250	250	250	250	0
3	2	fight	fight	fight	1	nopreview	17	3	0	0	250	0	0	0
4	3	had	had	had	1	nopreview	17	4	249	249	249	249	249	0
5	4	to	to	to	1	nopreview	17	5	0	0	0	0	0	0
6	5	be	be	be	1	nopreview	17	6	131	0	0	0	0	131
7	6	halted	halted	halted	1	nopreview	17	7	419	419	550	419	419	0
8	7	after	after	after	1	nopreview	17	8	168	168	168	168	168	0
9	8	a	a	a	1	nopreview	17	9	0	0	0	0	0	0
10	9	fighter	fighter	fighter-s	1	nopreview	17	10	258	258	258	258	258	0
	10	-s	-s		1	nopreview	17	11						
11	11	cell	cell	cell	1	nopreview	17	12	283	0	0	0	0	283
12	12	phone	phone	phone	1	nopreview	17	13	507	234	790	234	507	273
13	13	fell	fell	fell	1	nopreview	17	14	283	283	283	283	283	0
14	14	out	out	out	1	nopreview	17	15	250	250	250	250	250	0
15	15	of	of	of	1	nopreview	17	16	0	0	0	0	0	0
16	16	his	his	his	1	nopreview	17	17	237	237	237	237	237	0
17	17	trunks	trunks	trunks.	1	nopreview	17	18	280	280	280	135	280	0
	18	.	.		1	nopreview	17	19						
18	19	@entity4	Marvin	Marvin	1	nopreview	17	20	686	416	416	146	416	270
19			-	-Papi	1	nopreview	17	21	369	108	378	108	108	261
			Papi		1	nopreview	17	22						
20			Gallo	Gallo-	1	nopreview	17	23	431	153	692	153	431	278
			-		1	nopreview	17	24						
21			Jones	Jones	1	nopreview	17	25	286	0	0	0	0	286
22	20	and	and	and	1	nopreview	17	26	160	160	446	160	160	0
23	21	@entity5	Ramon	Ramon	1	nopreview	17	27	239	239	239	239	239	0
24			Luis	Luis	1	nopreview	17	28	369	369	369	369	369	0
25			Nicolas	Nicolas	1	nopreview	17	29	590	590	590	233	590	0
26	22	were	were	were	1	nopreview	17	30	0	0	0	0	0	0
27	23	in	in	in	1	nopreview	17	31	195	0	0	0	0	195
28	24	the	the	the	1	nopreview	17	32	159	159	354	159	159	0
29	25	middle	middle	middle	1	nopreview	17	33	198	198	198	198	198	0
30	26	of	of	of	1	nopreview	17	34	0	0	0	0	0	0
31	27	a	a	a	1	nopreview	17	35	0	0	0	0	0	0
32	28	bout	bout	bout	1	nopreview	17	36	290	290	290	290	290	0
33	29	when	when	when	1	nopreview	17	37	161	161	161	161	161	0
34	30	the	the	the	1	nopreview	17	38	0	0	0	0	0	0
35	31	black	black	black	1	nopreview	17	39	217	217	217	217	217	0
36	32	phone	phone	phone	1	nopreview	17	40	390	390	390	239	390	0
37	33	slipped	slipped	slipped	1	nopreview	17	41	165	165	165	165	165	0
38	34	out	out	out	1	nopreview	17	42	0	0	0	0	0	0
39	35	from	from	from	1	nopreview	17	43	232	232	232	232	232	0
40	36	@entity4	Jones	Jones-	1	nopreview	17	44	501	210	210	210	210	291
	37	-	-		1	nopreview	17	45						
41	38	black	black	black	1	nopreview	17	46	1190	901	1481	236	1190	289
42	39	and	and	and	1	nopreview	17	47	230	0	0	0	0	230
43	40	red	red	red	1	nopreview	17	48	118	118	348	118	118	0
44	41	shorts	shorts	shorts	1	nopreview	17	49	463	463	463	257	463	0
45	42	at	at	at	1	nopreview	17	50	0	0	0	0	0	0
46	43	the	the	the	1	nopreview	17	51	0	0	0	0	0	0
47	44	ring	ring	ring	1	nopreview	17	52	190	190	190	190	190	0
48	45	in	in	in	1	nopreview	17	53	246	246	246	246	246	0
49	46	@entity11	Arcadia	Arcadia,	1	nopreview	17	54	360	360	360	208	360	0
	47	,	,		1	nopreview	17	55						
50	48	@entity12	Florida	Florida.	1	nopreview	17	56	284	284	284	284	284	0
	49	.	.		1	nopreview	17	57						
51	50	Referee	Referee	Referee	1	nopreview	17	58	348	348	348	221	348	0
52	51	@entity13	Frankie	Frankie	1	nopreview	17	59	491	0	0	0	0	491
53			Santore	Santore	1	nopreview	17	60	699	159	1190	159	699	540
54			Jr.	Jr.	1	nopreview	17	61	326	326	326	326	326	0
55	52	went	went	went	1	nopreview	17	62	0	0	0	0	0	0
56	53	over	over	over	1	nopreview	17	63	217	217	217	217	217	0
57	54	to	to	to	1	nopreview	17	64	0	0	0	0	0	0
58	55	pick	pick	pick	1	nopreview	17	65	301	301	301	196	301	0
59	56	up	up	up	1	nopreview	17	66	189	189	189	189	189	0
60	57	the	the	the	1	nopreview	17	67	0	0	0	0	0	0
61	58	@entity14	Samsung	Samsung	1	nopreview	17	68	235	235	235	235	235	0
62			Galaxy	Galaxy	1	nopreview	17	69	199	199	199	199	199	0
63	59	and	and	and	1	nopreview	17	70	224	224	224	224	224	0
64	60	looked	looked	looked	1	nopreview	17	71	215	0	0	0	0	215
65	61	like	like	like	1	nopreview	17	72	110	110	325	110	110	0
66	62	he	he	he	1	nopreview	17	73	0	0	0	0	0	0
67	63	was	was	was	1	nopreview	17	74	188	188	188	188	188	0
68	64	chastising	chastising	chastising	1	nopreview	17	75	1212	373	373	373	373	839
69	65	@entity4	Jones	Jones,	1	nopreview	17	76	434	110	1273	110	434	324
	66	,	,		1	nopreview	17	77						
70	67	who	who	who	1	nopreview	17	78	0	0	0	0	0	0
71	68	seemed	seemed	seemed	1	nopreview	17	79	276	276	276	276	276	0
72	69	confused	confused	confused.	1	nopreview	17	80	386	386	386	247	386	0
	70	.	.		1	nopreview	17	81						
73	71	Scroll	Scroll	Jones,	1	nopreview	17	82	227	0	0	0	0	227
	72	down	down		1	nopreview	17	83						
	73	for	for		1	nopreview	17	84						
	74	video	video		1	nopreview	17	85						
	75	@entity4	Marvin		1	nopreview	17	86						
			-		1	nopreview	17	87						
			Papi		1	nopreview	17	88						
			Gallo		1	nopreview	17	89						
			-		1	nopreview	17	90						
			Jones		1	nopreview	17	91						
	76	(	(		1	nopreview	17	92						
74	77	right	right	32,	1	nopreview	17	93	282	282	509	282	282	0
	78	)	)		1	nopreview	17	94						
	79	and	and		1	nopreview	17	95						
75	80	@entity5	Ramon	held	1	nopreview	17	96	414	414	414	414	414	0
			Luis		1	nopreview	17	97						
			Nicolas		1	nopreview	17	98						
	81	(	(		1	nopreview	17	99						
	82	left	left		1	nopreview	17	100						
76	83	)	)	his	1	nopreview	17	101	577	577	577	320	577	0
77	84	were	were	hands	1	nopreview	17	102	156	156	156	156	156	0
	85	in	in		1	nopreview	17	103						
	86	the	the		1	nopreview	17	104						
	87	middle	middle		1	nopreview	17	105						
	88	of	of		1	nopreview	17	106						
	89	a	a		1	nopreview	17	107						
	90	bout	bout		1	nopreview	17	108						
	91	when	when		1	nopreview	17	109						
	92	the	the		1	nopreview	17	110						
	93	black	black		1	nopreview	17	111						
	94	phone	phone		1	nopreview	17	112						
	95	slipped	slipped		1	nopreview	17	113						
	96	out	out		1	nopreview	17	114						
	97	from	from		1	nopreview	17	115						
	98	@entity4	Jones		1	nopreview	17	116						
78	99	-	-	up	1	nopreview	17	117	0	0	0	0	0	0
79	100	black	black	as	1	nopreview	17	118	218	0	0	0	0	218
	101	and	and		1	nopreview	17	119						
80	102	red	red	the	1	nopreview	17	120	0	0	0	0	0	0
81	103	shorts	shorts	referee	1	nopreview	17	121	398	125	616	125	398	273
	104	at	at		1	nopreview	17	122						
	105	the	the		1	nopreview	17	123						
	106	ring	ring		1	nopreview	17	124						
	107	in	in		1	nopreview	17	125						
	108	@entity11	Arcadia		1	nopreview	17	126						
	109	,	,		1	nopreview	17	127						
	110	@entity12	Florida		1	nopreview	17	128						
	111	@entity4	Jones		1	nopreview	17	129						
	112	,	,		1	nopreview	17	130						
	113	32	32		1	nopreview	17	131						
	114	,	,		1	nopreview	17	132						
	115	held	held		1	nopreview	17	133						
	116	his	his		1	nopreview	17	134						
	117	hands	hands		1	nopreview	17	135						
	118	up	up		1	nopreview	17	136						
	119	as	as		1	nopreview	17	137						
	120	the	the		1	nopreview	17	138						
	121	referee	referee		1	nopreview	17	139						
82	122	took	took	took	1	nopreview	17	140	0	0	0	0	0	0
83	123	the	the	the	1	nopreview	17	141	302	302	302	302	302	0
84	124	phone	phone	phone	1	nopreview	17	142	0	0	0	0	0	0
85	125	over	over	over	1	nopreview	17	143	279	279	279	279	279	0
86	126	to	to	to	1	nopreview	17	144	0	0	0	0	0	0
87	127	the	the	the	1	nopreview	17	145	216	216	216	216	216	0
88	128	side	side	side	1	nopreview	17	146	280	280	280	280	280	0
89	129	of	of	of	1	nopreview	17	147	0	0	0	0	0	0
90	130	the	the	the	1	nopreview	17	148	0	0	0	0	0	0
91	131	ring	ring	ring.	1	nopreview	17	149	222	222	222	222	222	0
	132	.	.		1	nopreview	17	150						
92	133	The	The	The	1	nopreview	17	151	0	0	0	0	0	0
93	134	audience	audience	audience	1	nopreview	17	152	490	490	490	255	490	0
94	135	and	and	and	1	nopreview	17	153	155	155	155	155	155	0
95	136	viewers	viewers	viewers	1	nopreview	17	154	267	0	0	0	0	267
96	137	were	were	were	1	nopreview	17	155	132	132	399	132	132	0
97	138	baffled	baffled	baffled	1	nopreview	17	156	230	230	230	230	230	0
98	139	as	as	as	1	nopreview	17	157	0	0	0	0	0	0
99	140	to	to	to	1	nopreview	17	158	0	0	0	0	0	0
100	141	why	why	why	1	nopreview	17	159	219	219	219	219	219	0
101	142	@entity4	Jones	Jones	1	nopreview	17	160	264	264	264	264	264	0
102	143	had	had	had	1	nopreview	17	161	0	0	0	0	0	0
103	144	his	his	his	1	nopreview	17	162	231	231	231	231	231	0
104	145	phone	phone	phone	1	nopreview	17	163	134	134	134	134	134	0
105	146	in	in	in	1	nopreview	17	164	0	0	0	0	0	0
106	147	his	his	his	1	nopreview	17	165	0	0	0	0	0	0
107	148	shorts	shorts	shorts.	1	nopreview	17	166	539	539	539	209	539	0
	149	.	.		1	nopreview	17	167						
108	150	But	But	But	1	nopreview	17	168	0	0	0	0	0	0
109	151	@entity4	Jones	Jones	1	nopreview	17	169	182	0	0	0	0	182
110	152	later	later	later	1	nopreview	17	170	409	150	591	150	409	259
111	153	told	told	told	1	nopreview	17	171	0	0	0	0	0	0
112	154	@entity26	TMZ	TMZ	1	nopreview	17	172	230	0	0	0	0	230
113			Sports	Sports	1	nopreview	17	173	316	126	546	126	316	190
114	155	that	that	that	1	nopreview	17	174	0	0	0	0	0	0
115	156	he	he	he	1	nopreview	17	175	214	214	214	214	214	0
116	157	was	was	was	1	nopreview	17	176	0	0	0	0	0	0
117	158	listening	listening	listening	1	nopreview	17	177	218	218	218	218	218	0
118	159	to	to	to	1	nopreview	17	178	0	0	0	0	0	0
119	160	music	music	music	1	nopreview	17	179	355	355	355	355	355	0
120	161	before	before	before	1	nopreview	17	180	0	0	0	0	0	0
121	162	the	the	the	1	nopreview	17	181	260	260	260	260	260	0
122	163	fight	fight	fight	1	nopreview	17	182	0	0	0	0	0	0
123	164	on	on	on	1	nopreview	17	183	248	248	248	248	248	0
124	165	Friday	Friday	Friday	1	nopreview	17	184	448	448	448	203	448	0
125	166	and	and	and	1	nopreview	17	185	0	0	0	0	0	0
126	167	put	put	put	1	nopreview	17	186	0	0	0	0	0	0
127	168	his	his	his	1	nopreview	17	187	218	218	218	218	218	0
128	169	phone	phone	phone	1	nopreview	17	188	269	0	0	0	0	269
129	170	in	in	in	1	nopreview	17	189	207	0	0	0	0	207
130	171	his	his	his	1	nopreview	17	190	104	104	580	104	104	0
131	172	shorts	shorts	shorts.	1	nopreview	17	191	230	230	230	230	230	0
	173	.	.		1	nopreview	17	192						
132	174	When	When	When	1	nopreview	17	193	0	0	0	0	0	0
133	175	he	he	he	1	nopreview	17	194	0	0	0	0	0	0
134	176	got	got	got	1	nopreview	17	195	352	352	352	352	352	0
135	177	to	to	to	1	nopreview	17	196	189	189	189	189	189	0
136	178	the	the	the	1	nopreview	17	197	0	0	0	0	0	0
137	179	ring	ring	ring,	1	nopreview	17	198	136	136	136	136	136	0
	180	,	,		1	nopreview	17	199						
138	181	he	he	he	1	nopreview	17	200	0	0	0	0	0	0
139	182	pulled	pulled	pulled	1	nopreview	17	201	0	0	0	0	0	0
140	183	out	out	out	1	nopreview	17	202	196	196	196	196	196	0
141	184	his	his	his	1	nopreview	17	203	226	226	226	226	226	0
142	185	headphones	headphones	headphones,	1	nopreview	17	204	517	517	517	187	517	0
	186	,	,		1	nopreview	17	205						
143	187	but	but	but	1	nopreview	17	206	164	164	164	164	164	0
144	188	missed	missed	missed	1	nopreview	17	207	231	0	0	0	0	231
145	189	his	his	his	1	nopreview	17	208	139	139	370	139	139	0
146	190	phone	phone	phone.	1	nopreview	17	209	210	210	210	210	210	0
	191	.	.		1	nopreview	17	210						
147	192	@entity4	Jones	Jones	1	nopreview	17	211	173	0	0	0	0	173
148	193	believes	believes	believes	1	nopreview	17	212	772	353	945	353	772	419
149	194	the	the	the	1	nopreview	17	213	0	0	0	0	0	0
150	195	mishap	mishap	mishap	1	nopreview	17	214	484	484	484	147	484	0
151	196	cost	cost	cost	1	nopreview	17	215	0	0	0	0	0	0
152	197	him	him	him	1	nopreview	17	216	297	297	297	297	297	0
153	198	the	the	the	1	nopreview	17	217	0	0	0	0	0	0
154	199	fight	fight	fight	1	nopreview	17	218	174	174	174	174	174	0
155	200	as	as	as	1	nopreview	17	219	167	167	167	167	167	0
156	201	he	he	he	1	nopreview	17	220	0	0	0	0	0	0
157	202	kept	kept	kept	1	nopreview	17	221	314	314	314	197	314	0
158	203	thinking	thinking	thinking,	1	nopreview	17	222	521	521	521	287	521	0
	204	,	,		1	nopreview	17	223						
159	205	-	-	-Man,	1	nopreview	17	224	224	0	0	0	0	224
	206	Man	Man		1	nopreview	17	225						
	207	,	,		1	nopreview	17	226						
160	208	my	my	my	1	nopreview	17	227	171	171	395	171	171	0
161	209	cell	cell	cell	1	nopreview	17	228	229	229	229	229	229	0
162	210	phone	phone	phone	1	nopreview	17	229	0	0	0	0	0	0
163	211	just	just	just	1	nopreview	17	230	203	203	203	203	203	0
164	212	fell	fell	fell	1	nopreview	17	231	265	265	265	265	265	0
165	213	out	out	out	1	nopreview	17	232	0	0	0	0	0	0
166	214	in	in	in	1	nopreview	17	233	0	0	0	0	0	0
167	215	the	the	the	1	nopreview	17	234	564	185	185	185	185	379
168	216	ring	ring	ring	1	nopreview	17	235	0	0	0	0	0	0
169	217	–	–	-	1	nopreview	17	236	334	175	713	175	334	159
170	218	and	and	and	1	nopreview	17	237	0	0	0	0	0	0
171	219	on	on	on	1	nopreview	17	238	0	0	0	0	0	0
172	220	TV	TV	TV!-	1	nopreview	17	239	164	164	164	164	164	0
	221	!	!		1	nopreview	17	240						
	222	-	-		1	nopreview	17	241						
173	223	He	He	He	1	nopreview	17	242	172	172	172	172	172	0
174	224	has	has	has	1	nopreview	17	243	0	0	0	0	0	0
175	225	decided	decided	decided	1	nopreview	17	244	346	346	346	346	346	0
176	226	that	that	that	1	nopreview	17	245	224	224	224	224	224	0
177	227	for	for	for	1	nopreview	17	246	103	103	103	103	103	0
178	228	his	his	his	1	nopreview	17	247	0	0	0	0	0	0
179	229	next	next	next	1	nopreview	17	248	0	0	0	0	0	0
180	230	fight	fight	fight	1	nopreview	17	249	0	0	0	0	0	0
181	231	he	he	he	1	nopreview	17	250	0	0	0	0	0	0
182	232	will	will	will	1	nopreview	17	251	0	0	0	0	0	0
183	233	make	make	make	1	nopreview	17	252	0	0	0	0	0	0
184	234	sure	sure	sure	1	nopreview	17	253	0	0	0	0	0	0
185	235	someone	someone	someone	1	nopreview	17	254	0	0	0	0	0	0
186	236	pats	pats	pats	1	nopreview	17	255	0	0	0	0	0	0
187	237	him	him	him	1	nopreview	17	256	0	0	0	0	0	0
188	238	down	down	down.	1	nopreview	17	257	0	0	0	0	0	0
	239	.	.		1	nopreview	17	258						
