HumanPosition	AnonymizedPosition	AnonymizedToken	OriginalToken	ExperimentToken	Participant	Condition	TextNo	JointPosition	tt	fp	rp	ff	rb	sp
1	0	Fighting	Fighting	Fighting	1	nopreview	19	1	193	0	0	0	0	193
2	1	between	between	between	1	nopreview	19	2	352	114	545	114	352	238
3	2	rival	rival	rival	1	nopreview	19	3	178	178	178	178	178	0
4	3	fans	fans	fans	1	nopreview	19	4	0	0	0	0	0	0
5	4	forced	forced	forced	1	nopreview	19	5	540	540	540	256	540	0
6	5	a	a	a	1	nopreview	19	6	277	277	277	277	277	0
7	6	@entity2	Russian	Russian	1	nopreview	19	7	262	262	262	262	262	0
8			Premier	Premier	1	nopreview	19	8	305	305	305	305	305	0
9			League	League	1	nopreview	19	9	0	0	0	0	0	0
10	7	match	match	match	1	nopreview	19	10	430	224	224	224	224	206
11	8	between	between	between	1	nopreview	19	11	434	160	640	160	434	274
12	9	@entity3	Arsenal	Arsenal	1	nopreview	19	12	149	149	149	149	149	0
13			Tula	Tula	1	nopreview	19	13	332	332	332	188	332	0
14	10	and	and	and	1	nopreview	19	14	0	0	0	0	0	0
15	11	@entity4	Torpedo	Torpedo	1	nopreview	19	15	514	514	514	202	514	0
16			Moscow	Moscow	1	nopreview	19	16	247	247	247	247	247	0
17	12	to	to	to	1	nopreview	19	17	0	0	0	0	0	0
18	13	be	be	be	1	nopreview	19	18	0	0	0	0	0	0
19	14	stopped	stopped	stopped	1	nopreview	19	19	334	334	334	187	334	0
20	15	for	for	for	1	nopreview	19	20	0	0	0	0	0	0
21	16	seven	seven	seven	1	nopreview	19	21	189	189	189	189	189	0
22	17	minutes	minutes	minutes	1	nopreview	19	22	293	293	293	293	293	0
23	18	on	on	on	1	nopreview	19	23	0	0	0	0	0	0
24	19	Sunday	Sunday	Sunday.	1	nopreview	19	24	301	301	301	205	301	0
	20	.	.		1	nopreview	19	25						
25	21	A	A	A	1	nopreview	19	26	0	0	0	0	0	0
26	22	statement	statement	statement	1	nopreview	19	27	398	398	398	207	398	0
27	23	on	on	on	1	nopreview	19	28	97	97	97	97	97	0
28	24	@entity3	Arsenal	Arsenal-s	1	nopreview	19	29	347	347	347	223	347	0
	25	-s	-s		1	nopreview	19	30						
29	26	official	official	official	1	nopreview	19	31	171	171	171	171	171	0
30	27	site	site	site	1	nopreview	19	32	203	203	203	203	203	0
31	28	read	read	read:	1	nopreview	19	33	403	403	403	403	403	0
32	29	:	:	-In	1	nopreview	19	34	0	0	0	0	0	0
	30	-	-		1	nopreview	19	35						
33	31	In	In	the	1	nopreview	19	36	0	0	0	0	0	0
34	32	the	the	31st	1	nopreview	19	37	471	471	471	471	471	0
	33	31st	31st		1	nopreview	19	38						
35	34	minute	minute	minute,	1	nopreview	19	39	306	306	306	306	306	0
	35	,	,		1	nopreview	19	40						
36	36	fans	fans	fans	1	nopreview	19	41	0	0	0	0	0	0
37	37	from	from	from	1	nopreview	19	42	280	280	280	280	280	0
38	38	the	the	the	1	nopreview	19	43	0	0	0	0	0	0
39	39	visiting	visiting	visiting	1	nopreview	19	44	562	562	562	187	562	0
40	40	@entity9	Moscow	Moscow	1	nopreview	19	45	493	493	493	298	493	0
41	41	club	club	club	1	nopreview	19	46	121	121	121	121	121	0
42	42	broke	broke	broke	1	nopreview	19	47	201	0	0	0	0	201
43	43	down	down	down	1	nopreview	19	48	129	129	330	129	129	0
44	44	barriers	barriers	barriers	1	nopreview	19	49	291	291	291	291	291	0
45	45	in	in	in	1	nopreview	19	50	0	0	0	0	0	0
46	46	front	front	front	1	nopreview	19	51	272	272	10075	272	272	0
47	47	of	of	of	1	nopreview	19	52	133	133	133	133	133	0
48	48	the	the	the	1	nopreview	19	53	0	0	0	0	0	0
49	49	visitors	visitors	visitors	1	nopreview	19	54	526	526	526	254	526	0
50	50	sector	sector	sector	1	nopreview	19	55	541	243	243	243	243	298
51	51	and	and	and	1	nopreview	19	56	267	0	0	0	0	267
52	52	tried	tried	tried	1	nopreview	19	57	615	229	1180	229	615	386
53	53	to	to	to	1	nopreview	19	58	0	0	0	0	0	0
54	54	get	get	get	1	nopreview	19	59	0	0	0	0	0	0
55	55	to	to	to	1	nopreview	19	60	317	317	317	152	317	0
56	56	the	the	the	1	nopreview	19	61	241	241	241	241	241	0
57	57	@entity13	East	East	1	nopreview	19	62	147	147	147	147	147	0
58			Stand	Stand,	1	nopreview	19	63	269	0	0	0	0	269
	58	,	,		1	nopreview	19	64						
59	59	where	where	where	1	nopreview	19	65	132	132	401	132	132	0
60	60	a	a	a	1	nopreview	19	66	277	277	277	277	277	0
61	61	number	number	number	1	nopreview	19	67	206	206	206	206	206	0
62	62	of	of	of	1	nopreview	19	68	0	0	0	0	0	0
63	63	women	women	women	1	nopreview	19	69	240	240	240	240	240	0
64	64	and	and	and	1	nopreview	19	70	0	0	0	0	0	0
65	65	children	children	children	1	nopreview	19	71	357	206	206	206	206	151
66	66	were	were	were	1	nopreview	19	72	0	0	0	0	0	0
67	67	sitting	sitting	sitting.	1	nopreview	19	73	524	223	675	223	524	301
	68	.	.		1	nopreview	19	74						
68	69	-	-	-The	1	nopreview	19	75	0	0	0	0	0	0
	70	The	The		1	nopreview	19	76						
69	71	@entity4	Torpedo	Torpedo	1	nopreview	19	77	387	387	387	172	387	0
70	72	fans	fans	fans	1	nopreview	19	78	0	0	0	0	0	0
71	73	began	began	began	1	nopreview	19	79	466	466	466	291	466	0
72	74	breaking	breaking	breaking	1	nopreview	19	80	824	824	824	124	824	0
73	75	seats	seats	seats	1	nopreview	19	81	198	198	198	198	198	0
74	76	and	and	and	1	nopreview	19	82	0	0	0	0	0	0
75	77	throwing	throwing	throwing	1	nopreview	19	83	381	381	381	167	381	0
76	78	them	them	them	1	nopreview	19	84	0	0	0	0	0	0
77	79	towards	towards	towards	1	nopreview	19	85	539	399	399	154	399	140
78	80	law	law	law	1	nopreview	19	86	146	0	0	0	0	146
79	81	enforcement	enforcement	enforcement	1	nopreview	19	87	629	207	915	207	629	422
80	82	officers	officers	officers	1	nopreview	19	88	345	345	345	345	345	0
81	83	and	and	and	1	nopreview	19	89	0	0	0	0	0	0
82	84	stewards	stewards	stewards.-	1	nopreview	19	90	392	392	392	219	392	0
	85	.	.		1	nopreview	19	91						
83	86	-	-	Referee	1	nopreview	19	92	301	0	0	0	0	301
	87	Scroll	Scroll		1	nopreview	19	93						
	88	down	down		1	nopreview	19	94						
	89	to	to		1	nopreview	19	95						
	90	watch	watch		1	nopreview	19	96						
	91	video	video		1	nopreview	19	97						
	92	footage	footage		1	nopreview	19	98						
	93	of	of		1	nopreview	19	99						
	94	the	the		1	nopreview	19	100						
	95	incident	incident		1	nopreview	19	101						
	96	Fans	Fans		1	nopreview	19	102						
	97	fight	fight		1	nopreview	19	103						
	98	leading	leading		1	nopreview	19	104						
	99	to	to		1	nopreview	19	105						
	100	@entity3	Arsenal		1	nopreview	19	106						
			Tula		1	nopreview	19	107						
	101	vs	vs		1	nopreview	19	108						
	102	@entity4	Torpedo		1	nopreview	19	109						
			Moscow		1	nopreview	19	110						
	103	to	to		1	nopreview	19	111						
	104	be	be		1	nopreview	19	112						
	105	suspended	suspended		1	nopreview	19	113						
	106	for	for		1	nopreview	19	114						
	107	seven	seven		1	nopreview	19	115						
	108	minutes	minutes		1	nopreview	19	116						
	109	on	on		1	nopreview	19	117						
	110	Sunday	Sunday		1	nopreview	19	118						
	111	@entity4	Torpedo		1	nopreview	19	119						
			Moscow		1	nopreview	19	120						
	112	fans	fans		1	nopreview	19	121						
	113	broke	broke		1	nopreview	19	122						
	114	down	down		1	nopreview	19	123						
	115	barriers	barriers		1	nopreview	19	124						
	116	and	and		1	nopreview	19	125						
	117	threw	threw		1	nopreview	19	126						
	118	chairs	chairs		1	nopreview	19	127						
	119	,	,		1	nopreview	19	128						
	120	according	according		1	nopreview	19	129						
	121	to	to		1	nopreview	19	130						
	122	@entity3	Arsenal		1	nopreview	19	131						
			Tula		1	nopreview	19	132						
	123	-s	-s		1	nopreview	19	133						
	124	website	website		1	nopreview	19	134						
	125	Referee	Referee		1	nopreview	19	135						
84	126	@entity28	Alexander	Alexander	1	nopreview	19	136	350	118	651	118	350	232
85			Yegorov	Yegorov	1	nopreview	19	137	725	725	725	575	725	0
86	127	stopped	stopped	stopped	1	nopreview	19	138	740	582	582	236	582	158
87	128	the	the	the	1	nopreview	19	139	0	0	0	0	0	0
88	129	match	match	match	1	nopreview	19	140	253	119	411	119	253	134
89	130	and	and	and	1	nopreview	19	141	94	94	94	94	94	0
90	131	told	told	told	1	nopreview	19	142	0	0	0	0	0	0
91	132	the	the	the	1	nopreview	19	143	344	344	344	202	344	0
92	133	players	players	players	1	nopreview	19	144	173	173	173	173	173	0
93	134	to	to	to	1	nopreview	19	145	0	0	0	0	0	0
94	135	leave	leave	leave	1	nopreview	19	146	346	346	346	346	346	0
95	136	the	the	the	1	nopreview	19	147	0	0	0	0	0	0
96	137	pitch	pitch	pitch	1	nopreview	19	148	163	163	163	163	163	0
97	138	and	and	and	1	nopreview	19	149	0	0	0	0	0	0
98	139	head	head	head	1	nopreview	19	150	186	186	186	186	186	0
99	140	for	for	for	1	nopreview	19	151	232	232	232	232	232	0
100	141	the	the	the	1	nopreview	19	152	0	0	0	0	0	0
101	142	dressing	dressing	dressing	1	nopreview	19	153	245	245	245	245	245	0
102	143	rooms	rooms	rooms,	1	nopreview	19	154	408	408	408	296	408	0
	144	,	,		1	nopreview	19	155						
103	145	while	while	while	1	nopreview	19	156	260	260	260	260	260	0
104	146	fights	fights	fights	1	nopreview	19	157	404	404	404	404	404	0
105	147	broke	broke	broke	1	nopreview	19	158	285	285	285	285	285	0
106	148	out	out	out	1	nopreview	19	159	0	0	0	0	0	0
107	149	between	between	between	1	nopreview	19	160	232	232	232	232	232	0
108	150	fans	fans	fans	1	nopreview	19	161	429	429	429	170	429	0
109	151	on	on	on	1	nopreview	19	162	0	0	0	0	0	0
110	152	the	the	the	1	nopreview	19	163	0	0	0	0	0	0
111	153	running	running	running	1	nopreview	19	164	259	259	259	170	259	0
112	154	track	track	track	1	nopreview	19	165	204	0	0	0	0	204
113	155	after	after	after	1	nopreview	19	166	272	152	356	152	152	120
114	156	they	they	they	1	nopreview	19	167	206	206	206	206	206	0
115	157	managed	managed	managed	1	nopreview	19	168	222	222	222	222	222	0
116	158	to	to	to	1	nopreview	19	169	0	0	0	0	0	0
117	159	climb	climb	climb	1	nopreview	19	170	276	276	276	276	276	0
118	160	over	over	over	1	nopreview	19	171	0	0	0	0	0	0
119	161	barriers	barriers	barriers.	1	nopreview	19	172	497	497	497	240	497	0
	162	.	.		1	nopreview	19	173						
120	163	After	After	After	1	nopreview	19	174	249	0	0	0	0	249
121	164	order	order	order	1	nopreview	19	175	436	287	287	164	287	149
122	165	was	was	was	1	nopreview	19	176	248	141	141	141	141	107
123	166	restored	restored	restored	1	nopreview	19	177	799	153	1304	153	799	646
124	167	play	play	play	1	nopreview	19	178	160	160	280	160	160	0
125	168	resumed	resumed	resumed	1	nopreview	19	179	299	299	299	299	299	0
126	169	and	and	and	1	nopreview	19	180	132	132	132	132	132	0
127	170	@entity4	Torpedo	Torpedo	1	nopreview	19	181	260	260	260	260	260	0
128	171	ran	ran	ran	1	nopreview	19	182	298	298	298	298	298	0
129	172	out	out	out	1	nopreview	19	183	0	0	0	0	0	0
130	173	3	3	3-1	1	nopreview	19	184	351	351	351	186	351	0
	174	-	-		1	nopreview	19	185						
	175	1	1		1	nopreview	19	186						
131	176	winners	winners	winners.	1	nopreview	19	187	704	704	704	303	704	0
	177	.	.		1	nopreview	19	188						
132	178	@entity41	Sergei	Sergei	1	nopreview	19	189	475	475	475	155	475	0
133			Cheban	Cheban,	1	nopreview	19	190	421	421	421	218	421	0
	179	,	,		1	nopreview	19	191						
134	180	executive	executive	executive	1	nopreview	19	192	624	624	624	624	624	0
135	181	director	director	director	1	nopreview	19	193	216	216	216	216	216	0
136	182	of	of	of	1	nopreview	19	194	0	0	0	0	0	0
137	183	the	the	the	1	nopreview	19	195	0	0	0	0	0	0
138	184	@entity2	Russian	Russian	1	nopreview	19	196	226	0	0	0	0	226
139			Football	Football	1	nopreview	19	197	189	98	324	98	98	91
140			Premier	Premier	1	nopreview	19	198	440	157	248	157	157	283
141			League	League,	1	nopreview	19	199	320	320	603	194	320	0
	185	,	,		1	nopreview	19	200						
142	186	said	said	said	1	nopreview	19	201	0	0	0	0	0	0
143	187	@entity4	Torpedo	Torpedo	1	nopreview	19	202	442	442	442	442	442	0
144	188	could	could	could	1	nopreview	19	203	0	0	0	0	0	0
145	189	expected	expected	expected	1	nopreview	19	204	559	559	559	273	559	0
146	190	to	to	to	1	nopreview	19	205	0	0	0	0	0	0
147	191	be	be	be	1	nopreview	19	206	0	0	0	0	0	0
148	192	heavily	heavily	heavily	1	nopreview	19	207	228	228	228	228	228	0
149	193	punished	punished	punished	1	nopreview	19	208	485	485	485	138	485	0
150	194	for	for	for	1	nopreview	19	209	0	0	0	0	0	0
151	195	this	this	this	1	nopreview	19	210	241	241	241	149	241	0
152	196	latest	latest	latest	1	nopreview	19	211	202	202	202	202	202	0
153	197	outbreak	outbreak	outbreak	1	nopreview	19	212	243	243	243	243	243	0
154	198	of	of	of	1	nopreview	19	213	0	0	0	0	0	0
155	199	violence	violence	violence	1	nopreview	19	214	277	277	277	277	277	0
156	200	by	by	by	1	nopreview	19	215	0	0	0	0	0	0
157	201	their	their	their	1	nopreview	19	216	235	235	235	235	235	0
158	202	fans	fans	fans.	1	nopreview	19	217	206	206	206	206	206	0
	203	.	.		1	nopreview	19	218						
159	204	-	-	-Those	1	nopreview	19	219	0	0	0	0	0	0
	205	Those	Those		1	nopreview	19	220						
160	206	people	people	people	1	nopreview	19	221	512	512	512	216	512	0
161	207	who	who	who	1	nopreview	19	222	132	132	132	132	132	0
162	208	organised	organised	organised	1	nopreview	19	223	448	448	448	273	448	0
163	209	the	the	the	1	nopreview	19	224	0	0	0	0	0	0
164	210	trouble	trouble	trouble	1	nopreview	19	225	318	318	318	150	318	0
165	211	have	have	have	1	nopreview	19	226	0	0	0	0	0	0
166	212	already	already	already	1	nopreview	19	227	212	212	212	212	212	0
167	213	been	been	been	1	nopreview	19	228	0	0	0	0	0	0
168	214	detained	detained	detained.	1	nopreview	19	229	281	281	281	136	281	0
	215	.	.		1	nopreview	19	230						
169	216	The	The	The	1	nopreview	19	231	0	0	0	0	0	0
170	217	security	security	security	1	nopreview	19	232	284	284	284	284	284	0
171	218	forces	forces	forces	1	nopreview	19	233	750	750	750	137	750	0
172	219	on	on	on	1	nopreview	19	234	0	0	0	0	0	0
173	220	duty	duty	duty	1	nopreview	19	235	276	276	276	276	276	0
174	221	were	were	were	1	nopreview	19	236	0	0	0	0	0	0
175	222	very	very	very	1	nopreview	19	237	356	356	356	204	356	0
176	223	professional	professional	professional	1	nopreview	19	238	493	493	493	123	493	0
177	224	in	in	in	1	nopreview	19	239	0	0	0	0	0	0
178	225	their	their	their	1	nopreview	19	240	305	305	305	305	305	0
179	226	work	work	work,-	1	nopreview	19	241	175	175	175	175	175	0
	227	,	,		1	nopreview	19	242						
180	228	-	-	said	1	nopreview	19	243	0	0	0	0	0	0
	229	said	said		1	nopreview	19	244						
181	230	@entity41	Cheban	Cheban	1	nopreview	19	245	650	650	650	337	650	0
182	231	in	in	in	1	nopreview	19	246	0	0	0	0	0	0
183	232	an	an	an	1	nopreview	19	247	0	0	0	0	0	0
184	233	interview	interview	interview	1	nopreview	19	248	407	407	407	220	407	0
185	234	with	with	with	1	nopreview	19	249	0	0	0	0	0	0
186	235	@entity52	Championat.com	Championat.com.	1	nopreview	19	250	1664	1664	1664	208	1664	0
	236	.	.		1	nopreview	19	251						
187	237	-	-	-Torpedo	1	nopreview	19	252	276	276	276	129	276	0
	238	@entity4	Torpedo		1	nopreview	19	253						
188	239	can	can	can	1	nopreview	19	254	0	0	0	0	0	0
189	240	expect	expect	expect	1	nopreview	19	255	278	278	278	278	278	0
190	241	to	to	to	1	nopreview	19	256	0	0	0	0	0	0
191	242	receive	receive	receive	1	nopreview	19	257	282	282	282	282	282	0
192	243	serious	serious	serious	1	nopreview	19	258	299	299	299	299	299	0
193	244	punishment	punishment	punishment.	1	nopreview	19	259	204	204	204	204	204	0
	245	.	.		1	nopreview	19	260						
194	246	This	This	This	1	nopreview	19	261	0	0	0	0	0	0
195	247	is	is	is	1	nopreview	19	262	0	0	0	0	0	0
196	248	hooliganism	hooliganism	hooliganism	1	nopreview	19	263	1201	1201	1201	185	1201	0
197	249	and	and	and	1	nopreview	19	264	0	0	0	0	0	0
198	250	it	it	it	1	nopreview	19	265	0	0	0	0	0	0
199	251	not	not	not	1	nopreview	19	266	280	280	280	280	280	0
200	252	the	the	the	1	nopreview	19	267	236	236	236	236	236	0
201	253	first	first	first	1	nopreview	19	268	186	0	0	0	0	186
202	254	time	time	time	1	nopreview	19	269	125	125	311	125	125	0
203	255	they	they	they	1	nopreview	19	270	0	0	0	0	0	0
204	256	have	have	have	1	nopreview	19	271	246	246	246	246	246	0
205	257	stopped	stopped	stopped	1	nopreview	19	272	272	272	272	272	272	0
206	258	a	a	a	1	nopreview	19	273	0	0	0	0	0	0
207	259	match	match	match.	1	nopreview	19	274	216	216	216	216	216	0
	260	.	.		1	nopreview	19	275						
208	261	The	The	The	1	nopreview	19	276	0	0	0	0	0	0
209	262	punishment	punishment	punishment	1	nopreview	19	277	365	365	365	248	365	0
210	263	will	will	will	1	nopreview	19	278	0	0	0	0	0	0
211	264	be	be	be	1	nopreview	19	279	0	0	0	0	0	0
212	265	harsh	harsh	harsh.-	1	nopreview	19	280	371	371	371	223	371	0
	266	.	.		1	nopreview	19	281						
213	267	-	-	Torpedo-s	1	nopreview	19	282	277	277	277	163	277	0
	268	@entity4	Torpedo		1	nopreview	19	283						
	269	-s	-s		1	nopreview	19	284						
214	270	fans	fans	fans	1	nopreview	19	285	104	104	104	104	104	0
215	271	have	have	have	1	nopreview	19	286	382	382	382	382	382	0
216	272	caused	caused	caused	1	nopreview	19	287	279	279	279	279	279	0
217	273	trouble	trouble	trouble	1	nopreview	19	288	0	0	0	0	0	0
218	274	on	on	on	1	nopreview	19	289	294	294	294	294	294	0
219	275	a	a	a	1	nopreview	19	290	0	0	0	0	0	0
220	276	number	number	number	1	nopreview	19	291	272	272	272	272	272	0
221	277	of	of	of	1	nopreview	19	292	0	0	0	0	0	0
222	278	occasions	occasions	occasions	1	nopreview	19	293	212	212	212	212	212	0
223	279	and	and	and	1	nopreview	19	294	0	0	0	0	0	0
224	280	the	the	the	1	nopreview	19	295	0	0	0	0	0	0
225	281	club	club	club	1	nopreview	19	296	245	245	245	245	245	0
226	282	have	have	have	1	nopreview	19	297	0	0	0	0	0	0
227	283	already	already	already	1	nopreview	19	298	257	257	257	257	257	0
228	284	been	been	been	1	nopreview	19	299	313	205	205	205	205	108
229	285	punished	punished	punished	1	nopreview	19	300	236	236	344	236	236	0
230	286	three	three	three	1	nopreview	19	301	0	0	0	0	0	0
231	287	times	times	times	1	nopreview	19	302	386	386	386	224	386	0
232	288	this	this	this	1	nopreview	19	303	0	0	0	0	0	0
233	289	season	season	season	1	nopreview	19	304	333	333	333	333	333	0
234	290	for	for	for	1	nopreview	19	305	0	0	0	0	0	0
235	291	racist	racist	racist	1	nopreview	19	306	277	277	277	277	277	0
236	292	behaviour	behaviour	behaviour	1	nopreview	19	307	246	246	246	246	246	0
237	293	of	of	of	1	nopreview	19	308	0	0	0	0	0	0
238	294	their	their	their	1	nopreview	19	309	0	0	0	0	0	0
239	295	supporters	supporters	supporters.	1	nopreview	19	310	431	431	431	224	431	0
	296	.	.		1	nopreview	19	311						
240	297	The	The	The	1	nopreview	19	312	0	0	0	0	0	0
241	298	last	last	last	1	nopreview	19	313	251	251	251	251	251	0
242	299	incident	incident	incident	1	nopreview	19	314	236	236	236	236	236	0
243	300	occurred	occurred	occurred	1	nopreview	19	315	188	0	0	0	0	188
244	301	on	on	on	1	nopreview	19	316	141	141	329	141	141	0
245	302	March	March	March	1	nopreview	19	317	214	214	214	214	214	0
246	303	15	15	15	1	nopreview	19	318	149	149	149	149	149	0
247	304	when	when	when	1	nopreview	19	319	0	0	0	0	0	0
248	305	@entity4	Torpedo	Torpedo	1	nopreview	19	320	368	368	368	368	368	0
249	306	fans	fans	fans	1	nopreview	19	321	351	351	351	351	351	0
250	307	abused	abused	abused	1	nopreview	19	322	222	0	0	0	0	222
251	308	@entity73	Zenit	Zenit	1	nopreview	19	323	257	257	479	257	257	0
252			St	St	1	nopreview	19	324	145	0	0	0	0	145
253			Petersburg	Petersburg-s	1	nopreview	19	325	506	230	651	230	506	276
	309	-s	-s		1	nopreview	19	326						
254	310	@entity72	Brazilian	Brazilian	1	nopreview	19	327	272	272	272	272	272	0
255	311	forward	forward	forward	1	nopreview	19	328	554	310	310	189	310	244
256	312	@entity71	Hulk	Hulk.	1	nopreview	19	329	494	0	0	0	0	494
	313	.	.		1	nopreview	19	330						
257	314	The	The	The	1	nopreview	19	331	288	129	1026	129	288	159
258	315	side	side	side	1	nopreview	19	332	387	387	387	387	387	0
259	316	were	were	were	1	nopreview	19	333	138	138	138	138	138	0
260	317	sanctioned	sanctioned	sanctioned	1	nopreview	19	334	295	295	295	133	295	0
261	318	by	by	by	1	nopreview	19	335	0	0	0	0	0	0
262	319	having	having	having	1	nopreview	19	336	568	287	287	287	287	281
263	320	to	to	to	1	nopreview	19	337	0	0	0	0	0	0
264	321	play	play	play	1	nopreview	19	338	185	185	466	185	185	0
265	322	two	two	two	1	nopreview	19	339	229	229	229	229	229	0
266	323	matches	matches	matches	1	nopreview	19	340	127	127	127	127	127	0
267	324	behind	behind	behind	1	nopreview	19	341	202	202	202	202	202	0
268	325	closed	closed	closed	1	nopreview	19	342	185	185	185	185	185	0
269	326	doors	doors	doors.	1	nopreview	19	343	363	363	363	263	363	0
	327	.	.		1	nopreview	19	344						
270	328	@entity4	Torpedo	Torpedo	1	nopreview	19	345	206	0	0	0	0	206
271	329	are	are	are	1	nopreview	19	346	137	137	343	137	137	0
272	330	currently	currently	currently	1	nopreview	19	347	224	224	224	224	224	0
273	331	in	in	in	1	nopreview	19	348	97	97	97	97	97	0
274	332	12th	12th	12th	1	nopreview	19	349	225	225	225	225	225	0
275	333	place	place	place	1	nopreview	19	350	182	182	182	182	182	0
276	334	in	in	in	1	nopreview	19	351	0	0	0	0	0	0
277	335	the	the	the	1	nopreview	19	352	0	0	0	0	0	0
278	336	@entity2	Russian	Russian	1	nopreview	19	353	203	203	203	203	203	0
279			Premier	Premier	1	nopreview	19	354	0	0	0	0	0	0
280			League	League	1	nopreview	19	355	160	160	160	160	160	0
281	337	table	table	table	1	nopreview	19	356	287	287	287	287	287	0
282	338	with	with	with	1	nopreview	19	357	211	211	211	211	211	0
283	339	19	19	19	1	nopreview	19	358	0	0	0	0	0	0
284	340	points	points	points,	1	nopreview	19	359	321	321	321	214	321	0
	341	,	,		1	nopreview	19	360						
285	342	while	while	while	1	nopreview	19	361	0	0	0	0	0	0
286	343	@entity3	Arsenal	Arsenal	1	nopreview	19	362	604	323	323	323	323	281
287			Tula	Tula	1	nopreview	19	363	702	154	983	154	702	548
288	344	are	are	are	1	nopreview	19	364	0	0	0	0	0	0
289	345	one	one	one	1	nopreview	19	365	230	230	230	230	230	0
290	346	place	place	place	1	nopreview	19	366	702	505	505	221	505	197
291	347	off	off	off	1	nopreview	19	367	0	0	0	0	0	0
292	348	the	the	the	1	nopreview	19	368	122	122	122	122	122	0
293	349	bottom	bottom	bottom	1	nopreview	19	369	339	184	536	184	339	155
294	350	with	with	with	1	nopreview	19	370	456	456	456	277	456	0
295	351	14	14	14	1	nopreview	19	371	0	0	0	0	0	0
296	352	points	points	points.	1	nopreview	19	372	462	462	462	242	462	0
	353	.	.		1	nopreview	19	373						
