HumanPosition	AnonymizedPosition	AnonymizedToken	OriginalToken	ExperimentToken	Participant	Condition	TextNo	JointPosition	tt	fp	rp	ff	rb	sp
1	0	A	A	A	1	nopreview	20	1	0	0	0	0	0	0
2	1	physician	physician	physician,	1	nopreview	20	2	731	335	335	156	335	396
	2	,	,		1	nopreview	20	3						
3	3	93	93	93,	1	nopreview	20	4	435	311	831	311	435	124
	4	,	,		1	nopreview	20	5						
4	5	who	who	who	1	nopreview	20	6	162	162	162	162	162	0
5				was	1	nopreview	20	7	233	233	233	233	233	0
6	6	team	team	team	1	nopreview	20	8	244	244	244	244	244	0
7	7	doctor	doctor	doctor	1	nopreview	20	9	307	307	307	307	307	0
8	8	for	for	for	1	nopreview	20	10	0	0	0	0	0	0
9	9	five	five	five	1	nopreview	20	11	265	265	265	265	265	0
10	10	@entity6	U.S.	U.S.	1	nopreview	20	12	578	426	426	426	426	152
11	11	men	men	men-s	1	nopreview	20	13	363	179	515	179	363	184
	12	-s	-s		1	nopreview	20	14						
12	13	@entity4	Olympic	Olympic	1	nopreview	20	15	441	441	441	168	441	0
13	14	hockey	hockey	hockey	1	nopreview	20	16	322	322	322	322	322	0
14	15	squads	squads	squads,	1	nopreview	20	17	253	253	253	253	253	0
	16	,	,		1	nopreview	20	18						
15	17	including	including	including	1	nopreview	20	19	223	223	223	223	223	0
16	18	the	the	the	1	nopreview	20	20	0	0	0	0	0	0
17	19	-	-	-Miracle	1	nopreview	20	21	457	457	457	269	457	0
	20	@entity8	Miracle		1	nopreview	20	22						
18			on	on	1	nopreview	20	23	0	0	0	0	0	0
19			Ice	Ice-	1	nopreview	20	24	283	283	283	283	283	0
	21	-	-		1	nopreview	20	25						
20	22	team	team	team	1	nopreview	20	26	0	0	0	0	0	0
21	23	that	that	that	1	nopreview	20	27	205	205	205	205	205	0
22	24	won	won	won	1	nopreview	20	28	256	256	256	256	256	0
23	25	in	in	in	1	nopreview	20	29	0	0	0	0	0	0
24	26	the	the	the	1	nopreview	20	30	216	216	216	216	216	0
25	27	1980	1980	1980-s,	1	nopreview	20	31	335	335	335	335	335	0
	28	-s	-s		1	nopreview	20	32						
	29	,	,		1	nopreview	20	33						
26	30	has	has	has	1	nopreview	20	34	0	0	0	0	0	0
27	31	suffered	suffered	suffered	1	nopreview	20	35	860	860	860	205	860	0
28	32	serious	serious	serious	1	nopreview	20	36	265	265	265	265	265	0
29	33	injuries	injuries	injuries	1	nopreview	20	37	290	290	290	290	290	0
30	34	in	in	in	1	nopreview	20	38	0	0	0	0	0	0
31	35	an	an	an	1	nopreview	20	39	0	0	0	0	0	0
32	36	attack	attack	attack	1	nopreview	20	40	356	356	356	160	356	0
33	37	while	while	while	1	nopreview	20	41	0	0	196	0	0	0
34	38	visiting	visiting	visiting	1	nopreview	20	42	555	555	555	206	555	0
35	39	his	his	his	1	nopreview	20	43	0	0	0	0	0	0
36	40	wife	wife	wife-s	1	nopreview	20	44	251	251	251	251	251	0
	41	-s	-s		1	nopreview	20	45						
37	42	grave	grave	grave	1	nopreview	20	46	335	335	335	335	335	0
38	43	on	on	on	1	nopreview	20	47	0	0	0	0	0	0
39	44	Sunday	Sunday	Sunday.	1	nopreview	20	48	569	569	569	240	569	0
	45	.	.		1	nopreview	20	49						
40	46	@entity13	George	George	1	nopreview	20	50	612	612	612	612	612	0
41			Nagobads	Nagobads	1	nopreview	20	51	649	649	649	240	649	0
42	47	was	was	was	1	nopreview	20	52	159	159	159	159	159	0
43	48	allegedly	allegedly	allegedly	1	nopreview	20	53	327	0	0	0	0	327
44	49	mugged	mugged	mugged	1	nopreview	20	54	379	120	706	120	379	259
45	50	by	by	by	1	nopreview	20	55	0	0	0	0	0	0
46	51	a	a	a	1	nopreview	20	56	0	0	0	0	0	0
47	52	teenager	teenager	teenager	1	nopreview	20	57	819	628	628	134	628	191
48	53	on	on	on	1	nopreview	20	58	0	0	0	0	0	0
49	54	Sunday	Sunday	Sunday	1	nopreview	20	59	358	81	549	81	358	277
50	55	afternoon	afternoon	afternoon	1	nopreview	20	60	508	508	508	256	508	0
51	56	at	at	at	1	nopreview	20	61	0	0	0	0	0	0
52	57	the	the	the	1	nopreview	20	62	0	0	0	0	0	0
53	58	@entity15	Crystal	Crystal	1	nopreview	20	63	338	338	338	338	338	0
54			Lake	Lake	1	nopreview	20	64	253	253	253	253	253	0
55			Cemetery	Cemetery	1	nopreview	20	65	253	253	253	253	253	0
56	59	in	in	in	1	nopreview	20	66	165	165	165	165	165	0
57	60	@entity16	Minneapolis	Minneapolis	1	nopreview	20	67	476	476	476	476	476	0
58	61	while	while	while	1	nopreview	20	68	241	241	241	241	241	0
59	62	laying	laying	laying	1	nopreview	20	69	914	914	914	223	914	0
60	63	flowers	flowers	flowers	1	nopreview	20	70	344	344	344	344	344	0
61	64	on	on	on	1	nopreview	20	71	83	83	83	83	83	0
62	65	his	his	his	1	nopreview	20	72	237	0	0	0	0	237
63	66	wife	wife	wife	1	nopreview	20	73	264	118	501	118	264	146
64	67	@entity18	Velta	Velta-s	1	nopreview	20	74	473	473	473	183	473	0
	68	-s	-s		1	nopreview	20	75						
65	69	grave	grave	grave.	1	nopreview	20	76	425	425	425	275	425	0
	70	.	.		1	nopreview	20	77						
66	71	He	He	He	1	nopreview	20	78	0	0	0	0	0	0
67	72	was	was	was	1	nopreview	20	79	208	208	208	208	208	0
68	73	released	released	released	1	nopreview	20	80	238	238	238	238	238	0
69	74	from	from	from	1	nopreview	20	81	0	0	0	0	0	0
70	75	the	the	the	1	nopreview	20	82	156	156	156	156	156	0
71	76	hospital	hospital	hospital	1	nopreview	20	83	230	230	230	230	230	0
72	77	on	on	on	1	nopreview	20	84	0	0	0	0	0	0
73	78	Tuesday	Tuesday	Tuesday	1	nopreview	20	85	123	123	123	123	123	0
74	79	with	with	with	1	nopreview	20	86	0	0	0	0	0	0
75	80	18	18	18	1	nopreview	20	87	223	223	223	223	223	0
76	81	stitches	stitches	stitches	1	nopreview	20	88	212	212	212	212	212	0
77	82	in	in	in	1	nopreview	20	89	0	0	0	0	0	0
78	83	his	his	his	1	nopreview	20	90	0	0	0	0	0	0
79	84	head	head	head.	1	nopreview	20	91	238	238	238	238	238	0
	85	.	.		1	nopreview	20	92						
80	86	Scroll	Scroll	After	1	nopreview	20	93	0	0	0	0	0	0
	87	down	down		1	nopreview	20	94						
	88	for	for		1	nopreview	20	95						
81	89	video	video	allegedly	1	nopreview	20	96	384	384	384	228	384	0
	90	Injured	Injured		1	nopreview	20	97						
	91	:	:		1	nopreview	20	98						
	92	Dr.	Dr.		1	nopreview	20	99						
	93	@entity13	George		1	nopreview	20	100						
			Nagobads		1	nopreview	20	101						
	94	,	,		1	nopreview	20	102						
	95	pictured	pictured		1	nopreview	20	103						
	96	in	in		1	nopreview	20	104						
	97	2010	2010		1	nopreview	20	105						
	98	with	with		1	nopreview	20	106						
	99	his	his		1	nopreview	20	107						
	100	@entity25	Hall		1	nopreview	20	108						
			of		1	nopreview	20	109						
			Fame		1	nopreview	20	110						
	101	plaque	plaque		1	nopreview	20	111						
	102	,	,		1	nopreview	20	112						
	103	was	was		1	nopreview	20	113						
	104	allegedly	allegedly		1	nopreview	20	114						
82	105	attacked	attacked	being	1	nopreview	20	115	0	0	0	0	0	0
	106	on	on		1	nopreview	20	116						
	107	Sunday	Sunday		1	nopreview	20	117						
	108	by	by		1	nopreview	20	118						
	109	a	a		1	nopreview	20	119						
	110	teenager	teenager		1	nopreview	20	120						
	111	in	in		1	nopreview	20	121						
83	112	a	a	attacked	1	nopreview	20	122	405	405	405	223	405	0
	113	cemetary	cemetary		1	nopreview	20	123						
	114	Visiting	Visiting		1	nopreview	20	124						
	115	his	his		1	nopreview	20	125						
	116	wife	wife		1	nopreview	20	126						
	117	:	:		1	nopreview	20	127						
	118	@entity13	Nagobads		1	nopreview	20	128						
	119	was	was		1	nopreview	20	129						
	120	visiting	visiting		1	nopreview	20	130						
	121	his	his		1	nopreview	20	131						
	122	wife	wife		1	nopreview	20	132						
	123	-s	-s		1	nopreview	20	133						
	124	grave	grave		1	nopreview	20	134						
	125	at	at		1	nopreview	20	135						
	126	The	The		1	nopreview	20	136						
	127	@entity15	Crystal		1	nopreview	20	137						
			Lake		1	nopreview	20	138						
			Cemetery		1	nopreview	20	139						
	128	when	when		1	nopreview	20	140						
	129	he	he		1	nopreview	20	141						
	130	was	was		1	nopreview	20	142						
	131	allegedly	allegedly		1	nopreview	20	143						
	132	beaten	beaten		1	nopreview	20	144						
	133	with	with		1	nopreview	20	145						
	134	a	a		1	nopreview	20	146						
	135	snowbrush	snowbrush		1	nopreview	20	147						
	136	After	After		1	nopreview	20	148						
	137	allegedly	allegedly		1	nopreview	20	149						
	138	being	being		1	nopreview	20	150						
	139	attacked	attacked		1	nopreview	20	151						
84	140	by	by	by	1	nopreview	20	152	0	0	0	0	0	0
85	141	a	a	a	1	nopreview	20	153	112	112	112	112	112	0
86	142	snowbrush	snowbrush	snowbrush	1	nopreview	20	154	239	0	0	0	0	239
87	143	on	on	on	1	nopreview	20	155	131	131	370	131	131	0
88	144	Sunday	Sunday	Sunday,	1	nopreview	20	156	403	403	403	403	403	0
	145	,	,		1	nopreview	20	157						
89	146	a	a	a	1	nopreview	20	158	0	0	0	0	0	0
90	147	bloodied	bloodied	bloodied	1	nopreview	20	159	334	334	334	98	334	0
91	148	@entity31	Nagobads	Nagobads	1	nopreview	20	160	422	422	422	194	422	0
92	149	managed	managed	managed	1	nopreview	20	161	412	412	412	289	412	0
93	150	to	to	to	1	nopreview	20	162	0	0	0	0	0	0
94	151	get	get	get	1	nopreview	20	163	0	0	0	0	0	0
95	152	back	back	back	1	nopreview	20	164	248	248	248	248	248	0
96	153	in	in	in	1	nopreview	20	165	145	145	145	145	145	0
97	154	his	his	his	1	nopreview	20	166	0	0	0	0	0	0
98	155	car	car	car	1	nopreview	20	167	225	225	225	225	225	0
99	156	and	and	and	1	nopreview	20	168	0	0	0	0	0	0
100	157	drive	drive	drive	1	nopreview	20	169	374	188	188	188	188	186
101	158	away	away	away.	1	nopreview	20	170	162	0	0	0	0	162
	159	.	.		1	nopreview	20	171						
102	160	@entity31	Nagobads	Nagobads,	1	nopreview	20	172	776	171	1124	171	776	605
	161	,	,		1	nopreview	20	173						
103	162	who	who	who	1	nopreview	20	174	0	0	0	0	0	0
104	163	is	is	is	1	nopreview	20	175	229	229	229	229	229	0
105	164	recovering	recovering	recovering	1	nopreview	20	176	354	354	354	167	354	0
106	165	at	at	at	1	nopreview	20	177	0	0	0	0	0	0
107	166	home	home	home,	1	nopreview	20	178	142	142	142	142	142	0
	167	,	,		1	nopreview	20	179						
108	168	said	said	said	1	nopreview	20	180	0	0	0	0	0	0
109	169	on	on	on	1	nopreview	20	181	261	261	261	146	261	0
110	170	Tuesday	Tuesday	Tuesday	1	nopreview	20	182	214	214	214	214	214	0
111	171	that	that	that	1	nopreview	20	183	242	242	242	242	242	0
112	172	he	he	he	1	nopreview	20	184	0	0	0	0	0	0
113	173	sped	sped	sped	1	nopreview	20	185	529	181	181	181	181	348
114	174	to	to	to	1	nopreview	20	186	487	263	263	263	263	224
115	175	a	a	a	1	nopreview	20	187	0	0	0	0	0	0
116	176	nearby	nearby	nearby	1	nopreview	20	188	697	358	1269	267	697	339
117	177	hospital	hospital	hospital	1	nopreview	20	189	304	304	304	129	304	0
118	178	following	following	following	1	nopreview	20	190	209	209	209	209	209	0
119	179	the	the	the	1	nopreview	20	191	0	0	0	0	0	0
120	180	beating	beating	beating.	1	nopreview	20	192	396	396	396	268	396	0
	181	.	.		1	nopreview	20	193						
121	182	He	He	He	1	nopreview	20	194	0	0	0	0	0	0
122	183	told	told	told	1	nopreview	20	195	102	102	102	102	102	0
123	184	@entity37	The	The	1	nopreview	20	196	316	316	316	188	316	0
124			Star	Star	1	nopreview	20	197	0	0	0	0	0	0
125			Tribune	Tribune	1	nopreview	20	198	521	521	521	203	521	0
126	185	that	that	that	1	nopreview	20	199	0	0	0	0	0	0
127	186	he	he	he	1	nopreview	20	200	0	0	0	0	0	0
128	187	suffered	suffered	suffered	1	nopreview	20	201	1079	566	566	92	566	513
129	188	a	a	a	1	nopreview	20	202	188	188	701	188	188	0
130	189	slight	slight	slight	1	nopreview	20	203	403	403	403	209	403	0
131	190	concussion	concussion	concussion	1	nopreview	20	204	405	405	405	138	405	0
132	191	and	and	and	1	nopreview	20	205	0	0	0	0	0	0
133	192	was	was	was	1	nopreview	20	206	0	0	0	0	0	0
134	193	kept	kept	kept	1	nopreview	20	207	493	493	493	224	493	0
135	194	overnight	overnight	overnight	1	nopreview	20	208	559	559	559	244	559	0
136	195	for	for	for	1	nopreview	20	209	0	0	0	0	0	0
137	196	observation	observation	observation.	1	nopreview	20	210	329	329	329	105	329	0
	197	.	.		1	nopreview	20	211						
138	198	Video	Video	-I	1	nopreview	20	212	0	0	0	0	0	0
	199	courtesy	courtesy		1	nopreview	20	213						
	200	@entity40	Fox		1	nopreview	20	214						
			9		1	nopreview	20	215						
139	201	-	-	brought	1	nopreview	20	216	252	252	252	252	252	0
	202	I	I		1	nopreview	20	217						
	203	brought	brought		1	nopreview	20	218						
140	204	new	new	new	1	nopreview	20	219	226	226	226	226	226	0
141	205	flowers	flowers	flowers	1	nopreview	20	220	334	334	334	147	334	0
142	206	and	and	and	1	nopreview	20	221	0	0	0	0	0	0
143	207	was	was	was	1	nopreview	20	222	135	135	135	135	135	0
144	208	just	just	just	1	nopreview	20	223	0	0	0	0	0	0
145	209	stooping	stooping	stooping	1	nopreview	20	224	780	398	398	211	398	382
146	210	down	down	down,-	1	nopreview	20	225	474	214	856	214	474	260
	211	,	,		1	nopreview	20	226						
147	212	-	-	said	1	nopreview	20	227	141	0	0	0	0	141
	213	said	said		1	nopreview	20	228						
148	214	@entity13	Nagobads	Nagobads	1	nopreview	20	229	538	408	679	218	538	130
149	215	of	of	of	1	nopreview	20	230	0	0	0	0	0	0
150	216	honoring	honoring	honoring	1	nopreview	20	231	309	309	309	309	309	0
151	217	his	his	his	1	nopreview	20	232	290	290	290	290	290	0
152	218	wife	wife	wife	1	nopreview	20	233	0	0	0	0	0	0
153	219	@entity31	Velta	Velta	1	nopreview	20	234	543	276	276	276	276	267
154			Nagobads	Nagobads	1	nopreview	20	235	701	289	968	289	701	412
155	220	who	who	who	1	nopreview	20	236	0	0	0	0	0	0
156	221	died	died	died	1	nopreview	20	237	287	287	287	287	287	0
157	222	in	in	in	1	nopreview	20	238	115	115	115	115	115	0
158	223	2005	2005	2005.	1	nopreview	20	239	491	491	491	491	491	0
	224	.	.		1	nopreview	20	240						
159	225	Nagobads	Nagobads	Nagobads	1	nopreview	20	241	234	234	234	234	234	0
160	226	said	said	said	1	nopreview	20	242	260	260	260	260	260	0
161	227	that	that	that	1	nopreview	20	243	0	0	0	0	0	0
162	228	by	by	by	1	nopreview	20	244	170	170	170	170	170	0
163	229	throwing	throwing	throwing	1	nopreview	20	245	338	338	338	246	338	0
164	230	his	his	his	1	nopreview	20	246	187	187	187	187	187	0
165	231	wallet	wallet	wallet	1	nopreview	20	247	207	207	207	207	207	0
166	232	in	in	in	1	nopreview	20	248	0	0	0	0	0	0
167	233	attempt	attempt	attempt	1	nopreview	20	249	325	325	325	201	325	0
168	234	to	to	to	1	nopreview	20	250	0	0	0	0	0	0
169	235	distract	distract	distract	1	nopreview	20	251	405	405	405	249	405	0
170	236	the	the	the	1	nopreview	20	252	0	0	0	0	0	0
171	237	teen	teen	teen	1	nopreview	20	253	303	303	303	303	303	0
172	238	he	he	he	1	nopreview	20	254	141	141	141	141	141	0
173	239	was	was	was	1	nopreview	20	255	0	0	0	0	0	0
174	240	able	able	able	1	nopreview	20	256	343	343	343	126	343	0
175	241	to	to	to	1	nopreview	20	257	0	0	0	0	0	0
176	242	get	get	get	1	nopreview	20	258	112	112	112	112	112	0
177	243	away	away	away	1	nopreview	20	259	421	421	421	256	421	0
178	244	without	without	without	1	nopreview	20	260	87	87	87	87	87	0
179	245	further	further	further	1	nopreview	20	261	743	293	293	293	293	450
180	246	harm	harm	harm.	1	nopreview	20	262	585	248	1035	248	585	337
	247	.	.		1	nopreview	20	263						
181	248	-	-	-I-m	1	nopreview	20	264	0	0	0	0	0	0
	249	I	I		1	nopreview	20	265						
	250	’m	’m		1	nopreview	20	266						
182	251	so	so	so	1	nopreview	20	267	0	0	0	0	0	0
183	252	lucky	lucky	lucky.	1	nopreview	20	268	511	511	511	344	511	0
	253	.	.		1	nopreview	20	269						
184	254	…	…	...	1	nopreview	20	270	0	0	0	0	0	0
185	255	I	I	I	1	nopreview	20	271	0	0	0	0	0	0
186	256	used	used	used	1	nopreview	20	272	475	475	475	316	475	0
187	257	that	that	that	1	nopreview	20	273	0	0	0	0	0	0
188	258	little	little	little	1	nopreview	20	274	494	494	494	494	494	0
189	259	trick	trick	trick	1	nopreview	20	275	215	0	0	0	0	215
190	260	and	and	and	1	nopreview	20	276	132	132	347	132	132	0
191	261	threw	threw	threw	1	nopreview	20	277	221	221	221	221	221	0
192	262	the	the	the	1	nopreview	20	278	0	0	0	0	0	0
193	263	wallet	wallet	wallet	1	nopreview	20	279	250	250	250	250	250	0
194	264	to	to	to	1	nopreview	20	280	0	0	0	0	0	0
195	265	get	get	get	1	nopreview	20	281	0	0	0	0	0	0
196	266	to	to	to	1	nopreview	20	282	453	230	230	230	230	223
197	267	my	my	my	1	nopreview	20	283	106	106	106	106	106	0
198	268	car	car	car-	1	nopreview	20	284	383	296	606	296	383	87
	269	-	-		1	nopreview	20	285						
199	270	about	about	about	1	nopreview	20	286	0	0	0	0	0	0
200	271	40	40	40	1	nopreview	20	287	136	136	136	136	136	0
201	272	yards	yards	yards	1	nopreview	20	288	93	93	93	93	93	0
202	273	away	away	away,	1	nopreview	20	289	181	181	181	181	181	0
	274	,	,		1	nopreview	20	290						
203	275	the	the	the	1	nopreview	20	291	0	0	0	0	0	0
204	276	doctor	doctor	doctor	1	nopreview	20	292	271	271	271	271	271	0
205	277	said	said	said.	1	nopreview	20	293	235	235	235	235	235	0
	278	.	.		1	nopreview	20	294						
206	279	As	As	As	1	nopreview	20	295	136	136	136	136	136	0
207	280	the	the	the	1	nopreview	20	296	150	150	150	150	150	0
208	281	boy	boy	boy	1	nopreview	20	297	0	0	0	0	0	0
209	282	picked	picked	picked	1	nopreview	20	298	221	221	371	221	221	0
210	283	up	up	up	1	nopreview	20	299	0	0	0	0	0	0
211	284	the	the	the	1	nopreview	20	300	121	0	0	0	0	121
212	285	wallet	wallet	wallet,	1	nopreview	20	301	255	255	376	255	255	0
	286	,	,		1	nopreview	20	302						
213	287	@entity31	Nagobads	Nagobads	1	nopreview	20	303	110	110	110	110	110	0
214	288	continued	continued	continued,	1	nopreview	20	304	137	137	137	137	137	0
	289	,	,		1	nopreview	20	305						
215	290	-	-	-I	1	nopreview	20	306	0	0	0	0	0	0
	291	I	I		1	nopreview	20	307						
216	292	was	was	was	1	nopreview	20	308	0	0	0	0	0	0
217	293	running	running	running	1	nopreview	20	309	275	275	275	275	275	0
218	294	…	…	...	1	nopreview	20	310	0	0	0	0	0	0
219	295	really	really	really	1	nopreview	20	311	376	376	376	376	376	0
220	296	fast	fast	fast.	1	nopreview	20	312	343	343	343	343	343	0
	297	.	.		1	nopreview	20	313						
221	298	I	I	I	1	nopreview	20	314	307	307	307	190	307	0
222	299	was	was	was	1	nopreview	20	315	0	0	0	0	0	0
223	300	surprised	surprised	surprised	1	nopreview	20	316	426	426	426	129	426	0
224	301	how	how	how	1	nopreview	20	317	189	189	189	189	189	0
225	302	I	I	I	1	nopreview	20	318	0	0	0	0	0	0
226	303	could	could	could	1	nopreview	20	319	135	0	0	0	0	135
227	304	run	run	run	1	nopreview	20	320	169	169	304	169	169	0
228	305	like	like	like	1	nopreview	20	321	223	223	223	223	223	0
229	306	this	this	this.-	1	nopreview	20	322	100	100	100	100	100	0
	307	.	.		1	nopreview	20	323						
230	308	-	-	Nagobads	1	nopreview	20	324	318	318	318	147	318	0
	309	Victory	Victory		1	nopreview	20	325						
	310	:	:		1	nopreview	20	326						
	311	He	He		1	nopreview	20	327						
	312	was	was		1	nopreview	20	328						
	313	the	the		1	nopreview	20	329						
	314	doctor	doctor		1	nopreview	20	330						
	315	fro	fro		1	nopreview	20	331						
	316	the	the		1	nopreview	20	332						
	317	-	-		1	nopreview	20	333						
	318	@entity8	Miracle		1	nopreview	20	334						
			on		1	nopreview	20	335						
			Ice		1	nopreview	20	336						
	319	-	-		1	nopreview	20	337						
	320	team	team		1	nopreview	20	338						
	321	that	that		1	nopreview	20	339						
	322	won	won		1	nopreview	20	340						
	323	the	the		1	nopreview	20	341						
	324	improbable	improbable		1	nopreview	20	342						
	325	gold	gold		1	nopreview	20	343						
	326	medal	medal		1	nopreview	20	344						
	327	in	in		1	nopreview	20	345						
	328	@entity62	Lake		1	nopreview	20	346						
	329	@entity8	Placid		1	nopreview	20	347						
			Miracle		1	nopreview	20	348						
			on		1	nopreview	20	349						
			Ice		1	nopreview	20	350						
	330	:	:		1	nopreview	20	351						
	331	Nagobads	Nagobads		1	nopreview	20	352						
231	332	was	was	said	1	nopreview	20	353	257	257	257	257	257	0
232	333	team	team	that	1	nopreview	20	354	0	0	0	0	0	0
233	334	doctor	doctor	he	1	nopreview	20	355	0	0	0	0	0	0
	335	for	for		1	nopreview	20	356						
234	336	the	the	bled	1	nopreview	20	357	496	496	496	202	496	0
235	337	famous	famous	heavily	1	nopreview	20	358	514	420	420	216	420	94
	338	-	-		1	nopreview	20	359						
	339	@entity8	Miracle		1	nopreview	20	360						
			on		1	nopreview	20	361						
			Ice		1	nopreview	20	362						
	340	-	-		1	nopreview	20	363						
	341	team	team		1	nopreview	20	364						
	342	that	that		1	nopreview	20	365						
	343	won	won		1	nopreview	20	366						
	344	@entity4	Olympic		1	nopreview	20	367						
	345	gold	gold		1	nopreview	20	368						
	346	in	in		1	nopreview	20	369						
	347	1980	1980		1	nopreview	20	370						
	348	and	and		1	nopreview	20	371						
	349	that	that		1	nopreview	20	372						
	350	inspired	inspired		1	nopreview	20	373						
	351	the	the		1	nopreview	20	374						
	352	2004	2004		1	nopreview	20	375						
	353	movie	movie		1	nopreview	20	376						
	354	-	-		1	nopreview	20	377						
	355	Miracle	Miracle		1	nopreview	20	378						
	356	-	-		1	nopreview	20	379						
	357	@entity13	Nagobads		1	nopreview	20	380						
	358	said	said		1	nopreview	20	381						
	359	that	that		1	nopreview	20	382						
	360	he	he		1	nopreview	20	383						
	361	bled	bled		1	nopreview	20	384						
	362	heavily	heavily		1	nopreview	20	385						
236	363	while	while	while	1	nopreview	20	386	456	284	550	284	456	172
237	364	behind	behind	behind	1	nopreview	20	387	189	0	0	0	0	189
238	365	the	the	the	1	nopreview	20	388	0	0	0	0	0	0
239	366	wheel	wheel	wheel	1	nopreview	20	389	393	140	582	140	393	253
240	367	of	of	of	1	nopreview	20	390	0	0	0	0	0	0
241	368	his	his	his	1	nopreview	20	391	0	0	0	0	0	0
242	369	car	car	car	1	nopreview	20	392	222	222	222	222	222	0
243	370	and	and	and	1	nopreview	20	393	0	0	0	0	0	0
244	371	risked	risked	risked	1	nopreview	20	394	162	162	162	162	162	0
245	372	being	being	being	1	nopreview	20	395	0	0	0	0	0	0
246	373	stopped	stopped	stopped	1	nopreview	20	396	280	280	280	280	280	0
247	374	by	by	by	1	nopreview	20	397	184	184	184	184	184	0
248	375	a	a	a	1	nopreview	20	398	0	0	0	0	0	0
249	376	cop	cop	cop.	1	nopreview	20	399	264	264	264	264	264	0
	377	.	.		1	nopreview	20	400						
250	378	-	-	-I	1	nopreview	20	401	0	0	0	0	0	0
	379	I	I		1	nopreview	20	402						
251	380	drove	drove	drove	1	nopreview	20	403	276	276	276	276	276	0
252	381	way	way	way	1	nopreview	20	404	0	0	0	0	0	0
253	382	over	over	over	1	nopreview	20	405	412	412	412	412	412	0
254	383	the	the	the	1	nopreview	20	406	398	398	398	241	398	0
255	384	speed	speed	speed	1	nopreview	20	407	194	0	0	0	0	194
256	385	limit	limit	limit.	1	nopreview	20	408	131	131	325	131	131	0
	386	.	.		1	nopreview	20	409						
257	387	If	If	If	1	nopreview	20	410	0	0	0	0	0	0
258	388	a	a	a	1	nopreview	20	411	0	0	0	0	0	0
259	389	cop	cop	cop	1	nopreview	20	412	262	262	262	262	262	0
260	390	catches	catches	catches	1	nopreview	20	413	280	280	280	280	280	0
261	391	me	me	me,	1	nopreview	20	414	95	0	0	0	0	95
	392	,	,		1	nopreview	20	415						
262	393	that	that	that-s	1	nopreview	20	416	181	181	276	181	181	0
	394	’s	’s		1	nopreview	20	417						
263	395	fine	fine	fine,-	1	nopreview	20	418	415	415	415	158	415	0
	396	,	,		1	nopreview	20	419						
264	397	-	-	he	1	nopreview	20	420	0	0	0	0	0	0
265	398	he	he	said	1	nopreview	20	421	290	290	290	290	290	0
	399	said	said		1	nopreview	20	422						
266	400	he	he	he	1	nopreview	20	423	0	0	0	0	0	0
267	401	thought	thought	thought	1	nopreview	20	424	425	425	425	163	425	0
268	402	after	after	after	1	nopreview	20	425	219	219	219	219	219	0
269	403	the	the	the	1	nopreview	20	426	0	0	0	0	0	0
270	404	attack	attack	attack	1	nopreview	20	427	94	94	94	94	94	0
271	405	on	on	on	1	nopreview	20	428	0	0	0	0	0	0
272	406	Sunday	Sunday	Sunday.	1	nopreview	20	429	315	315	315	134	315	0
	407	.	.		1	nopreview	20	430						
273	408	Witness	Witness	Witness	1	nopreview	20	431	212	212	212	212	212	0
274	409	@entity76	Justin	Justin	1	nopreview	20	432	578	377	377	377	377	201
275			McCarthy	McCarthy	1	nopreview	20	433	351	351	552	138	351	0
276	410	says	says	says	1	nopreview	20	434	112	112	112	112	112	0
277	411	he	he	he	1	nopreview	20	435	162	162	162	162	162	0
278	412	saw	saw	saw	1	nopreview	20	436	217	217	217	217	217	0
279	413	a	a	a	1	nopreview	20	437	263	148	148	148	148	115
280	414	young	young	young	1	nopreview	20	438	267	140	382	140	267	127
281	415	man	man	man	1	nopreview	20	439	0	0	0	0	0	0
282	416	around	around	around	1	nopreview	20	440	562	562	562	212	562	0
283	417	the	the	the	1	nopreview	20	441	0	0	0	0	0	0
284	418	age	age	age	1	nopreview	20	442	256	256	256	256	256	0
285	419	of	of	of	1	nopreview	20	443	0	0	0	0	0	0
286	420	14	14	14	1	nopreview	20	444	106	106	106	106	106	0
287	421	or	or	or	1	nopreview	20	445	132	132	132	132	132	0
288	422	15	15	15	1	nopreview	20	446	306	306	306	306	306	0
289	423	looking	looking	looking	1	nopreview	20	447	229	229	229	143	229	0
290	424	through	through	through	1	nopreview	20	448	143	0	0	0	0	143
291	425	a	a	a	1	nopreview	20	449	189	189	189	189	189	0
292	426	wallet	wallet	wallet	1	nopreview	20	450	177	177	320	177	177	0
293	427	near	near	near	1	nopreview	20	451	443	443	443	443	443	0
294	428	the	the	the	1	nopreview	20	452	0	0	0	0	0	0
295	429	mausoleum	mausoleum	mausoleum	1	nopreview	20	453	944	944	944	218	944	0
296	430	before	before	before	1	nopreview	20	454	415	415	415	154	415	0
297	431	fleeing	fleeing	fleeing	1	nopreview	20	455	448	448	448	316	448	0
298	432	by	by	by	1	nopreview	20	456	0	0	0	0	0	0
299	433	bicycle	bicycle	bicycle	1	nopreview	20	457	372	372	372	253	372	0
300	434	and	and	and	1	nopreview	20	458	0	0	0	0	0	0
301	435	jumping	jumping	jumping	1	nopreview	20	459	449	449	449	274	449	0
302	436	over	over	over	1	nopreview	20	460	0	0	0	0	0	0
303	437	a	a	a	1	nopreview	20	461	200	0	0	0	0	200
304	438	fence	fence	fence.	1	nopreview	20	462	245	149	445	149	245	96
	439	.	.		1	nopreview	20	463						
305	440	-	-	-I	1	nopreview	20	464	0	0	0	0	0	0
	441	I	I		1	nopreview	20	465						
306	442	saw	saw	saw	1	nopreview	20	466	143	0	0	0	0	143
307	443	the	the	the	1	nopreview	20	467	148	148	291	148	148	0
308	444	kid	kid	kid	1	nopreview	20	468	0	0	0	0	0	0
309	445	there	there	there.	1	nopreview	20	469	394	394	394	151	394	0
	446	.	.		1	nopreview	20	470						
310	447	I	I	I	1	nopreview	20	471	0	0	0	0	0	0
311	448	put	put	put	1	nopreview	20	472	0	0	0	0	0	0
312	449	two	two	two	1	nopreview	20	473	240	240	240	240	240	0
313	450	and	and	and	1	nopreview	20	474	0	0	0	0	0	0
314	451	two	two	two	1	nopreview	20	475	0	0	0	0	0	0
315	452	together	together	together,	1	nopreview	20	476	213	213	213	213	213	0
	453	,	,		1	nopreview	20	477						
316	454	and	and	and	1	nopreview	20	478	0	0	0	0	0	0
317	455	I	I	I	1	nopreview	20	479	0	0	0	0	0	0
318	456	just	just	just	1	nopreview	20	480	410	410	410	410	410	0
319	457	got	got	got	1	nopreview	20	481	0	0	0	0	0	0
320	458	really	really	really	1	nopreview	20	482	337	337	337	180	337	0
321	459	mad	mad	mad,-	1	nopreview	20	483	234	0	0	0	0	234
	460	,	,		1	nopreview	20	484						
322	461	-	-	said	1	nopreview	20	485	142	142	376	142	142	0
	462	said	said		1	nopreview	20	486						
323	463	@entity76	McCarthy	McCarthy.	1	nopreview	20	487	365	365	365	230	365	0
	464	.	.		1	nopreview	20	488						
324	465	@entity76	McCarthy	McCarthy	1	nopreview	20	489	268	268	268	268	268	0
325	466	said	said	said	1	nopreview	20	490	0	0	0	0	0	0
326	467	he	he	he	1	nopreview	20	491	200	200	200	200	200	0
327	468	chased	chased	chased	1	nopreview	20	492	536	295	295	295	295	241
328	469	the	the	the	1	nopreview	20	493	0	0	0	0	0	0
329	470	teen	teen	teen	1	nopreview	20	494	189	189	430	189	189	0
330	471	but	but	but	1	nopreview	20	495	217	217	217	217	217	0
331	472	not	not	not	1	nopreview	20	496	241	241	241	241	241	0
332	473	very	very	very	1	nopreview	20	497	0	0	0	0	0	0
333	474	far	far	far.	1	nopreview	20	498	388	388	388	232	388	0
	475	.	.		1	nopreview	20	499						
334	476	-	-	-I-m	1	nopreview	20	500	0	0	0	0	0	0
	477	I	I		1	nopreview	20	501						
	478	’m	’m		1	nopreview	20	502						
335	479	52	52	52	1	nopreview	20	503	258	258	258	258	258	0
336	480	and	and	and	1	nopreview	20	504	439	439	439	281	439	0
337	481	I	I	I-m	1	nopreview	20	505	0	0	0	0	0	0
	482	’m	’m		1	nopreview	20	506						
338	483	kind	kind	kind	1	nopreview	20	507	233	233	233	118	233	0
339	484	of	of	of	1	nopreview	20	508	188	188	188	188	188	0
340	485	fat	fat	fat.	1	nopreview	20	509	90	90	90	90	90	0
	486	.	.		1	nopreview	20	510						
341	487	It	It	It	1	nopreview	20	511	0	0	0	0	0	0
342	488	was	was	wasn-t	1	nopreview	20	512	201	0	0	0	0	201
	489	n’t	n’t		1	nopreview	20	513						
343	490	going	going	going	1	nopreview	20	514	359	142	560	142	359	217
344	491	to	to	to	1	nopreview	20	515	0	0	0	0	0	0
345	492	happen	happen	happen.	1	nopreview	20	516	123	123	123	123	123	0
	493	.	.		1	nopreview	20	517						
346	494	…	…	...	1	nopreview	20	518	0	0	0	0	0	0
347	495	I	I	I	1	nopreview	20	519	0	0	0	0	0	0
348	496	was	was	was	1	nopreview	20	520	208	208	208	208	208	0
349	497	completely	completely	completely	1	nopreview	20	521	350	350	350	152	350	0
350	498	exhausted	exhausted	exhausted,-	1	nopreview	20	522	323	323	323	218	323	0
	499	,	,		1	nopreview	20	523						
351	500	-	-	said	1	nopreview	20	524	244	244	244	244	244	0
	501	said	said		1	nopreview	20	525						
352	502	@entity76	McCarthy	McCarthy.	1	nopreview	20	526	210	0	0	0	0	210
	503	.	.		1	nopreview	20	527						
353	504	@entity87	Mccarthy	McCarthy	1	nopreview	20	528	227	119	437	119	227	108
354	505	said	said	said	1	nopreview	20	529	0	0	0	0	0	0
355	506	that	that	that	1	nopreview	20	530	172	172	172	172	172	0
356	507	@entity13	Nagobads	Nagobads	1	nopreview	20	531	247	247	247	247	247	0
357	508	told	told	told	1	nopreview	20	532	0	0	0	0	0	0
358	509	him	him	him,	1	nopreview	20	533	225	225	225	116	225	0
	510	,	,		1	nopreview	20	534						
359	511	-	-	-I	1	nopreview	20	535	0	0	0	0	0	0
	512	I	I		1	nopreview	20	536						
360	513	gave	gave	gave	1	nopreview	20	537	0	0	0	0	0	0
361	514	him	him	him	1	nopreview	20	538	502	502	502	502	502	0
362	515	my	my	my	1	nopreview	20	539	0	0	0	0	0	0
363	516	wallet	wallet	wallet,	1	nopreview	20	540	245	245	245	245	245	0
	517	,	,		1	nopreview	20	541						
364	518	and	and	and	1	nopreview	20	542	0	0	0	0	0	0
365	519	he	he	he	1	nopreview	20	543	216	216	216	216	216	0
366	520	still	still	still	1	nopreview	20	544	166	166	166	166	166	0
367	521	tried	tried	tried	1	nopreview	20	545	280	0	0	0	0	280
368	522	to	to	to	1	nopreview	20	546	0	0	0	0	0	0
369	523	kill	kill	kill	1	nopreview	20	547	149	149	429	149	149	0
370	524	me	me	me.-	1	nopreview	20	548	144	144	144	144	144	0
	525	.	.		1	nopreview	20	549						
371	526	’	’	Nagobads	1	nopreview	20	550	276	276	276	276	276	0
	527	@entity13	Nagobads		1	nopreview	20	551						
372	528	was	was	was	1	nopreview	20	552	0	0	0	0	0	0
373	529	the	the	the	1	nopreview	20	553	207	207	207	207	207	0
374	530	@entity89	University	University	1	nopreview	20	554	147	147	147	147	147	0
375			of	of	1	nopreview	20	555	0	0	0	0	0	0
376			Minnesota	Minnesota	1	nopreview	20	556	501	501	501	256	501	0
377	531	men	men	men-s	1	nopreview	20	557	0	0	0	0	0	0
	532	-s	-s		1	nopreview	20	558						
378	533	hockey	hockey	hockey	1	nopreview	20	559	341	341	341	341	341	0
379	534	team	team	team	1	nopreview	20	560	276	276	276	174	276	0
380	535	physician	physician	physician	1	nopreview	20	561	297	297	297	148	297	0
381	536	for	for	for	1	nopreview	20	562	0	0	0	0	0	0
382	537	34	34	34	1	nopreview	20	563	253	253	253	253	253	0
383	538	years	years	years	1	nopreview	20	564	187	0	0	0	0	187
384	539	until	until	until	1	nopreview	20	565	258	258	258	258	258	0
385	540	his	his	his	1	nopreview	20	566	187	187	374	187	187	0
386	541	retirement	retirement	retirement	1	nopreview	20	567	314	314	314	204	314	0
387	542	in	in	in	1	nopreview	20	568	185	185	185	185	185	0
388	543	1992	1992	1992.	1	nopreview	20	569	514	514	514	175	514	0
	544	.	.		1	nopreview	20	570						
389	545	He	He	He	1	nopreview	20	571	0	0	0	0	0	0
390	546	also	also	also	1	nopreview	20	572	302	302	302	302	302	0
391	547	worked	worked	worked	1	nopreview	20	573	484	484	484	484	484	0
392	548	for	for	for	1	nopreview	20	574	0	0	0	0	0	0
393	549	the	the	the	1	nopreview	20	575	0	0	0	0	0	0
394	550	@entity93	Minnesota	Minnesota	1	nopreview	20	576	348	348	348	195	348	0
395			North	North	1	nopreview	20	577	171	171	171	171	171	0
396			Stars	Stars	1	nopreview	20	578	223	223	223	223	223	0
397	551	in	in	in	1	nopreview	20	579	0	0	0	0	0	0
398	552	the	the	the	1	nopreview	20	580	0	0	0	0	0	0
399	553	late	late	late	1	nopreview	20	581	354	219	219	219	219	135
400	554	1980s	1980s	1980s	1	nopreview	20	582	855	426	741	426	606	429
401	555	and	and	and	1	nopreview	20	583	0	0	0	0	0	0
402	556	early	early	early	1	nopreview	20	584	480	226	226	226	226	254
403	557	1990s	1990s	1990s.	1	nopreview	20	585	616	116	1119	116	616	500
	558	.	.		1	nopreview	20	586						
404	559	And	And	And	1	nopreview	20	587	0	0	0	0	0	0
405	560	he	he	he	1	nopreview	20	588	122	0	0	0	0	122
406	561	was	was	was	1	nopreview	20	589	143	143	265	143	143	0
407	562	team	team	team	1	nopreview	20	590	275	275	275	275	275	0
408	563	doctor	doctor	doctor	1	nopreview	20	591	149	149	149	149	149	0
409	564	for	for	for	1	nopreview	20	592	0	0	0	0	0	0
410	565	the	the	the	1	nopreview	20	593	181	181	181	181	181	0
411	566	famous	famous	famous	1	nopreview	20	594	124	124	124	124	124	0
412	567	-	-	-Miracle	1	nopreview	20	595	168	0	0	0	0	168
	568	@entity8	Miracle		1	nopreview	20	596						
413			on	on	1	nopreview	20	597	148	148	316	148	148	0
414			Ice	Ice-	1	nopreview	20	598	156	156	156	156	156	0
	569	-	-		1	nopreview	20	599						
415	570	team	team	team	1	nopreview	20	600	196	0	0	0	0	196
416	571	that	that	that	1	nopreview	20	601	216	216	412	216	216	0
417	572	won	won	won	1	nopreview	20	602	264	264	264	264	264	0
418	573	@entity4	Olympic	Olympic	1	nopreview	20	603	0	0	0	0	0	0
419	574	gold	gold	gold	1	nopreview	20	604	133	133	133	133	133	0
420	575	in	in	in	1	nopreview	20	605	115	115	115	115	115	0
421	576	1980	1980	1980.	1	nopreview	20	606	590	590	590	187	590	0
	577	.	.		1	nopreview	20	607						
422	578	He	He	He	1	nopreview	20	608	0	0	0	0	0	0
423	579	was	was	was	1	nopreview	20	609	240	240	240	240	240	0
424	580	played	played	played	1	nopreview	20	610	535	270	270	270	270	265
425	581	by	by	by	1	nopreview	20	611	212	0	0	0	0	212
426	582	@entity96	Kenneth	Kenneth	1	nopreview	20	612	628	277	1105	277	628	351
427			Welsh	Welsh	1	nopreview	20	613	168	168	168	168	168	0
428	583	in	in	in	1	nopreview	20	614	0	0	0	0	0	0
429	584	the	the	the	1	nopreview	20	615	143	0	0	0	0	143
430	585	2004	2004	2004	1	nopreview	20	616	134	134	277	134	134	0
431	586	movie	movie	movie	1	nopreview	20	617	910	663	663	285	663	247
432	587	-	-	-Miracle,-	1	nopreview	20	618	439	276	686	136	439	163
	588	@entity98	Miracle		1	nopreview	20	619						
	589	,	,		1	nopreview	20	620						
433	590	-	-	about	1	nopreview	20	621	180	0	0	0	0	180
	591	about	about		1	nopreview	20	622						
434	592	the	the	the	1	nopreview	20	623	202	202	202	202	202	0
435	593	@entity6	USA	USA-s	1	nopreview	20	624	696	386	876	200	696	310
	594	’s	’s		1	nopreview	20	625						
436	595	improbable	improbable	improbable	1	nopreview	20	626	707	707	707	148	707	0
437	596	gold	gold	gold	1	nopreview	20	627	187	187	187	187	187	0
438	597	medal	medal	medal	1	nopreview	20	628	0	0	0	0	0	0
439	598	run	run	run	1	nopreview	20	629	236	236	236	236	236	0
440	599	in	in	in	1	nopreview	20	630	322	322	322	322	322	0
441	600	@entity62	Lake	Lake	1	nopreview	20	631	383	383	383	196	383	0
442			Placid	Placid.	1	nopreview	20	632	261	0	0	0	0	261
	601	.	.		1	nopreview	20	633						
443	602	The	The	The	1	nopreview	20	634	0	0	0	0	0	0
444	603	cemetery	cemetery	cemetery	1	nopreview	20	635	558	119	819	119	558	439
445	604	is	is	is	1	nopreview	20	636	0	0	0	0	0	0
446	605	owned	owned	owned	1	nopreview	20	637	498	498	498	251	498	0
447	606	by	by	by	1	nopreview	20	638	0	0	0	0	0	0
448	607	@entity101	Bill	Bill	1	nopreview	20	639	316	316	316	316	316	0
449			McReavy	McReavy,	1	nopreview	20	640	527	527	527	527	527	0
	608	,	,		1	nopreview	20	641						
450	609	who	who	who	1	nopreview	20	642	0	0	0	0	0	0
451	610	said	said	said,	1	nopreview	20	643	573	573	573	307	573	0
	611	,	,		1	nopreview	20	644						
452	612	-	-	-This	1	nopreview	20	645	0	0	0	0	0	0
	613	This	This		1	nopreview	20	646						
453	614	is	is	is	1	nopreview	20	647	193	193	193	193	193	0
454	615	an	an	an	1	nopreview	20	648	0	0	0	0	0	0
455	616	isolated	isolated	isolated	1	nopreview	20	649	509	509	509	184	509	0
456	617	incident	incident	incident	1	nopreview	20	650	245	245	245	245	245	0
457	618	and	and	and	1	nopreview	20	651	0	0	0	0	0	0
458	619	we	we	we	1	nopreview	20	652	0	0	0	0	0	0
459	620	are	are	are	1	nopreview	20	653	0	0	0	0	0	0
460	621	looking	looking	looking	1	nopreview	20	654	524	524	524	259	524	0
461	622	at	at	at	1	nopreview	20	655	0	0	0	0	0	0
462	623	it	it	it	1	nopreview	20	656	413	413	413	413	413	0
463	624	very	very	very	1	nopreview	20	657	0	0	0	0	0	0
464	625	closely	closely	closely.-	1	nopreview	20	658	214	214	214	214	214	0
	626	.	.		1	nopreview	20	659						
465	627	-	-	Unfortunately,	1	nopreview	20	660	388	388	388	133	388	0
	628	Unfortunately	Unfortunately		1	nopreview	20	661						
	629	,	,		1	nopreview	20	662						
466	630	It	It	it	1	nopreview	20	663	0	0	0	0	0	0
467	631	was	was	wasn-t	1	nopreview	20	664	204	204	204	204	204	0
	632	n-t	n-t		1	nopreview	20	665						
468	633	captured	captured	captured	1	nopreview	20	666	287	287	287	287	287	0
469	634	on	on	on	1	nopreview	20	667	164	164	164	164	164	0
470	635	security	security	security	1	nopreview	20	668	0	0	0	0	0	0
471	636	video	video	video.	1	nopreview	20	669	0	0	0	0	0	0
	637	.	.		1	nopreview	20	670						
