HumanPosition	AnonymizedPosition	AnonymizedToken	OriginalToken	ExperimentToken	Participant	Condition	TextNo	JointPosition	tt	fp	rp	ff	rb	sp
1	0	(	(	The	1	nopreview	6	1	0	0	0	0	0	0
2	1	@entity0	CNN	underwater	1	nopreview	6	2	263	263	263	113	263	0
	2	)	)		1	nopreview	6	3						
	3	The	The		1	nopreview	6	4						
	4	underwater	underwater		1	nopreview	6	5						
3	5	search	search	search	1	nopreview	6	6	329	329	329	329	329	0
4	6	area	area	area	1	nopreview	6	7	566	566	566	566	566	0
5	7	for	for	for	1	nopreview	6	8	0	0	0	0	0	0
6	8	missing	missing	missing	1	nopreview	6	9	352	352	352	352	352	0
7	9	@entity2	Malaysia	Malaysia	1	nopreview	6	10	304	304	304	304	304	0
8			Airlines	Airlines	1	nopreview	6	11	530	530	530	316	530	0
9			Flight	Flight	1	nopreview	6	12	154	154	154	154	154	0
10			370	370	1	nopreview	6	13	531	531	531	288	531	0
11	10	looks	looks	looks	1	nopreview	6	14	96	96	96	96	96	0
12	11	set	set	set	1	nopreview	6	15	403	403	403	156	403	0
13	12	to	to	to	1	nopreview	6	16	319	319	319	319	319	0
14	13	double	double	double	1	nopreview	6	17	134	0	0	0	0	134
15	14	in	in	in	1	nopreview	6	18	352	352	352	352	352	0
16	15	size	size	size.	1	nopreview	6	19	226	226	226	226	226	0
	16	.	.		1	nopreview	6	20						
17	17	Teams	Teams	Teams	1	nopreview	6	21	0	0	0	0	0	0
18	18	are	are	are	1	nopreview	6	22	369	369	369	216	369	0
19	19	scouring	scouring	scouring	1	nopreview	6	23	341	341	341	341	341	0
20	20	the	the	the	1	nopreview	6	24	0	0	0	0	0	0
21	21	depths	depths	depths	1	nopreview	6	25	326	326	326	162	326	0
22	22	of	of	of	1	nopreview	6	26	0	0	0	0	0	0
23	23	a	a	a	1	nopreview	6	27	0	0	0	0	0	0
24	24	remote	remote	remote	1	nopreview	6	28	283	283	283	283	283	0
25	25	part	part	part	1	nopreview	6	29	162	162	162	162	162	0
26	26	of	of	of	1	nopreview	6	30	0	0	0	0	0	0
27	27	the	the	the	1	nopreview	6	31	289	289	289	289	289	0
28	28	southern	southern	southern	1	nopreview	6	32	496	496	496	237	496	0
29	29	@entity7	Indian	Indian	1	nopreview	6	33	551	551	685	241	551	0
30			Ocean	Ocean	1	nopreview	6	34	129	129	129	129	129	0
31	30	for	for	for	1	nopreview	6	35	0	0	0	0	0	0
32	31	the	the	the	1	nopreview	6	36	0	0	0	0	0	0
33	32	remains	remains	remains	1	nopreview	6	37	757	757	757	250	757	0
34	33	of	of	of	1	nopreview	6	38	0	0	0	0	0	0
35	34	the	the	the	1	nopreview	6	39	0	0	0	0	0	0
36	35	passenger	passenger	passenger	1	nopreview	6	40	205	205	205	205	205	0
37	36	jet	jet	jet	1	nopreview	6	41	257	257	257	257	257	0
38	37	that	that	that	1	nopreview	6	42	171	171	171	171	171	0
39	38	disappeared	disappeared	disappeared	1	nopreview	6	43	590	360	360	233	360	230
40	39	more	more	more	1	nopreview	6	44	197	197	427	197	197	0
41	40	than	than	than	1	nopreview	6	45	230	230	230	230	230	0
42	41	a	a	a	1	nopreview	6	46	0	0	0	0	0	0
43	42	year	year	year	1	nopreview	6	47	303	303	303	303	303	0
44	43	ago	ago	ago	1	nopreview	6	48	162	162	162	162	162	0
45	44	with	with	with	1	nopreview	6	49	0	0	0	0	0	0
46	45	239	239	239	1	nopreview	6	50	458	0	0	0	0	458
47	46	people	people	people	1	nopreview	6	51	530	191	988	191	530	339
48	47	on	on	on	1	nopreview	6	52	0	0	0	0	0	0
49	48	board	board	board.	1	nopreview	6	53	451	451	451	236	451	0
	49	.	.		1	nopreview	6	54						
50	50	So	So	So	1	nopreview	6	55	0	0	0	0	0	0
51	51	far	far	far,	1	nopreview	6	56	452	452	452	248	452	0
	52	,	,		1	nopreview	6	57						
52	53	they	they	they-ve	1	nopreview	6	58	200	0	0	0	0	200
	54	-ve	-ve		1	nopreview	6	59						
53	55	covered	covered	covered	1	nopreview	6	60	949	603	603	269	603	346
54	56	about	about	about	1	nopreview	6	61	0	0	0	0	0	0
55	57	60	60	60%	1	nopreview	6	62	622	170	1168	170	622	452
	58	%	%		1	nopreview	6	63						
56	59	of	of	of	1	nopreview	6	64	275	275	275	275	275	0
57	60	the	the	the	1	nopreview	6	65	156	156	156	156	156	0
58	61	priority	priority	priority	1	nopreview	6	66	254	254	254	254	254	0
59	62	search	search	search	1	nopreview	6	67	415	415	415	415	415	0
60	63	zone	zone	zone	1	nopreview	6	68	158	158	158	158	158	0
61	64	without	without	without	1	nopreview	6	69	188	188	188	188	188	0
62	65	reporting	reporting	reporting	1	nopreview	6	70	256	256	256	256	256	0
63	66	any	any	any	1	nopreview	6	71	0	0	0	0	0	0
64	67	trace	trace	trace	1	nopreview	6	72	264	264	264	264	264	0
65	68	of	of	of	1	nopreview	6	73	209	209	209	209	209	0
66	69	the	the	the	1	nopreview	6	74	0	0	0	0	0	0
67	70	airliner	airliner	airliner.	1	nopreview	6	75	282	282	282	127	282	0
	71	.	.		1	nopreview	6	76						
68	72	Families	Families	Families	1	nopreview	6	77	338	338	338	338	338	0
69	73	of	of	of	1	nopreview	6	78	0	0	0	0	0	0
70	74	passengers	passengers	passengers	1	nopreview	6	79	835	470	470	206	470	365
71	75	and	and	and	1	nopreview	6	80	0	0	0	0	0	0
72	76	crew	crew	crew	1	nopreview	6	81	338	97	703	97	338	241
73	77	members	members	members	1	nopreview	6	82	190	190	190	190	190	0
74	78	still	still	still	1	nopreview	6	83	135	0	0	0	0	135
75	79	have	have	have	1	nopreview	6	84	155	155	290	155	155	0
76	80	no	no	no	1	nopreview	6	85	0	0	0	0	0	0
77	81	answers	answers	answers	1	nopreview	6	86	237	237	237	237	237	0
78	82	about	about	about	1	nopreview	6	87	0	0	0	0	0	0
79	83	what	what	what	1	nopreview	6	88	174	174	174	174	174	0
80	84	happened	happened	happened	1	nopreview	6	89	491	491	491	271	491	0
81	85	to	to	to	1	nopreview	6	90	0	0	0	0	0	0
82	86	their	their	their	1	nopreview	6	91	0	0	0	0	0	0
83	87	loved	loved	loved	1	nopreview	6	92	253	253	253	253	253	0
84	88	ones	ones	ones.	1	nopreview	6	93	315	315	315	136	315	0
	89	.	.		1	nopreview	6	94						
85	90	If	If	If	1	nopreview	6	95	0	0	0	0	0	0
86	91	the	the	the	1	nopreview	6	96	0	0	0	0	0	0
87	92	searchers	searchers	searchers	1	nopreview	6	97	546	546	546	295	546	0
88	93	have	have	haven-t	1	nopreview	6	98	329	0	0	0	0	329
	94	n-t	n-t		1	nopreview	6	99						
89	95	found	found	found	1	nopreview	6	100	137	137	466	137	137	0
90	96	anything	anything	anything	1	nopreview	6	101	555	555	555	268	555	0
91	97	by	by	by	1	nopreview	6	102	0	0	0	0	0	0
92	98	the	the	the	1	nopreview	6	103	0	0	0	0	0	0
93	99	time	time	time	1	nopreview	6	104	394	394	394	394	394	0
94	100	they	they	they-ve	1	nopreview	6	105	176	176	176	176	176	0
	101	-ve	-ve		1	nopreview	6	106						
95	102	covered	covered	covered	1	nopreview	6	107	247	247	247	247	247	0
96	103	the	the	the	1	nopreview	6	108	0	0	0	0	0	0
97	104	entire	entire	entire	1	nopreview	6	109	282	282	282	282	282	0
98	105	60,000	60,000	60,000-square-kilometer	1	nopreview	6	110	1003	1003	1003	286	1003	0
	106	-	-		1	nopreview	6	111						
	107	square	square		1	nopreview	6	112						
	108	-	-		1	nopreview	6	113						
	109	kilometer	kilometer		1	nopreview	6	114						
99	110	priority	priority	priority	1	nopreview	6	115	226	0	0	0	0	226
100	111	zone	zone	zone,	1	nopreview	6	116	114	114	340	114	114	0
	112	,	,		1	nopreview	6	117						
101	113	the	the	the	1	nopreview	6	118	241	241	241	241	241	0
102	114	search	search	search	1	nopreview	6	119	214	214	214	214	214	0
103	115	will	will	will	1	nopreview	6	120	183	0	0	0	0	183
104	116	stretch	stretch	stretch	1	nopreview	6	121	498	404	681	188	498	94
105	117	into	into	into	1	nopreview	6	122	0	0	0	0	0	0
106	118	a	a	a	1	nopreview	6	123	213	213	213	213	213	0
107	119	new	new	new	1	nopreview	6	124	0	0	0	0	0	0
108	120	equally	equally	equally	1	nopreview	6	125	310	0	0	0	0	310
109	121	vast	vast	vast	1	nopreview	6	126	238	0	0	0	0	238
110	122	area	area	area,	1	nopreview	6	127	582	170	1130	170	582	412
	123	,	,		1	nopreview	6	128						
111	124	government	government	government	1	nopreview	6	129	528	528	528	280	528	0
112	125	officials	officials	officials	1	nopreview	6	130	201	201	201	201	201	0
113	126	from	from	from	1	nopreview	6	131	0	0	0	0	0	0
114	127	@entity23	Malaysia	Malaysia,	1	nopreview	6	132	343	343	343	148	343	0
	128	,	,		1	nopreview	6	133						
115	129	@entity24	Australia	Australia	1	nopreview	6	134	457	276	276	276	276	181
116	130	and	and	and	1	nopreview	6	135	0	0	0	0	0	0
117	131	@entity25	China	China	1	nopreview	6	136	220	220	401	220	220	0
118	132	announced	announced	announced	1	nopreview	6	137	166	166	166	166	166	0
119	133	Thursday	Thursday	Thursday.	1	nopreview	6	138	778	778	778	283	778	0
	134	.	.		1	nopreview	6	139						
120	135	-	-	-Ministers	1	nopreview	6	140	130	130	130	130	130	0
	136	Ministers	Ministers		1	nopreview	6	141						
121	137	remain	remain	remain	1	nopreview	6	142	367	367	367	241	367	0
122	138	committed	committed	committed	1	nopreview	6	143	115	0	0	0	0	115
123	139	to	to	to	1	nopreview	6	144	200	200	200	200	200	0
124	140	bring	bring	bring	1	nopreview	6	145	207	207	322	207	207	0
125	141	closure	closure	closure	1	nopreview	6	146	234	234	234	234	234	0
126	142	and	and	and	1	nopreview	6	147	164	164	164	164	164	0
127	143	some	some	some	1	nopreview	6	148	0	0	0	0	0	0
128	144	peace	peace	peace	1	nopreview	6	149	223	223	223	223	223	0
129	145	to	to	to	1	nopreview	6	150	373	251	251	251	251	122
130	146	the	the	the	1	nopreview	6	151	0	0	0	0	0	0
131	147	families	families	families	1	nopreview	6	152	263	263	385	263	263	0
132	148	and	and	and	1	nopreview	6	153	0	0	0	0	0	0
133	149	loved	loved	loved	1	nopreview	6	154	0	0	0	0	0	0
134	150	ones	ones	ones	1	nopreview	6	155	232	232	232	232	232	0
135	151	of	of	of	1	nopreview	6	156	0	0	0	0	0	0
136	152	those	those	those	1	nopreview	6	157	312	168	168	168	168	144
137	153	on	on	on	1	nopreview	6	158	119	119	119	119	119	0
138	154	board	board	board	1	nopreview	6	159	0	0	0	0	0	0
139	155	@entity2	Malaysia	Malaysia	1	nopreview	6	160	506	377	377	151	377	129
140			Airlines	Airlines	1	nopreview	6	161	680	234	953	234	680	446
141			Flight	Flight	1	nopreview	6	162	500	500	500	301	500	0
142			MH370	MH370,-	1	nopreview	6	163	612	612	612	287	612	0
	156	,	,		1	nopreview	6	164						
	157	-	-		1	nopreview	6	165						
143	158	the	the	the	1	nopreview	6	166	0	0	0	0	0	0
144	159	three	three	three	1	nopreview	6	167	282	282	282	142	282	0
145	160	countries	countries	countries	1	nopreview	6	168	857	857	857	302	857	0
146	161	said	said	said	1	nopreview	6	169	0	0	0	0	0	0
147	162	in	in	in	1	nopreview	6	170	0	0	0	0	0	0
148	163	a	a	a	1	nopreview	6	171	150	0	0	0	0	150
149	164	joint	joint	joint	1	nopreview	6	172	314	195	464	195	314	119
150	165	statement	statement	statement.	1	nopreview	6	173	0	0	0	0	0	0
	166	.	.		1	nopreview	6	174						
151	167	The	The	The	1	nopreview	6	175	0	0	0	0	0	0
152	168	search	search	search	1	nopreview	6	176	271	0	0	0	0	271
153	169	of	of	of	1	nopreview	6	177	0	0	0	0	0	0
154	170	the	the	the	1	nopreview	6	178	0	0	0	0	0	0
155	171	current	current	current	1	nopreview	6	179	400	0	0	0	0	400
156	172	priority	priority	priority	1	nopreview	6	180	604	0	0	0	0	604
157	173	zone	zone	zone	1	nopreview	6	181	172	0	0	0	0	172
158	174	is	is	is	1	nopreview	6	182	186	0	0	0	0	186
159	175	expected	expected	expected	1	nopreview	6	183	278	0	0	0	0	278
160	176	to	to	to	1	nopreview	6	184	0	0	0	0	0	0
161	177	be	be	be	1	nopreview	6	185	0	0	0	0	0	0
162	178	completed	completed	completed	1	nopreview	6	186	414	0	0	0	0	414
163	179	in	in	in	1	nopreview	6	187	0	0	0	0	0	0
164	180	May	May	May.	1	nopreview	6	188	367	0	0	0	0	367
	181	.	.		1	nopreview	6	189						
165	182	Covering	Covering	Covering	1	nopreview	6	190	233	0	0	0	0	233
166	183	the	the	the	1	nopreview	6	191	0	0	0	0	0	0
167	184	new	new	new	1	nopreview	6	192	160	0	0	0	0	160
168	185	zone	zone	zone	1	nopreview	6	193	271	0	0	0	0	271
169	186	could	could	could	1	nopreview	6	194	110	0	0	0	0	110
170	187	take	take	take	1	nopreview	6	195	227	102	3458	102	102	125
171	188	as	as	as	1	nopreview	6	196	211	211	336	211	211	0
172	189	long	long	long	1	nopreview	6	197	253	253	253	253	253	0
173	190	as	as	as	1	nopreview	6	198	0	0	0	0	0	0
174	191	a	a	a	1	nopreview	6	199	0	0	0	0	0	0
175	192	year	year	year.	1	nopreview	6	200	243	243	243	243	243	0
	193	.	.		1	nopreview	6	201						
176	194	At	At	At	1	nopreview	6	202	0	0	0	0	0	0
177	195	that	that	that	1	nopreview	6	203	0	0	0	0	0	0
178	196	point	point	point,	1	nopreview	6	204	820	820	820	197	820	0
	197	,	,		1	nopreview	6	205						
179	198	-	-	-all	1	nopreview	6	206	0	0	0	0	0	0
	199	all	all		1	nopreview	6	207						
180	200	high	high	high	1	nopreview	6	208	313	203	203	203	203	110
181	201	probability	probability	probability	1	nopreview	6	209	761	443	443	187	443	318
182	202	search	search	search	1	nopreview	6	210	330	330	868	330	330	0
183	203	areas	areas	areas	1	nopreview	6	211	674	674	674	258	674	0
184	204	would	would	would	1	nopreview	6	212	264	264	264	264	264	0
185	205	have	have	have	1	nopreview	6	213	0	0	0	0	0	0
186	206	been	been	been	1	nopreview	6	214	0	0	0	0	0	0
187	207	covered	covered	covered,-	1	nopreview	6	215	446	446	446	217	446	0
	208	,	,		1	nopreview	6	216						
	209	-	-		1	nopreview	6	217						
188	210	the	the	the	1	nopreview	6	218	0	0	0	0	0	0
189	211	governments	governments	governments	1	nopreview	6	219	443	443	443	443	443	0
190	212	said	said	said	1	nopreview	6	220	0	0	0	0	0	0
191	213	Thursday	Thursday	Thursday.	1	nopreview	6	221	465	465	465	286	465	0
	214	.	.		1	nopreview	6	222						
192	215	The	The	The	1	nopreview	6	223	0	0	0	0	0	0
193	216	size	size	size	1	nopreview	6	224	291	291	291	291	291	0
194	217	of	of	of	1	nopreview	6	225	0	0	0	0	0	0
195	218	the	the	the	1	nopreview	6	226	196	196	196	196	196	0
196	219	doubled	doubled	doubled	1	nopreview	6	227	181	0	0	0	0	181
197	220	search	search	search	1	nopreview	6	228	423	127	308	127	127	296
198	221	area	area	area,	1	nopreview	6	229	177	177	473	177	177	0
	222	,	,		1	nopreview	6	230						
199	223	the	the	the	1	nopreview	6	231	0	0	0	0	0	0
200	224	equivalent	equivalent	equivalent	1	nopreview	6	232	463	463	463	211	463	0
201	225	of	of	of	1	nopreview	6	233	0	0	0	0	0	0
202	226	more	more	more	1	nopreview	6	234	0	0	0	0	0	0
203	227	than	than	than	1	nopreview	6	235	192	192	192	192	192	0
204	228	46,000	46,000	46,000	1	nopreview	6	236	325	325	325	237	325	0
205	229	square	square	square	1	nopreview	6	237	158	0	0	0	0	158
206	230	miles	miles	miles,	1	nopreview	6	238	635	188	793	188	635	447
	231	,	,		1	nopreview	6	239						
207	232	would	would	would	1	nopreview	6	240	0	0	0	0	0	0
208	233	be	be	be	1	nopreview	6	241	0	0	0	0	0	0
209	234	bigger	bigger	bigger	1	nopreview	6	242	480	480	480	343	480	0
210	235	than	than	than	1	nopreview	6	243	0	0	0	0	0	0
211	236	the	the	the	1	nopreview	6	244	213	0	0	0	0	213
212	237	@entity50	U.S.	U.S.	1	nopreview	6	245	0	0	0	0	0	0
213	238	state	state	state	1	nopreview	6	246	418	131	631	131	418	287
214	239	of	of	of	1	nopreview	6	247	534	534	534	534	534	0
215	240	@entity51	Pennsylvania	Pennsylvania.	1	nopreview	6	248	648	648	648	236	648	0
	241	.	.		1	nopreview	6	249						
216	242	Flight	Flight	Flight	1	nopreview	6	250	0	0	0	0	0	0
217	243	370	370	370	1	nopreview	6	251	320	320	320	135	320	0
218	244	vanished	vanished	vanished	1	nopreview	6	252	354	354	354	193	354	0
219	245	after	after	after	1	nopreview	6	253	232	232	232	232	232	0
220	246	taking	taking	taking	1	nopreview	6	254	275	275	275	275	275	0
221	247	off	off	off	1	nopreview	6	255	0	0	0	0	0	0
222	248	from	from	from	1	nopreview	6	256	311	311	311	311	311	0
223	249	@entity53	Kuala	Kuala	1	nopreview	6	257	283	283	283	283	283	0
224			Lumpur	Lumpur,	1	nopreview	6	258	251	251	251	251	251	0
	250	,	,		1	nopreview	6	259						
225	251	@entity23	Malaysia	Malaysia,	1	nopreview	6	260	223	223	223	109	223	0
	252	,	,		1	nopreview	6	261						
226	253	on	on	on	1	nopreview	6	262	0	0	0	0	0	0
227	254	March	March	March	1	nopreview	6	263	0	0	0	0	0	0
228	255	8	8	8,	1	nopreview	6	264	258	258	258	258	258	0
	256	,	,		1	nopreview	6	265						
229	257	2014	2014	2014,	1	nopreview	6	266	817	817	817	226	817	0
	258	,	,		1	nopreview	6	267						
230	259	bound	bound	bound	1	nopreview	6	268	0	0	0	0	0	0
231	260	for	for	for	1	nopreview	6	269	379	379	379	173	379	0
232	261	@entity54	Beijing	Beijing.	1	nopreview	6	270	622	622	622	240	622	0
	262	.	.		1	nopreview	6	271						
233	263	Officials	Officials	Officials	1	nopreview	6	272	438	438	438	315	438	0
234	264	are	are	are	1	nopreview	6	273	292	292	292	292	292	0
235	265	still	still	still	1	nopreview	6	274	237	0	0	0	0	237
236	266	trying	trying	trying	1	nopreview	6	275	152	152	152	152	152	0
237	267	to	to	to	1	nopreview	6	276	649	170	170	170	170	479
238	268	figure	figure	figure	1	nopreview	6	277	0	0	0	0	0	0
239	269	out	out	out	1	nopreview	6	278	164	0	0	0	0	164
240	270	why	why	why	1	nopreview	6	279	169	169	1049	169	169	0
241	271	it	it	it	1	nopreview	6	280	0	0	0	0	0	0
242	272	veered	veered	veered	1	nopreview	6	281	697	250	250	250	250	447
243	273	dramatically	dramatically	dramatically	1	nopreview	6	282	492	216	939	216	492	276
244	274	off	off	off	1	nopreview	6	283	213	213	213	213	213	0
245	275	course	course	course	1	nopreview	6	284	280	280	280	280	280	0
246	276	over	over	over	1	nopreview	6	285	0	0	0	0	0	0
247	277	the	the	the	1	nopreview	6	286	0	0	0	0	0	0
248	278	sea	sea	sea	1	nopreview	6	287	283	283	283	283	283	0
249	279	between	between	between	1	nopreview	6	288	169	169	169	169	169	0
250	280	@entity23	Malaysia	Malaysia	1	nopreview	6	289	562	562	562	277	562	0
251	281	and	and	and	1	nopreview	6	290	0	0	0	0	0	0
252	282	@entity58	Vietnam	Vietnam	1	nopreview	6	291	272	0	0	0	0	272
253	283	and	and	and	1	nopreview	6	292	0	0	0	0	0	0
254	284	where	where	where	1	nopreview	6	293	128	128	400	128	128	0
255	285	exactly	exactly	exactly	1	nopreview	6	294	426	245	245	245	245	181
256	286	it	it	it	1	nopreview	6	295	146	146	327	146	146	0
257	287	ended	ended	ended	1	nopreview	6	296	240	240	240	240	240	0
258	288	up	up	up.	1	nopreview	6	297	0	0	0	0	0	0
	289	.	.		1	nopreview	6	298						
259	290	An	An	An	1	nopreview	6	299	0	0	0	0	0	0
260	291	international	international	international	1	nopreview	6	300	703	703	703	226	703	0
261	292	team	team	team	1	nopreview	6	301	0	0	0	0	0	0
262	293	of	of	of	1	nopreview	6	302	274	274	274	274	274	0
263	294	experts	experts	experts	1	nopreview	6	303	161	161	161	161	161	0
264	295	used	used	used	1	nopreview	6	304	94	94	94	94	94	0
265	296	satellite	satellite	satellite	1	nopreview	6	305	214	0	0	0	0	214
266	297	data	data	data	1	nopreview	6	306	155	155	369	155	155	0
267	298	to	to	to	1	nopreview	6	307	268	268	268	268	268	0
268	299	calculate	calculate	calculate	1	nopreview	6	308	374	374	374	374	374	0
269	300	that	that	that	1	nopreview	6	309	170	0	0	0	0	170
270	301	the	the	the	1	nopreview	6	310	0	0	0	0	0	0
271	302	plane	plane	plane	1	nopreview	6	311	491	248	661	248	491	243
272	303	eventually	eventually	eventually	1	nopreview	6	312	147	147	147	147	147	0
273	304	went	went	went	1	nopreview	6	313	0	0	0	0	0	0
274	305	down	down	down	1	nopreview	6	314	284	284	284	284	284	0
275	306	in	in	in	1	nopreview	6	315	0	0	0	0	0	0
276	307	the	the	the	1	nopreview	6	316	185	185	185	185	185	0
277	308	southern	southern	southern	1	nopreview	6	317	567	567	567	371	567	0
278	309	@entity7	Indian	Indian	1	nopreview	6	318	266	0	0	0	0	266
279			Ocean	Ocean,	1	nopreview	6	319	127	127	393	127	127	0
	310	,	,		1	nopreview	6	320						
280	311	far	far	far	1	nopreview	6	321	249	249	249	249	249	0
281	312	off	off	off	1	nopreview	6	322	189	189	189	189	189	0
282	313	the	the	the	1	nopreview	6	323	0	0	0	0	0	0
283	314	coast	coast	coast	1	nopreview	6	324	251	251	251	251	251	0
284	315	of	of	of	1	nopreview	6	325	399	399	399	399	399	0
285	316	@entity24	Western	Western	1	nopreview	6	326	0	0	0	0	0	0
286			Australia	Australia.	1	nopreview	6	327	460	460	460	294	460	0
	317	.	.		1	nopreview	6	328						
287	318	The	The	The	1	nopreview	6	329	0	0	0	0	0	0
288	319	people	people	people	1	nopreview	6	330	257	257	257	257	257	0
289	320	on	on	on	1	nopreview	6	331	0	0	0	0	0	0
290	321	board	board	board	1	nopreview	6	332	282	282	282	282	282	0
291	322	the	the	the	1	nopreview	6	333	117	117	117	117	117	0
292	323	@entity64	Boeing	Boeing	1	nopreview	6	334	512	512	512	220	512	0
293			777	777	1	nopreview	6	335	0	0	0	0	0	0
294	324	came	came	came	1	nopreview	6	336	520	520	520	211	520	0
295	325	from	from	from	1	nopreview	6	337	340	340	340	340	340	0
296	326	various	various	various	1	nopreview	6	338	266	266	266	266	266	0
297	327	nations	nations	nations,	1	nopreview	6	339	461	461	461	302	461	0
	328	,	,		1	nopreview	6	340						
298	329	but	but	but	1	nopreview	6	341	0	0	0	0	0	0
299	330	the	the	the	1	nopreview	6	342	0	0	0	0	0	0
300	331	majority	majority	majority	1	nopreview	6	343	504	504	504	242	504	0
301	332	were	were	were	1	nopreview	6	344	0	0	0	0	0	0
302	333	@entity25	Chinese	Chinese.	1	nopreview	6	345	302	302	302	302	302	0
	334	.	.		1	nopreview	6	346						
