b_Intercept 	 5.325768 	 0.02740341 	 1 
b_HumanPosition.Centered 	 -0.004562274 	 0.004775009 	 0.15925 
b_Condition.dummy.Centered 	 0.1566156 	 0.0551367 	 0.99675 
b_LogWordFreq.Centered 	 -0.07026425 	 0.007083173 	 0 
b_IsNamedEntity.Centered 	 -0.02614725 	 0.01112438 	 0.00875 
b_IsCorrectAnswer.Resid 	 -0.04341859 	 0.04474675 	 0.15925 
b_Surprisal.Resid 	 0.006578684 	 0.001375755 	 1 
b_ExperimentTokenLength.Resid 	 0.02412504 	 0.002833506 	 1 
b_Condition.dummy.Centered:LogWordFreq.Centered 	 -0.0369744 	 0.01332981 	 0.00225 
b_LogWordFreq.Centered:IsNamedEntity.Centered 	 -0.03596094 	 0.01182081 	 0.00075 
b_Condition.dummy.Centered:ExperimentTokenLength.Resid 	 0.01186639 	 0.00501586 	 0.9875 
b_LogWordFreq.Centered:IsCorrectAnswer.Resid 	 -0.07101176 	 0.03302408 	 0.0165 
b_IsNamedEntity.Centered:Surprisal.Resid 	 -0.004790318 	 0.002675014 	 0.0345 
b_HumanPosition.Centered:IsCorrectAnswer.Resid 	 -0.04069519 	 0.03392732 	 0.1125 
b_HumanPosition.Centered:LogWordFreq.Centered 	 0.004744829 	 0.002800183 	 0.95 
b_Surprisal.Resid:ExperimentTokenLength.Resid 	 0.001221311 	 0.0006352603 	 0.975 
b_IsCorrectAnswer.Resid:Surprisal.Resid 	 -0.01206996 	 0.008405535 	 0.07025 
