b_Intercept 	 253.5339 	 10.69907 	 1 
b_HumanPosition.Centered 	 -49.63183 	 11.61433 	 0 
b_Condition.dummy.Centered 	 57.12586 	 14.69652 	 0.99975 
b_LogWordFreq.Centered 	 -38.59973 	 2.970863 	 0 
b_IsNamedEntity.Centered 	 15.27829 	 6.304196 	 0.99275 
b_IsCorrectAnswer.Resid 	 27.71176 	 47.29878 	 0.736 
b_Surprisal.Resid 	 3.139818 	 0.5840682 	 1 
b_ExperimentTokenLength.Resid 	 13.23867 	 1.166392 	 1 
b_Condition.dummy.Centered:IsCorrectAnswer.Resid 	 -88.25932 	 35.52883 	 0.011 
b_Condition.dummy.Centered:LogWordFreq.Centered 	 -21.08732 	 5.541022 	 0.00025 
b_LogWordFreq.Centered:IsNamedEntity.Centered 	 -34.81903 	 8.406018 	 0.00025 
b_HumanPosition.Centered:LogWordFreq.Centered 	 6.317353 	 1.464053 	 1 
b_Condition.dummy.Centered:ExperimentTokenLength.Resid 	 5.66949 	 2.125363 	 0.9955 
b_HumanPosition.Centered:IsCorrectAnswer.Resid 	 -105.0547 	 24.30939 	 5e-04 
b_LogWordFreq.Centered:IsCorrectAnswer.Resid 	 -102.8407 	 24.15566 	 0 
b_IsCorrectAnswer.Resid:Surprisal.Resid 	 -25.57314 	 5.777417 	 0 
b_HumanPosition.Centered:IsNamedEntity.Centered 	 -13.96175 	 4.305903 	 0.001 
b_IsCorrectAnswer.Resid:ExperimentTokenLength.Resid 	 32.8309 	 7.467925 	 1 
b_IsNamedEntity.Centered:ExperimentTokenLength.Resid 	 5.626405 	 2.200744 	 0.994 
b_IsNamedEntity.Centered:Surprisal.Resid 	 -4.758996 	 1.337558 	 0.00075 
