HumanPosition	AnonymizedPosition	AnonymizedToken	OriginalToken	ExperimentToken	Participant	Condition	TextNo	JointPosition	tt	fp	rp	ff	rb	sp
1	0	(	(	Good	4	nopreview	3	1	289	0	0	0	0	289
	1	The	The		4	nopreview	3	2						
	2	@entity0	Hollywood		4	nopreview	3	3						
			Reporter		4	nopreview	3	4						
	3	)	)		4	nopreview	3	5						
	4	Good	Good		4	nopreview	3	6						
2	5	news	news	news	4	nopreview	3	7	0	0	0	0	0	0
3	6	arrived	arrived	arrived	4	nopreview	3	8	298	83	587	83	298	215
4	7	Thursday	Thursday	Thursday	4	nopreview	3	9	111	111	111	111	111	0
5	8	for	for	for	4	nopreview	3	10	169	0	0	0	0	169
6	9	-	-	-Fifty	4	nopreview	3	11	0	0	0	0	0	0
	10	@entity3	Fifty		4	nopreview	3	12						
7			Shades	Shades	4	nopreview	3	13	340	340	509	340	340	0
8			of	of	4	nopreview	3	14	145	145	145	145	145	0
9			Grey	Grey-	4	nopreview	3	15	0	0	0	0	0	0
	11	-	-		4	nopreview	3	16						
10	12	fans	fans	fans.	4	nopreview	3	17	328	328	328	328	328	0
	13	.	.		4	nopreview	3	18						
11	14	@entity4	Universal	Universal	4	nopreview	3	19	0	0	0	0	0	0
12	15	announced	announced	announced	4	nopreview	3	20	0	0	0	0	0	0
13	16	Thursday	Thursday	Thursday	4	nopreview	3	21	204	0	0	0	0	204
14	17	that	that	that	4	nopreview	3	22	0	0	0	0	0	0
15	18	the	the	the	4	nopreview	3	23	185	0	0	0	0	185
16	19	sequel	sequel	sequel	4	nopreview	3	24	162	0	0	0	0	162
17	20	to	to	to	4	nopreview	3	25	0	0	0	0	0	0
18	21	the	the	the	4	nopreview	3	26	448	0	0	0	0	448
19	22	box	box	box	4	nopreview	3	27	0	0	0	0	0	0
20	23	office	office	office	4	nopreview	3	28	150	0	0	0	0	150
21	24	blockbuster	blockbuster	blockbuster	4	nopreview	3	29	556	0	0	0	0	556
22	25	will	will	will	4	nopreview	3	30	259	0	0	0	0	259
23	26	hit	hit	hit	4	nopreview	3	31	195	0	0	0	0	195
24	27	theaters	theaters	theaters	4	nopreview	3	32	166	166	166	166	166	0
25	28	on	on	on	4	nopreview	3	33	0	0	0	0	0	0
26	29	Feb.	Feb.	Feb.	4	nopreview	3	34	162	162	1605	162	162	0
27	30	10	10	10,	4	nopreview	3	35	0	0	0	0	0	0
	31	,	,		4	nopreview	3	36						
28	32	2017	2017	2017.	4	nopreview	3	37	0	0	0	0	0	0
	33	.	.		4	nopreview	3	38						
29	34	The	The	The	4	nopreview	3	39	0	0	0	0	0	0
30	35	third	third	third	4	nopreview	3	40	255	0	0	0	0	255
31	36	film	film	film	4	nopreview	3	41	0	0	0	0	0	0
32	37	in	in	in	4	nopreview	3	42	143	0	0	0	0	143
33	38	the	the	the	4	nopreview	3	43	0	0	0	0	0	0
34	39	series	series	series	4	nopreview	3	44	326	0	0	0	0	326
35	40	will	will	will	4	nopreview	3	45	0	0	0	0	0	0
36	41	debut	debut	debut	4	nopreview	3	46	0	0	0	0	0	0
37	42	Feb.	Feb.	Feb.	4	nopreview	3	47	0	0	0	0	0	0
38	43	9	9	9,	4	nopreview	3	48	0	0	0	0	0	0
	44	,	,		4	nopreview	3	49						
39	45	2018	2018	2018.	4	nopreview	3	50	0	0	0	0	0	0
	46	.	.		4	nopreview	3	51						
40	47	The	The	The	4	nopreview	3	52	314	0	0	0	0	314
41	48	news	news	news	4	nopreview	3	53	338	99	99	99	99	239
42	49	came	came	came	4	nopreview	3	54	187	0	0	0	0	187
43	50	one	one	one	4	nopreview	3	55	0	0	0	0	0	0
44	51	day	day	day	4	nopreview	3	56	203	203	2383	203	203	0
45	52	after	after	after	4	nopreview	3	57	0	0	0	0	0	0
46	53	@entity0	The	The	4	nopreview	3	58	194	194	194	194	194	0
47			Hollywood	Hollywood	4	nopreview	3	59	0	0	0	0	0	0
48			Reporter	Reporter	4	nopreview	3	60	95	95	95	95	95	0
49	54	reported	reported	reported	4	nopreview	3	61	327	327	327	218	327	0
50	55	exclusively	exclusively	exclusively	4	nopreview	3	62	0	0	0	0	0	0
51	56	that	that	that	4	nopreview	3	63	181	181	181	181	181	0
52	57	the	the	the	4	nopreview	3	64	0	0	0	0	0	0
53	58	husband	husband	husband	4	nopreview	3	65	427	427	427	182	427	0
54	59	of	of	of	4	nopreview	3	66	0	0	0	0	0	0
55	60	@entity12	EL	EL	4	nopreview	3	67	0	0	0	0	0	0
56			James	James,	4	nopreview	3	68	200	200	200	200	200	0
	61	,	,		4	nopreview	3	69						
57	62	author	author	author	4	nopreview	3	70	197	197	197	197	197	0
58	63	of	of	of	4	nopreview	3	71	0	0	0	0	0	0
59	64	the	the	the	4	nopreview	3	72	0	0	0	0	0	0
60	65	-	-	-Fifty	4	nopreview	3	73	156	156	156	156	156	0
	66	@entity3	Fifty		4	nopreview	3	74						
61			Shades	Shades-	4	nopreview	3	75	194	194	194	194	194	0
	67	-	-		4	nopreview	3	76						
62	68	trilogy	trilogy	trilogy,	4	nopreview	3	77	240	240	240	240	240	0
	69	,	,		4	nopreview	3	78						
63	70	will	will	will	4	nopreview	3	79	143	0	0	0	0	143
64	71	write	write	write	4	nopreview	3	80	143	143	286	143	143	0
65	72	the	the	the	4	nopreview	3	81	227	227	227	227	227	0
66	73	script	script	script	4	nopreview	3	82	0	0	0	0	0	0
67	74	for	for	for	4	nopreview	3	83	122	122	122	122	122	0
68	75	the	the	the	4	nopreview	3	84	0	0	0	0	0	0
69	76	second	second	second	4	nopreview	3	85	393	393	393	393	393	0
70	77	film	film	film.	4	nopreview	3	86	193	193	193	193	193	0
	78	.	.		4	nopreview	3	87						
71	79	@entity16	Niall	Niall	4	nopreview	3	88	221	0	0	0	0	221
72			Leonard	Leonard,	4	nopreview	3	89	158	0	0	0	0	158
	80	,	,		4	nopreview	3	90						
73	81	who	who	who	4	nopreview	3	91	268	155	155	155	155	113
74	82	is	is	is	4	nopreview	3	92	0	0	0	0	0	0
75	83	married	married	married	4	nopreview	3	93	339	339	831	339	339	0
76	84	and	and	and	4	nopreview	3	94	185	185	185	185	185	0
77	85	has	has	has	4	nopreview	3	95	105	0	0	0	0	105
78	86	two	two	two	4	nopreview	3	96	0	0	0	0	0	0
79	87	sons	sons	sons	4	nopreview	3	97	248	90	353	90	248	158
80	88	with	with	with	4	nopreview	3	98	0	0	0	0	0	0
81	89	the	the	the	4	nopreview	3	99	313	0	0	0	0	313
82	90	@entity19	British	British	4	nopreview	3	100	352	237	237	237	237	115
83	91	author	author	author,	4	nopreview	3	101	220	220	220	220	220	0
	92	,	,		4	nopreview	3	102						
84	93	is	is	is	4	nopreview	3	103	179	0	0	0	0	179
85	94	an	an	an	4	nopreview	3	104	649	289	896	289	289	360
86	95	author	author	author	4	nopreview	3	105	283	144	643	144	283	139
87	96	himself	himself	himself,	4	nopreview	3	106	140	140	140	140	140	0
	97	,	,		4	nopreview	3	107						
88	98	in	in	in	4	nopreview	3	108	193	0	0	0	0	193
89	99	addition	addition	addition	4	nopreview	3	109	124	124	317	124	124	0
90	100	to	to	to	4	nopreview	3	110	0	0	0	0	0	0
91	101	being	being	being	4	nopreview	3	111	351	151	151	151	151	200
92	102	a	a	a	4	nopreview	3	112	0	0	0	0	0	0
93	103	screenwriter	screenwriter	screenwriter.	4	nopreview	3	113	163	163	363	163	163	0
	104	.	.		4	nopreview	3	114						
94	105	@entity12	James	James,	4	nopreview	3	115	296	185	185	185	185	111
	106	,	,		4	nopreview	3	116						
95	107	whose	whose	whose	4	nopreview	3	117	398	0	0	0	0	398
96	108	real	real	real	4	nopreview	3	118	295	162	319	162	162	133
97	109	name	name	name	4	nopreview	3	119	592	592	592	592	592	0
98	110	is	is	is	4	nopreview	3	120	147	147	147	147	147	0
99	111	@entity12	Erika	Erika	4	nopreview	3	121	229	101	714	101	229	128
100			Leonard	Leonard,	4	nopreview	3	122	255	255	255	255	255	0
	112	,	,		4	nopreview	3	123						
101	113	has	has	has	4	nopreview	3	124	434	434	434	434	434	0
102	114	been	been	been	4	nopreview	3	125	125	125	125	125	125	0
103	115	credited	credited	credited	4	nopreview	3	126	529	529	1088	324	529	0
104	116	with	with	with	4	nopreview	3	127	0	0	0	0	0	0
105	117	keeping	keeping	keeping	4	nopreview	3	128	206	206	206	91	206	0
106	118	a	a	a	4	nopreview	3	129	0	0	0	0	0	0
107	119	strong	strong	strong	4	nopreview	3	130	183	183	183	183	183	0
108	120	amount	amount	amount	4	nopreview	3	131	578	0	0	0	0	578
109	121	of	of	of	4	nopreview	3	132	0	0	0	0	0	0
110	122	creative	creative	creative	4	nopreview	3	133	133	0	0	0	0	133
111	123	control	control	control	4	nopreview	3	134	336	215	215	215	215	121
112	124	when	when	when	4	nopreview	3	135	0	0	0	0	0	0
113	125	it	it	it	4	nopreview	3	136	333	157	157	157	157	176
114	126	comes	comes	comes	4	nopreview	3	137	139	139	139	139	139	0
115	127	to	to	to	4	nopreview	3	138	0	0	0	0	0	0
116	128	@entity4	Universal	Universal-s	4	nopreview	3	139	122	122	122	122	122	0
	129	-s	-s		4	nopreview	3	140						
117	130	adaptations	adaptations	adaptations	4	nopreview	3	141	417	129	129	129	129	288
118	131	of	of	of	4	nopreview	3	142	84	0	0	0	0	84
119	132	her	her	her	4	nopreview	3	143	216	0	0	0	0	216
120	133	books	books	books,	4	nopreview	3	144	286	161	161	161	161	125
	134	,	,		4	nopreview	3	145						
121	135	the	the	the	4	nopreview	3	146	0	0	0	0	0	0
122	136	second	second	second	4	nopreview	3	147	832	469	2553	387	832	363
123	137	of	of	of	4	nopreview	3	148	0	0	0	0	0	0
124	138	which	which	which	4	nopreview	3	149	244	0	0	0	0	244
125	139	is	is	is	4	nopreview	3	150	0	0	0	0	0	0
126	140	titled	titled	titled	4	nopreview	3	151	318	146	562	146	318	172
127	141	-	-	-Fifty	4	nopreview	3	152	0	0	0	0	0	0
	142	@entity32	Fifty		4	nopreview	3	153						
128			Shades	Shades	4	nopreview	3	154	172	172	172	172	172	0
129			Darker	Darker.-	4	nopreview	3	155	164	164	164	164	164	0
	143	.	.		4	nopreview	3	156						
130	144	-	-	After	4	nopreview	3	157	0	0	0	0	0	0
	145	After	After		4	nopreview	3	158						
131	146	clashing	clashing	clashing	4	nopreview	3	159	454	301	301	301	301	153
132	147	with	with	with	4	nopreview	3	160	0	0	0	0	0	0
133	148	@entity12	James	James,	4	nopreview	3	161	179	179	332	179	179	0
	149	,	,		4	nopreview	3	162						
134	150	@entity33	Sam	Sam	4	nopreview	3	163	0	0	0	0	0	0
135			Taylor	Taylor-Johnson	4	nopreview	3	164	359	359	359	138	359	0
			-		4	nopreview	3	165						
			Johnson		4	nopreview	3	166						
136	151	is	is	isn-t	4	nopreview	3	167	128	0	0	0	0	128
	152	n-t	n-t		4	nopreview	3	168						
137	153	returning	returning	returning	4	nopreview	3	169	246	86	374	86	246	160
138	154	to	to	to	4	nopreview	3	170	0	0	0	0	0	0
139	155	direct	direct	direct	4	nopreview	3	171	112	112	112	112	112	0
140	156	the	the	the	4	nopreview	3	172	0	0	0	0	0	0
141	157	sequel	sequel	sequel.	4	nopreview	3	173	262	262	262	262	262	0
	158	.	.		4	nopreview	3	174						
142	159	Stars	Stars	Stars	4	nopreview	3	175	0	0	0	0	0	0
143	160	@entity35	Dakota	Dakota	4	nopreview	3	176	509	329	591	109	329	180
144			Johnson	Johnson	4	nopreview	3	177	0	0	0	0	0	0
145	161	and	and	and	4	nopreview	3	178	250	250	250	250	250	0
146	162	@entity36	Jamie	Jamie	4	nopreview	3	179	0	0	0	0	0	0
147			Dornan	Dornan	4	nopreview	3	180	244	244	244	244	244	0
148	163	are	are	are	4	nopreview	3	181	210	0	0	0	0	210
149	164	negotiating	negotiating	negotiating	4	nopreview	3	182	612	308	488	308	308	304
150	165	for	for	for	4	nopreview	3	183	200	0	0	0	0	200
151	166	more	more	more	4	nopreview	3	184	423	161	1317	161	423	262
152	167	money	money	money	4	nopreview	3	185	0	0	0	0	0	0
153	168	for	for	for	4	nopreview	3	186	194	194	194	194	194	0
154	169	the	the	the	4	nopreview	3	187	0	0	0	0	0	0
155	170	sequel	sequel	sequel	4	nopreview	3	188	247	247	247	247	247	0
156	171	after	after	after	4	nopreview	3	189	96	0	0	0	0	96
157	172	the	the	the	4	nopreview	3	190	139	0	0	0	0	139
158	173	first	first	first	4	nopreview	3	191	117	117	352	117	117	0
159	174	film	film	film,	4	nopreview	3	192	0	0	0	0	0	0
	175	,	,		4	nopreview	3	193						
160	176	release	release	release	4	nopreview	3	194	359	244	244	244	244	115
161	177	over	over	over	4	nopreview	3	195	109	0	0	0	0	109
162	178	@entity40	Valentine	Valentine-s	4	nopreview	3	196	147	147	371	147	147	0
			-s		4	nopreview	3	197						
163			Day	Day	4	nopreview	3	198	0	0	0	0	0	0
164	179	weekend	weekend	weekend	4	nopreview	3	199	346	346	346	257	346	0
165	180	of	of	of	4	nopreview	3	200	0	0	0	0	0	0
166	181	this	this	this	4	nopreview	3	201	0	0	0	0	0	0
167	182	year	year	year,	4	nopreview	3	202	216	216	216	216	216	0
	183	,	,		4	nopreview	3	203						
168	184	earned	earned	earned	4	nopreview	3	204	0	0	0	0	0	0
169	185	a	a	a	4	nopreview	3	205	0	0	0	0	0	0
170	186	massive	massive	massive	4	nopreview	3	206	358	215	215	215	215	143
171	187	$	$	$568.8	4	nopreview	3	207	454	0	0	0	0	454
	188	568.8	568.8		4	nopreview	3	208						
172	189	million	million	million	4	nopreview	3	209	161	161	758	161	161	0
173	190	worldwide	worldwide	worldwide.	4	nopreview	3	210	0	0	0	0	0	0
	191	.	.		4	nopreview	3	211						
