HumanPosition	AnonymizedPosition	AnonymizedToken	OriginalToken	ExperimentToken	Participant	Condition	TextNo	JointPosition	tt	fp	rp	ff	rb	sp
	0	@entity2	Seoul		4	nopreview	4	1						
	1	(	(		4	nopreview	4	2						
	2	@entity3	CNN		4	nopreview	4	3						
	3	)	)		4	nopreview	4	4						
0	4	@entity1	South	South	4	nopreview	4	5	554	0	0	0	0	554
2			Korea	Korea	4	nopreview	4	6	0	0	0	0	0	0
	5	-s	-s		4	nopreview	4	7						
3	6	Prime	Prime	Prime	4	nopreview	4	8	538	0	0	0	0	538
4	7	Minister	Minister	Minister	4	nopreview	4	9	375	153	153	153	153	222
5	8	@entity0	Lee	Lee	4	nopreview	4	10	239	0	0	0	0	239
6			Wan	Wan-koo	4	nopreview	4	11	1118	308	308	308	308	810
			-		4	nopreview	4	12						
			koo		4	nopreview	4	13						
7	9	offered	offered	offered	4	nopreview	4	14	842	386	386	269	386	456
8	10	to	to	to	4	nopreview	4	15	279	0	0	0	0	279
9	11	resign	resign	resign	4	nopreview	4	16	1268	214	214	105	214	1054
10	12	on	on	on	4	nopreview	4	17	202	0	0	0	0	202
11	13	Monday	Monday	Monday	4	nopreview	4	18	965	192	524	192	322	773
12	14	amid	amid	amid	4	nopreview	4	19	309	0	0	0	0	309
13	15	a	a	a	4	nopreview	4	20	187	187	350	187	187	0
14	16	growing	growing	growing	4	nopreview	4	21	405	153	153	153	153	252
15	17	political	political	political	4	nopreview	4	22	1766	172	3179	172	1284	1594
16	18	scandal	scandal	scandal.	4	nopreview	4	23	536	276	1552	276	380	260
	19	.	.		4	nopreview	4	24						
17	20	@entity0	Lee	Lee	4	nopreview	4	25	371	269	269	269	269	102
18	21	will	will	will	4	nopreview	4	26	314	0	0	0	0	314
19	22	stay	stay	stay	4	nopreview	4	27	779	250	671	250	511	529
20	23	in	in	in	4	nopreview	4	28	0	0	0	0	0	0
21	24	his	his	his	4	nopreview	4	29	1038	521	521	521	521	517
22	25	official	official	official	4	nopreview	4	30	686	243	243	243	243	443
23	26	role	role	role	4	nopreview	4	31	235	235	235	235	235	0
24	27	until	until	until	4	nopreview	4	32	765	0	0	0	0	765
25	28	@entity1	South	South	4	nopreview	4	33	856	187	187	187	187	669
26			Korean	Korean	4	nopreview	4	34	1659	508	629	508	508	1151
27	29	President	President	President	4	nopreview	4	35	584	319	319	173	319	265
28	30	@entity6	Park	Park	4	nopreview	4	36	358	212	212	212	212	146
29			Geun	Geun-hye	4	nopreview	4	37	2125	163	163	163	163	1962
			-		4	nopreview	4	38						
			hye		4	nopreview	4	39						
30	31	accepts	accepts	accepts	4	nopreview	4	40	851	348	348	183	348	503
31	32	his	his	his	4	nopreview	4	41	156	0	0	0	0	156
32	33	resignation	resignation	resignation.	4	nopreview	4	42	956	335	335	335	335	621
	34	.	.		4	nopreview	4	43						
33	35	He	He	He	4	nopreview	4	44	380	0	0	0	0	380
34	36	has	has	has	4	nopreview	4	45	681	187	298	187	187	494
35	37	transferred	transferred	transferred	4	nopreview	4	46	1025	427	427	427	427	598
36	38	his	his	his	4	nopreview	4	47	460	303	303	303	303	157
37	39	role	role	role	4	nopreview	4	48	117	0	0	0	0	117
38	40	of	of	of	4	nopreview	4	49	458	286	286	286	286	172
39	41	chairing	chairing	chairing	4	nopreview	4	50	318	190	190	190	190	128
40	42	Cabinet	Cabinet	Cabinet	4	nopreview	4	51	293	192	192	192	192	101
41	43	meetings	meetings	meetings	4	nopreview	4	52	1415	282	282	282	282	1133
42	44	to	to	to	4	nopreview	4	53	491	222	12604	222	222	269
43	45	the	the	the	4	nopreview	4	54	119	119	388	119	119	0
44	46	deputy	deputy	deputy	4	nopreview	4	55	192	0	0	0	0	192
45	47	prime	prime	prime	4	nopreview	4	56	151	151	343	151	151	0
46	48	minister	minister	minister	4	nopreview	4	57	295	0	0	0	0	295
47	49	for	for	for	4	nopreview	4	58	238	238	238	238	238	0
48	50	the	the	the	4	nopreview	4	59	0	0	0	0	0	0
49	51	time	time	time	4	nopreview	4	60	416	0	0	0	0	416
50	52	being	being	being,	4	nopreview	4	61	484	333	1715	333	484	151
	53	,	,		4	nopreview	4	62						
51	54	according	according	according	4	nopreview	4	63	269	269	269	269	269	0
52	55	to	to	to	4	nopreview	4	64	177	177	177	177	177	0
53	56	his	his	his	4	nopreview	4	65	136	136	136	136	136	0
54	57	office	office	office.	4	nopreview	4	66	211	211	211	211	211	0
	58	.	.		4	nopreview	4	67						
55	59	@entity13	Park	Park	4	nopreview	4	68	406	0	0	0	0	406
56	60	heard	heard	heard	4	nopreview	4	69	630	143	461	143	316	487
57	61	about	about	about	4	nopreview	4	70	0	0	0	0	0	0
58	62	the	the	the	4	nopreview	4	71	135	135	135	135	135	0
59	63	resignation	resignation	resignation	4	nopreview	4	72	331	223	223	223	223	108
60	64	and	and	and	4	nopreview	4	73	0	0	0	0	0	0
61	65	called	called	called	4	nopreview	4	74	528	335	335	335	335	193
62	66	it	it	it	4	nopreview	4	75	135	0	0	0	0	135
63	67	-	-	-regrettable,-	4	nopreview	4	76	555	380	3105	380	555	175
	68	regrettable	regrettable		4	nopreview	4	77						
	69	,	,		4	nopreview	4	78						
	70	-	-		4	nopreview	4	79						
64	71	according	according	according	4	nopreview	4	80	346	346	346	346	346	0
65	72	to	to	to	4	nopreview	4	81	0	0	0	0	0	0
66	73	the	the	the	4	nopreview	4	82	173	173	173	173	173	0
67	74	@entity1	South	South	4	nopreview	4	83	0	0	0	0	0	0
68			Korean	Korean	4	nopreview	4	84	216	0	0	0	0	216
69	75	presidential	presidential	presidential	4	nopreview	4	85	171	171	171	171	171	0
70	76	office	office	office.	4	nopreview	4	86	187	187	403	187	187	0
	77	.	.		4	nopreview	4	87						
71	78	Calls	Calls	Calls	4	nopreview	4	88	754	754	754	164	754	0
72	79	for	for	for	4	nopreview	4	89	0	0	0	0	0	0
73	80	@entity0	Lee	Lee	4	nopreview	4	90	199	199	199	199	199	0
74	81	to	to	to	4	nopreview	4	91	328	328	328	328	328	0
75	82	resign	resign	resign	4	nopreview	4	92	467	256	256	256	256	211
76	83	began	began	began	4	nopreview	4	93	214	0	0	0	0	214
77	84	after	after	after	4	nopreview	4	94	309	126	734	126	309	183
78	85	@entity1	South	South	4	nopreview	4	95	139	139	139	139	139	0
79			Korean	Korean	4	nopreview	4	96	169	169	169	169	169	0
80	86	tycoon	tycoon	tycoon	4	nopreview	4	97	197	0	0	0	0	197
81	87	@entity18	Sung	Sung	4	nopreview	4	98	205	205	402	205	205	0
82			Woan	Woan-jong	4	nopreview	4	99	243	243	243	88	243	0
			-		4	nopreview	4	100						
			jong		4	nopreview	4	101						
83	88	was	was	was	4	nopreview	4	102	267	267	267	267	267	0
84	89	found	found	found	4	nopreview	4	103	0	0	0	0	0	0
85	90	hanging	hanging	hanging	4	nopreview	4	104	286	286	286	286	286	0
86	91	from	from	from	4	nopreview	4	105	0	0	0	0	0	0
87	92	a	a	a	4	nopreview	4	106	0	0	0	0	0	0
88	93	tree	tree	tree	4	nopreview	4	107	0	0	0	0	0	0
89	94	in	in	in	4	nopreview	4	108	174	174	174	174	174	0
90	95	@entity2	Seoul	Seoul	4	nopreview	4	109	0	0	0	0	0	0
91	96	in	in	in	4	nopreview	4	110	0	0	0	0	0	0
92	97	an	an	an	4	nopreview	4	111	224	224	224	224	224	0
93	98	apparent	apparent	apparent	4	nopreview	4	112	119	119	119	119	119	0
94	99	suicide	suicide	suicide	4	nopreview	4	113	162	162	162	162	162	0
95	100	on	on	on	4	nopreview	4	114	0	0	0	0	0	0
96	101	April	April	April	4	nopreview	4	115	82	82	82	82	82	0
97	102	9	9	9.	4	nopreview	4	116	139	139	139	139	139	0
	103	.	.		4	nopreview	4	117						
98	104	@entity18	Sung	Sung,	4	nopreview	4	118	170	170	170	170	170	0
	105	,	,		4	nopreview	4	119						
99	106	who	who	who	4	nopreview	4	120	0	0	0	0	0	0
100	107	was	was	was	4	nopreview	4	121	547	170	170	170	170	377
101	108	under	under	under	4	nopreview	4	122	345	345	432	212	345	0
102	109	investigation	investigation	investigation	4	nopreview	4	123	335	140	625	140	335	195
103	110	for	for	for	4	nopreview	4	124	0	0	0	0	0	0
104	111	fraud	fraud	fraud	4	nopreview	4	125	0	0	0	0	0	0
105	112	and	and	and	4	nopreview	4	126	0	0	0	0	0	0
106	113	bribery	bribery	bribery,	4	nopreview	4	127	282	0	0	0	0	282
	114	,	,		4	nopreview	4	128						
107	115	left	left	left	4	nopreview	4	129	271	0	0	0	0	271
108	116	a	a	a	4	nopreview	4	130	0	0	0	0	0	0
109	117	note	note	note	4	nopreview	4	131	363	0	0	0	0	363
110	118	listing	listing	listing	4	nopreview	4	132	307	0	0	0	0	307
111	119	names	names	names	4	nopreview	4	133	0	0	0	0	0	0
112	120	and	and	and	4	nopreview	4	134	199	0	0	0	0	199
113	121	amounts	amounts	amounts	4	nopreview	4	135	156	0	0	0	0	156
114	122	of	of	of	4	nopreview	4	136	0	0	0	0	0	0
115	123	cash	cash	cash	4	nopreview	4	137	130	0	0	0	0	130
116	124	given	given	given	4	nopreview	4	138	341	0	0	0	0	341
117	125	to	to	to	4	nopreview	4	139	0	0	0	0	0	0
118	126	top	top	top	4	nopreview	4	140	0	0	0	0	0	0
119	127	officials	officials	officials,	4	nopreview	4	141	531	323	2580	323	531	208
	128	,	,		4	nopreview	4	142						
120	129	including	including	including	4	nopreview	4	143	260	260	260	260	260	0
121	130	those	those	those	4	nopreview	4	144	208	208	208	208	208	0
122	131	who	who	who	4	nopreview	4	145	89	89	89	89	89	0
123	132	work	work	work	4	nopreview	4	146	287	101	101	101	101	186
124	133	for	for	for	4	nopreview	4	147	0	0	0	0	0	0
125	134	the	the	the	4	nopreview	4	148	141	0	0	0	0	141
126	135	President	President	President.	4	nopreview	4	149	138	138	465	138	138	0
	136	.	.		4	nopreview	4	150						
127	137	@entity0	Lee	Lee	4	nopreview	4	151	145	0	0	0	0	145
128	138	and	and	and	4	nopreview	4	152	142	142	287	142	142	0
129	139	seven	seven	seven	4	nopreview	4	153	246	246	246	149	246	0
130	140	other	other	other	4	nopreview	4	154	0	0	0	0	0	0
131	141	politicians	politicians	politicians	4	nopreview	4	155	232	232	232	232	232	0
132	142	with	with	with	4	nopreview	4	156	358	358	358	358	358	0
133	143	links	links	links	4	nopreview	4	157	183	183	183	183	183	0
134	144	to	to	to	4	nopreview	4	158	0	0	0	0	0	0
135	145	the	the	the	4	nopreview	4	159	218	218	218	218	218	0
136	146	@entity1	South	South	4	nopreview	4	160	0	0	0	0	0	0
137			Korean	Korean	4	nopreview	4	161	112	112	112	112	112	0
138	147	President	President	President	4	nopreview	4	162	0	0	0	0	0	0
139	148	are	are	are	4	nopreview	4	163	124	124	124	124	124	0
140	149	under	under	under	4	nopreview	4	164	0	0	0	0	0	0
141	150	investigation	investigation	investigation.	4	nopreview	4	165	275	275	275	275	275	0
	151	.	.		4	nopreview	4	166						
142	152	A	A	A	4	nopreview	4	167	0	0	0	0	0	0
143	153	special	special	special	4	nopreview	4	168	542	263	263	177	263	279
144	154	prosecutor	prosecutor	prosecutor-s	4	nopreview	4	169	355	196	196	196	196	159
	155	-s	-s		4	nopreview	4	170						
145	156	team	team	team	4	nopreview	4	171	316	120	316	120	120	196
146	157	has	has	has	4	nopreview	4	172	252	0	0	0	0	252
147	158	been	been	been	4	nopreview	4	173	182	182	1068	182	182	0
148	159	established	established	established	4	nopreview	4	174	240	240	240	130	240	0
149	160	to	to	to	4	nopreview	4	175	0	0	0	0	0	0
150	161	investigate	investigate	investigate	4	nopreview	4	176	251	251	251	251	251	0
151	162	the	the	the	4	nopreview	4	177	0	0	491	0	0	0
152	163	case	case	case.	4	nopreview	4	178	244	244	244	244	244	0
	164	.	.		4	nopreview	4	179						
153	165	@entity0	Lee	Lee	4	nopreview	4	180	0	0	0	0	0	0
154	166	had	had	had	4	nopreview	4	181	179	179	179	179	179	0
155	167	adamantly	adamantly	adamantly	4	nopreview	4	182	234	234	234	234	234	0
156	168	denied	denied	denied	4	nopreview	4	183	186	186	186	186	186	0
157	169	the	the	the	4	nopreview	4	184	101	0	0	0	0	101
158	170	allegations	allegations	allegations	4	nopreview	4	185	524	244	625	244	524	280
159	171	as	as	as	4	nopreview	4	186	227	227	227	93	227	0
160	172	the	the	the	4	nopreview	4	187	104	104	104	104	104	0
161	173	scandal	scandal	scandal	4	nopreview	4	188	240	240	240	120	240	0
162	174	escalated	escalated	escalated:	4	nopreview	4	189	0	0	0	0	0	0
163	175	:	:	-If	4	nopreview	4	190	243	243	243	243	243	0
	176	-	-		4	nopreview	4	191						
164	177	If	If	there	4	nopreview	4	192	131	131	131	131	131	0
	178	there	there		4	nopreview	4	193						
165	179	are	are	are	4	nopreview	4	194	233	0	0	0	0	233
166	180	any	any	any	4	nopreview	4	195	0	0	131	0	0	0
167	181	evidence	evidence	evidence,	4	nopreview	4	196	122	122	355	122	122	0
	182	,	,		4	nopreview	4	197						
168	183	I	I	I	4	nopreview	4	198	0	0	0	0	0	0
169	184	will	will	will	4	nopreview	4	199	191	191	191	191	191	0
170	185	give	give	give	4	nopreview	4	200	230	0	0	0	0	230
171	186	out	out	out	4	nopreview	4	201	453	175	405	175	175	278
172	187	my	my	my	4	nopreview	4	202	234	234	512	234	234	0
173	188	life	life	life.	4	nopreview	4	203	213	213	213	213	213	0
	189	.	.		4	nopreview	4	204						
174	190	As	As	As	4	nopreview	4	205	156	156	156	156	156	0
175	191	a	a	a	4	nopreview	4	206	0	0	0	0	0	0
176	192	Prime	Prime	Prime	4	nopreview	4	207	0	0	0	0	0	0
177	193	Minister	Minister	Minister,	4	nopreview	4	208	151	151	151	151	151	0
	194	,	,		4	nopreview	4	209						
178	195	I	I	I	4	nopreview	4	210	0	0	0	0	0	0
179	196	will	will	will	4	nopreview	4	211	314	314	314	314	314	0
180	197	accept	accept	accept	4	nopreview	4	212	271	271	271	271	271	0
181	198	Prosecutor	Prosecutor	Prosecutor	4	nopreview	4	213	732	732	732	137	732	0
182	199	@entity44	Office	Office-s	4	nopreview	4	214	0	0	0	0	0	0
	200	-s	-s		4	nopreview	4	215						
183	201	investigation	investigation	investigation	4	nopreview	4	216	362	362	362	362	362	0
184	202	first	first	first.-	4	nopreview	4	217	209	209	209	209	209	0
	203	.	.		4	nopreview	4	218						
185	204	-	-	Park	4	nopreview	4	219	273	273	273	273	273	0
	205	@entity46	Park		4	nopreview	4	220						
186	206	has	has	has	4	nopreview	4	221	0	0	0	0	0	0
187	207	said	said	said	4	nopreview	4	222	216	216	216	216	216	0
188	208	that	that	that	4	nopreview	4	223	132	132	132	132	132	0
189	209	she	she	she	4	nopreview	4	224	0	0	0	0	0	0
190	210	is	is	is	4	nopreview	4	225	169	169	169	169	169	0
191	211	taking	taking	taking	4	nopreview	4	226	274	0	0	0	0	274
192	212	the	the	the	4	nopreview	4	227	128	128	402	128	128	0
193	213	accusations	accusations	accusations	4	nopreview	4	228	280	280	280	162	280	0
194	214	very	very	very	4	nopreview	4	229	85	0	0	0	0	85
195	215	seriously	seriously	seriously.	4	nopreview	4	230	201	201	286	201	201	0
	216	.	.		4	nopreview	4	231						
196	217	Before	Before	Before	4	nopreview	4	232	214	214	214	214	214	0
197	218	departing	departing	departing	4	nopreview	4	233	288	288	288	288	288	0
198	219	on	on	on	4	nopreview	4	234	0	0	0	0	0	0
199	220	her	her	her	4	nopreview	4	235	328	328	328	244	328	0
200	221	trip	trip	trip	4	nopreview	4	236	0	0	0	0	0	0
201	222	to	to	to	4	nopreview	4	237	0	0	0	0	0	0
202	223	@entity50	Central	Central	4	nopreview	4	238	0	0	0	0	0	0
203			and	and	4	nopreview	4	239	0	0	0	0	0	0
204			South	South	4	nopreview	4	240	117	0	0	0	0	117
205			America	America,	4	nopreview	4	241	162	0	0	0	0	162
	224	,	,		4	nopreview	4	242						
206	225	she	she	she	4	nopreview	4	243	0	0	0	0	0	0
207	226	condemned	condemned	condemned	4	nopreview	4	244	243	0	0	0	0	243
208	227	political	political	political	4	nopreview	4	245	274	0	0	0	0	274
209	228	corruption	corruption	corruption	4	nopreview	4	246	460	0	0	0	0	460
210	229	in	in	in	4	nopreview	4	247	0	0	0	0	0	0
211	230	her	her	her	4	nopreview	4	248	0	0	0	0	0	0
212	231	country	country	country.	4	nopreview	4	249	229	0	0	0	0	229
	232	.	.		4	nopreview	4	250						
213	233	-	-	-Corruption	4	nopreview	4	251	443	0	0	0	0	443
	234	Corruption	Corruption		4	nopreview	4	252						
214	235	and	and	and	4	nopreview	4	253	412	210	2340	210	412	202
215	236	deep	deep	deep-rooted	4	nopreview	4	254	0	0	0	0	0	0
	237	-	-		4	nopreview	4	255						
	238	rooted	rooted		4	nopreview	4	256						
216	239	evil	evil	evil	4	nopreview	4	257	181	181	181	181	181	0
217	240	are	are	are	4	nopreview	4	258	0	0	0	0	0	0
218	241	issues	issues	issues	4	nopreview	4	259	259	259	259	259	259	0
219	242	that	that	that	4	nopreview	4	260	139	0	0	0	0	139
220	243	can	can	can	4	nopreview	4	261	168	168	307	168	168	0
221	244	lead	lead	lead	4	nopreview	4	262	239	239	239	239	239	0
222	245	to	to	to	4	nopreview	4	263	0	0	0	0	0	0
223	246	taking	taking	taking	4	nopreview	4	264	317	317	317	127	317	0
224	247	away	away	away	4	nopreview	4	265	0	0	0	0	0	0
225	248	people	people	people-s	4	nopreview	4	266	190	190	190	190	190	0
	249	-s	-s		4	nopreview	4	267						
226	250	lives	lives	lives.	4	nopreview	4	268	320	320	320	320	320	0
	251	.	.		4	nopreview	4	269						
227	252	We	We	We	4	nopreview	4	270	0	0	0	0	0	0
228	253	take	take	take	4	nopreview	4	271	257	257	257	257	257	0
229	254	this	this	this	4	nopreview	4	272	127	127	127	127	127	0
230	255	very	very	very	4	nopreview	4	273	0	0	0	0	0	0
231	256	seriously	seriously	seriously.-	4	nopreview	4	274	98	98	98	98	98	0
	257	.	.		4	nopreview	4	275						
232	258	-	-	-We	4	nopreview	4	276	0	0	0	0	0	0
	259	-	-		4	nopreview	4	277						
233	260	We	We	must	4	nopreview	4	278	299	299	299	299	299	0
	261	must	must		4	nopreview	4	279						
234	262	make	make	make	4	nopreview	4	280	0	0	0	0	0	0
235	263	sure	sure	sure	4	nopreview	4	281	0	0	0	0	0	0
236	264	to	to	to	4	nopreview	4	282	0	0	0	0	0	0
237	265	set	set	set	4	nopreview	4	283	138	138	138	138	138	0
238	266	straight	straight	straight	4	nopreview	4	284	146	146	284	146	146	0
239	267	this	this	this	4	nopreview	4	285	0	0	0	0	0	0
240	268	issue	issue	issue	4	nopreview	4	286	0	0	0	0	0	0
241	269	as	as	as	4	nopreview	4	287	217	217	217	217	217	0
242	270	a	a	a	4	nopreview	4	288	0	0	0	0	0	0
243	271	matter	matter	matter	4	nopreview	4	289	183	183	183	183	183	0
244	272	of	of	of	4	nopreview	4	290	0	0	0	0	0	0
245	273	political	political	political	4	nopreview	4	291	111	111	111	111	111	0
246	274	reform	reform	reform.	4	nopreview	4	292	0	0	0	0	0	0
	275	.	.		4	nopreview	4	293						
247	276	I	I	I	4	nopreview	4	294	427	0	0	0	0	427
248	277	will	will	will	4	nopreview	4	295	1155	1015	1582	382	1155	140
249	278	not	not	not	4	nopreview	4	296	141	0	0	0	0	141
250	279	forgive	forgive	forgive	4	nopreview	4	297	412	111	252	111	111	301
251	280	anyone	anyone	anyone	4	nopreview	4	298	131	131	432	131	131	0
252	281	who	who	who	4	nopreview	4	299	0	0	0	0	0	0
253	282	is	is	is	4	nopreview	4	300	0	0	0	0	0	0
254	283	responsible	responsible	responsible	4	nopreview	4	301	241	241	241	241	241	0
255	284	for	for	for	4	nopreview	4	302	0	0	0	0	0	0
256	285	corruption	corruption	corruption	4	nopreview	4	303	254	254	254	254	254	0
257	286	or	or	or	4	nopreview	4	304	128	128	128	128	128	0
258	287	wrongdoing	wrongdoing	wrongdoing.-	4	nopreview	4	305	137	137	137	137	137	0
	288	.	.		4	nopreview	4	306						
259	289	-	-	Park	4	nopreview	4	307	0	0	0	0	0	0
	290	@entity13	Park		4	nopreview	4	308						
260	291	is	is	is	4	nopreview	4	309	147	147	147	147	147	0
261	292	in	in	in	4	nopreview	4	310	241	0	0	0	0	241
262	293	@entity66	Peru	Peru	4	nopreview	4	311	102	102	343	102	102	0
263	294	and	and	and	4	nopreview	4	312	0	0	0	0	0	0
264	295	is	is	is	4	nopreview	4	313	0	0	0	0	0	0
265	296	expected	expected	expected	4	nopreview	4	314	0	0	0	0	0	0
266	297	to	to	to	4	nopreview	4	315	0	0	0	0	0	0
267	298	arrive	arrive	arrive	4	nopreview	4	316	0	0	0	0	0	0
268	299	back	back	back	4	nopreview	4	317	0	0	0	0	0	0
269	300	to	to	to	4	nopreview	4	318	0	0	0	0	0	0
270	301	@entity1	South	South	4	nopreview	4	319	230	0	0	0	0	230
271			Korea	Korea	4	nopreview	4	320	0	0	0	0	0	0
272	302	on	on	on	4	nopreview	4	321	0	0	0	0	0	0
273	303	April	April	April	4	nopreview	4	322	158	158	388	158	158	0
274	304	27	27	27.	4	nopreview	4	323	191	191	191	191	191	0
	305	.	.		4	nopreview	4	324						
