HumanPosition	AnonymizedPosition	AnonymizedToken	OriginalToken	ExperimentToken	Participant	Condition	TextNo	JointPosition	tt	fp	rp	ff	rb	sp
1	0	(	(	Sabra	12	nopreview	2	1	355	184	184	184	184	171
	1	@entity2	CNN		12	nopreview	2	2						
	2	)	)		12	nopreview	2	3						
	3	@entity1	Sabra		12	nopreview	2	4						
2			Dipping	Dipping	12	nopreview	2	5	696	209	654	209	483	487
3			Co.	Co.	12	nopreview	2	6	0	0	0	0	0	0
4	4	is	is	is	12	nopreview	2	7	389	234	234	234	234	155
5	5	recalling	recalling	recalling	12	nopreview	2	8	279	279	279	279	279	0
6	6	30,000	30,000	30,000	12	nopreview	2	9	455	269	269	269	269	186
7	7	cases	cases	cases	12	nopreview	2	10	179	179	179	179	179	0
8	8	of	of	of	12	nopreview	2	11	188	0	0	0	0	188
9	9	hummus	hummus	hummus	12	nopreview	2	12	578	377	377	165	377	201
10	10	due	due	due	12	nopreview	2	13	240	240	240	240	240	0
11	11	to	to	to	12	nopreview	2	14	0	0	0	0	0	0
12	12	possible	possible	possible	12	nopreview	2	15	329	329	329	329	329	0
13	13	contamination	contamination	contamination	12	nopreview	2	16	335	335	335	335	335	0
14	14	with	with	with	12	nopreview	2	17	0	0	0	0	0	0
15	15	@entity6	Listeria	Listeria,	12	nopreview	2	18	478	478	478	285	478	0
	16	,	,		12	nopreview	2	19						
16	17	the	the	the	12	nopreview	2	20	0	0	0	0	0	0
17	18	@entity0	U.S.	U.S.	12	nopreview	2	21	0	0	0	0	0	0
18			Food	Food	12	nopreview	2	22	247	247	247	247	247	0
19			and	and	12	nopreview	2	23	0	0	0	0	0	0
20			Drug	Drug	12	nopreview	2	24	0	0	0	0	0	0
21			Administration	Administration	12	nopreview	2	25	206	206	206	206	206	0
22	19	said	said	said	12	nopreview	2	26	0	0	0	0	0	0
23	20	Wednesday	Wednesday	Wednesday.	12	nopreview	2	27	138	138	138	138	138	0
	21	.	.		12	nopreview	2	28						
24	22	The	The	The	12	nopreview	2	29	0	0	0	0	0	0
25	23	nationwide	nationwide	nationwide	12	nopreview	2	30	250	250	250	250	250	0
26	24	recall	recall	recall	12	nopreview	2	31	254	0	0	0	0	254
27	25	is	is	is	12	nopreview	2	32	0	0	0	0	0	0
28	26	voluntary	voluntary	voluntary.	12	nopreview	2	33	441	116	695	116	441	325
	27	.	.		12	nopreview	2	34						
29	28	So	So	So	12	nopreview	2	35	0	0	0	0	0	0
30	29	far	far	far,	12	nopreview	2	36	300	300	300	300	300	0
	30	,	,		12	nopreview	2	37						
31	31	no	no	no	12	nopreview	2	38	0	0	0	0	0	0
32	32	illnesses	illnesses	illnesses	12	nopreview	2	39	483	483	483	227	483	0
33	33	caused	caused	caused	12	nopreview	2	40	279	279	279	279	279	0
34	34	by	by	by	12	nopreview	2	41	0	0	0	0	0	0
35	35	the	the	the	12	nopreview	2	42	0	0	0	0	0	0
36	36	hummus	hummus	hummus	12	nopreview	2	43	370	370	370	207	370	0
37	37	have	have	have	12	nopreview	2	44	234	234	234	234	234	0
38	38	been	been	been	12	nopreview	2	45	0	0	0	0	0	0
39	39	reported	reported	reported.	12	nopreview	2	46	361	361	361	182	361	0
	40	.	.		12	nopreview	2	47						
40	41	The	The	The	12	nopreview	2	48	0	0	0	0	0	0
41	42	potential	potential	potential	12	nopreview	2	49	636	636	636	138	636	0
42	43	for	for	for	12	nopreview	2	50	0	0	0	0	0	0
43	44	contamination	contamination	contamination	12	nopreview	2	51	454	454	454	273	454	0
44	45	was	was	was	12	nopreview	2	52	0	0	0	0	0	0
45	46	discovered	discovered	discovered	12	nopreview	2	53	360	360	360	171	360	0
46	47	when	when	when	12	nopreview	2	54	0	0	0	0	0	0
47	48	a	a	a	12	nopreview	2	55	240	240	240	240	240	0
48	49	routine	routine	routine,	12	nopreview	2	56	197	197	197	197	197	0
	50	,	,		12	nopreview	2	57						
49	51	random	random	random	12	nopreview	2	58	405	320	320	320	320	85
50	52	sample	sample	sample	12	nopreview	2	59	666	534	751	534	666	132
51	53	collected	collected	collected	12	nopreview	2	60	231	0	0	0	0	231
52	54	at	at	at	12	nopreview	2	61	117	117	348	117	117	0
53	55	a	a	a	12	nopreview	2	62	0	0	0	0	0	0
54	56	@entity14	Michigan	Michigan	12	nopreview	2	63	312	312	312	312	312	0
55	57	store	store	store	12	nopreview	2	64	346	346	346	346	346	0
56	58	on	on	on	12	nopreview	2	65	0	0	0	0	0	0
57	59	March	March	March	12	nopreview	2	66	341	170	170	170	170	171
58	60	30	30	30	12	nopreview	2	67	284	284	284	284	284	0
59	61	tested	tested	tested	12	nopreview	2	68	170	0	0	0	0	170
60	62	positive	positive	positive	12	nopreview	2	69	653	237	237	237	237	416
61	63	for	for	for	12	nopreview	2	70	175	0	0	0	0	175
62	64	@entity6	Listeria	Listeria	12	nopreview	2	71	350	201	201	201	201	149
63	65	monocytogenes	monocytogenes	monocytogenes.	12	nopreview	2	72	581	313	313	313	313	268
	66	.	.		12	nopreview	2	73						
64	67	The	The	The	12	nopreview	2	74	0	0	0	0	0	0
65	68	@entity0	FDA	FDA	12	nopreview	2	75	203	0	0	0	0	203
66	69	issued	issued	issued	12	nopreview	2	76	766	0	0	0	0	766
67	70	a	a	a	12	nopreview	2	77	265	116	895	116	265	149
68	71	list	list	list	12	nopreview	2	78	368	151	151	151	151	217
69	72	of	of	of	12	nopreview	2	79	193	0	0	0	0	193
70	73	the	the	the	12	nopreview	2	80	0	0	0	0	0	0
71	74	products	products	products	12	nopreview	2	81	666	457	457	151	457	209
72	75	in	in	in	12	nopreview	2	82	0	0	0	0	0	0
73	76	the	the	the	12	nopreview	2	83	0	0	0	0	0	0
74	77	recall	recall	recall.	12	nopreview	2	84	519	250	250	250	250	269
	78	.	.		12	nopreview	2	85						
75	79	Anyone	Anyone	Anyone	12	nopreview	2	86	390	236	236	236	236	154
76	80	who	who	who	12	nopreview	2	87	162	162	162	162	162	0
77	81	has	has	has	12	nopreview	2	88	205	205	205	205	205	0
78	82	purchased	purchased	purchased	12	nopreview	2	89	198	198	198	198	198	0
79	83	any	any	any	12	nopreview	2	90	345	345	345	345	345	0
80	84	of	of	of	12	nopreview	2	91	0	0	0	0	0	0
81	85	the	the	the	12	nopreview	2	92	0	0	0	0	0	0
82	86	items	items	items	12	nopreview	2	93	324	324	324	118	324	0
83	87	is	is	is	12	nopreview	2	94	126	126	126	126	126	0
84	88	urged	urged	urged	12	nopreview	2	95	146	146	146	146	146	0
85	89	to	to	to	12	nopreview	2	96	0	0	0	0	0	0
86	90	dispose	dispose	dispose	12	nopreview	2	97	400	400	400	400	400	0
87	91	of	of	of	12	nopreview	2	98	0	0	0	0	0	0
88	92	or	or	or	12	nopreview	2	99	193	193	193	193	193	0
89	93	return	return	return	12	nopreview	2	100	215	215	215	215	215	0
90	94	it	it	it	12	nopreview	2	101	0	0	0	0	0	0
91	95	to	to	to	12	nopreview	2	102	0	0	0	0	0	0
92	96	the	the	the	12	nopreview	2	103	0	0	0	0	0	0
93	97	store	store	store	12	nopreview	2	104	442	442	442	218	442	0
94	98	for	for	for	12	nopreview	2	105	0	0	0	0	0	0
95	99	a	a	a	12	nopreview	2	106	214	214	214	214	214	0
96	100	full	full	full	12	nopreview	2	107	335	0	0	0	0	335
97	101	refund	refund	refund.	12	nopreview	2	108	319	319	319	184	319	0
	102	.	.		12	nopreview	2	109						
98	103	Listeria	Listeria	Listeria	12	nopreview	2	110	377	0	0	0	0	377
99	104	monocytogenes	monocytogenes	monocytogenes	12	nopreview	2	111	1088	134	713	134	468	954
100	105	can	can	can	12	nopreview	2	112	424	212	212	212	212	212
101	106	cause	cause	cause	12	nopreview	2	113	194	194	194	194	194	0
102	107	serious	serious	serious	12	nopreview	2	114	226	226	226	226	226	0
103	108	and	and	and	12	nopreview	2	115	0	0	0	0	0	0
104	109	sometimes	sometimes	sometimes	12	nopreview	2	116	307	307	307	307	307	0
105	110	fatal	fatal	fatal	12	nopreview	2	117	473	327	327	327	327	146
106	111	infections	infections	infections	12	nopreview	2	118	556	362	362	166	362	194
107	112	in	in	in	12	nopreview	2	119	0	0	0	0	0	0
108	113	young	young	young	12	nopreview	2	120	220	220	220	220	220	0
109	114	children	children	children,	12	nopreview	2	121	191	0	0	0	0	191
	115	,	,		12	nopreview	2	122						
110	116	frail	frail	frail	12	nopreview	2	123	276	124	467	124	276	152
111	117	or	or	or	12	nopreview	2	124	0	0	0	0	0	0
112	118	elderly	elderly	elderly	12	nopreview	2	125	247	247	247	247	247	0
113	119	people	people	people,	12	nopreview	2	126	0	0	0	0	0	0
	120	,	,		12	nopreview	2	127						
114	121	and	and	and	12	nopreview	2	128	0	0	0	0	0	0
115	122	others	others	others	12	nopreview	2	129	0	0	0	0	0	0
116	123	with	with	with	12	nopreview	2	130	0	0	0	0	0	0
117	124	weakened	weakened	weakened	12	nopreview	2	131	203	203	203	203	203	0
118	125	immune	immune	immune	12	nopreview	2	132	0	0	0	0	0	0
119	126	systems	systems	systems,	12	nopreview	2	133	146	146	146	146	146	0
	127	,	,		12	nopreview	2	134						
120	128	the	the	the	12	nopreview	2	135	0	0	0	0	0	0
121	129	@entity0	FDA	FDA	12	nopreview	2	136	385	385	385	285	385	0
122	130	says	says	says.	12	nopreview	2	137	220	0	0	0	0	220
	131	.	.		12	nopreview	2	138						
123	132	Although	Although	Although	12	nopreview	2	139	331	134	551	134	331	197
124	133	some	some	some	12	nopreview	2	140	224	224	224	224	224	0
125	134	people	people	people	12	nopreview	2	141	0	0	0	0	0	0
126	135	may	may	may	12	nopreview	2	142	0	0	0	0	0	0
127	136	suffer	suffer	suffer	12	nopreview	2	143	0	0	0	0	0	0
128	137	only	only	only	12	nopreview	2	144	0	0	0	0	0	0
129	138	short	short	short-term	12	nopreview	2	145	0	0	0	0	0	0
	139	-	-		12	nopreview	2	146						
	140	term	term		12	nopreview	2	147						
130	141	symptoms	symptoms	symptoms	12	nopreview	2	148	890	479	479	272	479	411
131	142	such	such	such	12	nopreview	2	149	0	0	0	0	0	0
132	143	as	as	as	12	nopreview	2	150	0	0	0	0	0	0
133	144	high	high	high	12	nopreview	2	151	0	0	0	0	0	0
134	145	fever	fever	fever,	12	nopreview	2	152	0	0	0	0	0	0
	146	,	,		12	nopreview	2	153						
135	147	severe	severe	severe	12	nopreview	2	154	0	0	0	0	0	0
136	148	headache	headache	headache,	12	nopreview	2	155	0	0	0	0	0	0
	149	,	,		12	nopreview	2	156						
137	150	nausea	nausea	nausea,	12	nopreview	2	157	0	0	0	0	0	0
	151	,	,		12	nopreview	2	158						
138	152	abdominal	abdominal	abdominal	12	nopreview	2	159	0	0	0	0	0	0
139	153	pain	pain	pain	12	nopreview	2	160	0	0	0	0	0	0
140	154	and	and	and	12	nopreview	2	161	0	0	0	0	0	0
141	155	diarrhea	diarrhea	diarrhea,	12	nopreview	2	162	0	0	0	0	0	0
	156	,	,		12	nopreview	2	163						
142	157	@entity6	Listeria	Listeria	12	nopreview	2	164	0	0	0	0	0	0
143	158	can	can	can	12	nopreview	2	165	0	0	0	0	0	0
144	159	also	also	also	12	nopreview	2	166	190	190	190	190	190	0
145	160	cause	cause	cause	12	nopreview	2	167	117	117	5840	117	117	0
146	161	miscarriages	miscarriages	miscarriages	12	nopreview	2	168	0	0	0	0	0	0
147	162	and	and	and	12	nopreview	2	169	0	0	0	0	0	0
148	163	stillbirths	stillbirths	stillbirths	12	nopreview	2	170	0	0	0	0	0	0
149	164	among	among	among	12	nopreview	2	171	0	0	0	0	0	0
150	165	pregnant	pregnant	pregnant	12	nopreview	2	172	0	0	0	0	0	0
151	166	women	women	women.	12	nopreview	2	173	0	0	0	0	0	0
	167	.	.		12	nopreview	2	174						
