HumanPosition	AnonymizedPosition	AnonymizedToken	OriginalToken	ExperimentToken	Participant	Condition	TextNo	JointPosition	tt	fp	rp	ff	rb	sp
0	0	@entity0	Alejandro	Alejandro	2	nopreview	12	1	883	0	0	0	0	883
2			Valverde	Valverde	2	nopreview	12	2	979	112	1139	112	797	867
3	1	successfully	successfully	successfully	2	nopreview	12	3	594	198	198	198	198	396
4	2	defended	defended	defended	2	nopreview	12	4	357	357	582	357	357	0
5	3	his	his	his	2	nopreview	12	5	312	312	312	312	312	0
6	4	@entity2	Fleche	Fleche	2	nopreview	12	6	303	303	303	191	303	0
7			Wallonne	Wallonne	2	nopreview	12	7	595	595	595	595	595	0
8	5	title	title	title	2	nopreview	12	8	574	574	574	574	574	0
9	6	on	on	on	2	nopreview	12	9	358	358	358	358	358	0
10	7	Wednesday	Wednesday	Wednesday	2	nopreview	12	10	744	744	744	168	744	0
11	8	as	as	as	2	nopreview	12	11	0	0	0	0	0	0
12	9	@entity3	Chris	Chris	2	nopreview	12	12	279	0	0	0	0	279
13			Froome	Froome	2	nopreview	12	13	782	167	843	167	564	615
14	10	finished	finished	finished	2	nopreview	12	14	777	426	426	426	426	351
15	11	back	back	back	2	nopreview	12	15	469	469	469	469	469	0
16	12	in	in	in	2	nopreview	12	16	408	189	189	189	189	219
17	13	123rd	123rd	123rd	2	nopreview	12	17	1002	418	756	418	537	584
18	14	after	after	after	2	nopreview	12	18	488	232	232	232	232	256
19	15	a	a	a	2	nopreview	12	19	166	0	0	0	0	166
20	16	fall	fall	fall.	2	nopreview	12	20	326	130	1355	130	130	196
	17	.	.		2	nopreview	12	21						
21	18	@entity4	Movistar	Movistar	2	nopreview	12	22	1797	725	725	163	725	1072
22	19	rider	rider	rider	2	nopreview	12	23	814	552	552	552	552	262
23	20	@entity0	Valverde	Valverde	2	nopreview	12	24	699	584	584	290	584	115
24	21	sprinted	sprinted	sprinted	2	nopreview	12	25	744	222	1153	222	744	522
25	22	to	to	to	2	nopreview	12	26	156	156	156	156	156	0
26	23	victory	victory	victory	2	nopreview	12	27	946	946	946	124	946	0
27	24	ahead	ahead	ahead	2	nopreview	12	28	397	397	397	241	397	0
28	25	of	of	of	2	nopreview	12	29	0	0	0	0	0	0
29	26	@entity6	Julian	Julian	2	nopreview	12	30	585	585	585	471	585	0
30			Alaphilippe	Alaphilippe	2	nopreview	12	31	1504	1188	1188	695	1188	316
31	27	and	and	and	2	nopreview	12	32	356	356	356	356	356	0
32	28	@entity7	Michael	Michael	2	nopreview	12	33	274	274	274	274	274	0
33			Albasini	Albasini	2	nopreview	12	34	1784	860	2238	249	1002	924
34	29	in	in	in	2	nopreview	12	35	354	0	0	0	0	354
35	30	a	a	a	2	nopreview	12	36	98	98	590	98	98	0
36	31	race	race	race	2	nopreview	12	37	221	221	687	221	221	0
37	32	which	which	which	2	nopreview	12	38	335	335	335	335	335	0
38	33	saw	saw	saw	2	nopreview	12	39	0	0	0	0	0	0
39	34	former	former	former	2	nopreview	12	40	148	148	148	148	148	0
40	35	winner	winner	winner	2	nopreview	12	41	413	0	0	0	0	413
41	36	@entity9	Philippe	Philippe	2	nopreview	12	42	986	128	951	128	538	858
42			Gilbert	Gilbert	2	nopreview	12	43	1176	475	475	475	475	701
43	37	pull	pull	pull	2	nopreview	12	44	1119	673	673	673	673	446
44	38	out	out	out	2	nopreview	12	45	302	302	302	302	302	0
45	39	after	after	after	2	nopreview	12	46	595	261	261	261	261	334
46	40	a	a	a	2	nopreview	12	47	0	0	0	0	0	0
47	41	bad	bad	bad	2	nopreview	12	48	402	176	176	176	176	226
48	42	crash	crash	crash	2	nopreview	12	49	379	179	179	179	179	200
49	43	some	some	some	2	nopreview	12	50	422	275	275	275	275	147
50	44	50	50	50	2	nopreview	12	51	382	0	0	0	0	382
51	45	kilometres	kilometres	kilometres	2	nopreview	12	52	641	155	483	155	322	486
52	46	from	from	from	2	nopreview	12	53	420	220	220	220	220	200
53	47	the	the	the	2	nopreview	12	54	152	152	708	152	152	0
54	48	end	end	end.	2	nopreview	12	55	0	0	0	0	0	0
	49	.	.		2	nopreview	12	56						
55	50	@entity3	Froome	Froome	2	nopreview	12	57	575	575	575	575	575	0
56	51	was	was	was	2	nopreview	12	58	194	194	194	194	194	0
57	52	involved	involved	involved	2	nopreview	12	59	498	133	133	133	133	365
58	53	in	in	in	2	nopreview	12	60	336	336	336	336	336	0
59	54	a	a	a	2	nopreview	12	61	0	0	0	0	0	0
60	55	crash	crash	crash	2	nopreview	12	62	196	0	0	0	0	196
61	56	in	in	in	2	nopreview	12	63	443	443	443	443	443	0
62	57	the	the	the	2	nopreview	12	64	556	172	172	172	172	384
63	58	final	final	final	2	nopreview	12	65	346	346	346	346	346	0
64	59	12	12	12	2	nopreview	12	66	457	168	168	168	168	289
65	60	kilometres	kilometres	kilometres	2	nopreview	12	67	419	204	204	204	204	215
66	61	but	but	but	2	nopreview	12	68	322	126	537	126	322	196
67	62	was	was	was	2	nopreview	12	69	278	278	278	278	278	0
68	63	able	able	able	2	nopreview	12	70	265	168	168	168	168	97
69	64	to	to	to	2	nopreview	12	71	192	192	192	192	192	0
70	65	get	get	get	2	nopreview	12	72	0	0	0	0	0	0
71	66	back	back	back	2	nopreview	12	73	474	474	474	299	474	0
72	67	on	on	on	2	nopreview	12	74	0	0	0	0	0	0
73	68	his	his	his	2	nopreview	12	75	0	0	0	0	0	0
74	69	bike	bike	bike	2	nopreview	12	76	667	0	0	0	0	667
75	70	and	and	and	2	nopreview	12	77	362	139	522	139	139	223
76	71	finish	finish	finish.	2	nopreview	12	78	305	167	626	167	305	138
	72	.	.		2	nopreview	12	79						
77	73	@entity14	Spain	Team	2	nopreview	12	80	539	234	234	234	234	305
	74	-s	-s		2	nopreview	12	81						
	75	@entity0	Alejandro		2	nopreview	12	82						
			Valverde		2	nopreview	12	83						
	76	(	(		2	nopreview	12	84						
	77	centre	centre		2	nopreview	12	85						
	78	)	)		2	nopreview	12	86						
	79	realises	realises		2	nopreview	12	87						
	80	he	he		2	nopreview	12	88						
78	81	-s	-s	Sky-s	2	nopreview	12	89	134	134	134	134	134	0
	82	done	done		2	nopreview	12	90						
	83	enough	enough		2	nopreview	12	91						
	84	to	to		2	nopreview	12	92						
79	85	claim	claim	sports	2	nopreview	12	93	780	616	616	470	616	164
	86	victory	victory		2	nopreview	12	94						
	87	in	in		2	nopreview	12	95						
	88	@entity17	Belgium		2	nopreview	12	96						
	89	-s	-s		2	nopreview	12	97						
	90	@entity2	Fleche		2	nopreview	12	98						
	91	@entity0	Wallonne		2	nopreview	12	99						
			Valverde		2	nopreview	12	100						
	92	(	(		2	nopreview	12	101						
	93	centre	centre		2	nopreview	12	102						
	94	)	)		2	nopreview	12	103						
	95	finished	finished		2	nopreview	12	104						
	96	ahead	ahead		2	nopreview	12	105						
	97	of	of		2	nopreview	12	106						
	98	@entity6	Julian		2	nopreview	12	107						
			Alaphilippe		2	nopreview	12	108						
	99	(	(		2	nopreview	12	109						
	100	left	left		2	nopreview	12	110						
	101	)	)		2	nopreview	12	111						
	102	and	and		2	nopreview	12	112						
	103	@entity7	Michael		2	nopreview	12	113						
			Albasini		2	nopreview	12	114						
	104	(	(		2	nopreview	12	115						
	105	right	right		2	nopreview	12	116						
	106	)	)		2	nopreview	12	117						
	107	on	on		2	nopreview	12	118						
	108	Wednesday	Wednesday		2	nopreview	12	119						
	109	@entity20	Team		2	nopreview	12	120						
			Sky		2	nopreview	12	121						
	110	-s	-s		2	nopreview	12	122						
	111	sports	sports		2	nopreview	12	123						
80	112	director	director	director	2	nopreview	12	124	408	301	301	301	301	107
81	113	@entity19	Gabriel	Gabriel	2	nopreview	12	125	1082	216	216	216	216	866
82			Rasch	Rasch	2	nopreview	12	126	1036	405	405	250	405	631
83	114	praised	praised	praised	2	nopreview	12	127	0	0	0	0	0	0
84	115	@entity3	Froome	Froome	2	nopreview	12	128	748	389	389	187	389	359
85	116	for	for	for	2	nopreview	12	129	284	173	173	173	173	111
86	117	finishing	finishing	finishing	2	nopreview	12	130	865	600	600	127	600	265
87	118	the	the	the	2	nopreview	12	131	145	145	145	145	145	0
88	119	race	race	race	2	nopreview	12	132	376	204	204	204	204	172
89	120	and	and	and	2	nopreview	12	133	261	0	0	0	0	261
90	121	said	said	said	2	nopreview	12	134	1096	480	909	480	648	616
91	122	he	he	he	2	nopreview	12	135	0	0	0	0	0	0
92	123	expects	expects	expects	2	nopreview	12	136	1032	250	2231	250	1032	782
93	124	the	the	the	2	nopreview	12	137	137	0	0	0	0	137
94	125	former	former	former	2	nopreview	12	138	206	206	343	206	206	0
95	126	@entity23	Tour	Tour	2	nopreview	12	139	567	295	295	295	295	272
96			de	de	2	nopreview	12	140	0	0	0	0	0	0
97			France	France	2	nopreview	12	141	403	154	154	154	154	249
98	127	winner	winner	winner	2	nopreview	12	142	348	348	348	163	348	0
99	128	will	will	will	2	nopreview	12	143	256	256	256	256	256	0
100	129	be	be	be	2	nopreview	12	144	0	0	0	0	0	0
101	130	fine	fine	fine	2	nopreview	12	145	0	0	0	0	0	0
102	131	to	to	to	2	nopreview	12	146	0	0	0	0	0	0
103	132	take	take	take	2	nopreview	12	147	409	409	409	206	409	0
104	133	part	part	part	2	nopreview	12	148	229	229	229	229	229	0
105	134	in	in	in	2	nopreview	12	149	0	0	0	0	0	0
106	135	the	the	the	2	nopreview	12	150	166	166	166	166	166	0
107	136	@entity25	Tour	Tour	2	nopreview	12	151	241	241	241	241	241	0
108			de	de	2	nopreview	12	152	0	0	0	0	0	0
109			Romandie	Romandie	2	nopreview	12	153	675	174	174	174	174	501
110	137	next	next	next	2	nopreview	12	154	197	197	450	197	197	0
111	138	week	week	week.	2	nopreview	12	155	0	0	0	0	0	0
	139	.	.		2	nopreview	12	156						
112	140	@entity19	Rasch	Rasch	2	nopreview	12	157	576	576	576	576	576	0
113	141	told	told	told	2	nopreview	12	158	513	339	339	339	339	174
114	142	@entity26	TeamSky.com	TeamSky.com:	2	nopreview	12	159	1072	773	773	350	773	299
115	143	:	:	-Chris	2	nopreview	12	160	907	259	259	259	259	648
	144	-	-		2	nopreview	12	161						
	145	@entity3	Chris		2	nopreview	12	162						
116	146	was	was	was	2	nopreview	12	163	316	172	172	172	172	144
117	147	pretty	pretty	pretty	2	nopreview	12	164	465	0	0	0	0	465
118	148	banged	banged	banged	2	nopreview	12	165	508	130	546	130	280	378
119	149	up	up	up	2	nopreview	12	166	116	0	0	0	0	116
120	150	but	but	but	2	nopreview	12	167	468	468	468	312	468	0
121	151	showed	showed	showed	2	nopreview	12	168	514	267	267	267	267	247
122	152	real	real	real	2	nopreview	12	169	212	212	212	212	212	0
123	153	courage	courage	courage	2	nopreview	12	170	429	429	429	429	429	0
124	154	to	to	to	2	nopreview	12	171	0	0	0	0	0	0
125	155	finish	finish	finish	2	nopreview	12	172	255	255	255	255	255	0
126	156	the	the	the	2	nopreview	12	173	242	242	242	242	242	0
127	157	race	race	race	2	nopreview	12	174	284	284	284	284	284	0
128	158	and	and	and	2	nopreview	12	175	0	0	0	0	0	0
129	159	we	we	we-ll	2	nopreview	12	176	462	462	462	232	462	0
	160	-ll	-ll		2	nopreview	12	177						
130	161	assess	assess	assess	2	nopreview	12	178	361	361	361	202	361	0
131	162	his	his	his	2	nopreview	12	179	200	200	200	200	200	0
132	163	injuries	injuries	injuries	2	nopreview	12	180	641	0	0	0	0	641
133	164	overnight	overnight	overnight.	2	nopreview	12	181	746	118	2901	118	746	628
	165	.	.		2	nopreview	12	182						
134	166	-	-	-He	2	nopreview	12	183	0	0	0	0	0	0
	167	He	He		2	nopreview	12	184						
135	168	has	has	hasn-t	2	nopreview	12	185	190	190	190	190	190	0
	169	n-t	n-t		2	nopreview	12	186						
136	170	needed	needed	needed	2	nopreview	12	187	245	245	245	245	245	0
137	171	to	to	to	2	nopreview	12	188	165	165	165	165	165	0
138	172	go	go	go	2	nopreview	12	189	140	140	140	140	140	0
139	173	to	to	to	2	nopreview	12	190	0	0	0	0	0	0
140	174	hospital	hospital	hospital	2	nopreview	12	191	303	303	303	303	303	0
141	175	and	and	and	2	nopreview	12	192	0	0	0	0	0	0
142	176	right	right	right	2	nopreview	12	193	469	469	469	138	469	0
143	177	now	now	now,	2	nopreview	12	194	0	0	0	0	0	0
	178	,	,		2	nopreview	12	195						
144	179	as	as	as	2	nopreview	12	196	275	158	158	158	158	117
145	180	things	things	things	2	nopreview	12	197	300	151	417	151	300	149
146	181	stand	stand	stand,	2	nopreview	12	198	178	0	0	0	0	178
	182	,	,		2	nopreview	12	199						
147	183	we	we	we-re	2	nopreview	12	200	338	0	0	0	0	338
	184	-re	-re		2	nopreview	12	201						
148	185	still	still	still	2	nopreview	12	202	350	117	633	117	117	233
149	186	expecting	expecting	expecting	2	nopreview	12	203	325	198	558	198	325	127
150	187	him	him	him	2	nopreview	12	204	210	210	210	210	210	0
151	188	to	to	to	2	nopreview	12	205	0	0	0	0	0	0
152	189	line	line	line	2	nopreview	12	206	223	223	223	223	223	0
153	190	up	up	up	2	nopreview	12	207	0	0	0	0	0	0
154	191	at	at	at	2	nopreview	12	208	190	0	0	0	0	190
155	192	the	the	the	2	nopreview	12	209	218	218	408	218	218	0
156	193	@entity25	Tour	Tour	2	nopreview	12	210	0	0	0	0	0	0
157			de	de	2	nopreview	12	211	249	249	249	249	249	0
158			Romandie	Romandie	2	nopreview	12	212	498	498	498	255	498	0
159	194	next	next	next	2	nopreview	12	213	169	0	0	0	0	169
160	195	Tuesday	Tuesday	Tuesday.-	2	nopreview	12	214	353	257	9883	257	353	96
	196	.	.		2	nopreview	12	215						
161	197	-	-	Team	2	nopreview	12	216	0	0	0	0	0	0
	198	@entity20	Team		2	nopreview	12	217						
162			Sky	Sky-s	2	nopreview	12	218	866	0	0	0	0	866
	199	-s	-s		2	nopreview	12	219						
163	200	@entity3	Chris	Chris	2	nopreview	12	220	245	0	0	0	0	245
164			Froome	Froome	2	nopreview	12	221	306	0	0	0	0	306
165	201	fell	fell	fell	2	nopreview	12	222	775	0	0	0	0	775
166	202	in	in	in	2	nopreview	12	223	0	0	0	0	0	0
167	203	the	the	the	2	nopreview	12	224	159	0	0	0	0	159
168	204	closing	closing	closing	2	nopreview	12	225	204	0	0	0	0	204
169	205	12km	12km	12km	2	nopreview	12	226	221	0	0	0	0	221
170	206	but	but	but	2	nopreview	12	227	201	0	0	0	0	201
171	207	fought	fought	fought	2	nopreview	12	228	159	0	0	0	0	159
172	208	on	on	on	2	nopreview	12	229	283	0	0	0	0	283
173	209	to	to	to	2	nopreview	12	230	0	0	0	0	0	0
174	210	finish	finish	finish	2	nopreview	12	231	233	0	0	0	0	233
175	211	the	the	the	2	nopreview	12	232	169	0	0	0	0	169
176	212	race	race	race	2	nopreview	12	233	0	0	0	0	0	0
177	213	despite	despite	despite	2	nopreview	12	234	288	0	0	0	0	288
178	214	being	being	being	2	nopreview	12	235	489	121	4126	121	489	368
179	215	-	-	-banged	2	nopreview	12	236	304	304	776	304	304	0
	216	banged	banged		2	nopreview	12	237						
180	217	up	up	up-.	2	nopreview	12	238	0	0	0	0	0	0
	218	-	-		2	nopreview	12	239						
