b_Intercept 	 5.329073 	 0.02913325 	 1 
b_HumanPosition.Centered 	 -0.004634767 	 0.004854244 	 0.16475 
b_Condition.dummy.Centered 	 0.1399947 	 0.0534795 	 0.992 
b_LogWordFreq.Centered 	 -0.02707163 	 0.006273662 	 0 
b_IsNamedEntity.Centered 	 -0.0289512 	 0.01159164 	 0.0085 
b_IsCorrectAnswer.Centered 	 -0.04574324 	 0.04508712 	 0.15125 
b_Surprisal.Centered 	 0.01565915 	 0.003253803 	 1 
b_ExperimentTokenLength.Centered 	 0.06204977 	 0.007405268 	 1 
b_Condition.dummy.Centered:ExperimentTokenLength.Centered 	 0.0301644 	 0.01332138 	 0.9845 
b_LogWordFreq.Centered:IsNamedEntity.Centered 	 -0.03934256 	 0.01182525 	 0.00025 
b_LogWordFreq.Centered:ExperimentTokenLength.Centered 	 -0.002656498 	 0.003399075 	 0.20625 
b_Condition.dummy.Centered:LogWordFreq.Centered 	 -0.01843251 	 0.01085612 	 0.04175 
b_LogWordFreq.Centered:IsCorrectAnswer.Centered 	 -0.07203736 	 0.03325906 	 0.01675 
b_HumanPosition.Centered:IsCorrectAnswer.Centered 	 -0.03761851 	 0.03366367 	 0.129 
b_IsCorrectAnswer.Centered:Surprisal.Centered 	 -0.02605532 	 0.01855514 	 0.07875 
b_HumanPosition.Centered:LogWordFreq.Centered 	 0.004901533 	 0.002784299 	 0.95475 
b_LogWordFreq.Centered:Surprisal.Centered 	 0.002311688 	 0.002555701 	 0.821 
