HumanPosition	AnonymizedPosition	AnonymizedToken	OriginalToken	ExperimentToken	Participant	Condition	TextNo	JointPosition	tt	fp	rp	ff	rb	sp
0	0	@entity0	Alejandro	Alejandro	1	preview	12	1	124	124	124	124	124	0
2			Valverde	Valverde	1	preview	12	2	105	105	105	105	105	0
3	1	successfully	successfully	successfully	1	preview	12	3	182	182	182	182	182	0
4	2	defended	defended	defended	1	preview	12	4	153	153	153	153	153	0
5	3	his	his	his	1	preview	12	5	0	0	0	0	0	0
6	4	@entity2	Fleche	Fleche	1	preview	12	6	163	163	163	163	163	0
7			Wallonne	Wallonne	1	preview	12	7	121	121	121	121	121	0
8	5	title	title	title	1	preview	12	8	0	0	0	0	0	0
9	6	on	on	on	1	preview	12	9	0	0	0	0	0	0
10	7	Wednesday	Wednesday	Wednesday	1	preview	12	10	0	0	0	0	0	0
11	8	as	as	as	1	preview	12	11	0	0	0	0	0	0
12	9	@entity3	Chris	Chris	1	preview	12	12	0	0	0	0	0	0
13			Froome	Froome	1	preview	12	13	325	0	0	0	0	325
14	10	finished	finished	finished	1	preview	12	14	0	0	0	0	0	0
15	11	back	back	back	1	preview	12	15	119	0	0	0	0	119
16	12	in	in	in	1	preview	12	16	117	0	0	0	0	117
17	13	123rd	123rd	123rd	1	preview	12	17	0	0	0	0	0	0
18	14	after	after	after	1	preview	12	18	132	0	0	0	0	132
19	15	a	a	a	1	preview	12	19	0	0	0	0	0	0
20	16	fall	fall	fall.	1	preview	12	20	135	0	0	0	0	135
	17	.	.		1	preview	12	21						
21	18	@entity4	Movistar	Movistar	1	preview	12	22	223	0	0	0	0	223
22	19	rider	rider	rider	1	preview	12	23	0	0	0	0	0	0
23	20	@entity0	Valverde	Valverde	1	preview	12	24	225	225	1276	225	225	0
24	21	sprinted	sprinted	sprinted	1	preview	12	25	0	0	0	0	0	0
25	22	to	to	to	1	preview	12	26	0	0	0	0	0	0
26	23	victory	victory	victory	1	preview	12	27	0	0	0	0	0	0
27	24	ahead	ahead	ahead	1	preview	12	28	137	0	0	0	0	137
28	25	of	of	of	1	preview	12	29	0	0	0	0	0	0
29	26	@entity6	Julian	Julian	1	preview	12	30	144	0	0	0	0	144
30			Alaphilippe	Alaphilippe	1	preview	12	31	189	0	0	0	0	189
31	27	and	and	and	1	preview	12	32	0	0	0	0	0	0
32	28	@entity7	Michael	Michael	1	preview	12	33	180	0	0	0	0	180
33			Albasini	Albasini	1	preview	12	34	292	0	0	0	0	292
34	29	in	in	in	1	preview	12	35	151	0	0	0	0	151
35	30	a	a	a	1	preview	12	36	0	0	0	0	0	0
36	31	race	race	race	1	preview	12	37	163	0	0	0	0	163
37	32	which	which	which	1	preview	12	38	301	143	143	143	143	158
38	33	saw	saw	saw	1	preview	12	39	0	0	0	0	0	0
39	34	former	former	former	1	preview	12	40	125	125	1539	125	125	0
40	35	winner	winner	winner	1	preview	12	41	0	0	0	0	0	0
41	36	@entity9	Philippe	Philippe	1	preview	12	42	345	0	0	0	0	345
42			Gilbert	Gilbert	1	preview	12	43	115	0	0	0	0	115
43	37	pull	pull	pull	1	preview	12	44	0	0	0	0	0	0
44	38	out	out	out	1	preview	12	45	160	0	0	0	0	160
45	39	after	after	after	1	preview	12	46	0	0	0	0	0	0
46	40	a	a	a	1	preview	12	47	0	0	0	0	0	0
47	41	bad	bad	bad	1	preview	12	48	162	0	0	0	0	162
48	42	crash	crash	crash	1	preview	12	49	0	0	0	0	0	0
49	43	some	some	some	1	preview	12	50	133	0	0	0	0	133
50	44	50	50	50	1	preview	12	51	0	0	0	0	0	0
51	45	kilometres	kilometres	kilometres	1	preview	12	52	307	138	138	138	138	169
52	46	from	from	from	1	preview	12	53	135	135	1219	135	135	0
53	47	the	the	the	1	preview	12	54	188	188	188	188	188	0
54	48	end	end	end.	1	preview	12	55	0	0	0	0	0	0
	49	.	.		1	preview	12	56						
55	50	@entity3	Froome	Froome	1	preview	12	57	0	0	0	0	0	0
56	51	was	was	was	1	preview	12	58	376	0	0	0	0	376
57	52	involved	involved	involved	1	preview	12	59	530	0	0	0	0	530
58	53	in	in	in	1	preview	12	60	0	0	0	0	0	0
59	54	a	a	a	1	preview	12	61	127	127	356	127	127	0
60	55	crash	crash	crash	1	preview	12	62	291	146	146	146	146	145
61	56	in	in	in	1	preview	12	63	0	0	0	0	0	0
62	57	the	the	the	1	preview	12	64	124	124	124	124	124	0
63	58	final	final	final	1	preview	12	65	138	0	0	0	0	138
64	59	12	12	12	1	preview	12	66	145	145	145	145	145	0
65	60	kilometres	kilometres	kilometres	1	preview	12	67	524	177	177	177	177	347
66	61	but	but	but	1	preview	12	68	149	0	0	0	0	149
67	62	was	was	was	1	preview	12	69	165	0	0	0	0	165
68	63	able	able	able	1	preview	12	70	155	155	155	155	155	0
69	64	to	to	to	1	preview	12	71	176	0	0	0	0	176
70	65	get	get	get	1	preview	12	72	161	161	1437	161	161	0
71	66	back	back	back	1	preview	12	73	90	90	90	90	90	0
72	67	on	on	on	1	preview	12	74	0	0	0	0	0	0
73	68	his	his	his	1	preview	12	75	0	0	0	0	0	0
74	69	bike	bike	bike	1	preview	12	76	106	0	0	0	0	106
75	70	and	and	and	1	preview	12	77	0	0	0	0	0	0
76	71	finish	finish	finish.	1	preview	12	78	128	128	755	128	128	0
	72	.	.		1	preview	12	79						
77	73	@entity14	Spain	Team	1	preview	12	80	152	152	152	152	152	0
	74	-s	-s		1	preview	12	81						
	75	@entity0	Alejandro		1	preview	12	82						
			Valverde		1	preview	12	83						
	76	(	(		1	preview	12	84						
	77	centre	centre		1	preview	12	85						
	78	)	)		1	preview	12	86						
	79	realises	realises		1	preview	12	87						
	80	he	he		1	preview	12	88						
78	81	-s	-s	Sky-s	1	preview	12	89	220	220	220	220	220	0
	82	done	done		1	preview	12	90						
	83	enough	enough		1	preview	12	91						
	84	to	to		1	preview	12	92						
79	85	claim	claim	sports	1	preview	12	93	145	145	145	145	145	0
	86	victory	victory		1	preview	12	94						
	87	in	in		1	preview	12	95						
	88	@entity17	Belgium		1	preview	12	96						
	89	-s	-s		1	preview	12	97						
	90	@entity2	Fleche		1	preview	12	98						
	91	@entity0	Wallonne		1	preview	12	99						
			Valverde		1	preview	12	100						
	92	(	(		1	preview	12	101						
	93	centre	centre		1	preview	12	102						
	94	)	)		1	preview	12	103						
	95	finished	finished		1	preview	12	104						
	96	ahead	ahead		1	preview	12	105						
	97	of	of		1	preview	12	106						
	98	@entity6	Julian		1	preview	12	107						
			Alaphilippe		1	preview	12	108						
	99	(	(		1	preview	12	109						
	100	left	left		1	preview	12	110						
	101	)	)		1	preview	12	111						
	102	and	and		1	preview	12	112						
	103	@entity7	Michael		1	preview	12	113						
			Albasini		1	preview	12	114						
	104	(	(		1	preview	12	115						
	105	right	right		1	preview	12	116						
	106	)	)		1	preview	12	117						
	107	on	on		1	preview	12	118						
	108	Wednesday	Wednesday		1	preview	12	119						
	109	@entity20	Team		1	preview	12	120						
			Sky		1	preview	12	121						
	110	-s	-s		1	preview	12	122						
	111	sports	sports		1	preview	12	123						
80	112	director	director	director	1	preview	12	124	140	140	140	140	140	0
81	113	@entity19	Gabriel	Gabriel	1	preview	12	125	139	0	0	0	0	139
82			Rasch	Rasch	1	preview	12	126	188	188	188	188	188	0
83	114	praised	praised	praised	1	preview	12	127	182	0	0	0	0	182
84	115	@entity3	Froome	Froome	1	preview	12	128	682	434	434	434	434	248
85	116	for	for	for	1	preview	12	129	103	103	103	103	103	0
86	117	finishing	finishing	finishing	1	preview	12	130	351	0	0	0	0	351
87	118	the	the	the	1	preview	12	131	635	0	0	0	0	635
88	119	race	race	race	1	preview	12	132	399	0	0	0	0	399
89	120	and	and	and	1	preview	12	133	123	0	0	0	0	123
90	121	said	said	said	1	preview	12	134	328	84	481	84	220	244
91	122	he	he	he	1	preview	12	135	142	0	0	0	0	142
92	123	expects	expects	expects	1	preview	12	136	795	0	0	0	0	795
93	124	the	the	the	1	preview	12	137	176	176	176	176	176	0
94	125	former	former	former	1	preview	12	138	555	0	0	0	0	555
95	126	@entity23	Tour	Tour	1	preview	12	139	0	0	0	0	0	0
96			de	de	1	preview	12	140	117	0	0	0	0	117
97			France	France	1	preview	12	141	306	306	670	143	306	0
98	127	winner	winner	winner	1	preview	12	142	229	229	229	229	229	0
99	128	will	will	will	1	preview	12	143	295	0	0	0	0	295
100	129	be	be	be	1	preview	12	144	295	183	183	183	183	112
101	130	fine	fine	fine	1	preview	12	145	0	0	0	0	0	0
102	131	to	to	to	1	preview	12	146	0	0	0	0	0	0
103	132	take	take	take	1	preview	12	147	196	0	0	0	0	196
104	133	part	part	part	1	preview	12	148	261	0	0	0	0	261
105	134	in	in	in	1	preview	12	149	0	0	0	0	0	0
106	135	the	the	the	1	preview	12	150	0	0	0	0	0	0
107	136	@entity25	Tour	Tour	1	preview	12	151	125	125	4158	125	125	0
108			de	de	1	preview	12	152	306	195	195	195	195	111
109			Romandie	Romandie	1	preview	12	153	1819	461	1221	323	1110	1358
110	137	next	next	next	1	preview	12	154	259	259	259	259	259	0
111	138	week	week	week.	1	preview	12	155	0	0	0	0	0	0
	139	.	.		1	preview	12	156						
112	140	@entity19	Rasch	Rasch	1	preview	12	157	190	190	190	190	190	0
113	141	told	told	told	1	preview	12	158	0	0	0	0	0	0
114	142	@entity26	TeamSky.com	TeamSky.com:	1	preview	12	159	269	269	269	269	269	0
115	143	:	:	-Chris	1	preview	12	160	429	429	429	141	429	0
	144	-	-		1	preview	12	161						
	145	@entity3	Chris		1	preview	12	162						
116	146	was	was	was	1	preview	12	163	134	134	134	134	134	0
117	147	pretty	pretty	pretty	1	preview	12	164	0	0	0	0	0	0
118	148	banged	banged	banged	1	preview	12	165	521	0	0	0	0	521
119	149	up	up	up	1	preview	12	166	0	0	0	0	0	0
120	150	but	but	but	1	preview	12	167	263	108	784	108	263	155
121	151	showed	showed	showed	1	preview	12	168	206	206	206	206	206	0
122	152	real	real	real	1	preview	12	169	0	0	0	0	0	0
123	153	courage	courage	courage	1	preview	12	170	157	157	157	157	157	0
124	154	to	to	to	1	preview	12	171	0	0	0	0	0	0
125	155	finish	finish	finish	1	preview	12	172	134	134	134	134	134	0
126	156	the	the	the	1	preview	12	173	0	0	0	0	0	0
127	157	race	race	race	1	preview	12	174	0	0	0	0	0	0
128	158	and	and	and	1	preview	12	175	167	167	167	167	167	0
129	159	we	we	we-ll	1	preview	12	176	0	0	0	0	0	0
	160	-ll	-ll		1	preview	12	177						
130	161	assess	assess	assess	1	preview	12	178	150	150	150	150	150	0
131	162	his	his	his	1	preview	12	179	0	0	0	0	0	0
132	163	injuries	injuries	injuries	1	preview	12	180	0	0	0	0	0	0
133	164	overnight	overnight	overnight.	1	preview	12	181	140	140	140	140	140	0
	165	.	.		1	preview	12	182						
134	166	-	-	-He	1	preview	12	183	0	0	0	0	0	0
	167	He	He		1	preview	12	184						
135	168	has	has	hasn-t	1	preview	12	185	159	159	159	159	159	0
	169	n-t	n-t		1	preview	12	186						
136	170	needed	needed	needed	1	preview	12	187	0	0	0	0	0	0
137	171	to	to	to	1	preview	12	188	0	0	0	0	0	0
138	172	go	go	go	1	preview	12	189	151	151	151	151	151	0
139	173	to	to	to	1	preview	12	190	0	0	0	0	0	0
140	174	hospital	hospital	hospital	1	preview	12	191	346	152	1055	152	346	194
141	175	and	and	and	1	preview	12	192	0	0	0	0	0	0
142	176	right	right	right	1	preview	12	193	0	0	0	0	0	0
143	177	now	now	now,	1	preview	12	194	159	159	159	159	159	0
	178	,	,		1	preview	12	195						
144	179	as	as	as	1	preview	12	196	0	0	0	0	0	0
145	180	things	things	things	1	preview	12	197	161	161	161	161	161	0
146	181	stand	stand	stand,	1	preview	12	198	0	0	0	0	0	0
	182	,	,		1	preview	12	199						
147	183	we	we	we-re	1	preview	12	200	0	0	0	0	0	0
	184	-re	-re		1	preview	12	201						
148	185	still	still	still	1	preview	12	202	0	0	0	0	0	0
149	186	expecting	expecting	expecting	1	preview	12	203	0	0	0	0	0	0
150	187	him	him	him	1	preview	12	204	0	0	0	0	0	0
151	188	to	to	to	1	preview	12	205	0	0	0	0	0	0
152	189	line	line	line	1	preview	12	206	0	0	0	0	0	0
153	190	up	up	up	1	preview	12	207	0	0	0	0	0	0
154	191	at	at	at	1	preview	12	208	0	0	0	0	0	0
155	192	the	the	the	1	preview	12	209	0	0	0	0	0	0
156	193	@entity25	Tour	Tour	1	preview	12	210	204	0	0	0	0	204
157			de	de	1	preview	12	211	0	0	0	0	0	0
158			Romandie	Romandie	1	preview	12	212	148	148	148	148	148	0
159	194	next	next	next	1	preview	12	213	146	146	350	146	146	0
160	195	Tuesday	Tuesday	Tuesday.-	1	preview	12	214	0	0	0	0	0	0
	196	.	.		1	preview	12	215						
161	197	-	-	Team	1	preview	12	216	0	0	0	0	0	0
	198	@entity20	Team		1	preview	12	217						
162			Sky	Sky-s	1	preview	12	218	265	0	0	0	0	265
	199	-s	-s		1	preview	12	219						
163	200	@entity3	Chris	Chris	1	preview	12	220	0	0	0	0	0	0
164			Froome	Froome	1	preview	12	221	0	0	0	0	0	0
165	201	fell	fell	fell	1	preview	12	222	0	0	0	0	0	0
166	202	in	in	in	1	preview	12	223	0	0	0	0	0	0
167	203	the	the	the	1	preview	12	224	130	0	0	0	0	130
168	204	closing	closing	closing	1	preview	12	225	0	0	0	0	0	0
169	205	12km	12km	12km	1	preview	12	226	0	0	0	0	0	0
170	206	but	but	but	1	preview	12	227	255	0	0	0	0	255
171	207	fought	fought	fought	1	preview	12	228	0	0	0	0	0	0
172	208	on	on	on	1	preview	12	229	0	0	0	0	0	0
173	209	to	to	to	1	preview	12	230	0	0	0	0	0	0
174	210	finish	finish	finish	1	preview	12	231	259	0	0	0	0	259
175	211	the	the	the	1	preview	12	232	0	0	0	0	0	0
176	212	race	race	race	1	preview	12	233	0	0	0	0	0	0
177	213	despite	despite	despite	1	preview	12	234	138	0	0	0	0	138
178	214	being	being	being	1	preview	12	235	157	0	0	0	0	157
179	215	-	-	-banged	1	preview	12	236	345	111	1549	111	345	234
	216	banged	banged		1	preview	12	237						
180	217	up	up	up-.	1	preview	12	238	0	0	0	0	0	0
	218	-	-		1	preview	12	239						
