HumanPosition	AnonymizedPosition	AnonymizedToken	OriginalToken	ExperimentToken	Participant	Condition	TextNo	JointPosition	tt	fp	rp	ff	rb	sp
0	0	@entity0	Raheem	Raheem	10	nopreview	10	1	268	268	268	135	268	0
2			Sterling	Sterling	10	nopreview	10	2	138	138	138	138	138	0
3	1	has	has	has	10	nopreview	10	3	0	0	406	0	0	0
4	2	admitted	admitted	admitted	10	nopreview	10	4	235	235	235	235	235	0
5	3	he	he	he	10	nopreview	10	5	0	0	0	0	0	0
6	4	is	is	is	10	nopreview	10	6	0	0	0	0	0	0
7	5	not	not	not	10	nopreview	10	7	118	118	118	118	118	0
8	6	ready	ready	ready	10	nopreview	10	8	0	0	0	0	0	0
9	7	to	to	to	10	nopreview	10	9	223	223	223	223	223	0
10	8	sign	sign	sign	10	nopreview	10	10	0	0	0	0	0	0
11	9	a	a	a	10	nopreview	10	11	163	163	163	163	163	0
12	10	new	new	new	10	nopreview	10	12	326	0	0	0	0	326
13	11	contract	contract	contract	10	nopreview	10	13	782	132	132	132	132	650
14	12	at	at	at	10	nopreview	10	14	0	0	0	0	0	0
15	13	@entity3	Liverpool	Liverpool	10	nopreview	10	15	629	480	480	149	480	149
16	14	deal	deal	deal	10	nopreview	10	16	628	0	0	0	0	628
17	15	despite	despite	despite	10	nopreview	10	17	1546	0	0	0	0	1546
18	16	being	being	being	10	nopreview	10	18	415	93	3714	93	415	322
19	17	offered	offered	offered	10	nopreview	10	19	0	0	0	0	0	0
20	18	a	a	a	10	nopreview	10	20	0	0	0	0	0	0
21	19	£	£	£100,000-a-week	10	nopreview	10	21	395	395	395	200	395	0
	20	100,000	100,000		10	nopreview	10	22						
	21	-	-		10	nopreview	10	23						
	22	a	a		10	nopreview	10	24						
	23	-	-		10	nopreview	10	25						
	24	week	week		10	nopreview	10	26						
22	25	deal	deal	deal	10	nopreview	10	27	359	0	0	0	0	359
23	26	to	to	to	10	nopreview	10	28	105	105	464	105	105	0
24	27	stay	stay	stay	10	nopreview	10	29	169	169	169	169	169	0
25	28	with	with	with	10	nopreview	10	30	0	0	0	0	0	0
26	29	the	the	the	10	nopreview	10	31	0	0	0	0	0	0
27	30	@entity6	Merseyside	Merseyside	10	nopreview	10	32	365	365	365	204	365	0
28	31	club	club	club.	10	nopreview	10	33	108	108	108	108	108	0
	32	.	.		10	nopreview	10	34						
29	33	The	The	The	10	nopreview	10	35	0	0	0	0	0	0
30	34	20	20	20-year-old	10	nopreview	10	36	306	306	306	131	306	0
	35	-	-		10	nopreview	10	37						
	36	year	year		10	nopreview	10	38						
	37	-	-		10	nopreview	10	39						
	38	old	old		10	nopreview	10	40						
31	39	wideman	wideman	wideman	10	nopreview	10	41	290	290	290	290	290	0
32	40	edged	edged	edged	10	nopreview	10	42	359	359	359	176	359	0
33	41	closer	closer	closer	10	nopreview	10	43	229	229	229	229	229	0
34	42	towards	towards	towards	10	nopreview	10	44	204	0	0	0	0	204
35	43	an	an	an	10	nopreview	10	45	159	0	0	0	0	159
36	44	@entity9	Anfield	Anfield	10	nopreview	10	46	147	147	510	147	147	0
37	45	exit	exit	exit	10	nopreview	10	47	202	202	202	202	202	0
38	46	after	after	after	10	nopreview	10	48	120	0	0	0	0	120
39	47	revealing	revealing	revealing	10	nopreview	10	49	178	178	298	178	178	0
40	48	in	in	in	10	nopreview	10	50	83	83	83	83	83	0
41	49	an	an	an	10	nopreview	10	51	0	0	0	0	0	0
42	50	interview	interview	interview	10	nopreview	10	52	171	0	0	0	0	171
43	51	with	with	with	10	nopreview	10	53	107	107	278	107	107	0
44	52	the	the	the	10	nopreview	10	54	0	0	0	0	0	0
45	53	@entity11	BBC	BBC	10	nopreview	10	55	161	161	161	161	161	0
46	54	on	on	on	10	nopreview	10	56	0	0	0	0	0	0
47	55	Wednesday	Wednesday	Wednesday	10	nopreview	10	57	197	197	197	197	197	0
48	56	that	that	that	10	nopreview	10	58	240	240	240	240	240	0
49	57	he	he	he	10	nopreview	10	59	0	0	0	0	0	0
50	58	would	would	would	10	nopreview	10	60	353	159	159	159	159	194
51	59	have	have	have	10	nopreview	10	61	186	0	0	0	0	186
52	60	signed	signed	signed	10	nopreview	10	62	202	202	582	202	202	0
53	61	for	for	for	10	nopreview	10	63	225	0	0	0	0	225
54	62	a	a	a	10	nopreview	10	64	0	0	0	0	0	0
55	63	lot	lot	lot	10	nopreview	10	65	346	346	571	217	346	0
56	64	less	less	less	10	nopreview	10	66	548	0	0	0	0	548
57	65	a	a	a	10	nopreview	10	67	200	200	200	200	200	0
58	66	year	year	year	10	nopreview	10	68	173	0	0	0	0	173
59	67	ago	ago	ago.	10	nopreview	10	69	130	0	0	0	0	130
	68	.	.		10	nopreview	10	70						
60	69	However	However	However,	10	nopreview	10	71	451	146	1302	146	451	305
	70	,	,		10	nopreview	10	72						
61	71	despite	despite	despite	10	nopreview	10	73	191	191	191	191	191	0
62	72	being	being	being	10	nopreview	10	74	0	0	0	0	0	0
63	73	one	one	one	10	nopreview	10	75	224	224	224	224	224	0
64	74	of	of	of	10	nopreview	10	76	0	0	0	0	0	0
65	75	@entity3	Liverpool	Liverpool-s	10	nopreview	10	77	136	136	136	136	136	0
	76	-s	-s		10	nopreview	10	78						
66	77	star	star	star	10	nopreview	10	79	251	251	251	251	251	0
67	78	men	men	men,	10	nopreview	10	80	267	267	267	267	267	0
	79	,	,		10	nopreview	10	81						
68	80	@entity0	Sterling	Sterling	10	nopreview	10	82	104	104	104	104	104	0
69	81	has	has	has	10	nopreview	10	83	0	0	0	0	0	0
70	82	struggled	struggled	struggled	10	nopreview	10	84	505	505	505	218	505	0
71	83	to	to	to	10	nopreview	10	85	0	0	0	0	0	0
72	84	repeat	repeat	repeat	10	nopreview	10	86	185	185	185	185	185	0
73	85	the	the	the	10	nopreview	10	87	0	0	0	0	0	0
74	86	impressive	impressive	impressive	10	nopreview	10	88	173	173	173	173	173	0
75	87	form	form	form	10	nopreview	10	89	199	0	0	0	0	199
76	88	he	he	he	10	nopreview	10	90	156	0	0	0	0	156
77	89	showed	showed	showed	10	nopreview	10	91	418	163	319	163	163	255
78	90	for	for	for	10	nopreview	10	92	0	0	0	0	0	0
79	91	the	the	the	10	nopreview	10	93	0	0	0	0	0	0
80	92	@entity18	Reds	Reds	10	nopreview	10	94	332	173	786	173	332	159
81	93	last	last	last	10	nopreview	10	95	164	0	0	0	0	164
82	94	season	season	season.	10	nopreview	10	96	557	201	721	201	557	356
	95	.	.		10	nopreview	10	97						
83	96	The	The	The	10	nopreview	10	98	0	0	0	0	0	0
84	97	@entity19	England	England	10	nopreview	10	99	187	187	187	187	187	0
85	98	international	international	international	10	nopreview	10	100	326	326	326	115	326	0
86	99	has	has	has	10	nopreview	10	101	0	0	0	0	0	0
87	100	managed	managed	managed	10	nopreview	10	102	220	220	220	220	220	0
88	101	just	just	just	10	nopreview	10	103	0	0	0	0	0	0
89	102	six	six	six	10	nopreview	10	104	186	186	186	186	186	0
90	103	goals	goals	goals	10	nopreview	10	105	0	0	0	0	0	0
91	104	this	this	this	10	nopreview	10	106	0	0	0	0	0	0
92	105	season	season	season	10	nopreview	10	107	190	190	190	190	190	0
93	106	-	-	-	10	nopreview	10	108	0	0	0	0	0	0
94	107	one	one	one	10	nopreview	10	109	0	0	0	0	0	0
95	108	less	less	less	10	nopreview	10	110	277	0	0	0	0	277
96	109	than	than	than	10	nopreview	10	111	151	151	428	151	151	0
97	110	@entity23	Stoke	Stoke	10	nopreview	10	112	167	167	167	167	167	0
98	111	frontman	frontman	frontman	10	nopreview	10	113	142	142	142	142	142	0
99	112	@entity22	Jon	Jon	10	nopreview	10	114	0	0	0	0	0	0
100			Walters	Walters	10	nopreview	10	115	455	455	455	276	455	0
101	113	-	-	-	10	nopreview	10	116	0	0	0	0	0	0
102	114	while	while	while	10	nopreview	10	117	135	0	0	0	0	135
103	115	his	his	his	10	nopreview	10	118	149	149	284	149	149	0
104	116	conversion	conversion	conversion	10	nopreview	10	119	0	0	0	0	0	0
105	117	rate	rate	rate	10	nopreview	10	120	332	332	332	187	332	0
106	118	and	and	and	10	nopreview	10	121	0	0	0	0	0	0
107	119	minutes	minutes	minutes	10	nopreview	10	122	280	280	280	280	280	0
108	120	per	per	per	10	nopreview	10	123	0	0	0	0	0	0
109	121	goal	goal	goal	10	nopreview	10	124	288	288	288	288	288	0
110	122	ratio	ratio	ratio	10	nopreview	10	125	189	0	0	0	0	189
111	123	have	have	have	10	nopreview	10	126	182	182	371	182	182	0
112	124	worsened	worsened	worsened.	10	nopreview	10	127	390	390	390	248	390	0
	125	as	as		10	nopreview	10	128						
113	126	the	the	Raheem	10	nopreview	10	129	326	0	0	0	0	326
	127	graphic	graphic		10	nopreview	10	130						
	128	below	below		10	nopreview	10	131						
	129	shows	shows		10	nopreview	10	132						
	130	.	.		10	nopreview	10	133						
	131	@entity0	Raheem		10	nopreview	10	134						
114			Sterling	Sterling	10	nopreview	10	135	150	0	0	0	0	150
115	132	has	has	has	10	nopreview	10	136	118	118	424	118	118	0
116	133	managed	managed	managed	10	nopreview	10	137	211	211	211	211	211	0
117	134	just	just	just	10	nopreview	10	138	0	0	0	0	0	0
118	135	six	six	six	10	nopreview	10	139	238	238	238	238	238	0
119	136	goals	goals	goals	10	nopreview	10	140	0	0	0	0	0	0
120	137	this	this	this	10	nopreview	10	141	142	142	142	142	142	0
121	138	season	season	season	10	nopreview	10	142	0	0	0	0	0	0
122	139	-	-	-	10	nopreview	10	143	140	140	140	140	140	0
123	140	one	one	one	10	nopreview	10	144	0	0	0	0	0	0
124	141	less	less	less	10	nopreview	10	145	221	221	221	221	221	0
125	142	than	than	than	10	nopreview	10	146	0	0	0	0	0	0
126	143	@entity23	Stoke	Stoke	10	nopreview	10	147	146	146	146	146	146	0
127	144	forward	forward	forward	10	nopreview	10	148	99	99	99	99	99	0
128	145	@entity22	Jon	Jon	10	nopreview	10	149	0	0	0	0	0	0
129			Walters	Walters.	10	nopreview	10	150	313	313	483	128	313	0
	146	(	(		10	nopreview	10	151						
