HumanPosition	AnonymizedPosition	AnonymizedToken	OriginalToken	ExperimentToken	Participant	Condition	TextNo	JointPosition	tt	fp	rp	ff	rb	sp
0	0	@entity0	Chelsea	Chelsea	10	nopreview	11	1	131	0	0	0	0	131
2	1	are	are	are	10	nopreview	11	2	0	0	0	0	0	0
3	2	looking	looking	looking	10	nopreview	11	3	181	0	0	0	0	181
4	3	to	to	to	10	nopreview	11	4	0	0	0	0	0	0
5	4	beat	beat	beat	10	nopreview	11	5	269	0	0	0	0	269
6	5	@entity1	Manchester	Manchester	10	nopreview	11	6	0	0	0	0	0	0
7			City	City	10	nopreview	11	7	252	0	0	0	0	252
8	6	to	to	to	10	nopreview	11	8	0	0	0	0	0	0
9	7	sign	sign	sign	10	nopreview	11	9	171	0	0	0	0	171
10	8	@entity3	Brazilian	Brazilian	10	nopreview	11	10	0	0	0	0	0	0
11	9	prospect	prospect	prospect	10	nopreview	11	11	522	0	0	0	0	522
12	10	@entity2	Nathan	Nathan.	10	nopreview	11	12	2256	0	0	0	0	2256
	11	.	.		10	nopreview	11	13						
13	12	The	The	The	10	nopreview	11	14	279	0	0	0	0	279
14	13	attacking	attacking	attacking	10	nopreview	11	15	335	179	4240	179	179	156
15	14	midfielder	midfielder	midfielder	10	nopreview	11	16	98	98	254	98	98	0
16	15	turned	turned	turned	10	nopreview	11	17	163	163	163	163	163	0
17	16	19	19	19	10	nopreview	11	18	0	0	0	0	0	0
18	17	last	last	last	10	nopreview	11	19	184	184	184	184	184	0
19	18	month	month	month	10	nopreview	11	20	350	350	350	350	350	0
20	19	but	but	but	10	nopreview	11	21	0	0	0	0	0	0
21	20	has	has	has	10	nopreview	11	22	0	0	0	0	0	0
22	21	been	been	been	10	nopreview	11	23	309	165	165	165	165	144
23	22	in	in	in	10	nopreview	11	24	299	160	304	160	160	139
24	23	contract	contract	contract	10	nopreview	11	25	167	0	0	0	0	167
25	24	dispute	dispute	dispute	10	nopreview	11	26	511	511	817	121	511	0
26	25	with	with	with	10	nopreview	11	27	191	191	191	191	191	0
27	26	his	his	his	10	nopreview	11	28	0	0	0	0	0	0
28	27	club	club	club	10	nopreview	11	29	144	0	0	0	0	144
29	28	@entity6	Atletico	Atletico	10	nopreview	11	30	253	0	0	0	0	253
30			Paranaense	Paranaense.	10	nopreview	11	31	834	93	1231	93	834	741
	29	.	.		10	nopreview	11	32						
31	30	He	He	He	10	nopreview	11	33	0	0	0	0	0	0
32	31	is	is	is	10	nopreview	11	34	147	0	0	0	0	147
33	32	due	due	due	10	nopreview	11	35	196	0	0	0	0	196
34	33	to	to	to	10	nopreview	11	36	0	0	0	0	0	0
35	34	speak	speak	speak	10	nopreview	11	37	180	180	523	180	180	0
36	35	to	to	to	10	nopreview	11	38	0	0	0	0	0	0
37	36	@entity0	Chelsea	Chelsea	10	nopreview	11	39	105	105	105	105	105	0
38	37	next	next	next	10	nopreview	11	40	0	0	0	0	0	0
39	38	week	week	week	10	nopreview	11	41	191	191	191	191	191	0
40	39	ahead	ahead	ahead	10	nopreview	11	42	0	0	0	0	0	0
41	40	of	of	of	10	nopreview	11	43	0	0	0	0	0	0
42	41	a	a	a	10	nopreview	11	44	0	0	0	0	0	0
43	42	proposed	proposed	proposed	10	nopreview	11	45	200	200	200	200	200	0
44	43	move	move	move	10	nopreview	11	46	0	0	0	0	0	0
45	44	to	to	to	10	nopreview	11	47	200	0	0	0	0	200
46	45	@entity8	Stamford	Stamford	10	nopreview	11	48	121	121	321	121	121	0
47			Bridge	Bridge	10	nopreview	11	49	0	0	0	0	0	0
48	46	which	which	which	10	nopreview	11	50	0	0	0	0	0	0
49	47	would	would	would	10	nopreview	11	51	136	136	136	136	136	0
50	48	likely	likely	likely	10	nopreview	11	52	0	0	0	0	0	0
51	49	see	see	see	10	nopreview	11	53	138	138	138	138	138	0
52	50	him	him	him	10	nopreview	11	54	0	0	0	0	0	0
53	51	loaned	loaned	loaned	10	nopreview	11	55	163	0	0	0	0	163
54	52	out	out	out.	10	nopreview	11	56	182	182	345	182	182	0
	53	.	.		10	nopreview	11	57						
55	54	@entity6	Atletico	Manchester	10	nopreview	11	58	509	211	211	211	211	298
			Paranaense		10	nopreview	11	59						
	55	attacking	attacking		10	nopreview	11	60						
	56	midfielder	midfielder		10	nopreview	11	61						
	57	@entity2	Nathan		10	nopreview	11	62						
	58	is	is		10	nopreview	11	63						
	59	attracting	attracting		10	nopreview	11	64						
	60	interest	interest		10	nopreview	11	65						
	61	from	from		10	nopreview	11	66						
	62	@entity0	Chelsea		10	nopreview	11	67						
	63	and	and		10	nopreview	11	68						
	64	@entity1	Manchester		10	nopreview	11	69						
56	65	@entity11	City	City	10	nopreview	11	70	211	211	211	211	211	0
57			Jose	have	10	nopreview	11	71	218	108	108	108	108	110
58			Mourinho	been	10	nopreview	11	72	470	0	0	0	0	470
	66	and	and		10	nopreview	11	73						
	67	@entity12	Manuel		10	nopreview	11	74						
			Pellegrini		10	nopreview	11	75						
	68	will	will		10	nopreview	11	76						
	69	go	go		10	nopreview	11	77						
	70	head	head		10	nopreview	11	78						
59	71	-	-	keen	10	nopreview	11	79	414	0	0	0	0	414
	72	to	to		10	nopreview	11	80						
	73	-	-		10	nopreview	11	81						
	74	head	head		10	nopreview	11	82						
60	75	to	to	on	10	nopreview	11	83	278	184	359	184	184	94
61	76	sign	sign	Nathan	10	nopreview	11	84	571	384	1395	226	571	187
	77	@entity3	Brazilian		10	nopreview	11	85						
	78	starlet	starlet		10	nopreview	11	86						
	79	@entity2	Nathan		10	nopreview	11	87						
62	80	@entity1	Manchester	following	10	nopreview	11	88	262	262	649	105	262	0
			City		10	nopreview	11	89						
	81	have	have		10	nopreview	11	90						
	82	been	been		10	nopreview	11	91						
	83	keen	keen		10	nopreview	11	92						
	84	on	on		10	nopreview	11	93						
	85	@entity2	Nathan		10	nopreview	11	94						
	86	following	following		10	nopreview	11	95						
63	87	his	his	his	10	nopreview	11	96	186	186	186	186	186	0
64	88	performances	performances	performances	10	nopreview	11	97	216	216	216	216	216	0
65	89	in	in	in	10	nopreview	11	98	0	0	0	0	0	0
66	90	the	the	the	10	nopreview	11	99	0	0	0	0	0	0
67	91	@entity16	World	World	10	nopreview	11	100	168	168	168	168	168	0
68			U17	U17	10	nopreview	11	101	0	0	0	0	0	0
69			Championships	Championships	10	nopreview	11	102	212	212	212	212	212	0
70	92	two	two	two	10	nopreview	11	103	149	149	149	149	149	0
71	93	years	years	years	10	nopreview	11	104	163	0	0	0	0	163
72	94	ago	ago	ago	10	nopreview	11	105	0	0	0	0	0	0
73	95	and	and	and	10	nopreview	11	106	109	109	272	109	109	0
74	96	he	he	he	10	nopreview	11	107	260	146	146	146	146	114
75	97	has	has	has	10	nopreview	11	108	197	0	0	0	0	197
76	98	since	since	since	10	nopreview	11	109	0	0	0	0	0	0
77	99	broken	broken	broken	10	nopreview	11	110	363	219	219	219	219	144
78	100	into	into	into	10	nopreview	11	111	0	0	0	0	0	0
79	101	@entity6	Paranaense	Paranaense-s	10	nopreview	11	112	215	215	670	215	215	0
	102	-s	-s		10	nopreview	11	113						
80	103	first	first	first	10	nopreview	11	114	243	243	243	243	243	0
81	104	team	team	team.	10	nopreview	11	115	169	169	169	169	169	0
	105	.	.		10	nopreview	11	116						
82	106	@entity0	Chelsea	Chelsea	10	nopreview	11	117	403	231	231	231	231	172
83	107	have	have	have	10	nopreview	11	118	0	0	0	0	0	0
84	108	a	a	a	10	nopreview	11	119	115	0	0	0	0	115
85	109	strong	strong	strong	10	nopreview	11	120	366	188	303	188	188	178
86	110	@entity3	Brazilian	Brazilian	10	nopreview	11	121	244	0	0	0	0	244
87	111	contingency	contingency	contingency	10	nopreview	11	122	440	88	1034	88	440	352
88	112	with	with	with	10	nopreview	11	123	261	261	261	261	261	0
89	113	the	the	the	10	nopreview	11	124	0	0	0	0	0	0
90	114	likes	likes	likes	10	nopreview	11	125	0	0	0	0	0	0
91	115	of	of	of	10	nopreview	11	126	169	169	169	169	169	0
92	116	@entity20	Willian	Willian,	10	nopreview	11	127	161	161	161	161	161	0
	117	,	,		10	nopreview	11	128						
93	118	@entity21	Ramires	Ramires,	10	nopreview	11	129	317	0	0	0	0	317
	119	,	,		10	nopreview	11	130						
94	120	@entity22	Filipe	Filipe	10	nopreview	11	131	798	141	704	141	387	657
95			Luis	Luis	10	nopreview	11	132	1533	384	1944	384	1533	1149
96	121	and	and	and	10	nopreview	11	133	0	0	0	0	0	0
97	122	@entity23	Oscar	Oscar	10	nopreview	11	134	638	638	638	255	638	0
98	123	while	while	while	10	nopreview	11	135	113	113	113	113	113	0
99	124	21	21	21-year-old	10	nopreview	11	136	257	257	257	100	257	0
	125	-	-		10	nopreview	11	137						
	126	year	year		10	nopreview	11	138						
	127	-	-		10	nopreview	11	139						
	128	old	old		10	nopreview	11	140						
100	129	@entity24	Lucas	Lucas	10	nopreview	11	141	154	154	154	154	154	0
101			Piazon	Piazon	10	nopreview	11	142	880	368	368	185	368	512
102	130	is	is	is	10	nopreview	11	143	0	0	0	0	0	0
103	131	on	on	on	10	nopreview	11	144	162	0	0	0	0	162
104	132	loan	loan	loan	10	nopreview	11	145	306	160	980	160	306	146
105	133	at	at	at	10	nopreview	11	146	156	0	0	0	0	156
106	134	@entity26	Eintracht	Eintracht	10	nopreview	11	147	321	321	477	321	321	0
107			Frankfurt	Frankfurt.	10	nopreview	11	148	0	0	0	0	0	0
	135	.	.		10	nopreview	11	149						
