HumanPosition	AnonymizedPosition	AnonymizedToken	OriginalToken	ExperimentToken	Participant	Condition	TextNo	JointPosition	tt	fp	rp	ff	rb	sp
1	0	A	A	A	10	nopreview	17	1	0	0	0	0	0	0
2	1	boxing	boxing	boxing	10	nopreview	17	2	423	0	0	0	0	423
3	2	fight	fight	fight	10	nopreview	17	3	183	0	0	0	0	183
4	3	had	had	had	10	nopreview	17	4	137	0	0	0	0	137
5	4	to	to	to	10	nopreview	17	5	139	0	0	0	0	139
6	5	be	be	be	10	nopreview	17	6	296	0	0	0	0	296
7	6	halted	halted	halted	10	nopreview	17	7	193	0	0	0	0	193
8	7	after	after	after	10	nopreview	17	8	120	0	0	0	0	120
9	8	a	a	a	10	nopreview	17	9	196	0	0	0	0	196
10	9	fighter	fighter	fighter-s	10	nopreview	17	10	719	0	0	0	0	719
	10	-s	-s		10	nopreview	17	11						
11	11	cell	cell	cell	10	nopreview	17	12	640	0	0	0	0	640
12	12	phone	phone	phone	10	nopreview	17	13	350	0	0	0	0	350
13	13	fell	fell	fell	10	nopreview	17	14	604	0	0	0	0	604
14	14	out	out	out	10	nopreview	17	15	0	0	0	0	0	0
15	15	of	of	of	10	nopreview	17	16	236	0	0	0	0	236
16	16	his	his	his	10	nopreview	17	17	308	0	0	0	0	308
17	17	trunks	trunks	trunks.	10	nopreview	17	18	1228	0	0	0	0	1228
	18	.	.		10	nopreview	17	19						
18	19	@entity4	Marvin	Marvin	10	nopreview	17	20	425	0	0	0	0	425
19			-	-Papi	10	nopreview	17	21	393	0	0	0	0	393
			Papi		10	nopreview	17	22						
20			Gallo	Gallo-	10	nopreview	17	23	102	0	0	0	0	102
			-		10	nopreview	17	24						
21			Jones	Jones	10	nopreview	17	25	436	89	7128	89	436	347
22	20	and	and	and	10	nopreview	17	26	0	0	0	0	0	0
23	21	@entity5	Ramon	Ramon	10	nopreview	17	27	135	135	135	135	135	0
24			Luis	Luis	10	nopreview	17	28	0	0	0	0	0	0
25			Nicolas	Nicolas	10	nopreview	17	29	174	174	174	174	174	0
26	22	were	were	were	10	nopreview	17	30	0	0	0	0	0	0
27	23	in	in	in	10	nopreview	17	31	0	0	0	0	0	0
28	24	the	the	the	10	nopreview	17	32	180	180	180	180	180	0
29	25	middle	middle	middle	10	nopreview	17	33	123	123	123	123	123	0
30	26	of	of	of	10	nopreview	17	34	0	0	0	0	0	0
31	27	a	a	a	10	nopreview	17	35	0	0	0	0	0	0
32	28	bout	bout	bout	10	nopreview	17	36	145	145	145	145	145	0
33	29	when	when	when	10	nopreview	17	37	265	265	265	265	265	0
34	30	the	the	the	10	nopreview	17	38	0	0	0	0	0	0
35	31	black	black	black	10	nopreview	17	39	181	0	0	0	0	181
36	32	phone	phone	phone	10	nopreview	17	40	114	114	295	114	114	0
37	33	slipped	slipped	slipped	10	nopreview	17	41	270	270	270	270	270	0
38	34	out	out	out	10	nopreview	17	42	0	0	0	0	0	0
39	35	from	from	from	10	nopreview	17	43	182	182	182	182	182	0
40	36	@entity4	Jones	Jones-	10	nopreview	17	44	164	164	164	164	164	0
	37	-	-		10	nopreview	17	45						
41	38	black	black	black	10	nopreview	17	46	232	232	232	232	232	0
42	39	and	and	and	10	nopreview	17	47	0	0	0	0	0	0
43	40	red	red	red	10	nopreview	17	48	0	0	0	0	0	0
44	41	shorts	shorts	shorts	10	nopreview	17	49	572	572	572	210	572	0
45	42	at	at	at	10	nopreview	17	50	0	0	0	0	0	0
46	43	the	the	the	10	nopreview	17	51	0	0	0	0	0	0
47	44	ring	ring	ring	10	nopreview	17	52	198	198	198	198	198	0
48	45	in	in	in	10	nopreview	17	53	125	125	125	125	125	0
49	46	@entity11	Arcadia	Arcadia,	10	nopreview	17	54	127	127	127	127	127	0
	47	,	,		10	nopreview	17	55						
50	48	@entity12	Florida	Florida.	10	nopreview	17	56	188	0	0	0	0	188
	49	.	.		10	nopreview	17	57						
51	50	Referee	Referee	Referee	10	nopreview	17	58	154	0	0	0	0	154
52	51	@entity13	Frankie	Frankie	10	nopreview	17	59	253	100	288	100	100	153
53			Santore	Santore	10	nopreview	17	60	141	141	448	141	141	0
54			Jr.	Jr.	10	nopreview	17	61	0	0	0	0	0	0
55	52	went	went	went	10	nopreview	17	62	129	0	0	0	0	129
56	53	over	over	over	10	nopreview	17	63	165	0	0	0	0	165
57	54	to	to	to	10	nopreview	17	64	198	198	492	198	198	0
58	55	pick	pick	pick	10	nopreview	17	65	0	0	0	0	0	0
59	56	up	up	up	10	nopreview	17	66	255	255	255	255	255	0
60	57	the	the	the	10	nopreview	17	67	216	0	0	0	0	216
61	58	@entity14	Samsung	Samsung	10	nopreview	17	68	218	218	218	218	218	0
62			Galaxy	Galaxy	10	nopreview	17	69	302	302	302	302	302	0
63	59	and	and	and	10	nopreview	17	70	277	155	493	155	277	122
64	60	looked	looked	looked	10	nopreview	17	71	362	0	0	0	0	362
65	61	like	like	like	10	nopreview	17	72	164	0	0	0	0	164
66	62	he	he	he	10	nopreview	17	73	384	0	0	0	0	384
67	63	was	was	was	10	nopreview	17	74	88	88	282	88	88	0
68	64	chastising	chastising	chastising	10	nopreview	17	75	533	179	1249	179	533	354
69	65	@entity4	Jones	Jones,	10	nopreview	17	76	169	169	169	169	169	0
	66	,	,		10	nopreview	17	77						
70	67	who	who	who	10	nopreview	17	78	0	0	0	0	0	0
71	68	seemed	seemed	seemed	10	nopreview	17	79	225	225	225	225	225	0
72	69	confused	confused	confused.	10	nopreview	17	80	333	333	333	333	333	0
	70	.	.		10	nopreview	17	81						
73	71	Scroll	Scroll	Jones,	10	nopreview	17	82	176	176	176	176	176	0
	72	down	down		10	nopreview	17	83						
	73	for	for		10	nopreview	17	84						
	74	video	video		10	nopreview	17	85						
	75	@entity4	Marvin		10	nopreview	17	86						
			-		10	nopreview	17	87						
			Papi		10	nopreview	17	88						
			Gallo		10	nopreview	17	89						
			-		10	nopreview	17	90						
			Jones		10	nopreview	17	91						
	76	(	(		10	nopreview	17	92						
74	77	right	right	32,	10	nopreview	17	93	295	295	295	295	295	0
	78	)	)		10	nopreview	17	94						
	79	and	and		10	nopreview	17	95						
75	80	@entity5	Ramon	held	10	nopreview	17	96	0	0	0	0	0	0
			Luis		10	nopreview	17	97						
			Nicolas		10	nopreview	17	98						
	81	(	(		10	nopreview	17	99						
	82	left	left		10	nopreview	17	100						
76	83	)	)	his	10	nopreview	17	101	245	245	245	245	245	0
77	84	were	were	hands	10	nopreview	17	102	0	0	0	0	0	0
	85	in	in		10	nopreview	17	103						
	86	the	the		10	nopreview	17	104						
	87	middle	middle		10	nopreview	17	105						
	88	of	of		10	nopreview	17	106						
	89	a	a		10	nopreview	17	107						
	90	bout	bout		10	nopreview	17	108						
	91	when	when		10	nopreview	17	109						
	92	the	the		10	nopreview	17	110						
	93	black	black		10	nopreview	17	111						
	94	phone	phone		10	nopreview	17	112						
	95	slipped	slipped		10	nopreview	17	113						
	96	out	out		10	nopreview	17	114						
	97	from	from		10	nopreview	17	115						
	98	@entity4	Jones		10	nopreview	17	116						
78	99	-	-	up	10	nopreview	17	117	0	0	0	0	0	0
79	100	black	black	as	10	nopreview	17	118	220	0	0	0	0	220
	101	and	and		10	nopreview	17	119						
80	102	red	red	the	10	nopreview	17	120	0	0	0	0	0	0
81	103	shorts	shorts	referee	10	nopreview	17	121	302	96	316	96	96	206
	104	at	at		10	nopreview	17	122						
	105	the	the		10	nopreview	17	123						
	106	ring	ring		10	nopreview	17	124						
	107	in	in		10	nopreview	17	125						
	108	@entity11	Arcadia		10	nopreview	17	126						
	109	,	,		10	nopreview	17	127						
	110	@entity12	Florida		10	nopreview	17	128						
	111	@entity4	Jones		10	nopreview	17	129						
	112	,	,		10	nopreview	17	130						
	113	32	32		10	nopreview	17	131						
	114	,	,		10	nopreview	17	132						
	115	held	held		10	nopreview	17	133						
	116	his	his		10	nopreview	17	134						
	117	hands	hands		10	nopreview	17	135						
	118	up	up		10	nopreview	17	136						
	119	as	as		10	nopreview	17	137						
	120	the	the		10	nopreview	17	138						
	121	referee	referee		10	nopreview	17	139						
82	122	took	took	took	10	nopreview	17	140	190	190	190	190	190	0
83	123	the	the	the	10	nopreview	17	141	444	269	650	269	444	175
84	124	phone	phone	phone	10	nopreview	17	142	0	0	0	0	0	0
85	125	over	over	over	10	nopreview	17	143	0	0	0	0	0	0
86	126	to	to	to	10	nopreview	17	144	314	314	314	314	314	0
87	127	the	the	the	10	nopreview	17	145	0	0	0	0	0	0
88	128	side	side	side	10	nopreview	17	146	185	185	185	185	185	0
89	129	of	of	of	10	nopreview	17	147	0	0	0	0	0	0
90	130	the	the	the	10	nopreview	17	148	280	280	280	280	280	0
91	131	ring	ring	ring.	10	nopreview	17	149	132	132	132	132	132	0
	132	.	.		10	nopreview	17	150						
92	133	The	The	The	10	nopreview	17	151	0	0	0	0	0	0
93	134	audience	audience	audience	10	nopreview	17	152	153	153	153	153	153	0
94	135	and	and	and	10	nopreview	17	153	150	150	150	150	150	0
95	136	viewers	viewers	viewers	10	nopreview	17	154	180	0	0	0	0	180
96	137	were	were	were	10	nopreview	17	155	434	434	434	434	434	0
97	138	baffled	baffled	baffled	10	nopreview	17	156	149	149	329	149	149	0
98	139	as	as	as	10	nopreview	17	157	174	174	174	174	174	0
99	140	to	to	to	10	nopreview	17	158	180	0	0	0	0	180
100	141	why	why	why	10	nopreview	17	159	146	0	0	0	0	146
101	142	@entity4	Jones	Jones	10	nopreview	17	160	308	308	634	308	308	0
102	143	had	had	had	10	nopreview	17	161	145	0	0	0	0	145
103	144	his	his	his	10	nopreview	17	162	337	337	482	155	337	0
104	145	phone	phone	phone	10	nopreview	17	163	0	0	0	0	0	0
105	146	in	in	in	10	nopreview	17	164	0	0	0	0	0	0
106	147	his	his	his	10	nopreview	17	165	146	0	0	0	0	146
107	148	shorts	shorts	shorts.	10	nopreview	17	166	834	215	980	215	834	619
	149	.	.		10	nopreview	17	167						
108	150	But	But	But	10	nopreview	17	168	0	0	0	0	0	0
109	151	@entity4	Jones	Jones	10	nopreview	17	169	269	269	269	269	269	0
110	152	later	later	later	10	nopreview	17	170	131	131	131	131	131	0
111	153	told	told	told	10	nopreview	17	171	161	0	0	0	0	161
112	154	@entity26	TMZ	TMZ	10	nopreview	17	172	153	0	0	0	0	153
113			Sports	Sports	10	nopreview	17	173	148	148	462	148	148	0
114	155	that	that	that	10	nopreview	17	174	0	0	0	0	0	0
115	156	he	he	he	10	nopreview	17	175	239	239	239	239	239	0
116	157	was	was	was	10	nopreview	17	176	0	0	0	0	0	0
117	158	listening	listening	listening	10	nopreview	17	177	160	160	160	160	160	0
118	159	to	to	to	10	nopreview	17	178	0	0	0	0	0	0
119	160	music	music	music	10	nopreview	17	179	178	0	0	0	0	178
120	161	before	before	before	10	nopreview	17	180	139	139	317	139	139	0
121	162	the	the	the	10	nopreview	17	181	236	236	236	236	236	0
122	163	fight	fight	fight	10	nopreview	17	182	178	178	178	178	178	0
123	164	on	on	on	10	nopreview	17	183	0	0	0	0	0	0
124	165	Friday	Friday	Friday	10	nopreview	17	184	244	244	244	244	244	0
125	166	and	and	and	10	nopreview	17	185	0	0	0	0	0	0
126	167	put	put	put	10	nopreview	17	186	333	333	333	333	333	0
127	168	his	his	his	10	nopreview	17	187	275	275	275	275	275	0
128	169	phone	phone	phone	10	nopreview	17	188	240	0	0	0	0	240
129	170	in	in	in	10	nopreview	17	189	0	0	0	0	0	0
130	171	his	his	his	10	nopreview	17	190	342	0	0	0	0	342
131	172	shorts	shorts	shorts.	10	nopreview	17	191	401	97	983	97	401	304
	173	.	.		10	nopreview	17	192						
132	174	When	When	When	10	nopreview	17	193	0	0	0	0	0	0
133	175	he	he	he	10	nopreview	17	194	142	0	0	0	0	142
134	176	got	got	got	10	nopreview	17	195	257	257	399	257	257	0
135	177	to	to	to	10	nopreview	17	196	152	0	0	0	0	152
136	178	the	the	the	10	nopreview	17	197	0	0	0	0	0	0
137	179	ring	ring	ring,	10	nopreview	17	198	415	265	265	265	265	150
	180	,	,		10	nopreview	17	199						
138	181	he	he	he	10	nopreview	17	200	0	0	0	0	0	0
139	182	pulled	pulled	pulled	10	nopreview	17	201	150	150	150	150	150	0
140	183	out	out	out	10	nopreview	17	202	0	0	0	0	0	0
141	184	his	his	his	10	nopreview	17	203	0	0	0	0	0	0
142	185	headphones	headphones	headphones,	10	nopreview	17	204	457	457	457	457	457	0
	186	,	,		10	nopreview	17	205						
143	187	but	but	but	10	nopreview	17	206	586	263	888	263	586	323
144	188	missed	missed	missed	10	nopreview	17	207	275	0	0	0	0	275
145	189	his	his	his	10	nopreview	17	208	244	0	0	0	0	244
146	190	phone	phone	phone.	10	nopreview	17	209	492	109	1011	109	492	383
	191	.	.		10	nopreview	17	210						
147	192	@entity4	Jones	Jones	10	nopreview	17	211	240	240	240	240	240	0
148	193	believes	believes	believes	10	nopreview	17	212	189	0	0	0	0	189
149	194	the	the	the	10	nopreview	17	213	196	196	196	196	196	0
150	195	mishap	mishap	mishap	10	nopreview	17	214	399	229	588	229	399	170
151	196	cost	cost	cost	10	nopreview	17	215	0	0	0	0	0	0
152	197	him	him	him	10	nopreview	17	216	0	0	0	0	0	0
153	198	the	the	the	10	nopreview	17	217	406	406	406	406	406	0
154	199	fight	fight	fight	10	nopreview	17	218	131	131	131	131	131	0
155	200	as	as	as	10	nopreview	17	219	0	0	0	0	0	0
156	201	he	he	he	10	nopreview	17	220	0	0	0	0	0	0
157	202	kept	kept	kept	10	nopreview	17	221	1099	275	275	275	275	824
158	203	thinking	thinking	thinking,	10	nopreview	17	222	334	167	1158	167	334	167
	204	,	,		10	nopreview	17	223						
159	205	-	-	-Man,	10	nopreview	17	224	279	0	0	0	0	279
	206	Man	Man		10	nopreview	17	225						
	207	,	,		10	nopreview	17	226						
160	208	my	my	my	10	nopreview	17	227	0	0	0	0	0	0
161	209	cell	cell	cell	10	nopreview	17	228	277	113	556	113	277	164
162	210	phone	phone	phone	10	nopreview	17	229	0	0	0	0	0	0
163	211	just	just	just	10	nopreview	17	230	276	276	276	276	276	0
164	212	fell	fell	fell	10	nopreview	17	231	162	162	162	162	162	0
165	213	out	out	out	10	nopreview	17	232	0	0	0	0	0	0
166	214	in	in	in	10	nopreview	17	233	494	235	235	235	235	259
167	215	the	the	the	10	nopreview	17	234	0	0	0	0	0	0
168	216	ring	ring	ring	10	nopreview	17	235	334	156	415	156	156	178
169	217	–	–	-	10	nopreview	17	236	0	0	0	0	0	0
170	218	and	and	and	10	nopreview	17	237	0	0	0	0	0	0
171	219	on	on	on	10	nopreview	17	238	889	688	1067	464	889	201
172	220	TV	TV	TV!-	10	nopreview	17	239	709	709	709	709	709	0
	221	!	!		10	nopreview	17	240						
	222	-	-		10	nopreview	17	241						
173	223	He	He	He	10	nopreview	17	242	0	0	0	0	0	0
174	224	has	has	has	10	nopreview	17	243	0	0	0	0	0	0
175	225	decided	decided	decided	10	nopreview	17	244	366	366	366	217	366	0
176	226	that	that	that	10	nopreview	17	245	0	0	0	0	0	0
177	227	for	for	for	10	nopreview	17	246	120	120	120	120	120	0
178	228	his	his	his	10	nopreview	17	247	0	0	0	0	0	0
179	229	next	next	next	10	nopreview	17	248	0	0	0	0	0	0
180	230	fight	fight	fight	10	nopreview	17	249	0	0	0	0	0	0
181	231	he	he	he	10	nopreview	17	250	0	0	0	0	0	0
182	232	will	will	will	10	nopreview	17	251	0	0	0	0	0	0
183	233	make	make	make	10	nopreview	17	252	0	0	0	0	0	0
184	234	sure	sure	sure	10	nopreview	17	253	0	0	0	0	0	0
185	235	someone	someone	someone	10	nopreview	17	254	0	0	0	0	0	0
186	236	pats	pats	pats	10	nopreview	17	255	0	0	0	0	0	0
187	237	him	him	him	10	nopreview	17	256	0	0	0	0	0	0
188	238	down	down	down.	10	nopreview	17	257	0	0	0	0	0	0
	239	.	.		10	nopreview	17	258						
