HumanPosition	AnonymizedPosition	AnonymizedToken	OriginalToken	ExperimentToken	Participant	Condition	TextNo	JointPosition	tt	fp	rp	ff	rb	sp
1	0	A	A	A	10	nopreview	20	1	0	0	0	0	0	0
2	1	physician	physician	physician,	10	nopreview	20	2	262	0	0	0	0	262
	2	,	,		10	nopreview	20	3						
3	3	93	93	93,	10	nopreview	20	4	129	0	0	0	0	129
	4	,	,		10	nopreview	20	5						
4	5	who	who	who	10	nopreview	20	6	133	0	0	0	0	133
5				was	10	nopreview	20	7	328	0	0	0	0	328
6	6	team	team	team	10	nopreview	20	8	355	0	0	0	0	355
7	7	doctor	doctor	doctor	10	nopreview	20	9	132	0	0	0	0	132
8	8	for	for	for	10	nopreview	20	10	337	0	0	0	0	337
9	9	five	five	five	10	nopreview	20	11	0	0	0	0	0	0
10	10	@entity6	U.S.	U.S.	10	nopreview	20	12	630	0	0	0	0	630
11	11	men	men	men-s	10	nopreview	20	13	0	0	0	0	0	0
	12	-s	-s		10	nopreview	20	14						
12	13	@entity4	Olympic	Olympic	10	nopreview	20	15	224	0	0	0	0	224
13	14	hockey	hockey	hockey	10	nopreview	20	16	117	0	0	0	0	117
14	15	squads	squads	squads,	10	nopreview	20	17	155	0	0	0	0	155
	16	,	,		10	nopreview	20	18						
15	17	including	including	including	10	nopreview	20	19	248	0	0	0	0	248
16	18	the	the	the	10	nopreview	20	20	91	0	0	0	0	91
17	19	-	-	-Miracle	10	nopreview	20	21	181	0	0	0	0	181
	20	@entity8	Miracle		10	nopreview	20	22						
18			on	on	10	nopreview	20	23	0	0	0	0	0	0
19			Ice	Ice-	10	nopreview	20	24	160	0	0	0	0	160
	21	-	-		10	nopreview	20	25						
20	22	team	team	team	10	nopreview	20	26	145	0	0	0	0	145
21	23	that	that	that	10	nopreview	20	27	154	0	0	0	0	154
22	24	won	won	won	10	nopreview	20	28	355	0	0	0	0	355
23	25	in	in	in	10	nopreview	20	29	0	0	0	0	0	0
24	26	the	the	the	10	nopreview	20	30	0	0	0	0	0	0
25	27	1980	1980	1980-s,	10	nopreview	20	31	523	0	0	0	0	523
	28	-s	-s		10	nopreview	20	32						
	29	,	,		10	nopreview	20	33						
26	30	has	has	has	10	nopreview	20	34	110	0	0	0	0	110
27	31	suffered	suffered	suffered	10	nopreview	20	35	166	0	0	0	0	166
28	32	serious	serious	serious	10	nopreview	20	36	189	0	0	0	0	189
29	33	injuries	injuries	injuries	10	nopreview	20	37	147	0	0	0	0	147
30	34	in	in	in	10	nopreview	20	38	123	0	0	0	0	123
31	35	an	an	an	10	nopreview	20	39	0	0	0	0	0	0
32	36	attack	attack	attack	10	nopreview	20	40	192	0	0	0	0	192
33	37	while	while	while	10	nopreview	20	41	116	0	0	0	0	116
34	38	visiting	visiting	visiting	10	nopreview	20	42	187	0	0	0	0	187
35	39	his	his	his	10	nopreview	20	43	247	0	0	0	0	247
36	40	wife	wife	wife-s	10	nopreview	20	44	0	0	0	0	0	0
	41	-s	-s		10	nopreview	20	45						
37	42	grave	grave	grave	10	nopreview	20	46	199	0	0	0	0	199
38	43	on	on	on	10	nopreview	20	47	0	0	0	0	0	0
39	44	Sunday	Sunday	Sunday.	10	nopreview	20	48	516	0	0	0	0	516
	45	.	.		10	nopreview	20	49						
40	46	@entity13	George	George	10	nopreview	20	50	199	0	0	0	0	199
41			Nagobads	Nagobads	10	nopreview	20	51	1259	0	0	0	0	1259
42	47	was	was	was	10	nopreview	20	52	115	0	0	0	0	115
43	48	allegedly	allegedly	allegedly	10	nopreview	20	53	222	0	0	0	0	222
44	49	mugged	mugged	mugged	10	nopreview	20	54	87	0	0	0	0	87
45	50	by	by	by	10	nopreview	20	55	171	0	0	0	0	171
46	51	a	a	a	10	nopreview	20	56	0	0	0	0	0	0
47	52	teenager	teenager	teenager	10	nopreview	20	57	148	0	0	0	0	148
48	53	on	on	on	10	nopreview	20	58	0	0	0	0	0	0
49	54	Sunday	Sunday	Sunday	10	nopreview	20	59	182	0	0	0	0	182
50	55	afternoon	afternoon	afternoon	10	nopreview	20	60	87	0	0	0	0	87
51	56	at	at	at	10	nopreview	20	61	0	0	0	0	0	0
52	57	the	the	the	10	nopreview	20	62	0	0	0	0	0	0
53	58	@entity15	Crystal	Crystal	10	nopreview	20	63	401	0	0	0	0	401
54			Lake	Lake	10	nopreview	20	64	158	0	0	0	0	158
55			Cemetery	Cemetery	10	nopreview	20	65	434	0	0	0	0	434
56	59	in	in	in	10	nopreview	20	66	691	0	0	0	0	691
57	60	@entity16	Minneapolis	Minneapolis	10	nopreview	20	67	345	0	0	0	0	345
58	61	while	while	while	10	nopreview	20	68	0	0	0	0	0	0
59	62	laying	laying	laying	10	nopreview	20	69	310	0	0	0	0	310
60	63	flowers	flowers	flowers	10	nopreview	20	70	0	0	0	0	0	0
61	64	on	on	on	10	nopreview	20	71	128	0	0	0	0	128
62	65	his	his	his	10	nopreview	20	72	0	0	0	0	0	0
63	66	wife	wife	wife	10	nopreview	20	73	235	0	0	0	0	235
64	67	@entity18	Velta	Velta-s	10	nopreview	20	74	196	0	0	0	0	196
	68	-s	-s		10	nopreview	20	75						
65	69	grave	grave	grave.	10	nopreview	20	76	443	0	0	0	0	443
	70	.	.		10	nopreview	20	77						
66	71	He	He	He	10	nopreview	20	78	0	0	0	0	0	0
67	72	was	was	was	10	nopreview	20	79	194	0	0	0	0	194
68	73	released	released	released	10	nopreview	20	80	163	0	0	0	0	163
69	74	from	from	from	10	nopreview	20	81	0	0	0	0	0	0
70	75	the	the	the	10	nopreview	20	82	184	0	0	0	0	184
71	76	hospital	hospital	hospital	10	nopreview	20	83	0	0	0	0	0	0
72	77	on	on	on	10	nopreview	20	84	0	0	0	0	0	0
73	78	Tuesday	Tuesday	Tuesday	10	nopreview	20	85	556	0	0	0	0	556
74	79	with	with	with	10	nopreview	20	86	0	0	0	0	0	0
75	80	18	18	18	10	nopreview	20	87	242	0	0	0	0	242
76	81	stitches	stitches	stitches	10	nopreview	20	88	284	117	14285	117	284	167
77	82	in	in	in	10	nopreview	20	89	0	0	0	0	0	0
78	83	his	his	his	10	nopreview	20	90	370	370	370	370	370	0
79	84	head	head	head.	10	nopreview	20	91	296	296	296	296	296	0
	85	.	.		10	nopreview	20	92						
80	86	Scroll	Scroll	After	10	nopreview	20	93	0	0	0	0	0	0
	87	down	down		10	nopreview	20	94						
	88	for	for		10	nopreview	20	95						
81	89	video	video	allegedly	10	nopreview	20	96	392	256	256	256	256	136
	90	Injured	Injured		10	nopreview	20	97						
	91	:	:		10	nopreview	20	98						
	92	Dr.	Dr.		10	nopreview	20	99						
	93	@entity13	George		10	nopreview	20	100						
			Nagobads		10	nopreview	20	101						
	94	,	,		10	nopreview	20	102						
	95	pictured	pictured		10	nopreview	20	103						
	96	in	in		10	nopreview	20	104						
	97	2010	2010		10	nopreview	20	105						
	98	with	with		10	nopreview	20	106						
	99	his	his		10	nopreview	20	107						
	100	@entity25	Hall		10	nopreview	20	108						
			of		10	nopreview	20	109						
			Fame		10	nopreview	20	110						
	101	plaque	plaque		10	nopreview	20	111						
	102	,	,		10	nopreview	20	112						
	103	was	was		10	nopreview	20	113						
	104	allegedly	allegedly		10	nopreview	20	114						
82	105	attacked	attacked	being	10	nopreview	20	115	488	204	624	204	488	284
	106	on	on		10	nopreview	20	116						
	107	Sunday	Sunday		10	nopreview	20	117						
	108	by	by		10	nopreview	20	118						
	109	a	a		10	nopreview	20	119						
	110	teenager	teenager		10	nopreview	20	120						
	111	in	in		10	nopreview	20	121						
83	112	a	a	attacked	10	nopreview	20	122	511	511	511	401	511	0
	113	cemetary	cemetary		10	nopreview	20	123						
	114	Visiting	Visiting		10	nopreview	20	124						
	115	his	his		10	nopreview	20	125						
	116	wife	wife		10	nopreview	20	126						
	117	:	:		10	nopreview	20	127						
	118	@entity13	Nagobads		10	nopreview	20	128						
	119	was	was		10	nopreview	20	129						
	120	visiting	visiting		10	nopreview	20	130						
	121	his	his		10	nopreview	20	131						
	122	wife	wife		10	nopreview	20	132						
	123	-s	-s		10	nopreview	20	133						
	124	grave	grave		10	nopreview	20	134						
	125	at	at		10	nopreview	20	135						
	126	The	The		10	nopreview	20	136						
	127	@entity15	Crystal		10	nopreview	20	137						
			Lake		10	nopreview	20	138						
			Cemetery		10	nopreview	20	139						
	128	when	when		10	nopreview	20	140						
	129	he	he		10	nopreview	20	141						
	130	was	was		10	nopreview	20	142						
	131	allegedly	allegedly		10	nopreview	20	143						
	132	beaten	beaten		10	nopreview	20	144						
	133	with	with		10	nopreview	20	145						
	134	a	a		10	nopreview	20	146						
	135	snowbrush	snowbrush		10	nopreview	20	147						
	136	After	After		10	nopreview	20	148						
	137	allegedly	allegedly		10	nopreview	20	149						
	138	being	being		10	nopreview	20	150						
	139	attacked	attacked		10	nopreview	20	151						
84	140	by	by	by	10	nopreview	20	152	136	136	136	136	136	0
85	141	a	a	a	10	nopreview	20	153	0	0	0	0	0	0
86	142	snowbrush	snowbrush	snowbrush	10	nopreview	20	154	894	0	0	0	0	894
87	143	on	on	on	10	nopreview	20	155	208	0	0	0	0	208
88	144	Sunday	Sunday	Sunday,	10	nopreview	20	156	423	87	1525	87	423	336
	145	,	,		10	nopreview	20	157						
89	146	a	a	a	10	nopreview	20	158	0	0	0	0	0	0
90	147	bloodied	bloodied	bloodied	10	nopreview	20	159	491	210	210	210	210	281
91	148	@entity31	Nagobads	Nagobads	10	nopreview	20	160	772	354	1053	354	772	418
92	149	managed	managed	managed	10	nopreview	20	161	401	401	401	401	401	0
93	150	to	to	to	10	nopreview	20	162	0	0	0	0	0	0
94	151	get	get	get	10	nopreview	20	163	166	166	166	166	166	0
95	152	back	back	back	10	nopreview	20	164	0	0	0	0	0	0
96	153	in	in	in	10	nopreview	20	165	143	143	143	143	143	0
97	154	his	his	his	10	nopreview	20	166	0	0	0	0	0	0
98	155	car	car	car	10	nopreview	20	167	263	263	263	263	263	0
99	156	and	and	and	10	nopreview	20	168	0	0	0	0	0	0
100	157	drive	drive	drive	10	nopreview	20	169	134	134	134	134	134	0
101	158	away	away	away.	10	nopreview	20	170	175	0	0	0	0	175
	159	.	.		10	nopreview	20	171						
102	160	@entity31	Nagobads	Nagobads,	10	nopreview	20	172	472	261	647	261	472	211
	161	,	,		10	nopreview	20	173						
103	162	who	who	who	10	nopreview	20	174	147	147	794	147	147	0
104	163	is	is	is	10	nopreview	20	175	0	0	0	0	0	0
105	164	recovering	recovering	recovering	10	nopreview	20	176	331	331	331	331	331	0
106	165	at	at	at	10	nopreview	20	177	128	128	128	128	128	0
107	166	home	home	home,	10	nopreview	20	178	100	100	100	100	100	0
	167	,	,		10	nopreview	20	179						
108	168	said	said	said	10	nopreview	20	180	201	201	201	201	201	0
109	169	on	on	on	10	nopreview	20	181	137	0	0	0	0	137
110	170	Tuesday	Tuesday	Tuesday	10	nopreview	20	182	499	197	197	197	197	302
111	171	that	that	that	10	nopreview	20	183	0	0	0	0	0	0
112	172	he	he	he	10	nopreview	20	184	700	498	1139	498	700	202
113	173	sped	sped	sped	10	nopreview	20	185	234	0	0	0	0	234
114	174	to	to	to	10	nopreview	20	186	354	354	588	354	354	0
115	175	a	a	a	10	nopreview	20	187	326	326	326	326	326	0
116	176	nearby	nearby	nearby	10	nopreview	20	188	0	0	0	0	0	0
117	177	hospital	hospital	hospital	10	nopreview	20	189	0	0	0	0	0	0
118	178	following	following	following	10	nopreview	20	190	0	0	0	0	0	0
119	179	the	the	the	10	nopreview	20	191	0	0	0	0	0	0
120	180	beating	beating	beating.	10	nopreview	20	192	0	0	0	0	0	0
	181	.	.		10	nopreview	20	193						
121	182	He	He	He	10	nopreview	20	194	0	0	0	0	0	0
122	183	told	told	told	10	nopreview	20	195	212	0	0	0	0	212
123	184	@entity37	The	The	10	nopreview	20	196	0	0	0	0	0	0
124			Star	Star	10	nopreview	20	197	179	0	0	0	0	179
125			Tribune	Tribune	10	nopreview	20	198	198	0	0	0	0	198
126	185	that	that	that	10	nopreview	20	199	0	0	0	0	0	0
127	186	he	he	he	10	nopreview	20	200	245	0	0	0	0	245
128	187	suffered	suffered	suffered	10	nopreview	20	201	281	0	0	0	0	281
129	188	a	a	a	10	nopreview	20	202	0	0	0	0	0	0
130	189	slight	slight	slight	10	nopreview	20	203	400	0	0	0	0	400
131	190	concussion	concussion	concussion	10	nopreview	20	204	322	0	0	0	0	322
132	191	and	and	and	10	nopreview	20	205	0	0	0	0	0	0
133	192	was	was	was	10	nopreview	20	206	136	0	0	0	0	136
134	193	kept	kept	kept	10	nopreview	20	207	271	116	729	116	271	155
135	194	overnight	overnight	overnight	10	nopreview	20	208	204	204	1719	204	204	0
136	195	for	for	for	10	nopreview	20	209	0	0	0	0	0	0
137	196	observation	observation	observation.	10	nopreview	20	210	926	0	0	0	0	926
	197	.	.		10	nopreview	20	211						
138	198	Video	Video	-I	10	nopreview	20	212	0	0	0	0	0	0
	199	courtesy	courtesy		10	nopreview	20	213						
	200	@entity40	Fox		10	nopreview	20	214						
			9		10	nopreview	20	215						
139	201	-	-	brought	10	nopreview	20	216	284	0	0	0	0	284
	202	I	I		10	nopreview	20	217						
	203	brought	brought		10	nopreview	20	218						
140	204	new	new	new	10	nopreview	20	219	0	0	0	0	0	0
141	205	flowers	flowers	flowers	10	nopreview	20	220	247	0	0	0	0	247
142	206	and	and	and	10	nopreview	20	221	0	0	0	0	0	0
143	207	was	was	was	10	nopreview	20	222	302	0	0	0	0	302
144	208	just	just	just	10	nopreview	20	223	0	0	0	0	0	0
145	209	stooping	stooping	stooping	10	nopreview	20	224	214	0	0	0	0	214
146	210	down	down	down,-	10	nopreview	20	225	346	96	560	96	346	250
	211	,	,		10	nopreview	20	226						
147	212	-	-	said	10	nopreview	20	227	475	475	475	231	475	0
	213	said	said		10	nopreview	20	228						
148	214	@entity13	Nagobads	Nagobads	10	nopreview	20	229	136	136	1895	136	136	0
149	215	of	of	of	10	nopreview	20	230	0	0	0	0	0	0
150	216	honoring	honoring	honoring	10	nopreview	20	231	0	0	0	0	0	0
151	217	his	his	his	10	nopreview	20	232	0	0	0	0	0	0
152	218	wife	wife	wife	10	nopreview	20	233	0	0	0	0	0	0
153	219	@entity31	Velta	Velta	10	nopreview	20	234	0	0	0	0	0	0
154			Nagobads	Nagobads	10	nopreview	20	235	311	311	311	156	311	0
155	220	who	who	who	10	nopreview	20	236	0	0	0	0	0	0
156	221	died	died	died	10	nopreview	20	237	215	215	215	215	215	0
157	222	in	in	in	10	nopreview	20	238	0	0	0	0	0	0
158	223	2005	2005	2005.	10	nopreview	20	239	402	0	0	0	0	402
	224	.	.		10	nopreview	20	240						
159	225	Nagobads	Nagobads	Nagobads	10	nopreview	20	241	457	0	0	0	0	457
160	226	said	said	said	10	nopreview	20	242	0	0	0	0	0	0
161	227	that	that	that	10	nopreview	20	243	356	0	0	0	0	356
162	228	by	by	by	10	nopreview	20	244	0	0	0	0	0	0
163	229	throwing	throwing	throwing	10	nopreview	20	245	176	0	0	0	0	176
164	230	his	his	his	10	nopreview	20	246	187	0	0	0	0	187
165	231	wallet	wallet	wallet	10	nopreview	20	247	504	0	0	0	0	504
166	232	in	in	in	10	nopreview	20	248	0	0	0	0	0	0
167	233	attempt	attempt	attempt	10	nopreview	20	249	313	0	0	0	0	313
168	234	to	to	to	10	nopreview	20	250	0	0	0	0	0	0
169	235	distract	distract	distract	10	nopreview	20	251	438	0	0	0	0	438
170	236	the	the	the	10	nopreview	20	252	207	0	0	0	0	207
171	237	teen	teen	teen	10	nopreview	20	253	201	0	0	0	0	201
172	238	he	he	he	10	nopreview	20	254	226	0	0	0	0	226
173	239	was	was	was	10	nopreview	20	255	257	0	0	0	0	257
174	240	able	able	able	10	nopreview	20	256	0	0	0	0	0	0
175	241	to	to	to	10	nopreview	20	257	0	0	0	0	0	0
176	242	get	get	get	10	nopreview	20	258	93	0	0	0	0	93
177	243	away	away	away	10	nopreview	20	259	479	149	3540	149	249	330
178	244	without	without	without	10	nopreview	20	260	376	165	165	165	165	211
179	245	further	further	further	10	nopreview	20	261	172	172	4844	172	172	0
180	246	harm	harm	harm.	10	nopreview	20	262	223	223	223	223	223	0
	247	.	.		10	nopreview	20	263						
181	248	-	-	-I-m	10	nopreview	20	264	154	154	154	154	154	0
	249	I	I		10	nopreview	20	265						
	250	’m	’m		10	nopreview	20	266						
182	251	so	so	so	10	nopreview	20	267	0	0	0	0	0	0
183	252	lucky	lucky	lucky.	10	nopreview	20	268	567	286	286	286	286	281
	253	.	.		10	nopreview	20	269						
184	254	…	…	...	10	nopreview	20	270	0	0	0	0	0	0
185	255	I	I	I	10	nopreview	20	271	0	0	0	0	0	0
186	256	used	used	used	10	nopreview	20	272	626	474	907	474	626	152
187	257	that	that	that	10	nopreview	20	273	0	0	0	0	0	0
188	258	little	little	little	10	nopreview	20	274	734	376	376	376	376	358
189	259	trick	trick	trick	10	nopreview	20	275	414	0	0	0	0	414
190	260	and	and	and	10	nopreview	20	276	0	0	0	0	0	0
191	261	threw	threw	threw	10	nopreview	20	277	1244	129	352	129	129	1115
192	262	the	the	the	10	nopreview	20	278	409	245	479	245	245	164
193	263	wallet	wallet	wallet	10	nopreview	20	279	235	0	0	0	0	235
194	264	to	to	to	10	nopreview	20	280	0	0	0	0	0	0
195	265	get	get	get	10	nopreview	20	281	213	213	213	213	213	0
196	266	to	to	to	10	nopreview	20	282	0	0	0	0	0	0
197	267	my	my	my	10	nopreview	20	283	257	257	2086	257	257	0
198	268	car	car	car-	10	nopreview	20	284	1393	0	0	0	0	1393
	269	-	-		10	nopreview	20	285						
199	270	about	about	about	10	nopreview	20	286	0	0	0	0	0	0
200	271	40	40	40	10	nopreview	20	287	0	0	0	0	0	0
201	272	yards	yards	yards	10	nopreview	20	288	238	0	0	0	0	238
202	273	away	away	away,	10	nopreview	20	289	155	0	0	0	0	155
	274	,	,		10	nopreview	20	290						
203	275	the	the	the	10	nopreview	20	291	0	0	0	0	0	0
204	276	doctor	doctor	doctor	10	nopreview	20	292	294	0	0	0	0	294
205	277	said	said	said.	10	nopreview	20	293	1085	0	0	0	0	1085
	278	.	.		10	nopreview	20	294						
206	279	As	As	As	10	nopreview	20	295	142	0	0	0	0	142
207	280	the	the	the	10	nopreview	20	296	0	0	0	0	0	0
208	281	boy	boy	boy	10	nopreview	20	297	0	0	0	0	0	0
209	282	picked	picked	picked	10	nopreview	20	298	528	0	0	0	0	528
210	283	up	up	up	10	nopreview	20	299	0	0	0	0	0	0
211	284	the	the	the	10	nopreview	20	300	385	0	0	0	0	385
212	285	wallet	wallet	wallet,	10	nopreview	20	301	384	0	0	0	0	384
	286	,	,		10	nopreview	20	302						
213	287	@entity31	Nagobads	Nagobads	10	nopreview	20	303	507	163	4210	163	351	344
214	288	continued	continued	continued,	10	nopreview	20	304	915	252	252	252	252	663
	289	,	,		10	nopreview	20	305						
215	290	-	-	-I	10	nopreview	20	306	0	0	0	0	0	0
	291	I	I		10	nopreview	20	307						
216	292	was	was	was	10	nopreview	20	308	412	0	0	0	0	412
217	293	running	running	running	10	nopreview	20	309	289	176	363	176	176	113
218	294	…	…	...	10	nopreview	20	310	0	0	0	0	0	0
219	295	really	really	really	10	nopreview	20	311	663	453	2565	453	663	210
220	296	fast	fast	fast.	10	nopreview	20	312	311	311	311	311	311	0
	297	.	.		10	nopreview	20	313						
221	298	I	I	I	10	nopreview	20	314	168	168	168	168	168	0
222	299	was	was	was	10	nopreview	20	315	0	0	0	0	0	0
223	300	surprised	surprised	surprised	10	nopreview	20	316	262	262	262	100	262	0
224	301	how	how	how	10	nopreview	20	317	0	0	0	0	0	0
225	302	I	I	I	10	nopreview	20	318	327	210	210	210	210	117
226	303	could	could	could	10	nopreview	20	319	180	0	0	0	0	180
227	304	run	run	run	10	nopreview	20	320	289	289	586	151	289	0
228	305	like	like	like	10	nopreview	20	321	175	175	175	175	175	0
229	306	this	this	this.-	10	nopreview	20	322	780	0	0	0	0	780
	307	.	.		10	nopreview	20	323						
230	308	-	-	Nagobads	10	nopreview	20	324	556	343	343	343	343	213
	309	Victory	Victory		10	nopreview	20	325						
	310	:	:		10	nopreview	20	326						
	311	He	He		10	nopreview	20	327						
	312	was	was		10	nopreview	20	328						
	313	the	the		10	nopreview	20	329						
	314	doctor	doctor		10	nopreview	20	330						
	315	fro	fro		10	nopreview	20	331						
	316	the	the		10	nopreview	20	332						
	317	-	-		10	nopreview	20	333						
	318	@entity8	Miracle		10	nopreview	20	334						
			on		10	nopreview	20	335						
			Ice		10	nopreview	20	336						
	319	-	-		10	nopreview	20	337						
	320	team	team		10	nopreview	20	338						
	321	that	that		10	nopreview	20	339						
	322	won	won		10	nopreview	20	340						
	323	the	the		10	nopreview	20	341						
	324	improbable	improbable		10	nopreview	20	342						
	325	gold	gold		10	nopreview	20	343						
	326	medal	medal		10	nopreview	20	344						
	327	in	in		10	nopreview	20	345						
	328	@entity62	Lake		10	nopreview	20	346						
	329	@entity8	Placid		10	nopreview	20	347						
			Miracle		10	nopreview	20	348						
			on		10	nopreview	20	349						
			Ice		10	nopreview	20	350						
	330	:	:		10	nopreview	20	351						
	331	Nagobads	Nagobads		10	nopreview	20	352						
231	332	was	was	said	10	nopreview	20	353	192	192	1185	192	192	0
232	333	team	team	that	10	nopreview	20	354	438	438	438	167	438	0
233	334	doctor	doctor	he	10	nopreview	20	355	0	0	0	0	0	0
	335	for	for		10	nopreview	20	356						
234	336	the	the	bled	10	nopreview	20	357	315	315	315	315	315	0
235	337	famous	famous	heavily	10	nopreview	20	358	190	190	190	190	190	0
	338	-	-		10	nopreview	20	359						
	339	@entity8	Miracle		10	nopreview	20	360						
			on		10	nopreview	20	361						
			Ice		10	nopreview	20	362						
	340	-	-		10	nopreview	20	363						
	341	team	team		10	nopreview	20	364						
	342	that	that		10	nopreview	20	365						
	343	won	won		10	nopreview	20	366						
	344	@entity4	Olympic		10	nopreview	20	367						
	345	gold	gold		10	nopreview	20	368						
	346	in	in		10	nopreview	20	369						
	347	1980	1980		10	nopreview	20	370						
	348	and	and		10	nopreview	20	371						
	349	that	that		10	nopreview	20	372						
	350	inspired	inspired		10	nopreview	20	373						
	351	the	the		10	nopreview	20	374						
	352	2004	2004		10	nopreview	20	375						
	353	movie	movie		10	nopreview	20	376						
	354	-	-		10	nopreview	20	377						
	355	Miracle	Miracle		10	nopreview	20	378						
	356	-	-		10	nopreview	20	379						
	357	@entity13	Nagobads		10	nopreview	20	380						
	358	said	said		10	nopreview	20	381						
	359	that	that		10	nopreview	20	382						
	360	he	he		10	nopreview	20	383						
	361	bled	bled		10	nopreview	20	384						
	362	heavily	heavily		10	nopreview	20	385						
236	363	while	while	while	10	nopreview	20	386	156	156	156	156	156	0
237	364	behind	behind	behind	10	nopreview	20	387	163	0	0	0	0	163
238	365	the	the	the	10	nopreview	20	388	0	0	0	0	0	0
239	366	wheel	wheel	wheel	10	nopreview	20	389	325	109	488	109	325	216
240	367	of	of	of	10	nopreview	20	390	0	0	0	0	0	0
241	368	his	his	his	10	nopreview	20	391	387	387	387	387	387	0
242	369	car	car	car	10	nopreview	20	392	0	0	0	0	0	0
243	370	and	and	and	10	nopreview	20	393	0	0	0	0	0	0
244	371	risked	risked	risked	10	nopreview	20	394	222	222	222	222	222	0
245	372	being	being	being	10	nopreview	20	395	182	0	0	0	0	182
246	373	stopped	stopped	stopped	10	nopreview	20	396	190	190	372	190	190	0
247	374	by	by	by	10	nopreview	20	397	0	0	0	0	0	0
248	375	a	a	a	10	nopreview	20	398	141	0	0	0	0	141
249	376	cop	cop	cop.	10	nopreview	20	399	191	191	332	191	191	0
	377	.	.		10	nopreview	20	400						
250	378	-	-	-I	10	nopreview	20	401	217	217	217	217	217	0
	379	I	I		10	nopreview	20	402						
251	380	drove	drove	drove	10	nopreview	20	403	202	202	202	202	202	0
252	381	way	way	way	10	nopreview	20	404	257	0	0	0	0	257
253	382	over	over	over	10	nopreview	20	405	386	167	643	167	386	219
254	383	the	the	the	10	nopreview	20	406	201	201	201	201	201	0
255	384	speed	speed	speed	10	nopreview	20	407	0	0	0	0	0	0
256	385	limit	limit	limit.	10	nopreview	20	408	0	0	0	0	0	0
	386	.	.		10	nopreview	20	409						
257	387	If	If	If	10	nopreview	20	410	103	103	103	103	103	0
258	388	a	a	a	10	nopreview	20	411	0	0	0	0	0	0
259	389	cop	cop	cop	10	nopreview	20	412	0	0	0	0	0	0
260	390	catches	catches	catches	10	nopreview	20	413	0	0	0	0	0	0
261	391	me	me	me,	10	nopreview	20	414	0	0	0	0	0	0
	392	,	,		10	nopreview	20	415						
262	393	that	that	that-s	10	nopreview	20	416	0	0	0	0	0	0
	394	’s	’s		10	nopreview	20	417						
263	395	fine	fine	fine,-	10	nopreview	20	418	277	0	0	0	0	277
	396	,	,		10	nopreview	20	419						
264	397	-	-	he	10	nopreview	20	420	0	0	0	0	0	0
265	398	he	he	said	10	nopreview	20	421	242	0	0	0	0	242
	399	said	said		10	nopreview	20	422						
266	400	he	he	he	10	nopreview	20	423	300	0	0	0	0	300
267	401	thought	thought	thought	10	nopreview	20	424	952	0	0	0	0	952
268	402	after	after	after	10	nopreview	20	425	546	0	0	0	0	546
269	403	the	the	the	10	nopreview	20	426	247	0	0	0	0	247
270	404	attack	attack	attack	10	nopreview	20	427	121	0	0	0	0	121
271	405	on	on	on	10	nopreview	20	428	0	0	0	0	0	0
272	406	Sunday	Sunday	Sunday.	10	nopreview	20	429	247	247	247	247	247	0
	407	.	.		10	nopreview	20	430						
273	408	Witness	Witness	Witness	10	nopreview	20	431	244	140	140	140	140	104
274	409	@entity76	Justin	Justin	10	nopreview	20	432	234	234	338	234	234	0
275			McCarthy	McCarthy	10	nopreview	20	433	176	176	176	176	176	0
276	410	says	says	says	10	nopreview	20	434	476	266	2951	266	266	210
277	411	he	he	he	10	nopreview	20	435	0	0	0	0	0	0
278	412	saw	saw	saw	10	nopreview	20	436	149	0	0	0	0	149
279	413	a	a	a	10	nopreview	20	437	0	0	0	0	0	0
280	414	young	young	young	10	nopreview	20	438	0	0	0	0	0	0
281	415	man	man	man	10	nopreview	20	439	189	0	0	0	0	189
282	416	around	around	around	10	nopreview	20	440	188	0	0	0	0	188
283	417	the	the	the	10	nopreview	20	441	0	0	0	0	0	0
284	418	age	age	age	10	nopreview	20	442	214	0	0	0	0	214
285	419	of	of	of	10	nopreview	20	443	0	0	0	0	0	0
286	420	14	14	14	10	nopreview	20	444	238	0	0	0	0	238
287	421	or	or	or	10	nopreview	20	445	0	0	0	0	0	0
288	422	15	15	15	10	nopreview	20	446	132	0	0	0	0	132
289	423	looking	looking	looking	10	nopreview	20	447	309	309	309	309	309	0
290	424	through	through	through	10	nopreview	20	448	252	252	252	252	252	0
291	425	a	a	a	10	nopreview	20	449	191	0	0	0	0	191
292	426	wallet	wallet	wallet	10	nopreview	20	450	154	0	0	0	0	154
293	427	near	near	near	10	nopreview	20	451	532	325	1645	186	325	207
294	428	the	the	the	10	nopreview	20	452	0	0	0	0	0	0
295	429	mausoleum	mausoleum	mausoleum	10	nopreview	20	453	480	0	0	0	0	480
296	430	before	before	before	10	nopreview	20	454	0	0	0	0	0	0
297	431	fleeing	fleeing	fleeing	10	nopreview	20	455	678	0	0	0	0	678
298	432	by	by	by	10	nopreview	20	456	261	0	0	0	0	261
299	433	bicycle	bicycle	bicycle	10	nopreview	20	457	446	0	0	0	0	446
300	434	and	and	and	10	nopreview	20	458	0	0	0	0	0	0
301	435	jumping	jumping	jumping	10	nopreview	20	459	327	0	0	0	0	327
302	436	over	over	over	10	nopreview	20	460	0	0	0	0	0	0
303	437	a	a	a	10	nopreview	20	461	254	254	254	254	254	0
304	438	fence	fence	fence.	10	nopreview	20	462	0	0	0	0	0	0
	439	.	.		10	nopreview	20	463						
305	440	-	-	-I	10	nopreview	20	464	0	0	0	0	0	0
	441	I	I		10	nopreview	20	465						
306	442	saw	saw	saw	10	nopreview	20	466	197	197	197	197	197	0
307	443	the	the	the	10	nopreview	20	467	144	144	144	144	144	0
308	444	kid	kid	kid	10	nopreview	20	468	0	0	0	0	0	0
309	445	there	there	there.	10	nopreview	20	469	373	373	3117	198	373	0
	446	.	.		10	nopreview	20	470						
310	447	I	I	I	10	nopreview	20	471	0	0	0	0	0	0
311	448	put	put	put	10	nopreview	20	472	179	0	0	0	0	179
312	449	two	two	two	10	nopreview	20	473	0	0	0	0	0	0
313	450	and	and	and	10	nopreview	20	474	0	0	0	0	0	0
314	451	two	two	two	10	nopreview	20	475	0	0	0	0	0	0
315	452	together	together	together,	10	nopreview	20	476	0	0	0	0	0	0
	453	,	,		10	nopreview	20	477						
316	454	and	and	and	10	nopreview	20	478	162	0	0	0	0	162
317	455	I	I	I	10	nopreview	20	479	0	0	0	0	0	0
318	456	just	just	just	10	nopreview	20	480	208	0	0	0	0	208
319	457	got	got	got	10	nopreview	20	481	403	0	0	0	0	403
320	458	really	really	really	10	nopreview	20	482	113	0	0	0	0	113
321	459	mad	mad	mad,-	10	nopreview	20	483	0	0	0	0	0	0
	460	,	,		10	nopreview	20	484						
322	461	-	-	said	10	nopreview	20	485	129	129	129	129	129	0
	462	said	said		10	nopreview	20	486						
323	463	@entity76	McCarthy	McCarthy.	10	nopreview	20	487	0	0	0	0	0	0
	464	.	.		10	nopreview	20	488						
324	465	@entity76	McCarthy	McCarthy	10	nopreview	20	489	573	318	318	318	318	255
325	466	said	said	said	10	nopreview	20	490	200	200	1520	200	200	0
326	467	he	he	he	10	nopreview	20	491	0	0	0	0	0	0
327	468	chased	chased	chased	10	nopreview	20	492	177	177	177	177	177	0
328	469	the	the	the	10	nopreview	20	493	0	0	0	0	0	0
329	470	teen	teen	teen	10	nopreview	20	494	209	209	209	209	209	0
330	471	but	but	but	10	nopreview	20	495	0	0	0	0	0	0
331	472	not	not	not	10	nopreview	20	496	0	0	0	0	0	0
332	473	very	very	very	10	nopreview	20	497	323	323	323	172	323	0
333	474	far	far	far.	10	nopreview	20	498	0	0	0	0	0	0
	475	.	.		10	nopreview	20	499						
334	476	-	-	-I-m	10	nopreview	20	500	0	0	0	0	0	0
	477	I	I		10	nopreview	20	501						
	478	’m	’m		10	nopreview	20	502						
335	479	52	52	52	10	nopreview	20	503	173	173	173	173	173	0
336	480	and	and	and	10	nopreview	20	504	0	0	0	0	0	0
337	481	I	I	I-m	10	nopreview	20	505	190	0	0	0	0	190
	482	’m	’m		10	nopreview	20	506						
338	483	kind	kind	kind	10	nopreview	20	507	137	137	327	137	137	0
339	484	of	of	of	10	nopreview	20	508	0	0	0	0	0	0
340	485	fat	fat	fat.	10	nopreview	20	509	694	694	694	694	694	0
	486	.	.		10	nopreview	20	510						
341	487	It	It	It	10	nopreview	20	511	0	0	0	0	0	0
342	488	was	was	wasn-t	10	nopreview	20	512	679	0	0	0	0	679
	489	n’t	n’t		10	nopreview	20	513						
343	490	going	going	going	10	nopreview	20	514	403	162	1082	162	403	241
344	491	to	to	to	10	nopreview	20	515	0	0	0	0	0	0
345	492	happen	happen	happen.	10	nopreview	20	516	485	485	485	175	485	0
	493	.	.		10	nopreview	20	517						
346	494	…	…	...	10	nopreview	20	518	0	0	0	0	0	0
347	495	I	I	I	10	nopreview	20	519	0	0	0	0	0	0
348	496	was	was	was	10	nopreview	20	520	111	0	0	0	0	111
349	497	completely	completely	completely	10	nopreview	20	521	521	262	262	262	262	259
350	498	exhausted	exhausted	exhausted,-	10	nopreview	20	522	532	416	902	292	532	116
	499	,	,		10	nopreview	20	523						
351	500	-	-	said	10	nopreview	20	524	132	132	132	132	132	0
	501	said	said		10	nopreview	20	525						
352	502	@entity76	McCarthy	McCarthy.	10	nopreview	20	526	385	385	385	157	385	0
	503	.	.		10	nopreview	20	527						
353	504	@entity87	Mccarthy	McCarthy	10	nopreview	20	528	0	0	0	0	0	0
354	505	said	said	said	10	nopreview	20	529	191	0	385	0	0	191
355	506	that	that	that	10	nopreview	20	530	290	290	481	290	290	0
356	507	@entity13	Nagobads	Nagobads	10	nopreview	20	531	588	177	177	177	177	411
357	508	told	told	told	10	nopreview	20	532	463	273	273	273	273	190
358	509	him	him	him,	10	nopreview	20	533	135	135	135	135	135	0
	510	,	,		10	nopreview	20	534						
359	511	-	-	-I	10	nopreview	20	535	0	0	0	0	0	0
	512	I	I		10	nopreview	20	536						
360	513	gave	gave	gave	10	nopreview	20	537	327	196	196	196	196	131
361	514	him	him	him	10	nopreview	20	538	322	0	0	0	0	322
362	515	my	my	my	10	nopreview	20	539	273	0	0	0	0	273
363	516	wallet	wallet	wallet,	10	nopreview	20	540	317	171	1644	171	317	146
	517	,	,		10	nopreview	20	541						
364	518	and	and	and	10	nopreview	20	542	0	0	0	0	0	0
365	519	he	he	he	10	nopreview	20	543	178	178	178	178	178	0
366	520	still	still	still	10	nopreview	20	544	0	0	0	0	0	0
367	521	tried	tried	tried	10	nopreview	20	545	298	0	0	0	0	298
368	522	to	to	to	10	nopreview	20	546	0	0	0	0	0	0
369	523	kill	kill	kill	10	nopreview	20	547	305	118	603	118	305	187
370	524	me	me	me.-	10	nopreview	20	548	473	473	473	473	473	0
	525	.	.		10	nopreview	20	549						
371	526	’	’	Nagobads	10	nopreview	20	550	399	174	174	174	174	225
	527	@entity13	Nagobads		10	nopreview	20	551						
372	528	was	was	was	10	nopreview	20	552	0	0	0	0	0	0
373	529	the	the	the	10	nopreview	20	553	658	0	0	0	0	658
374	530	@entity89	University	University	10	nopreview	20	554	335	152	316	152	152	183
375			of	of	10	nopreview	20	555	0	0	0	0	0	0
376			Minnesota	Minnesota	10	nopreview	20	556	533	373	1435	243	533	160
377	531	men	men	men-s	10	nopreview	20	557	145	0	0	0	0	145
	532	-s	-s		10	nopreview	20	558						
378	533	hockey	hockey	hockey	10	nopreview	20	559	450	174	595	174	450	276
379	534	team	team	team	10	nopreview	20	560	115	115	115	115	115	0
380	535	physician	physician	physician	10	nopreview	20	561	191	0	0	0	0	191
381	536	for	for	for	10	nopreview	20	562	100	100	291	100	100	0
382	537	34	34	34	10	nopreview	20	563	358	358	358	358	358	0
383	538	years	years	years	10	nopreview	20	564	195	195	195	195	195	0
384	539	until	until	until	10	nopreview	20	565	0	0	0	0	0	0
385	540	his	his	his	10	nopreview	20	566	220	220	220	220	220	0
386	541	retirement	retirement	retirement	10	nopreview	20	567	0	0	0	0	0	0
387	542	in	in	in	10	nopreview	20	568	141	141	141	141	141	0
388	543	1992	1992	1992.	10	nopreview	20	569	290	290	290	290	290	0
	544	.	.		10	nopreview	20	570						
389	545	He	He	He	10	nopreview	20	571	0	0	0	0	0	0
390	546	also	also	also	10	nopreview	20	572	191	191	191	191	191	0
391	547	worked	worked	worked	10	nopreview	20	573	176	176	176	176	176	0
392	548	for	for	for	10	nopreview	20	574	0	0	0	0	0	0
393	549	the	the	the	10	nopreview	20	575	0	0	0	0	0	0
394	550	@entity93	Minnesota	Minnesota	10	nopreview	20	576	276	276	276	276	276	0
395			North	North	10	nopreview	20	577	257	0	0	0	0	257
396			Stars	Stars	10	nopreview	20	578	0	0	0	0	0	0
397	551	in	in	in	10	nopreview	20	579	82	82	339	82	82	0
398	552	the	the	the	10	nopreview	20	580	166	166	166	166	166	0
399	553	late	late	late	10	nopreview	20	581	0	0	0	0	0	0
400	554	1980s	1980s	1980s	10	nopreview	20	582	200	200	200	200	200	0
401	555	and	and	and	10	nopreview	20	583	0	0	0	0	0	0
402	556	early	early	early	10	nopreview	20	584	252	252	252	252	252	0
403	557	1990s	1990s	1990s.	10	nopreview	20	585	358	358	358	358	358	0
	558	.	.		10	nopreview	20	586						
404	559	And	And	And	10	nopreview	20	587	0	0	0	0	0	0
405	560	he	he	he	10	nopreview	20	588	0	0	0	0	0	0
406	561	was	was	was	10	nopreview	20	589	693	0	0	0	0	693
407	562	team	team	team	10	nopreview	20	590	951	506	1644	506	951	445
408	563	doctor	doctor	doctor	10	nopreview	20	591	0	0	0	0	0	0
409	564	for	for	for	10	nopreview	20	592	0	0	0	0	0	0
410	565	the	the	the	10	nopreview	20	593	163	163	163	163	163	0
411	566	famous	famous	famous	10	nopreview	20	594	308	308	308	308	308	0
412	567	-	-	-Miracle	10	nopreview	20	595	354	0	0	0	0	354
	568	@entity8	Miracle		10	nopreview	20	596						
413			on	on	10	nopreview	20	597	0	0	0	0	0	0
414			Ice	Ice-	10	nopreview	20	598	159	0	0	0	0	159
	569	-	-		10	nopreview	20	599						
415	570	team	team	team	10	nopreview	20	600	121	121	634	121	121	0
416	571	that	that	that	10	nopreview	20	601	268	268	268	268	268	0
417	572	won	won	won	10	nopreview	20	602	0	0	0	0	0	0
418	573	@entity4	Olympic	Olympic	10	nopreview	20	603	160	160	160	160	160	0
419	574	gold	gold	gold	10	nopreview	20	604	198	198	198	198	198	0
420	575	in	in	in	10	nopreview	20	605	142	142	142	142	142	0
421	576	1980	1980	1980.	10	nopreview	20	606	1043	1043	1043	164	1043	0
	577	.	.		10	nopreview	20	607						
422	578	He	He	He	10	nopreview	20	608	0	0	0	0	0	0
423	579	was	was	was	10	nopreview	20	609	0	0	0	0	0	0
424	580	played	played	played	10	nopreview	20	610	844	347	347	347	347	497
425	581	by	by	by	10	nopreview	20	611	0	0	0	0	0	0
426	582	@entity96	Kenneth	Kenneth	10	nopreview	20	612	395	197	892	197	395	198
427			Welsh	Welsh	10	nopreview	20	613	128	128	128	128	128	0
428	583	in	in	in	10	nopreview	20	614	0	0	0	0	0	0
429	584	the	the	the	10	nopreview	20	615	0	0	0	0	0	0
430	585	2004	2004	2004	10	nopreview	20	616	0	0	0	0	0	0
431	586	movie	movie	movie	10	nopreview	20	617	300	0	0	0	0	300
432	587	-	-	-Miracle,-	10	nopreview	20	618	259	0	0	0	0	259
	588	@entity98	Miracle		10	nopreview	20	619						
	589	,	,		10	nopreview	20	620						
433	590	-	-	about	10	nopreview	20	621	0	0	0	0	0	0
	591	about	about		10	nopreview	20	622						
434	592	the	the	the	10	nopreview	20	623	195	0	0	0	0	195
435	593	@entity6	USA	USA-s	10	nopreview	20	624	257	0	0	0	0	257
	594	’s	’s		10	nopreview	20	625						
436	595	improbable	improbable	improbable	10	nopreview	20	626	845	0	0	0	0	845
437	596	gold	gold	gold	10	nopreview	20	627	471	0	0	0	0	471
438	597	medal	medal	medal	10	nopreview	20	628	297	0	0	0	0	297
439	598	run	run	run	10	nopreview	20	629	0	0	0	0	0	0
440	599	in	in	in	10	nopreview	20	630	310	0	0	0	0	310
441	600	@entity62	Lake	Lake	10	nopreview	20	631	436	0	0	0	0	436
442			Placid	Placid.	10	nopreview	20	632	290	290	3660	290	290	0
	601	.	.		10	nopreview	20	633						
443	602	The	The	The	10	nopreview	20	634	0	0	0	0	0	0
444	603	cemetery	cemetery	cemetery	10	nopreview	20	635	0	0	0	0	0	0
445	604	is	is	is	10	nopreview	20	636	0	0	0	0	0	0
446	605	owned	owned	owned	10	nopreview	20	637	0	0	0	0	0	0
447	606	by	by	by	10	nopreview	20	638	0	0	0	0	0	0
448	607	@entity101	Bill	Bill	10	nopreview	20	639	164	0	0	0	0	164
449			McReavy	McReavy,	10	nopreview	20	640	828	0	0	0	0	828
	608	,	,		10	nopreview	20	641						
450	609	who	who	who	10	nopreview	20	642	0	0	0	0	0	0
451	610	said	said	said,	10	nopreview	20	643	275	0	0	0	0	275
	611	,	,		10	nopreview	20	644						
452	612	-	-	-This	10	nopreview	20	645	0	0	0	0	0	0
	613	This	This		10	nopreview	20	646						
453	614	is	is	is	10	nopreview	20	647	108	0	0	0	0	108
454	615	an	an	an	10	nopreview	20	648	235	0	0	0	0	235
455	616	isolated	isolated	isolated	10	nopreview	20	649	174	0	0	0	0	174
456	617	incident	incident	incident	10	nopreview	20	650	0	0	0	0	0	0
457	618	and	and	and	10	nopreview	20	651	101	101	101	101	101	0
458	619	we	we	we	10	nopreview	20	652	0	0	0	0	0	0
459	620	are	are	are	10	nopreview	20	653	771	644	644	644	644	127
460	621	looking	looking	looking	10	nopreview	20	654	380	380	2291	198	380	0
461	622	at	at	at	10	nopreview	20	655	0	0	0	0	0	0
462	623	it	it	it	10	nopreview	20	656	143	0	0	0	0	143
463	624	very	very	very	10	nopreview	20	657	0	0	0	0	0	0
464	625	closely	closely	closely.-	10	nopreview	20	658	160	0	0	0	0	160
	626	.	.		10	nopreview	20	659						
465	627	-	-	Unfortunately,	10	nopreview	20	660	172	0	0	0	0	172
	628	Unfortunately	Unfortunately		10	nopreview	20	661						
	629	,	,		10	nopreview	20	662						
466	630	It	It	it	10	nopreview	20	663	0	0	0	0	0	0
467	631	was	was	wasn-t	10	nopreview	20	664	745	0	0	0	0	745
	632	n-t	n-t		10	nopreview	20	665						
468	633	captured	captured	captured	10	nopreview	20	666	283	0	0	0	0	283
469	634	on	on	on	10	nopreview	20	667	0	0	0	0	0	0
470	635	security	security	security	10	nopreview	20	668	0	0	0	0	0	0
471	636	video	video	video.	10	nopreview	20	669	248	248	1751	248	248	0
	637	.	.		10	nopreview	20	670						
