HumanPosition	AnonymizedPosition	AnonymizedToken	OriginalToken	ExperimentToken	Participant	Condition	TextNo	JointPosition	tt	fp	rp	ff	rb	sp
1	0	(	(	The	10	nopreview	6	1	0	0	0	0	0	0
2	1	@entity0	CNN	underwater	10	nopreview	6	2	212	212	212	212	212	0
	2	)	)		10	nopreview	6	3						
	3	The	The		10	nopreview	6	4						
	4	underwater	underwater		10	nopreview	6	5						
3	5	search	search	search	10	nopreview	6	6	227	227	439	227	227	0
4	6	area	area	area	10	nopreview	6	7	305	173	173	173	173	132
5	7	for	for	for	10	nopreview	6	8	281	281	413	281	281	0
6	8	missing	missing	missing	10	nopreview	6	9	297	0	0	0	0	297
7	9	@entity2	Malaysia	Malaysia	10	nopreview	6	10	178	178	475	178	178	0
8			Airlines	Airlines	10	nopreview	6	11	415	415	415	234	415	0
9			Flight	Flight	10	nopreview	6	12	0	0	0	0	0	0
10			370	370	10	nopreview	6	13	150	150	150	150	150	0
11	10	looks	looks	looks	10	nopreview	6	14	196	196	196	196	196	0
12	11	set	set	set	10	nopreview	6	15	163	163	163	163	163	0
13	12	to	to	to	10	nopreview	6	16	0	0	0	0	0	0
14	13	double	double	double	10	nopreview	6	17	155	0	0	0	0	155
15	14	in	in	in	10	nopreview	6	18	0	0	0	0	0	0
16	15	size	size	size.	10	nopreview	6	19	531	126	686	126	531	405
	16	.	.		10	nopreview	6	20						
17	17	Teams	Teams	Teams	10	nopreview	6	21	0	0	0	0	0	0
18	18	are	are	are	10	nopreview	6	22	232	232	232	232	232	0
19	19	scouring	scouring	scouring	10	nopreview	6	23	205	205	205	205	205	0
20	20	the	the	the	10	nopreview	6	24	0	0	0	0	0	0
21	21	depths	depths	depths	10	nopreview	6	25	207	207	207	207	207	0
22	22	of	of	of	10	nopreview	6	26	0	0	0	0	0	0
23	23	a	a	a	10	nopreview	6	27	0	0	0	0	0	0
24	24	remote	remote	remote	10	nopreview	6	28	216	216	216	216	216	0
25	25	part	part	part	10	nopreview	6	29	149	149	149	149	149	0
26	26	of	of	of	10	nopreview	6	30	0	0	0	0	0	0
27	27	the	the	the	10	nopreview	6	31	194	0	0	0	0	194
28	28	southern	southern	southern	10	nopreview	6	32	538	390	390	390	390	148
29	29	@entity7	Indian	Indian	10	nopreview	6	33	326	174	668	174	326	152
30			Ocean	Ocean	10	nopreview	6	34	0	0	0	0	0	0
31	30	for	for	for	10	nopreview	6	35	190	0	0	0	0	190
32	31	the	the	the	10	nopreview	6	36	115	115	305	115	115	0
33	32	remains	remains	remains	10	nopreview	6	37	205	205	205	205	205	0
34	33	of	of	of	10	nopreview	6	38	147	147	147	147	147	0
35	34	the	the	the	10	nopreview	6	39	0	0	0	0	0	0
36	35	passenger	passenger	passenger	10	nopreview	6	40	207	207	207	207	207	0
37	36	jet	jet	jet	10	nopreview	6	41	0	0	0	0	0	0
38	37	that	that	that	10	nopreview	6	42	297	297	297	297	297	0
39	38	disappeared	disappeared	disappeared	10	nopreview	6	43	204	204	204	204	204	0
40	39	more	more	more	10	nopreview	6	44	86	0	0	0	0	86
41	40	than	than	than	10	nopreview	6	45	174	174	260	174	174	0
42	41	a	a	a	10	nopreview	6	46	0	0	0	0	0	0
43	42	year	year	year	10	nopreview	6	47	163	163	163	163	163	0
44	43	ago	ago	ago	10	nopreview	6	48	0	0	0	0	0	0
45	44	with	with	with	10	nopreview	6	49	120	120	120	120	120	0
46	45	239	239	239	10	nopreview	6	50	209	0	0	0	0	209
47	46	people	people	people	10	nopreview	6	51	305	0	0	0	0	305
48	47	on	on	on	10	nopreview	6	52	104	104	618	104	104	0
49	48	board	board	board.	10	nopreview	6	53	180	180	180	180	180	0
	49	.	.		10	nopreview	6	54						
50	50	So	So	So	10	nopreview	6	55	0	0	0	0	0	0
51	51	far	far	far,	10	nopreview	6	56	721	721	721	172	721	0
	52	,	,		10	nopreview	6	57						
52	53	they	they	they-ve	10	nopreview	6	58	0	0	0	0	0	0
	54	-ve	-ve		10	nopreview	6	59						
53	55	covered	covered	covered	10	nopreview	6	60	685	685	685	292	685	0
54	56	about	about	about	10	nopreview	6	61	125	0	0	0	0	125
55	57	60	60	60%	10	nopreview	6	62	191	191	316	191	191	0
	58	%	%		10	nopreview	6	63						
56	59	of	of	of	10	nopreview	6	64	0	0	0	0	0	0
57	60	the	the	the	10	nopreview	6	65	174	174	174	174	174	0
58	61	priority	priority	priority	10	nopreview	6	66	564	564	564	564	564	0
59	62	search	search	search	10	nopreview	6	67	188	188	188	188	188	0
60	63	zone	zone	zone	10	nopreview	6	68	97	97	97	97	97	0
61	64	without	without	without	10	nopreview	6	69	212	0	0	0	0	212
62	65	reporting	reporting	reporting	10	nopreview	6	70	220	0	0	0	0	220
63	66	any	any	any	10	nopreview	6	71	108	108	320	108	108	0
64	67	trace	trace	trace	10	nopreview	6	72	628	375	848	375	628	253
65	68	of	of	of	10	nopreview	6	73	0	0	0	0	0	0
66	69	the	the	the	10	nopreview	6	74	0	0	0	0	0	0
67	70	airliner	airliner	airliner.	10	nopreview	6	75	368	368	368	196	368	0
	71	.	.		10	nopreview	6	76						
68	72	Families	Families	Families	10	nopreview	6	77	201	0	0	0	0	201
69	73	of	of	of	10	nopreview	6	78	0	0	0	0	0	0
70	74	passengers	passengers	passengers	10	nopreview	6	79	1258	964	1459	964	1258	294
71	75	and	and	and	10	nopreview	6	80	0	0	0	0	0	0
72	76	crew	crew	crew	10	nopreview	6	81	282	282	282	282	282	0
73	77	members	members	members	10	nopreview	6	82	88	88	88	88	88	0
74	78	still	still	still	10	nopreview	6	83	0	0	0	0	0	0
75	79	have	have	have	10	nopreview	6	84	230	230	230	230	230	0
76	80	no	no	no	10	nopreview	6	85	0	0	230	0	0	0
77	81	answers	answers	answers	10	nopreview	6	86	264	0	0	0	0	264
78	82	about	about	about	10	nopreview	6	87	464	359	359	359	359	105
79	83	what	what	what	10	nopreview	6	88	0	0	0	0	0	0
80	84	happened	happened	happened	10	nopreview	6	89	520	196	889	196	520	324
81	85	to	to	to	10	nopreview	6	90	0	0	0	0	0	0
82	86	their	their	their	10	nopreview	6	91	366	366	366	366	366	0
83	87	loved	loved	loved	10	nopreview	6	92	165	165	165	165	165	0
84	88	ones	ones	ones.	10	nopreview	6	93	533	533	533	533	533	0
	89	.	.		10	nopreview	6	94						
85	90	If	If	If	10	nopreview	6	95	0	0	0	0	0	0
86	91	the	the	the	10	nopreview	6	96	153	153	153	153	153	0
87	92	searchers	searchers	searchers	10	nopreview	6	97	161	161	161	161	161	0
88	93	have	have	haven-t	10	nopreview	6	98	187	0	0	0	0	187
	94	n-t	n-t		10	nopreview	6	99						
89	95	found	found	found	10	nopreview	6	100	334	0	0	0	0	334
90	96	anything	anything	anything	10	nopreview	6	101	483	209	1004	209	483	274
91	97	by	by	by	10	nopreview	6	102	0	0	0	0	0	0
92	98	the	the	the	10	nopreview	6	103	521	521	521	521	521	0
93	99	time	time	time	10	nopreview	6	104	0	0	0	0	0	0
94	100	they	they	they-ve	10	nopreview	6	105	348	255	255	255	255	93
	101	-ve	-ve		10	nopreview	6	106						
95	102	covered	covered	covered	10	nopreview	6	107	0	0	0	0	0	0
96	103	the	the	the	10	nopreview	6	108	0	0	0	0	0	0
97	104	entire	entire	entire	10	nopreview	6	109	483	398	576	398	483	85
98	105	60,000	60,000	60,000-square-kilometer	10	nopreview	6	110	1142	1142	1142	770	1142	0
	106	-	-		10	nopreview	6	111						
	107	square	square		10	nopreview	6	112						
	108	-	-		10	nopreview	6	113						
	109	kilometer	kilometer		10	nopreview	6	114						
99	110	priority	priority	priority	10	nopreview	6	115	185	0	0	0	0	185
100	111	zone	zone	zone,	10	nopreview	6	116	0	0	0	0	0	0
	112	,	,		10	nopreview	6	117						
101	113	the	the	the	10	nopreview	6	118	0	0	0	0	0	0
102	114	search	search	search	10	nopreview	6	119	527	93	523	93	338	434
103	115	will	will	will	10	nopreview	6	120	248	0	0	0	0	248
104	116	stretch	stretch	stretch	10	nopreview	6	121	529	236	847	236	410	293
105	117	into	into	into	10	nopreview	6	122	328	0	0	0	0	328
106	118	a	a	a	10	nopreview	6	123	0	0	0	0	0	0
107	119	new	new	new	10	nopreview	6	124	225	225	672	225	225	0
108	120	equally	equally	equally	10	nopreview	6	125	201	201	201	201	201	0
109	121	vast	vast	vast	10	nopreview	6	126	0	0	0	0	0	0
110	122	area	area	area,	10	nopreview	6	127	592	592	592	235	592	0
	123	,	,		10	nopreview	6	128						
111	124	government	government	government	10	nopreview	6	129	100	100	100	100	100	0
112	125	officials	officials	officials	10	nopreview	6	130	130	0	0	0	0	130
113	126	from	from	from	10	nopreview	6	131	98	98	228	98	98	0
114	127	@entity23	Malaysia	Malaysia,	10	nopreview	6	132	294	294	294	164	294	0
	128	,	,		10	nopreview	6	133						
115	129	@entity24	Australia	Australia	10	nopreview	6	134	213	213	213	213	213	0
116	130	and	and	and	10	nopreview	6	135	0	0	0	0	0	0
117	131	@entity25	China	China	10	nopreview	6	136	277	277	277	139	277	0
118	132	announced	announced	announced	10	nopreview	6	137	333	333	333	333	333	0
119	133	Thursday	Thursday	Thursday.	10	nopreview	6	138	1564	1564	1564	279	1564	0
	134	.	.		10	nopreview	6	139						
120	135	-	-	-Ministers	10	nopreview	6	140	228	228	228	228	228	0
	136	Ministers	Ministers		10	nopreview	6	141						
121	137	remain	remain	remain	10	nopreview	6	142	155	155	155	155	155	0
122	138	committed	committed	committed	10	nopreview	6	143	235	235	235	235	235	0
123	139	to	to	to	10	nopreview	6	144	0	0	0	0	0	0
124	140	bring	bring	bring	10	nopreview	6	145	284	0	235	0	0	284
125	141	closure	closure	closure	10	nopreview	6	146	150	150	434	150	150	0
126	142	and	and	and	10	nopreview	6	147	281	281	281	281	281	0
127	143	some	some	some	10	nopreview	6	148	0	0	0	0	0	0
128	144	peace	peace	peace	10	nopreview	6	149	216	216	216	216	216	0
129	145	to	to	to	10	nopreview	6	150	0	0	0	0	0	0
130	146	the	the	the	10	nopreview	6	151	0	0	0	0	0	0
131	147	families	families	families	10	nopreview	6	152	157	157	157	157	157	0
132	148	and	and	and	10	nopreview	6	153	0	0	0	0	0	0
133	149	loved	loved	loved	10	nopreview	6	154	246	246	246	246	246	0
134	150	ones	ones	ones	10	nopreview	6	155	0	0	0	0	0	0
135	151	of	of	of	10	nopreview	6	156	168	168	168	168	168	0
136	152	those	those	those	10	nopreview	6	157	186	186	186	186	186	0
137	153	on	on	on	10	nopreview	6	158	101	101	101	101	101	0
138	154	board	board	board	10	nopreview	6	159	166	0	0	0	0	166
139	155	@entity2	Malaysia	Malaysia	10	nopreview	6	160	165	0	0	0	0	165
140			Airlines	Airlines	10	nopreview	6	161	249	100	580	100	249	149
141			Flight	Flight	10	nopreview	6	162	179	179	179	179	179	0
142			MH370	MH370,-	10	nopreview	6	163	910	775	775	775	775	135
	156	,	,		10	nopreview	6	164						
	157	-	-		10	nopreview	6	165						
143	158	the	the	the	10	nopreview	6	166	0	0	0	0	0	0
144	159	three	three	three	10	nopreview	6	167	178	0	0	0	0	178
145	160	countries	countries	countries	10	nopreview	6	168	0	0	0	0	0	0
146	161	said	said	said	10	nopreview	6	169	148	148	148	148	148	0
147	162	in	in	in	10	nopreview	6	170	0	0	0	0	0	0
148	163	a	a	a	10	nopreview	6	171	0	0	0	0	0	0
149	164	joint	joint	joint	10	nopreview	6	172	437	437	437	192	437	0
150	165	statement	statement	statement.	10	nopreview	6	173	716	270	1029	270	716	446
	166	.	.		10	nopreview	6	174						
151	167	The	The	The	10	nopreview	6	175	0	0	0	0	0	0
152	168	search	search	search	10	nopreview	6	176	205	0	0	0	0	205
153	169	of	of	of	10	nopreview	6	177	0	0	0	0	0	0
154	170	the	the	the	10	nopreview	6	178	105	0	0	0	0	105
155	171	current	current	current	10	nopreview	6	179	334	0	0	0	0	334
156	172	priority	priority	priority	10	nopreview	6	180	334	0	0	0	0	334
157	173	zone	zone	zone	10	nopreview	6	181	0	0	0	0	0	0
158	174	is	is	is	10	nopreview	6	182	0	0	0	0	0	0
159	175	expected	expected	expected	10	nopreview	6	183	230	0	0	0	0	230
160	176	to	to	to	10	nopreview	6	184	0	0	0	0	0	0
161	177	be	be	be	10	nopreview	6	185	0	0	0	0	0	0
162	178	completed	completed	completed	10	nopreview	6	186	205	0	0	0	0	205
163	179	in	in	in	10	nopreview	6	187	0	0	0	0	0	0
164	180	May	May	May.	10	nopreview	6	188	576	0	0	0	0	576
	181	.	.		10	nopreview	6	189						
165	182	Covering	Covering	Covering	10	nopreview	6	190	145	0	0	0	0	145
166	183	the	the	the	10	nopreview	6	191	0	0	0	0	0	0
167	184	new	new	new	10	nopreview	6	192	183	0	0	0	0	183
168	185	zone	zone	zone	10	nopreview	6	193	239	135	2556	135	239	104
169	186	could	could	could	10	nopreview	6	194	0	0	0	0	0	0
170	187	take	take	take	10	nopreview	6	195	255	255	255	255	255	0
171	188	as	as	as	10	nopreview	6	196	0	0	0	0	0	0
172	189	long	long	long	10	nopreview	6	197	0	0	0	0	0	0
173	190	as	as	as	10	nopreview	6	198	175	175	175	175	175	0
174	191	a	a	a	10	nopreview	6	199	0	0	0	0	0	0
175	192	year	year	year.	10	nopreview	6	200	170	170	170	170	170	0
	193	.	.		10	nopreview	6	201						
176	194	At	At	At	10	nopreview	6	202	0	0	0	0	0	0
177	195	that	that	that	10	nopreview	6	203	159	0	0	0	0	159
178	196	point	point	point,	10	nopreview	6	204	140	140	299	140	140	0
	197	,	,		10	nopreview	6	205						
179	198	-	-	-all	10	nopreview	6	206	0	0	0	0	0	0
	199	all	all		10	nopreview	6	207						
180	200	high	high	high	10	nopreview	6	208	242	242	242	242	242	0
181	201	probability	probability	probability	10	nopreview	6	209	131	131	131	131	131	0
182	202	search	search	search	10	nopreview	6	210	177	177	177	177	177	0
183	203	areas	areas	areas	10	nopreview	6	211	0	0	0	0	0	0
184	204	would	would	would	10	nopreview	6	212	0	0	0	0	0	0
185	205	have	have	have	10	nopreview	6	213	154	154	154	154	154	0
186	206	been	been	been	10	nopreview	6	214	114	0	0	0	0	114
187	207	covered	covered	covered,-	10	nopreview	6	215	325	325	439	162	325	0
	208	,	,		10	nopreview	6	216						
	209	-	-		10	nopreview	6	217						
188	210	the	the	the	10	nopreview	6	218	0	0	0	0	0	0
189	211	governments	governments	governments	10	nopreview	6	219	201	201	201	201	201	0
190	212	said	said	said	10	nopreview	6	220	119	0	0	0	0	119
191	213	Thursday	Thursday	Thursday.	10	nopreview	6	221	162	162	281	162	162	0
	214	.	.		10	nopreview	6	222						
192	215	The	The	The	10	nopreview	6	223	0	0	0	0	0	0
193	216	size	size	size	10	nopreview	6	224	235	235	235	235	235	0
194	217	of	of	of	10	nopreview	6	225	108	108	108	108	108	0
195	218	the	the	the	10	nopreview	6	226	0	0	0	0	0	0
196	219	doubled	doubled	doubled	10	nopreview	6	227	191	0	0	0	0	191
197	220	search	search	search	10	nopreview	6	228	107	107	298	107	107	0
198	221	area	area	area,	10	nopreview	6	229	177	177	177	177	177	0
	222	,	,		10	nopreview	6	230						
199	223	the	the	the	10	nopreview	6	231	0	0	0	0	0	0
200	224	equivalent	equivalent	equivalent	10	nopreview	6	232	240	240	240	240	240	0
201	225	of	of	of	10	nopreview	6	233	0	0	0	0	0	0
202	226	more	more	more	10	nopreview	6	234	131	0	0	0	0	131
203	227	than	than	than	10	nopreview	6	235	150	150	281	150	150	0
204	228	46,000	46,000	46,000	10	nopreview	6	236	164	164	164	164	164	0
205	229	square	square	square	10	nopreview	6	237	239	239	239	239	239	0
206	230	miles	miles	miles,	10	nopreview	6	238	157	157	157	157	157	0
	231	,	,		10	nopreview	6	239						
207	232	would	would	would	10	nopreview	6	240	0	0	0	0	0	0
208	233	be	be	be	10	nopreview	6	241	242	242	242	242	242	0
209	234	bigger	bigger	bigger	10	nopreview	6	242	0	0	0	0	0	0
210	235	than	than	than	10	nopreview	6	243	0	0	0	0	0	0
211	236	the	the	the	10	nopreview	6	244	177	0	0	0	0	177
212	237	@entity50	U.S.	U.S.	10	nopreview	6	245	129	129	306	129	129	0
213	238	state	state	state	10	nopreview	6	246	423	252	252	252	252	171
214	239	of	of	of	10	nopreview	6	247	0	0	0	0	0	0
215	240	@entity51	Pennsylvania	Pennsylvania.	10	nopreview	6	248	585	316	756	316	585	269
	241	.	.		10	nopreview	6	249						
216	242	Flight	Flight	Flight	10	nopreview	6	250	197	197	197	197	197	0
217	243	370	370	370	10	nopreview	6	251	0	0	0	0	0	0
218	244	vanished	vanished	vanished	10	nopreview	6	252	488	488	488	259	488	0
219	245	after	after	after	10	nopreview	6	253	0	0	0	0	0	0
220	246	taking	taking	taking	10	nopreview	6	254	251	251	251	167	251	0
221	247	off	off	off	10	nopreview	6	255	0	0	0	0	0	0
222	248	from	from	from	10	nopreview	6	256	227	227	227	227	227	0
223	249	@entity53	Kuala	Kuala	10	nopreview	6	257	0	0	0	0	0	0
224			Lumpur	Lumpur,	10	nopreview	6	258	391	0	0	0	0	391
	250	,	,		10	nopreview	6	259						
225	251	@entity23	Malaysia	Malaysia,	10	nopreview	6	260	380	102	771	102	380	278
	252	,	,		10	nopreview	6	261						
226	253	on	on	on	10	nopreview	6	262	0	0	0	0	0	0
227	254	March	March	March	10	nopreview	6	263	399	399	399	164	399	0
228	255	8	8	8,	10	nopreview	6	264	0	0	0	0	0	0
	256	,	,		10	nopreview	6	265						
229	257	2014	2014	2014,	10	nopreview	6	266	0	0	0	0	0	0
	258	,	,		10	nopreview	6	267						
230	259	bound	bound	bound	10	nopreview	6	268	195	195	195	195	195	0
231	260	for	for	for	10	nopreview	6	269	106	106	106	106	106	0
232	261	@entity54	Beijing	Beijing.	10	nopreview	6	270	530	530	530	530	530	0
	262	.	.		10	nopreview	6	271						
233	263	Officials	Officials	Officials	10	nopreview	6	272	477	477	477	477	477	0
234	264	are	are	are	10	nopreview	6	273	0	0	0	0	0	0
235	265	still	still	still	10	nopreview	6	274	108	108	108	108	108	0
236	266	trying	trying	trying	10	nopreview	6	275	175	175	175	175	175	0
237	267	to	to	to	10	nopreview	6	276	0	0	0	0	0	0
238	268	figure	figure	figure	10	nopreview	6	277	0	0	0	0	0	0
239	269	out	out	out	10	nopreview	6	278	257	257	257	257	257	0
240	270	why	why	why	10	nopreview	6	279	88	0	0	0	0	88
241	271	it	it	it	10	nopreview	6	280	175	0	0	0	0	175
242	272	veered	veered	veered	10	nopreview	6	281	359	226	622	226	359	133
243	273	dramatically	dramatically	dramatically	10	nopreview	6	282	263	263	263	263	263	0
244	274	off	off	off	10	nopreview	6	283	0	0	0	0	0	0
245	275	course	course	course	10	nopreview	6	284	654	0	0	0	0	654
246	276	over	over	over	10	nopreview	6	285	569	0	0	0	0	569
247	277	the	the	the	10	nopreview	6	286	224	0	0	0	0	224
248	278	sea	sea	sea	10	nopreview	6	287	412	307	1192	307	412	105
249	279	between	between	between	10	nopreview	6	288	674	334	1341	334	674	340
250	280	@entity23	Malaysia	Malaysia	10	nopreview	6	289	324	324	324	324	324	0
251	281	and	and	and	10	nopreview	6	290	0	0	0	0	0	0
252	282	@entity58	Vietnam	Vietnam	10	nopreview	6	291	1491	0	0	0	0	1491
253	283	and	and	and	10	nopreview	6	292	0	0	0	0	0	0
254	284	where	where	where	10	nopreview	6	293	755	155	2246	155	755	600
255	285	exactly	exactly	exactly	10	nopreview	6	294	157	157	157	157	157	0
256	286	it	it	it	10	nopreview	6	295	0	0	0	0	0	0
257	287	ended	ended	ended	10	nopreview	6	296	337	337	337	337	337	0
258	288	up	up	up.	10	nopreview	6	297	188	188	188	188	188	0
	289	.	.		10	nopreview	6	298						
259	290	An	An	An	10	nopreview	6	299	0	0	0	0	0	0
260	291	international	international	international	10	nopreview	6	300	130	130	130	130	130	0
261	292	team	team	team	10	nopreview	6	301	165	165	165	165	165	0
262	293	of	of	of	10	nopreview	6	302	328	328	328	328	328	0
263	294	experts	experts	experts	10	nopreview	6	303	156	156	156	156	156	0
264	295	used	used	used	10	nopreview	6	304	109	109	109	109	109	0
265	296	satellite	satellite	satellite	10	nopreview	6	305	314	0	0	0	0	314
266	297	data	data	data	10	nopreview	6	306	108	0	0	0	0	108
267	298	to	to	to	10	nopreview	6	307	193	0	0	0	0	193
268	299	calculate	calculate	calculate	10	nopreview	6	308	1033	96	1432	96	817	937
269	300	that	that	that	10	nopreview	6	309	263	0	0	0	0	263
270	301	the	the	the	10	nopreview	6	310	483	0	0	0	0	483
271	302	plane	plane	plane	10	nopreview	6	311	166	166	1128	166	166	0
272	303	eventually	eventually	eventually	10	nopreview	6	312	0	0	0	0	0	0
273	304	went	went	went	10	nopreview	6	313	0	0	0	0	0	0
274	305	down	down	down	10	nopreview	6	314	134	134	134	134	134	0
275	306	in	in	in	10	nopreview	6	315	0	0	0	0	0	0
276	307	the	the	the	10	nopreview	6	316	839	839	839	378	839	0
277	308	southern	southern	southern	10	nopreview	6	317	0	0	0	0	0	0
278	309	@entity7	Indian	Indian	10	nopreview	6	318	414	414	414	245	414	0
279			Ocean	Ocean,	10	nopreview	6	319	0	0	0	0	0	0
	310	,	,		10	nopreview	6	320						
280	311	far	far	far	10	nopreview	6	321	552	552	552	302	552	0
281	312	off	off	off	10	nopreview	6	322	0	0	0	0	0	0
282	313	the	the	the	10	nopreview	6	323	0	0	0	0	0	0
283	314	coast	coast	coast	10	nopreview	6	324	174	174	174	174	174	0
284	315	of	of	of	10	nopreview	6	325	0	0	0	0	0	0
285	316	@entity24	Western	Western	10	nopreview	6	326	0	0	0	0	0	0
286			Australia	Australia.	10	nopreview	6	327	0	0	0	0	0	0
	317	.	.		10	nopreview	6	328						
287	318	The	The	The	10	nopreview	6	329	0	0	0	0	0	0
288	319	people	people	people	10	nopreview	6	330	464	464	464	325	464	0
289	320	on	on	on	10	nopreview	6	331	0	0	0	0	0	0
290	321	board	board	board	10	nopreview	6	332	344	344	344	344	344	0
291	322	the	the	the	10	nopreview	6	333	0	0	0	0	0	0
292	323	@entity64	Boeing	Boeing	10	nopreview	6	334	109	109	109	109	109	0
293			777	777	10	nopreview	6	335	189	189	189	189	189	0
294	324	came	came	came	10	nopreview	6	336	146	0	189	0	0	146
295	325	from	from	from	10	nopreview	6	337	234	234	380	234	234	0
296	326	various	various	various	10	nopreview	6	338	232	232	232	232	232	0
297	327	nations	nations	nations,	10	nopreview	6	339	0	0	0	0	0	0
	328	,	,		10	nopreview	6	340						
298	329	but	but	but	10	nopreview	6	341	0	0	0	0	0	0
299	330	the	the	the	10	nopreview	6	342	256	256	256	256	256	0
300	331	majority	majority	majority	10	nopreview	6	343	0	0	0	0	0	0
301	332	were	were	were	10	nopreview	6	344	0	0	0	0	0	0
302	333	@entity25	Chinese	Chinese.	10	nopreview	6	345	0	0	0	0	0	0
	334	.	.		10	nopreview	6	346						
