HumanPosition	AnonymizedPosition	AnonymizedToken	OriginalToken	ExperimentToken	Participant	Condition	TextNo	JointPosition	tt	fp	rp	ff	rb	sp
1	0	(	(	In	10	nopreview	9	1	0	0	0	0	0	0
2	1	@entity0	CNN	cities	10	nopreview	9	2	255	255	255	144	255	0
	2	)	)		10	nopreview	9	3						
	3	[	[		10	nopreview	9	4						
	4	Breaking	Breaking		10	nopreview	9	5						
	5	news	news		10	nopreview	9	6						
	6	update	update		10	nopreview	9	7						
	7	,	,		10	nopreview	9	8						
	8	posted	posted		10	nopreview	9	9						
	9	at	at		10	nopreview	9	10						
	10	11:52	11:52		10	nopreview	9	11						
	11	p.m.	p.m.		10	nopreview	9	12						
	12	ET	ET		10	nopreview	9	13						
	13	]	]		10	nopreview	9	14						
	14	@entity3	Denver		10	nopreview	9	15						
	15	police	police		10	nopreview	9	16						
	16	report	report		10	nopreview	9	17						
	17	nine	nine		10	nopreview	9	18						
	18	arrests	arrests		10	nopreview	9	19						
	19	in	in		10	nopreview	9	20						
	20	Wednesday	Wednesday		10	nopreview	9	21						
	21	-s	-s		10	nopreview	9	22						
	22	demonstrations	demonstrations		10	nopreview	9	23						
	23	.	.		10	nopreview	9	24						
	24	The	The		10	nopreview	9	25						
	25	charges	charges		10	nopreview	9	26						
	26	include	include		10	nopreview	9	27						
	27	assault	assault		10	nopreview	9	28						
	28	of	of		10	nopreview	9	29						
	29	a	a		10	nopreview	9	30						
	30	police	police		10	nopreview	9	31						
	31	officer	officer		10	nopreview	9	32						
	32	,	,		10	nopreview	9	33						
	33	robbery	robbery		10	nopreview	9	34						
	34	,	,		10	nopreview	9	35						
	35	resisting	resisting		10	nopreview	9	36						
	36	police	police		10	nopreview	9	37						
	37	,	,		10	nopreview	9	38						
	38	disobedience	disobedience		10	nopreview	9	39						
	39	to	to		10	nopreview	9	40						
	40	lawful	lawful		10	nopreview	9	41						
	41	orders	orders		10	nopreview	9	42						
	42	,	,		10	nopreview	9	43						
	43	obstructing	obstructing		10	nopreview	9	44						
	44	roadways	roadways		10	nopreview	9	45						
	45	,	,		10	nopreview	9	46						
	46	and	and		10	nopreview	9	47						
	47	interference	interference		10	nopreview	9	48						
	48	.	.		10	nopreview	9	49						
	49	[	[		10	nopreview	9	50						
	50	Previous	Previous		10	nopreview	9	51						
	51	story	story		10	nopreview	9	52						
	52	,	,		10	nopreview	9	53						
	53	posted	posted		10	nopreview	9	54						
	54	at	at		10	nopreview	9	55						
	55	10:54	10:54		10	nopreview	9	56						
	56	p.m.	p.m.		10	nopreview	9	57						
	57	ET	ET		10	nopreview	9	58						
	58	]	]		10	nopreview	9	59						
	59	(	(		10	nopreview	9	60						
	60	@entity0	CNN		10	nopreview	9	61						
	61	)	)		10	nopreview	9	62						
	62	--	--		10	nopreview	9	63						
	63	In	In		10	nopreview	9	64						
	64	cities	cities		10	nopreview	9	65						
3	65	across	across	across	10	nopreview	9	66	156	156	156	156	156	0
4	66	the	the	the	10	nopreview	9	67	235	235	235	235	235	0
5	67	@entity17	United	United	10	nopreview	9	68	0	0	0	0	0	0
6			States	States,	10	nopreview	9	69	1432	1432	1432	229	1432	0
	68	,	,		10	nopreview	9	70						
7	69	marchers	marchers	marchers	10	nopreview	9	71	189	189	189	189	189	0
8	70	took	took	took	10	nopreview	9	72	319	0	0	0	0	319
9	71	to	to	to	10	nopreview	9	73	142	142	295	142	142	0
10	72	the	the	the	10	nopreview	9	74	0	0	0	0	0	0
11	73	streets	streets	streets	10	nopreview	9	75	191	191	191	191	191	0
12	74	to	to	to	10	nopreview	9	76	163	0	0	0	0	163
13	75	show	show	show	10	nopreview	9	77	186	186	186	186	186	0
14	76	support	support	support	10	nopreview	9	78	497	208	208	208	208	289
15	77	for	for	for	10	nopreview	9	79	262	262	423	262	262	0
16	78	protesters	protesters	protesters	10	nopreview	9	80	321	0	0	0	0	321
17	79	in	in	in	10	nopreview	9	81	308	116	323	116	116	192
18	80	@entity21	Baltimore	Baltimore	10	nopreview	9	82	598	443	4336	443	443	155
19	81	and	and	and	10	nopreview	9	83	211	211	211	211	211	0
20	82	to	to	to	10	nopreview	9	84	0	0	0	0	0	0
21	83	complain	complain	complain	10	nopreview	9	85	371	371	371	371	371	0
22	84	about	about	about	10	nopreview	9	86	320	147	147	147	147	173
23	85	police	police	police	10	nopreview	9	87	490	241	241	241	241	249
24	86	violence	violence	violence	10	nopreview	9	88	765	429	429	236	429	336
25	87	in	in	in	10	nopreview	9	89	0	0	0	0	0	0
26	88	their	their	their	10	nopreview	9	90	177	177	573	177	177	0
27	89	own	own	own	10	nopreview	9	91	475	223	223	223	223	252
28	90	towns	towns	towns.	10	nopreview	9	92	975	975	975	975	975	0
	91	.	.		10	nopreview	9	93						
29	92	On	On	On	10	nopreview	9	94	97	97	211	97	97	0
30	93	Wednesday	Wednesday	Wednesday	10	nopreview	9	95	142	142	142	142	142	0
31	94	night	night	night,	10	nopreview	9	96	762	762	762	167	762	0
	95	,	,		10	nopreview	9	97						
32	96	several	several	several	10	nopreview	9	98	166	166	166	166	166	0
33	97	hundred	hundred	hundred	10	nopreview	9	99	155	155	155	155	155	0
34	98	people	people	people	10	nopreview	9	100	339	158	158	158	158	181
35	99	streamed	streamed	streamed	10	nopreview	9	101	374	169	169	169	169	205
36	100	into	into	into	10	nopreview	9	102	0	0	0	0	0	0
37	101	@entity25	Union	Union	10	nopreview	9	103	651	347	2455	229	651	304
38			Square	Square	10	nopreview	9	104	0	0	0	0	0	0
39	102	for	for	for	10	nopreview	9	105	125	125	125	125	125	0
40	103	an	an	an	10	nopreview	9	106	0	0	0	0	0	0
41	104	-	-	-NYC	10	nopreview	9	107	207	207	207	207	207	0
	105	@entity26	NYC		10	nopreview	9	108						
42			Rise	Rise	10	nopreview	9	109	100	100	100	100	100	0
43			Up	Up	10	nopreview	9	110	0	0	0	0	0	0
44	106	&	&	&	10	nopreview	9	111	234	234	234	234	234	0
45	107	Shut	Shut	Shut	10	nopreview	9	112	370	0	0	0	0	370
46	108	It	It	It	10	nopreview	9	113	362	0	0	0	0	362
47	109	Down	Down	Down	10	nopreview	9	114	150	150	882	150	150	0
48	110	With	With	With	10	nopreview	9	115	258	0	0	0	0	258
49	111	@entity21	Baltimore	Baltimore-	10	nopreview	9	116	328	136	586	136	328	192
	112	-	-		10	nopreview	9	117						
50	113	rally	rally	rally.	10	nopreview	9	118	271	271	271	271	271	0
	114	.	.		10	nopreview	9	119						
51	115	Protesters	Protesters	Protesters	10	nopreview	9	120	421	421	421	103	421	0
52	116	headed	headed	headed	10	nopreview	9	121	210	210	210	210	210	0
53	117	west	west	west	10	nopreview	9	122	0	0	0	0	0	0
54	118	on	on	on	10	nopreview	9	123	445	178	178	178	178	267
55	119	17th	17th	17th	10	nopreview	9	124	0	0	0	0	0	0
56	120	Street	Street	Street	10	nopreview	9	125	526	204	204	204	204	322
57	121	and	and	and	10	nopreview	9	126	310	181	899	181	310	129
58	122	were	were	were	10	nopreview	9	127	225	0	0	0	0	225
59	123	met	met	met	10	nopreview	9	128	198	0	0	0	0	198
60	124	by	by	by	10	nopreview	9	129	0	0	0	0	0	0
61	125	@entity31	New	New	10	nopreview	9	130	0	0	0	0	0	0
62			York	York	10	nopreview	9	131	190	0	0	0	0	190
63			City	City	10	nopreview	9	132	0	0	0	0	0	0
64			Police	Police	10	nopreview	9	133	331	115	944	115	331	216
65	126	officers	officers	officers	10	nopreview	9	134	177	177	177	177	177	0
66	127	who	who	who	10	nopreview	9	135	0	0	0	0	0	0
67	128	pushed	pushed	pushed	10	nopreview	9	136	269	269	269	269	269	0
68	129	them	them	them	10	nopreview	9	137	0	0	0	0	0	0
69	130	back	back	back.	10	nopreview	9	138	457	457	457	157	457	0
	131	.	.		10	nopreview	9	139						
70	132	A	A	A	10	nopreview	9	140	0	0	0	0	0	0
71	133	small	small	small	10	nopreview	9	141	1304	1304	1304	318	1304	0
72	134	scuffle	scuffle	scuffle	10	nopreview	9	142	178	178	178	178	178	0
73	135	broke	broke	broke	10	nopreview	9	143	178	178	178	178	178	0
74	136	out	out	out	10	nopreview	9	144	0	0	0	0	0	0
75	137	between	between	between	10	nopreview	9	145	335	335	335	335	335	0
76	138	the	the	the	10	nopreview	9	146	211	211	211	211	211	0
77	139	two	two	two	10	nopreview	9	147	109	0	0	0	0	109
78	140	front	front	front	10	nopreview	9	148	235	235	235	235	235	0
79	141	lines	lines	lines	10	nopreview	9	149	570	370	370	189	370	200
80	142	and	and	and	10	nopreview	9	150	162	0	0	0	0	162
81	143	police	police	police	10	nopreview	9	151	457	232	232	232	232	225
82	144	placed	placed	placed	10	nopreview	9	152	250	250	250	250	250	0
83	145	at	at	at	10	nopreview	9	153	0	0	0	0	0	0
84	146	least	least	least	10	nopreview	9	154	450	261	261	261	261	189
85	147	20	20	20	10	nopreview	9	155	368	0	0	0	0	368
86	148	people	people	people	10	nopreview	9	156	796	196	196	196	196	600
87	149	in	in	in	10	nopreview	9	157	0	0	0	0	0	0
88	150	zip	zip	zip	10	nopreview	9	158	319	319	319	183	319	0
89	151	ties	ties	ties	10	nopreview	9	159	421	182	182	182	182	239
90	152	in	in	in	10	nopreview	9	160	129	129	2221	129	129	0
91	153	the	the	the	10	nopreview	9	161	0	0	0	0	0	0
92	154	street	street	street.	10	nopreview	9	162	0	0	0	0	0	0
	155	.	.		10	nopreview	9	163						
93	156	The	The	The	10	nopreview	9	164	210	210	210	210	210	0
94	157	@entity31	NYPD	NYPD	10	nopreview	9	165	103	0	0	0	0	103
95	158	also	also	also	10	nopreview	9	166	194	194	194	194	194	0
96	159	handed	handed	handed	10	nopreview	9	167	344	344	344	192	344	0
97	160	out	out	out	10	nopreview	9	168	0	0	0	0	0	0
98	161	fliers	fliers	fliers	10	nopreview	9	169	649	272	272	272	272	377
99	162	and	and	and	10	nopreview	9	170	0	0	0	0	0	0
100	163	used	used	used	10	nopreview	9	171	626	0	0	0	0	626
101	164	loudspeakers	loudspeakers	loudspeakers	10	nopreview	9	172	1397	744	2400	193	1397	653
102	165	to	to	to	10	nopreview	9	173	0	0	0	0	0	0
103	166	tell	tell	tell	10	nopreview	9	174	296	296	296	296	296	0
104	167	protesters	protesters	protesters	10	nopreview	9	175	367	367	470	367	367	0
105	168	and	and	and	10	nopreview	9	176	0	0	0	0	0	0
106	169	pedestrians	pedestrians	pedestrians	10	nopreview	9	177	271	271	271	271	271	0
107	170	to	to	to	10	nopreview	9	178	0	0	0	0	0	0
108	171	stay	stay	stay	10	nopreview	9	179	0	0	0	0	0	0
109	172	on	on	on	10	nopreview	9	180	264	0	0	0	0	264
110	173	the	the	the	10	nopreview	9	181	129	129	393	129	129	0
111	174	sidewalk	sidewalk	sidewalk.	10	nopreview	9	182	1355	1355	1355	1070	1355	0
	175	.	.		10	nopreview	9	183						
112	176	One	One	One	10	nopreview	9	184	0	0	0	0	0	0
113	177	person	person	person	10	nopreview	9	185	199	199	199	199	199	0
114	178	was	was	was	10	nopreview	9	186	0	0	0	0	0	0
115	179	placed	placed	placed	10	nopreview	9	187	218	218	218	218	218	0
116	180	in	in	in	10	nopreview	9	188	0	0	0	0	0	0
117	181	ambulance	ambulance	ambulance	10	nopreview	9	189	252	252	252	252	252	0
118	182	and	and	and	10	nopreview	9	190	0	0	0	0	0	0
119	183	taken	taken	taken	10	nopreview	9	191	276	276	276	183	276	0
120	184	away	away	away.	10	nopreview	9	192	0	0	0	0	0	0
	185	.	.		10	nopreview	9	193						
121	186	The	The	The	10	nopreview	9	194	248	0	0	0	0	248
122	187	crowd	crowd	crowd	10	nopreview	9	195	496	81	508	81	260	415
123	188	headed	headed	headed	10	nopreview	9	196	249	0	0	0	0	249
124	189	toward	toward	toward	10	nopreview	9	197	856	357	842	245	357	499
125	190	@entity47	Times	Times	10	nopreview	9	198	568	167	353	167	167	401
126			Square	Square.	10	nopreview	9	199	282	282	839	164	282	0
	191	.	.		10	nopreview	9	200						
127	192	A	A	A	10	nopreview	9	201	0	0	0	0	0	0
128	193	law	law	law	10	nopreview	9	202	0	0	0	0	0	0
129	194	enforcement	enforcement	enforcement	10	nopreview	9	203	610	459	767	205	610	151
130	195	source	source	source	10	nopreview	9	204	0	0	0	0	0	0
131	196	told	told	told	10	nopreview	9	205	298	298	298	298	298	0
132	197	@entity0	CNN	CNN	10	nopreview	9	206	0	0	0	0	0	0
133	198	that	that	that	10	nopreview	9	207	101	101	101	101	101	0
134	199	more	more	more	10	nopreview	9	208	0	0	0	0	0	0
135	200	than	than	than	10	nopreview	9	209	356	0	0	0	0	356
136	201	60	60	60	10	nopreview	9	210	117	117	306	117	117	0
137	202	people	people	people	10	nopreview	9	211	210	210	210	210	210	0
138	203	were	were	were	10	nopreview	9	212	0	0	0	0	0	0
139	204	arrested	arrested	arrested	10	nopreview	9	213	179	179	346	179	179	0
140	205	during	during	during	10	nopreview	9	214	174	174	174	174	174	0
141	206	the	the	the	10	nopreview	9	215	0	0	0	0	0	0
142	207	demonstrations	demonstrations	demonstrations.	10	nopreview	9	216	228	228	228	228	228	0
	208	.	.		10	nopreview	9	217						
143	209	The	The	The	10	nopreview	9	218	0	0	0	0	0	0
144	210	rally	rally	rally	10	nopreview	9	219	0	0	0	0	0	0
145	211	was	was	was	10	nopreview	9	220	208	208	208	208	208	0
146	212	organized	organized	organized	10	nopreview	9	221	142	142	142	142	142	0
147	213	through	through	through	10	nopreview	9	222	198	0	0	0	0	198
148	214	social	social	social	10	nopreview	9	223	0	0	0	0	0	0
149	215	media	media	media,	10	nopreview	9	224	108	108	306	108	108	0
	216	,	,		10	nopreview	9	225						
150	217	much	much	much	10	nopreview	9	226	199	199	199	199	199	0
151	218	like	like	like	10	nopreview	9	227	279	0	0	0	0	279
152	219	protests	protests	protests	10	nopreview	9	228	159	159	159	159	159	0
153	220	over	over	over	10	nopreview	9	229	166	0	0	0	0	166
154	221	the	the	the	10	nopreview	9	230	0	0	0	0	0	0
155	222	killing	killing	killing	10	nopreview	9	231	347	170	792	170	347	177
156	223	of	of	of	10	nopreview	9	232	0	0	0	0	0	0
157	224	@entity55	Eric	Eric	10	nopreview	9	233	0	0	0	0	0	0
158			Garner	Garner,	10	nopreview	9	234	408	408	408	191	408	0
	225	,	,		10	nopreview	9	235						
159	226	who	who	who	10	nopreview	9	236	0	0	0	0	0	0
160	227	died	died	died	10	nopreview	9	237	209	209	209	209	209	0
161	228	while	while	while	10	nopreview	9	238	422	422	422	422	422	0
162	229	police	police	police	10	nopreview	9	239	199	0	0	0	0	199
163	230	held	held	held	10	nopreview	9	240	522	98	520	98	98	424
164	231	him	him	him	10	nopreview	9	241	120	0	0	0	0	120
165	232	in	in	in	10	nopreview	9	242	394	152	152	152	152	242
166	233	what	what	what	10	nopreview	9	243	184	0	0	0	0	184
167	234	appeared	appeared	appeared	10	nopreview	9	244	147	147	1316	147	147	0
168	235	to	to	to	10	nopreview	9	245	0	0	0	0	0	0
169	236	be	be	be	10	nopreview	9	246	0	0	0	0	0	0
170	237	a	a	a	10	nopreview	9	247	253	253	253	253	253	0
171	238	chokehold	chokehold	chokehold.	10	nopreview	9	248	1055	1055	1055	101	1055	0
	239	.	.		10	nopreview	9	249						
172	240	The	The	The	10	nopreview	9	250	0	0	0	0	0	0
173	241	demonstrators	demonstrators	demonstrators	10	nopreview	9	251	466	466	466	205	466	0
174	242	chanted	chanted	chanted	10	nopreview	9	252	401	401	401	236	401	0
175	243	-	-	-Black	10	nopreview	9	253	144	0	0	0	0	144
	244	@entity60	Black		10	nopreview	9	254						
176			Lives	Lives	10	nopreview	9	255	479	128	623	128	479	351
177			Matter	Matter-	10	nopreview	9	256	175	175	175	175	175	0
	245	-	-		10	nopreview	9	257						
178	246	and	and	and	10	nopreview	9	258	0	0	0	0	0	0
179	247	-	-	-Justice	10	nopreview	9	259	314	201	201	201	201	113
	248	@entity61	Justice		10	nopreview	9	260						
180			for	for	10	nopreview	9	261	0	0	0	0	0	0
181			Freddie	Freddie	10	nopreview	9	262	518	356	356	356	356	162
182			Gray	Gray-	10	nopreview	9	263	395	395	395	395	395	0
	249	-	-		10	nopreview	9	264						
183	250	--	--	--	10	nopreview	9	265	0	0	0	0	0	0
184	251	the	the	the	10	nopreview	9	266	0	0	0	0	0	0
185	252	@entity21	Baltimore	Baltimore	10	nopreview	9	267	610	358	358	219	358	252
186	253	man	man	man	10	nopreview	9	268	0	0	0	0	0	0
187	254	whose	whose	whose	10	nopreview	9	269	936	367	367	253	367	569
188	255	death	death	death	10	nopreview	9	270	308	89	469	89	207	219
189	256	sparked	sparked	sparked	10	nopreview	9	271	769	0	0	0	0	769
190	257	street	street	street	10	nopreview	9	272	428	0	0	0	0	428
191	258	confrontations	confrontations	confrontations	10	nopreview	9	273	515	93	495	93	305	422
192	259	in	in	in	10	nopreview	9	274	0	0	0	0	0	0
193	260	@entity21	Baltimore	Baltimore.	10	nopreview	9	275	675	217	2827	217	675	458
	261	.	.		10	nopreview	9	276						
194	262	@entity0	CNN	CNN	10	nopreview	9	277	0	0	0	0	0	0
195	263	affiliate	affiliate	affiliate	10	nopreview	9	278	913	913	913	244	913	0
196	264	@entity65	WCBS	WCBS	10	nopreview	9	279	777	341	341	341	341	436
197	265	reported	reported	reported	10	nopreview	9	280	895	565	1331	565	895	330
198	266	Mayor	Mayor	Mayor	10	nopreview	9	281	553	197	197	197	197	356
199	267	@entity66	Bill	Bill	10	nopreview	9	282	663	497	1019	497	663	166
200			de	de	10	nopreview	9	283	107	107	107	107	107	0
201			Blasio	Blasio	10	nopreview	9	284	215	0	0	0	0	215
202	268	sent	sent	sent	10	nopreview	9	285	615	0	0	0	0	615
203	269	a	a	a	10	nopreview	9	286	0	0	0	0	0	0
204	270	message	message	message	10	nopreview	9	287	222	101	1052	101	222	121
205	271	to	to	to	10	nopreview	9	288	0	0	0	0	0	0
206	272	the	the	the	10	nopreview	9	289	137	0	0	0	0	137
207	273	protesters	protesters	protesters:	10	nopreview	9	290	404	404	541	218	404	0
208	274	:	:	-I-d	10	nopreview	9	291	266	266	266	266	266	0
	275	-	-		10	nopreview	9	292						
	276	I	I		10	nopreview	9	293						
	277	-d	-d		10	nopreview	9	294						
209	278	say	say	say	10	nopreview	9	295	0	0	0	0	0	0
210	279	that	that	that	10	nopreview	9	296	206	206	206	206	206	0
211	280	if	if	if	10	nopreview	9	297	178	0	0	0	0	178
212	281	you	you	you	10	nopreview	9	298	293	159	471	159	293	134
213	282	want	want	want	10	nopreview	9	299	144	0	0	0	0	144
214	283	to	to	to	10	nopreview	9	300	0	0	0	0	0	0
215	284	make	make	make	10	nopreview	9	301	211	211	355	211	211	0
216	285	change	change	change,	10	nopreview	9	302	129	129	129	129	129	0
	286	,	,		10	nopreview	9	303						
217	287	keep	keep	keep	10	nopreview	9	304	218	0	0	0	0	218
218	288	things	things	things	10	nopreview	9	305	0	0	0	0	0	0
219	289	peaceful	peaceful	peaceful.-	10	nopreview	9	306	1030	98	1248	98	1030	932
	290	.	.		10	nopreview	9	307						
220	291	-	-	A	10	nopreview	9	308	0	0	0	0	0	0
221	292	A	A	smaller	10	nopreview	9	309	407	248	248	248	248	159
	293	smaller	smaller		10	nopreview	9	310						
222	294	rally	rally	rally	10	nopreview	9	311	355	355	514	355	355	0
223	295	was	was	was	10	nopreview	9	312	0	0	0	0	0	0
224	296	held	held	held	10	nopreview	9	313	266	266	266	266	266	0
225	297	Tuesday	Tuesday	Tuesday	10	nopreview	9	314	462	145	145	145	145	317
226	298	in	in	in	10	nopreview	9	315	0	0	0	0	0	0
227	299	@entity73	New	New	10	nopreview	9	316	260	0	0	0	0	260
228			York	York.	10	nopreview	9	317	416	161	993	161	416	255
	300	.	.		10	nopreview	9	318						
229	301	In	In	In	10	nopreview	9	319	0	0	0	0	0	0
230	302	@entity76	Washington	Washington,	10	nopreview	9	320	323	323	323	323	323	0
	303	,	,		10	nopreview	9	321						
231	304	about	about	about	10	nopreview	9	322	226	0	0	0	0	226
232	305	500	500	500	10	nopreview	9	323	0	0	0	0	0	0
233	306	protesters	protesters	protesters,	10	nopreview	9	324	569	118	508	118	282	451
	307	,	,		10	nopreview	9	325						
234	308	mostly	mostly	mostly	10	nopreview	9	326	365	365	365	365	365	0
235	309	in	in	in	10	nopreview	9	327	0	0	0	0	0	0
236	310	their	their	their	10	nopreview	9	328	190	190	190	190	190	0
237	311	20s	20s	20s,	10	nopreview	9	329	437	189	189	189	189	248
	312	,	,		10	nopreview	9	330						
238	313	gathered	gathered	gathered	10	nopreview	9	331	914	418	418	418	418	496
239	314	in	in	in	10	nopreview	9	332	0	0	0	0	0	0
240	315	the	the	the	10	nopreview	9	333	468	225	512	225	225	243
241	316	middle	middle	middle	10	nopreview	9	334	332	144	1319	144	332	188
242	317	of	of	of	10	nopreview	9	335	0	0	0	0	0	0
243	318	@entity78	H	H	10	nopreview	9	336	0	0	0	0	0	0
244			Street	Street	10	nopreview	9	337	661	661	661	187	661	0
245	319	and	and	and	10	nopreview	9	338	0	0	0	0	0	0
246	320	7th	7th	7th	10	nopreview	9	339	159	159	159	159	159	0
247	321	and	and	and	10	nopreview	9	340	0	0	0	0	0	0
248	322	chanted	chanted	chanted,	10	nopreview	9	341	568	404	404	255	404	164
	323	,	,		10	nopreview	9	342						
249	324	-	-	-All	10	nopreview	9	343	0	0	0	0	0	0
	325	All	All		10	nopreview	9	344						
250	326	night	night	night,	10	nopreview	9	345	509	330	673	189	509	179
	327	,	,		10	nopreview	9	346						
251	328	all	all	all	10	nopreview	9	347	0	0	0	0	0	0
252	329	day	day	day,	10	nopreview	9	348	344	344	344	177	344	0
	330	,	,		10	nopreview	9	349						
253	331	we	we	we-re	10	nopreview	9	350	0	0	0	0	0	0
	332	-re	-re		10	nopreview	9	351						
254	333	gon	gon	gonna	10	nopreview	9	352	172	172	172	172	172	0
	334	na	na		10	nopreview	9	353						
255	335	fight	fight	fight	10	nopreview	9	354	0	0	0	0	0	0
256	336	for	for	for	10	nopreview	9	355	161	161	161	161	161	0
257	337	@entity79	Freddie	Freddie	10	nopreview	9	356	278	278	278	174	278	0
258			Gray	Gray.-	10	nopreview	9	357	262	262	262	262	262	0
	338	.	.		10	nopreview	9	358						
259	339	-	-	The	10	nopreview	9	359	0	0	0	0	0	0
260	340	The	The	mood	10	nopreview	9	360	135	135	135	135	135	0
	341	mood	mood		10	nopreview	9	361						
261	342	seemed	seemed	seemed	10	nopreview	9	362	144	0	0	0	0	144
262	343	more	more	more	10	nopreview	9	363	106	106	250	106	106	0
263	344	festive	festive	festive	10	nopreview	9	364	178	178	178	178	178	0
264	345	than	than	than	10	nopreview	9	365	137	0	0	0	0	137
265	346	confrontational	confrontational	confrontational,	10	nopreview	9	366	214	214	351	214	214	0
	347	,	,		10	nopreview	9	367						
266	348	with	with	with	10	nopreview	9	368	199	199	199	199	199	0
267	349	songs	songs	songs	10	nopreview	9	369	163	0	0	0	0	163
268	350	by	by	by	10	nopreview	9	370	236	236	399	236	236	0
269	351	@entity82	Public	Public	10	nopreview	9	371	186	0	0	0	0	186
270			Enemy	Enemy	10	nopreview	9	372	141	141	327	141	141	0
271	352	like	like	like	10	nopreview	9	373	206	206	206	206	206	0
272	353	-	-	-Fight	10	nopreview	9	374	158	158	158	158	158	0
	354	@entity86	Fight		10	nopreview	9	375						
273			the	the	10	nopreview	9	376	0	0	0	0	0	0
274			Power	Power-	10	nopreview	9	377	214	214	214	214	214	0
	355	-	-		10	nopreview	9	378						
275	356	playing	playing	playing	10	nopreview	9	379	335	178	178	178	178	157
276	357	and	and	and	10	nopreview	9	380	0	0	0	0	0	0
277	358	sign	sign	sign-language	10	nopreview	9	381	774	573	931	305	774	201
	359	-	-		10	nopreview	9	382						
	360	language	language		10	nopreview	9	383						
278	361	interpreters	interpreters	interpreters	10	nopreview	9	384	413	413	413	413	413	0
279	362	translating	translating	translating	10	nopreview	9	385	286	286	286	286	286	0
280	363	the	the	the	10	nopreview	9	386	0	0	0	0	0	0
281	364	music	music	music	10	nopreview	9	387	230	230	230	230	230	0
282	365	and	and	and	10	nopreview	9	388	0	0	0	0	0	0
283	366	chants	chants	chants.	10	nopreview	9	389	614	614	614	226	614	0
	367	.	.		10	nopreview	9	390						
284	368	The	The	The	10	nopreview	9	391	0	0	0	0	0	0
285	369	protest	protest	protest	10	nopreview	9	392	362	256	256	256	256	106
286	370	moved	moved	moved	10	nopreview	9	393	674	674	780	405	674	0
287	371	to	to	to	10	nopreview	9	394	0	0	0	0	0	0
288	372	the	the	the	10	nopreview	9	395	501	170	170	170	170	331
289	373	@entity88	White	White	10	nopreview	9	396	173	173	173	173	173	0
290			House	House	10	nopreview	9	397	0	0	0	0	0	0
291	374	where	where	where	10	nopreview	9	398	515	272	846	272	515	243
292	375	most	most	most	10	nopreview	9	399	0	0	0	0	0	0
293	376	of	of	of	10	nopreview	9	400	0	0	0	0	0	0
294	377	the	the	the	10	nopreview	9	401	0	0	0	0	0	0
295	378	crowd	crowd	crowd	10	nopreview	9	402	145	145	145	145	145	0
296	379	dispersed	dispersed	dispersed.	10	nopreview	9	403	386	386	386	386	386	0
	380	.	.		10	nopreview	9	404						
297	381	It	It	It	10	nopreview	9	405	0	0	0	0	0	0
298	382	started	started	started	10	nopreview	9	406	251	251	251	251	251	0
299	383	after	after	after	10	nopreview	9	407	158	158	158	158	158	0
300	384	most	most	most	10	nopreview	9	408	451	0	0	0	0	451
301	385	office	office	office	10	nopreview	9	409	0	0	0	0	0	0
302	386	workers	workers	workers	10	nopreview	9	410	456	101	907	101	456	355
303	387	had	had	had	10	nopreview	9	411	0	0	0	0	0	0
304	388	headed	headed	headed	10	nopreview	9	412	190	190	190	190	190	0
305	389	home	home	home	10	nopreview	9	413	249	249	249	249	249	0
306	390	and	and	and	10	nopreview	9	414	0	0	0	0	0	0
307	391	did	did	didn-t	10	nopreview	9	415	0	0	0	0	0	0
	392	n-t	n-t		10	nopreview	9	416						
308	393	disrupt	disrupt	disrupt	10	nopreview	9	417	0	0	0	0	0	0
309	394	the	the	the	10	nopreview	9	418	0	0	0	0	0	0
310	395	@entity76	Washington	Washington	10	nopreview	9	419	160	160	160	160	160	0
311	396	workforce	workforce	workforce	10	nopreview	9	420	434	434	434	202	434	0
312	397	badly	badly	badly.	10	nopreview	9	421	344	0	0	0	0	344
	398	.	.		10	nopreview	9	422						
313	399	One	One	One	10	nopreview	9	423	0	0	0	0	0	0
314	400	of	of	of	10	nopreview	9	424	514	0	0	0	0	514
315	401	the	the	the	10	nopreview	9	425	0	0	0	0	0	0
316	402	groups	groups	groups	10	nopreview	9	426	187	0	0	0	0	187
317	403	involved	involved	involved	10	nopreview	9	427	181	0	0	0	0	181
318	404	in	in	in	10	nopreview	9	428	0	0	0	0	0	0
319	405	the	the	the	10	nopreview	9	429	369	0	0	0	0	369
320	406	protest	protest	protest	10	nopreview	9	430	324	0	0	0	0	324
321	407	is	is	is	10	nopreview	9	431	220	0	0	0	0	220
322	408	the	the	the	10	nopreview	9	432	324	0	0	0	0	324
323	409	@entity95	DC	DC	10	nopreview	9	433	0	0	0	0	0	0
324			Ferguson	Ferguson	10	nopreview	9	434	1047	0	0	0	0	1047
325			Movement	Movement.	10	nopreview	9	435	951	0	0	0	0	951
	410	.	.		10	nopreview	9	436						
326	411	Organizer	Organizer	Organizer	10	nopreview	9	437	445	0	0	0	0	445
327	412	@entity96	Eugene	Eugene	10	nopreview	9	438	339	166	5245	166	339	173
328			Puryear	Puryear	10	nopreview	9	439	417	417	1035	255	417	0
329	413	said	said	said	10	nopreview	9	440	0	0	0	0	0	0
330	414	the	the	the	10	nopreview	9	441	318	318	318	318	318	0
331	415	march	march	march	10	nopreview	9	442	154	154	154	154	154	0
332	416	was	was	was	10	nopreview	9	443	169	0	0	0	0	169
333	417	called	called	called	10	nopreview	9	444	425	227	227	227	227	198
334	418	to	to	to	10	nopreview	9	445	189	0	0	0	0	189
335	419	show	show	show	10	nopreview	9	446	165	165	721	165	165	0
336	420	solidarity	solidarity	solidarity	10	nopreview	9	447	174	174	174	174	174	0
337	421	with	with	with	10	nopreview	9	448	350	212	212	212	212	138
338	422	the	the	the	10	nopreview	9	449	154	0	0	0	0	154
339	423	residents	residents	residents	10	nopreview	9	450	171	0	0	0	0	171
340	424	in	in	in	10	nopreview	9	451	119	119	290	119	119	0
341	425	@entity21	Baltimore	Baltimore	10	nopreview	9	452	224	224	516	224	224	0
342	426	and	and	and	10	nopreview	9	453	0	0	0	0	0	0
343	427	to	to	to	10	nopreview	9	454	0	0	0	0	0	0
344	428	highlight	highlight	highlight	10	nopreview	9	455	0	0	0	0	0	0
345	429	that	that	that	10	nopreview	9	456	0	0	0	0	0	0
346	430	police	police	police	10	nopreview	9	457	0	0	0	0	0	0
347	431	brutality	brutality	brutality	10	nopreview	9	458	0	0	0	0	0	0
348	432	is	is	is	10	nopreview	9	459	0	0	0	0	0	0
349	433	a	a	a	10	nopreview	9	460	0	0	0	0	0	0
350	434	national	national	national	10	nopreview	9	461	204	0	0	0	0	204
351	435	issue	issue	issue.	10	nopreview	9	462	450	0	0	0	0	450
	436	.	.		10	nopreview	9	463						
352	437	Several	Several	Several	10	nopreview	9	464	693	339	707	182	339	354
353	438	hundred	hundred	hundred	10	nopreview	9	465	761	142	782	142	142	619
354	439	people	people	people	10	nopreview	9	466	320	113	826	113	320	207
355	440	gathered	gathered	gathered	10	nopreview	9	467	371	179	179	179	179	192
356	441	in	in	in	10	nopreview	9	468	394	239	586	239	394	155
357	442	@entity103	Gold	Gold	10	nopreview	9	469	0	0	0	0	0	0
358			Medal	Medal	10	nopreview	9	470	231	0	0	0	0	231
359			Park	Park	10	nopreview	9	471	305	305	305	305	305	0
360	443	in	in	in	10	nopreview	9	472	0	0	0	0	0	0
361	444	@entity104	Minneapolis	Minneapolis	10	nopreview	9	473	336	147	567	147	336	189
362	445	for	for	for	10	nopreview	9	474	316	316	316	186	316	0
363	446	a	a	a	10	nopreview	9	475	0	0	0	0	0	0
364	447	rally	rally	rally	10	nopreview	9	476	181	181	294	181	181	0
365	448	organized	organized	organized	10	nopreview	9	477	107	0	0	0	0	107
366	449	by	by	by	10	nopreview	9	478	136	0	0	0	0	136
367	450	the	the	the	10	nopreview	9	479	0	0	0	0	0	0
368	451	group	group	group	10	nopreview	9	480	173	0	0	0	0	173
369	452	of	of	of	10	nopreview	9	481	0	0	0	0	0	0
370	453	#	#	#BlackLivesMatter.	10	nopreview	9	482	1008	0	0	0	0	1008
	454	@entity107	BlackLivesMatter		10	nopreview	9	483						
	455	.	.		10	nopreview	9	484						
371	456	The	The	The	10	nopreview	9	485	0	0	0	0	0	0
372	457	@entity104	Minneapolis	Minneapolis	10	nopreview	9	486	484	310	310	310	310	174
373	458	group	group	group	10	nopreview	9	487	0	0	0	0	0	0
374	459	held	held	held	10	nopreview	9	488	0	0	0	0	0	0
375	460	similar	similar	similar	10	nopreview	9	489	203	203	1801	203	203	0
376	461	events	events	events	10	nopreview	9	490	161	0	0	0	0	161
377	462	in	in	in	10	nopreview	9	491	307	0	0	0	0	307
378	463	the	the	the	10	nopreview	9	492	207	0	0	0	0	207
379	464	past	past	past	10	nopreview	9	493	272	0	0	0	0	272
380	465	in	in	in	10	nopreview	9	494	319	0	0	0	0	319
381	466	response	response	response	10	nopreview	9	495	980	0	0	0	0	980
382	467	to	to	to	10	nopreview	9	496	0	0	0	0	0	0
383	468	alleged	alleged	alleged	10	nopreview	9	497	465	0	0	0	0	465
384	469	police	police	police	10	nopreview	9	498	417	0	0	0	0	417
385	470	brutality	brutality	brutality	10	nopreview	9	499	0	0	0	0	0	0
386	471	across	across	across	10	nopreview	9	500	331	331	331	331	331	0
387	472	the	the	the	10	nopreview	9	501	0	0	0	0	0	0
388	473	country	country	country.	10	nopreview	9	502	298	298	3426	149	298	0
	474	.	.		10	nopreview	9	503						
389	475	Protests	Protests	Protests	10	nopreview	9	504	247	0	0	0	0	247
390	476	also	also	also	10	nopreview	9	505	0	0	0	0	0	0
391	477	were	were	were	10	nopreview	9	506	465	0	0	0	0	465
392	478	held	held	held	10	nopreview	9	507	628	0	0	0	0	628
393	479	in	in	in	10	nopreview	9	508	0	0	0	0	0	0
394	480	@entity115	Boston	Boston	10	nopreview	9	509	198	0	0	0	0	198
395	481	and	and	and	10	nopreview	9	510	0	0	0	0	0	0
396	482	@entity116	Houston	Houston.	10	nopreview	9	511	865	0	0	0	0	865
	483	.	.		10	nopreview	9	512						
397	484	On	On	On	10	nopreview	9	513	0	0	0	0	0	0
398	485	Tuesday	Tuesday	Tuesday,	10	nopreview	9	514	1377	0	0	0	0	1377
	486	,	,		10	nopreview	9	515						
399	487	violent	violent	violent	10	nopreview	9	516	395	0	0	0	0	395
400	488	protests	protests	protests	10	nopreview	9	517	927	174	174	174	174	753
401	489	took	took	took	10	nopreview	9	518	890	274	5818	274	890	616
402	490	place	place	place	10	nopreview	9	519	450	0	0	0	0	450
403	491	in	in	in	10	nopreview	9	520	162	0	0	0	0	162
404	492	@entity120	Ferguson	Ferguson,	10	nopreview	9	521	681	0	0	0	0	681
	493	,	,		10	nopreview	9	522						
405	494	@entity121	Missouri	Missouri,	10	nopreview	9	523	385	122	1678	122	385	263
	495	,	,		10	nopreview	9	524						
406	496	where	where	where	10	nopreview	9	525	0	0	0	0	0	0
407	497	three	three	three	10	nopreview	9	526	428	203	203	203	203	225
408	498	people	people	people	10	nopreview	9	527	339	190	190	190	190	149
409	499	were	were	were	10	nopreview	9	528	162	0	0	0	0	162
410	500	shot	shot	shot,	10	nopreview	9	529	523	303	303	176	303	220
	501	,	,		10	nopreview	9	530						
411	502	the	the	the	10	nopreview	9	531	0	0	0	0	0	0
412	503	city	city	city	10	nopreview	9	532	288	288	288	288	288	0
413	504	police	police	police	10	nopreview	9	533	0	0	0	0	0	0
414	505	reported	reported	reported.	10	nopreview	9	534	715	715	715	152	715	0
	506	.	.		10	nopreview	9	535						
415	507	Police	Police	Police	10	nopreview	9	536	230	0	0	0	0	230
416	508	said	said	said	10	nopreview	9	537	0	0	0	0	0	0
417	509	they	they	they	10	nopreview	9	538	339	0	0	0	0	339
418	510	did	did	didn-t	10	nopreview	9	539	316	0	0	0	0	316
	511	n-t	n-t		10	nopreview	9	540						
419	512	do	do	do	10	nopreview	9	541	0	0	0	0	0	0
420	513	the	the	the	10	nopreview	9	542	83	83	968	83	83	0
421	514	shooting	shooting	shooting.	10	nopreview	9	543	681	681	681	182	681	0
	515	.	.		10	nopreview	9	544						
422	516	A	A	A	10	nopreview	9	545	0	0	0	0	0	0
423	517	20	20	20-year-old	10	nopreview	9	546	179	179	935	179	179	0
	518	-	-		10	nopreview	9	547						
	519	year	year		10	nopreview	9	548						
	520	-	-		10	nopreview	9	549						
	521	old	old		10	nopreview	9	550						
424	522	man	man	man	10	nopreview	9	551	200	200	200	200	200	0
425	523	was	was	was	10	nopreview	9	552	0	0	0	0	0	0
426	524	arrested	arrested	arrested	10	nopreview	9	553	185	185	185	185	185	0
427	525	and	and	and	10	nopreview	9	554	205	0	0	0	0	205
428	526	the	the	the	10	nopreview	9	555	626	191	191	191	191	435
429	527	three	three	three	10	nopreview	9	556	94	94	94	94	94	0
430	528	victims	victims	victims	10	nopreview	9	557	520	250	250	250	250	270
431	529	were	were	were	10	nopreview	9	558	402	0	0	0	0	402
432	530	in	in	in	10	nopreview	9	559	159	0	250	0	0	159
433	531	stable	stable	stable	10	nopreview	9	560	368	184	1839	184	368	184
434	532	condition	condition	condition	10	nopreview	9	561	220	220	220	220	220	0
435	533	--	--	--	10	nopreview	9	562	0	0	0	0	0	0
436	534	two	two	two	10	nopreview	9	563	0	0	0	0	0	0
437	535	with	with	with	10	nopreview	9	564	564	355	355	198	355	209
438	536	wounds	wounds	wounds	10	nopreview	9	565	265	0	0	0	0	265
439	537	to	to	to	10	nopreview	9	566	386	386	386	386	386	0
440	538	the	the	the	10	nopreview	9	567	207	0	0	0	0	207
441	539	neck	neck	neck,	10	nopreview	9	568	125	125	125	125	125	0
	540	,	,		10	nopreview	9	569						
442	541	one	one	one	10	nopreview	9	570	127	0	0	0	0	127
443	542	in	in	in	10	nopreview	9	571	0	0	0	0	0	0
444	543	the	the	the	10	nopreview	9	572	442	183	1250	183	442	259
445	544	leg	leg	leg,	10	nopreview	9	573	99	99	99	99	99	0
	545	,	,		10	nopreview	9	574						
446	546	police	police	police	10	nopreview	9	575	271	271	271	271	271	0
447	547	said	said	said.	10	nopreview	9	576	158	158	158	158	158	0
	548	.	.		10	nopreview	9	577						
448	549	Police	Police	Police	10	nopreview	9	578	243	243	243	243	243	0
449	550	said	said	said	10	nopreview	9	579	308	0	0	0	0	308
450	551	about	about	about	10	nopreview	9	580	297	297	605	297	297	0
451	552	300	300	300	10	nopreview	9	581	0	0	0	0	0	0
452	553	people	people	people	10	nopreview	9	582	489	489	489	172	489	0
453	554	marched	marched	marched,	10	nopreview	9	583	0	0	317	0	0	0
	555	,	,		10	nopreview	9	584						
454	556	with	with	with	10	nopreview	9	585	0	0	0	0	0	0
455	557	protesters	protesters	protesters	10	nopreview	9	586	579	579	579	192	579	0
456	558	throwing	throwing	throwing	10	nopreview	9	587	252	252	252	252	252	0
457	559	rocks	rocks	rocks	10	nopreview	9	588	377	377	37995	377	377	0
458	560	at	at	at	10	nopreview	9	589	0	0	0	0	0	0
459	561	police	police	police,	10	nopreview	9	590	281	281	281	182	281	0
	562	,	,		10	nopreview	9	591						
460	563	damaging	damaging	damaging	10	nopreview	9	592	298	298	298	298	298	0
461	564	four	four	four	10	nopreview	9	593	596	596	596	323	596	0
462	565	police	police	police	10	nopreview	9	594	0	0	273	0	0	0
463	566	cars	cars	cars	10	nopreview	9	595	157	157	157	157	157	0
464	567	and	and	and	10	nopreview	9	596	0	0	0	0	0	0
465	568	setting	setting	setting	10	nopreview	9	597	393	220	220	220	220	173
466	569	trash	trash	trash	10	nopreview	9	598	330	180	180	180	180	150
467	570	and	and	and	10	nopreview	9	599	0	0	0	0	0	0
468	571	debris	debris	debris	10	nopreview	9	600	692	545	545	545	545	147
469	572	on	on	on	10	nopreview	9	601	392	209	862	209	392	183
470	573	fire	fire	fire	10	nopreview	9	602	0	0	0	0	0	0
471	574	near	near	near	10	nopreview	9	603	227	227	227	227	227	0
472	575	@entity139	Northwinds	Northwinds	10	nopreview	9	604	643	281	281	82	281	362
473			Estates	Estates	10	nopreview	9	605	308	132	670	132	308	176
474	576	and	and	and	10	nopreview	9	606	0	0	4317	0	0	0
475	577	@entity140	West	West	10	nopreview	9	607	169	169	169	169	169	0
476			Florissant	Florissant,	10	nopreview	9	608	556	556	556	176	556	0
	578	,	,		10	nopreview	9	609						
477	579	police	police	police	10	nopreview	9	610	154	154	154	154	154	0
478	580	said	said	said.	10	nopreview	9	611	328	0	0	0	0	328
	581	.	.		10	nopreview	9	612						
479	582	One	One	One	10	nopreview	9	613	236	236	564	236	236	0
480	583	business	business	business	10	nopreview	9	614	558	344	344	181	344	214
481	584	in	in	in	10	nopreview	9	615	0	0	0	0	0	0
482	585	@entity142	Dellwood	Dellwood	10	nopreview	9	616	613	317	827	317	613	296
483	586	was	was	was	10	nopreview	9	617	139	139	139	139	139	0
484	587	damaged	damaged	damaged,	10	nopreview	9	618	319	319	319	150	319	0
	588	,	,		10	nopreview	9	619						
485	589	police	police	police	10	nopreview	9	620	334	334	334	154	334	0
486	590	said	said	said.	10	nopreview	9	621	853	0	0	0	0	853
	591	.	.		10	nopreview	9	622						
487	592	No	No	No	10	nopreview	9	623	0	0	653	0	0	0
488	593	officers	officers	officers	10	nopreview	9	624	1022	337	337	169	337	685
489	594	were	were	were	10	nopreview	9	625	624	177	1963	177	624	447
490	595	injured	injured	injured	10	nopreview	9	626	441	143	143	143	143	298
491	596	as	as	as	10	nopreview	9	627	0	0	0	0	0	0
492	597	police	police	police	10	nopreview	9	628	279	279	279	279	279	0
493	598	conducted	conducted	conducted	10	nopreview	9	629	434	434	434	235	434	0
494	599	anti-riot	anti-riot	anti-riot	10	nopreview	9	630	290	290	290	197	290	0
495	600	activities	activities	activities	10	nopreview	9	631	274	0	0	0	0	274
496	601	until	until	until	10	nopreview	9	632	0	0	0	0	0	0
497	602	3	3	3	10	nopreview	9	633	1435	0	0	0	0	1435
498	603	a.m.	a.m.	a.m.	10	nopreview	9	634	592	0	0	0	0	592
499	604	In	In	In	10	nopreview	9	635	87	87	2885	87	87	0
500	605	@entity147	Los	Los	10	nopreview	9	636	0	0	0	0	0	0
501			Angeles	Angeles,	10	nopreview	9	637	1397	1397	1397	251	1397	0
	606	,	,		10	nopreview	9	638						
502	607	six	six	six	10	nopreview	9	639	202	202	202	202	202	0
503	608	people	people	people	10	nopreview	9	640	135	135	135	135	135	0
504	609	protesting	protesting	protesting	10	nopreview	9	641	205	205	205	205	205	0
505	610	against	against	against	10	nopreview	9	642	308	308	308	308	308	0
506	611	police	police	police	10	nopreview	9	643	101	101	101	101	101	0
507	612	brutality	brutality	brutality	10	nopreview	9	644	259	259	259	85	259	0
508	613	were	were	were	10	nopreview	9	645	302	0	0	0	0	302
509	614	arrested	arrested	arrested	10	nopreview	9	646	499	499	801	156	499	0
510	615	Monday	Monday	Monday	10	nopreview	9	647	173	173	173	173	173	0
511	616	night	night	night	10	nopreview	9	648	175	175	175	175	175	0
512	617	when	when	when	10	nopreview	9	649	123	0	0	0	0	123
513	618	they	they	they	10	nopreview	9	650	457	252	252	252	252	205
514	619	failed	failed	failed	10	nopreview	9	651	118	0	0	0	0	118
515	620	to	to	to	10	nopreview	9	652	242	134	134	134	134	108
516	621	disperse	disperse	disperse,	10	nopreview	9	653	302	302	856	302	302	0
	622	,	,		10	nopreview	9	654						
517	623	reported	reported	reported	10	nopreview	9	655	376	376	376	207	376	0
518	624	@entity0	CNN	CNN	10	nopreview	9	656	0	0	0	0	0	0
519	625	affiliate	affiliate	affiliate	10	nopreview	9	657	931	931	931	216	931	0
520	626	@entity148	KABC	KABC.	10	nopreview	9	658	0	0	0	0	0	0
	627	.	.		10	nopreview	9	659						
521	628	About	About	About	10	nopreview	9	660	341	204	204	204	204	137
522	629	50	50	50	10	nopreview	9	661	202	0	0	0	0	202
523	630	people	people	people	10	nopreview	9	662	1802	856	2141	856	1802	946
524	631	marched	marched	marched,	10	nopreview	9	663	262	262	262	262	262	0
	632	,	,		10	nopreview	9	664						
525	633	@entity148	KABC	KABC	10	nopreview	9	665	260	260	260	260	260	0
526	634	said	said	said.	10	nopreview	9	666	322	322	322	322	322	0
	635	.	.		10	nopreview	9	667						
527	636	On	On	On	10	nopreview	9	668	0	0	0	0	0	0
528	637	Tuesday	Tuesday	Tuesday,	10	nopreview	9	669	236	236	236	236	236	0
	638	,	,		10	nopreview	9	670						
529	639	protesters	protesters	protesters	10	nopreview	9	671	280	280	280	280	280	0
530	640	gathered	gathered	gathered	10	nopreview	9	672	154	154	154	154	154	0
531	641	outside	outside	outside	10	nopreview	9	673	146	146	146	146	146	0
532	642	the	the	the	10	nopreview	9	674	0	0	0	0	0	0
533	643	@entity152	Stapes	Stapes	10	nopreview	9	675	450	183	183	183	183	267
534			Center	Center,	10	nopreview	9	676	394	394	661	275	394	0
	644	,	,		10	nopreview	9	677						
535	645	where	where	where	10	nopreview	9	678	0	0	0	0	0	0
536	646	the	the	the	10	nopreview	9	679	278	278	278	278	278	0
537	647	@entity153	Los	Los	10	nopreview	9	680	0	0	0	0	0	0
538			Angeles	Angeles	10	nopreview	9	681	204	204	204	204	204	0
539			Clippers	Clippers	10	nopreview	9	682	235	235	235	235	235	0
540	648	and	and	and	10	nopreview	9	683	0	0	0	0	0	0
541	649	the	the	the	10	nopreview	9	684	0	0	0	0	0	0
542	650	@entity154	San	San	10	nopreview	9	685	249	249	249	249	249	0
543			Antonio	Antonio	10	nopreview	9	686	330	330	330	179	330	0
544			Spurs	Spurs	10	nopreview	9	687	165	165	165	165	165	0
545	651	were	were	were	10	nopreview	9	688	187	0	0	0	0	187
546	652	playing	playing	playing	10	nopreview	9	689	173	0	0	0	0	173
547	653	an	an	an	10	nopreview	9	690	92	92	452	92	92	0
548	654	@entity156	NBA	NBA	10	nopreview	9	691	0	0	0	0	0	0
549	655	playoff	playoff	playoff	10	nopreview	9	692	203	203	203	203	203	0
550	656	game	game	game.	10	nopreview	9	693	405	173	173	173	173	232
	657	.	.		10	nopreview	9	694						
551	658	They	They	They	10	nopreview	9	695	0	0	0	0	0	0
552	659	disrupted	disrupted	disrupted	10	nopreview	9	696	652	326	732	326	500	326
553	660	traffic	traffic	traffic	10	nopreview	9	697	211	211	363	211	211	0
554	661	and	and	and	10	nopreview	9	698	0	0	0	0	0	0
555	662	carried	carried	carried	10	nopreview	9	699	171	171	171	171	171	0
556	663	protest	protest	protest	10	nopreview	9	700	164	164	164	164	164	0
557	664	signs	signs	signs.	10	nopreview	9	701	166	166	166	166	166	0
	665	.	.		10	nopreview	9	702						
558	666	In	In	In	10	nopreview	9	703	0	0	0	0	0	0
559	667	@entity161	Chicago	Chicago,	10	nopreview	9	704	316	0	0	0	0	316
	668	,	,		10	nopreview	9	705						
560	669	hundreds	hundreds	hundreds	10	nopreview	9	706	226	0	0	0	0	226
561	670	of	of	of	10	nopreview	9	707	0	0	0	0	0	0
562	671	protesters	protesters	protesters	10	nopreview	9	708	0	0	0	0	0	0
563	672	marched	marched	marched	10	nopreview	9	709	227	128	769	128	227	99
564	673	Tuesday	Tuesday	Tuesday	10	nopreview	9	710	0	0	0	0	0	0
565	674	from	from	from	10	nopreview	9	711	216	216	216	216	216	0
566	675	police	police	police	10	nopreview	9	712	147	147	147	147	147	0
567	676	headquarters	headquarters	headquarters	10	nopreview	9	713	134	134	134	134	134	0
568	677	at	at	at	10	nopreview	9	714	0	0	0	0	0	0
569	678	35th	35th	35th	10	nopreview	9	715	128	128	128	128	128	0
570	679	and	and	and	10	nopreview	9	716	0	0	0	0	0	0
571	680	@entity163	Michigan	Michigan	10	nopreview	9	717	294	294	294	294	294	0
572	681	through	through	through	10	nopreview	9	718	127	127	127	127	127	0
573	682	the	the	the	10	nopreview	9	719	0	0	0	0	0	0
574	683	@entity164	Southside	Southside,	10	nopreview	9	720	324	324	324	201	324	0
	684	,	,		10	nopreview	9	721						
575	685	@entity0	CNN	CNN	10	nopreview	9	722	0	0	0	0	0	0
576	686	affiliate	affiliate	affiliate	10	nopreview	9	723	325	325	325	200	325	0
577	687	@entity159	WGN	WGN	10	nopreview	9	724	0	0	0	0	0	0
578	688	reported	reported	reported.	10	nopreview	9	725	632	632	632	367	632	0
	689	.	.		10	nopreview	9	726						
579	690	Police	Police	Police	10	nopreview	9	727	0	0	0	0	0	0
580	691	made	made	made	10	nopreview	9	728	0	0	0	0	0	0
581	692	one	one	one	10	nopreview	9	729	264	264	264	264	264	0
582	693	arrest	arrest	arrest,	10	nopreview	9	730	306	306	306	306	306	0
	694	,	,		10	nopreview	9	731						
583	695	for	for	for	10	nopreview	9	732	0	0	0	0	0	0
584	696	reckless	reckless	reckless	10	nopreview	9	733	392	392	392	392	392	0
585	697	conduct	conduct	conduct.	10	nopreview	9	734	466	466	466	466	466	0
	698	.	.		10	nopreview	9	735						
586	699	@entity159	WGN	WGN	10	nopreview	9	736	490	490	490	490	490	0
587	700	said	said	said	10	nopreview	9	737	160	0	0	0	0	160
588	701	protesters	protesters	protesters	10	nopreview	9	738	438	438	598	438	438	0
589	702	spoke	spoke	spoke	10	nopreview	9	739	0	0	0	0	0	0
590	703	about	about	about	10	nopreview	9	740	254	254	254	254	254	0
591	704	police	police	police	10	nopreview	9	741	463	146	146	146	146	317
592	705	violence	violence	violence	10	nopreview	9	742	0	0	0	0	0	0
593	706	and	and	and	10	nopreview	9	743	554	554	871	554	554	0
594	707	the	the	the	10	nopreview	9	744	0	0	0	0	0	0
595	708	death	death	death	10	nopreview	9	745	131	0	0	0	0	131
596	709	of	of	of	10	nopreview	9	746	0	0	0	0	0	0
597	710	@entity171	Rekia	Rekia	10	nopreview	9	747	536	84	439	84	308	452
598			Boyd	Boyd,	10	nopreview	9	748	483	269	711	269	483	214
	711	,	,		10	nopreview	9	749						
599	712	who	who	who	10	nopreview	9	750	0	0	0	0	0	0
600	713	was	was	was	10	nopreview	9	751	608	196	196	196	196	412
601	714	killed	killed	killed	10	nopreview	9	752	309	309	519	309	309	0
602	715	by	by	by	10	nopreview	9	753	333	0	0	0	0	333
603	716	an	an	an	10	nopreview	9	754	570	208	743	208	208	362
604	717	off	off	off-duty	10	nopreview	9	755	575	179	937	179	575	396
	718	-	-		10	nopreview	9	756						
	719	duty	duty		10	nopreview	9	757						
605	720	officer	officer	officer	10	nopreview	9	758	622	622	622	331	622	0
606	721	in	in	in	10	nopreview	9	759	0	0	0	0	0	0
607	722	2012	2012	2012.	10	nopreview	9	760	376	376	376	213	376	0
	723	.	.		10	nopreview	9	761						
608	724	That	That	That	10	nopreview	9	762	252	0	0	0	0	252
609	725	officer	officer	officer	10	nopreview	9	763	561	561	561	466	561	0
610	726	was	was	was	10	nopreview	9	764	139	0	0	0	0	139
611	727	acquitted	acquitted	acquitted	10	nopreview	9	765	350	0	0	0	0	350
612	728	last	last	last	10	nopreview	9	766	347	0	0	0	0	347
613	729	week	week	week.	10	nopreview	9	767	1156	113	2244	113	1156	1043
	730	.	.		10	nopreview	9	768						
614	731	The	The	The	10	nopreview	9	769	0	0	0	0	0	0
615	732	group	group	group	10	nopreview	9	770	175	175	175	175	175	0
616	733	plans	plans	plans	10	nopreview	9	771	483	483	483	483	483	0
617	734	to	to	to	10	nopreview	9	772	0	0	0	0	0	0
618	735	gather	gather	gather	10	nopreview	9	773	257	257	257	257	257	0
619	736	Wednesday	Wednesday	Wednesday	10	nopreview	9	774	280	280	280	280	280	0
620	737	night	night	night	10	nopreview	9	775	347	347	347	347	347	0
621	738	at	at	at	10	nopreview	9	776	0	0	0	0	0	0
622	739	the	the	the	10	nopreview	9	777	214	214	214	214	214	0
623	740	@entity175	DePaul	DePaul	10	nopreview	9	778	344	344	344	192	344	0
624			Law	Law	10	nopreview	9	779	132	132	132	132	132	0
625			School	School.	10	nopreview	9	780	330	330	330	127	330	0
	741	.	.		10	nopreview	9	781						
626	742	About	About	About	10	nopreview	9	782	867	674	674	674	674	193
627	743	100	100	100	10	nopreview	9	783	459	459	459	459	459	0
628	744	people	people	people	10	nopreview	9	784	389	389	389	389	389	0
629	745	marched	marched	marched	10	nopreview	9	785	259	259	259	259	259	0
630	746	Monday	Monday	Monday	10	nopreview	9	786	0	0	0	0	0	0
631	747	night	night	night	10	nopreview	9	787	0	0	0	0	0	0
632	748	in	in	in	10	nopreview	9	788	135	135	135	135	135	0
633	749	@entity177	Oakland	Oakland	10	nopreview	9	789	153	153	153	153	153	0
634	750	in	in	in	10	nopreview	9	790	0	0	0	0	0	0
635	751	support	support	support	10	nopreview	9	791	171	171	171	171	171	0
636	752	of	of	of	10	nopreview	9	792	0	0	0	0	0	0
637	753	@entity21	Baltimore	Baltimore	10	nopreview	9	793	242	242	435	242	242	0
638	754	protesters	protesters	protesters,	10	nopreview	9	794	173	173	173	173	173	0
	755	,	,		10	nopreview	9	795						
639	756	reported	reported	reported	10	nopreview	9	796	116	116	116	116	116	0
640	757	@entity0	CNN	CNN	10	nopreview	9	797	0	0	0	0	0	0
641	758	affiliate	affiliate	affiliate	10	nopreview	9	798	0	0	0	0	0	0
642	759	@entity148	KABC	KABC.	10	nopreview	9	799	187	187	187	187	187	0
	760	.	.		10	nopreview	9	800						
643	761	A	A	A	10	nopreview	9	801	0	0	0	0	0	0
644	762	protest	protest	protest	10	nopreview	9	802	182	182	182	182	182	0
645	763	is	is	is	10	nopreview	9	803	244	244	244	244	244	0
646	764	planned	planned	planned	10	nopreview	9	804	309	309	309	309	309	0
647	765	for	for	for	10	nopreview	9	805	0	0	0	0	0	0
648	766	Thursday	Thursday	Thursday	10	nopreview	9	806	247	247	247	247	247	0
649	767	in	in	in	10	nopreview	9	807	138	138	138	138	138	0
650	768	@entity181	Cincinnati	Cincinnati,	10	nopreview	9	808	355	355	355	94	355	0
	769	,	,		10	nopreview	9	809						
651	770	reported	reported	reported	10	nopreview	9	810	227	227	227	227	227	0
652	771	@entity0	CNN	CNN	10	nopreview	9	811	0	0	0	0	0	0
653	772	affiliate	affiliate	affiliate	10	nopreview	9	812	241	241	241	241	241	0
654	773	@entity182	WXIX	WXIX.	10	nopreview	9	813	0	0	0	0	0	0
	774	.	.		10	nopreview	9	814						
655	775	@entity183	Philly.com	Philly.com	10	nopreview	9	815	446	446	446	194	446	0
656	776	said	said	said	10	nopreview	9	816	150	0	0	0	0	150
657	777	a	a	a	10	nopreview	9	817	459	459	459	459	459	0
658	778	-	-	-Philly	10	nopreview	9	818	1110	449	773	449	623	661
	779	@entity185	Philly		10	nopreview	9	819						
659	780	is	is	is	10	nopreview	9	820	207	207	207	207	207	0
660	781	@entity21	Baltimore	Baltimore-	10	nopreview	9	821	697	290	290	290	290	407
	782	-	-		10	nopreview	9	822						
661	783	protest	protest	protest	10	nopreview	9	823	270	0	0	0	0	270
662	784	will	will	will	10	nopreview	9	824	366	160	1530	160	366	206
663	785	be	be	be	10	nopreview	9	825	0	0	0	0	0	0
664	786	held	held	held	10	nopreview	9	826	187	187	187	187	187	0
665	787	Thursday	Thursday	Thursday	10	nopreview	9	827	0	0	0	0	0	0
666	788	at	at	at	10	nopreview	9	828	0	0	0	0	0	0
667	789	@entity186	Philadelphia	Philadelphia	10	nopreview	9	829	110	110	110	110	110	0
668			City	City	10	nopreview	9	830	338	338	338	338	338	0
669			Hall	Hall.	10	nopreview	9	831	0	0	0	0	0	0
	790	.	.		10	nopreview	9	832						
