HumanPosition	AnonymizedPosition	AnonymizedToken	OriginalToken	ExperimentToken	Participant	Condition	TextNo	JointPosition	tt	fp	rp	ff
1	0	(	(	Good	7	preview	3	1	159	0	0	0
	1	The	The		7	preview	3	2				
	2	@entity0	Hollywood		7	preview	3	3				
			Reporter		7	preview	3	4				
	3	)	)		7	preview	3	5				
	4	Good	Good		7	preview	3	6				
2	5	news	news	news	7	preview	3	7	150	150	309	150
3	6	arrived	arrived	arrived	7	preview	3	8	180	180	180	180
4	7	Thursday	Thursday	Thursday	7	preview	3	9	0	0	0	0
5	8	for	for	for	7	preview	3	10	162	162	162	162
6	9	-	-	-Fifty	7	preview	3	11	369	369	369	369
	10	@entity3	Fifty		7	preview	3	12				
7			Shades	Shades	7	preview	3	13	0	0	0	0
8			of	of	7	preview	3	14	0	0	0	0
9			Grey	Grey-	7	preview	3	15	0	0	0	0
	11	-	-		7	preview	3	16				
10	12	fans	fans	fans.	7	preview	3	17	140	140	140	140
	13	.	.		7	preview	3	18				
11	14	@entity4	Universal	Universal	7	preview	3	19	448	283	283	283
12	15	announced	announced	announced	7	preview	3	20	694	131	859	131
13	16	Thursday	Thursday	Thursday	7	preview	3	21	197	0	0	0
14	17	that	that	that	7	preview	3	22	109	109	306	109
15	18	the	the	the	7	preview	3	23	165	165	165	165
16	19	sequel	sequel	sequel	7	preview	3	24	277	277	277	277
17	20	to	to	to	7	preview	3	25	0	0	0	0
18	21	the	the	the	7	preview	3	26	178	178	178	178
19	22	box	box	box	7	preview	3	27	0	0	0	0
20	23	office	office	office	7	preview	3	28	330	330	330	169
21	24	blockbuster	blockbuster	blockbuster	7	preview	3	29	0	0	0	0
22	25	will	will	will	7	preview	3	30	0	0	0	0
23	26	hit	hit	hit	7	preview	3	31	280	280	280	280
24	27	theaters	theaters	theaters	7	preview	3	32	243	0	0	0
25	28	on	on	on	7	preview	3	33	0	0	0	0
26	29	Feb.	Feb.	Feb.	7	preview	3	34	484	246	727	246
27	30	10	10	10,	7	preview	3	35	138	138	138	138
	31	,	,		7	preview	3	36				
28	32	2017	2017	2017.	7	preview	3	37	0	0	0	0
	33	.	.		7	preview	3	38				
29	34	The	The	The	7	preview	3	39	0	0	0	0
30	35	third	third	third	7	preview	3	40	327	327	327	327
31	36	film	film	film	7	preview	3	41	663	663	663	249
32	37	in	in	in	7	preview	3	42	0	0	0	0
33	38	the	the	the	7	preview	3	43	195	195	195	195
34	39	series	series	series	7	preview	3	44	0	0	0	0
35	40	will	will	will	7	preview	3	45	214	214	214	214
36	41	debut	debut	debut	7	preview	3	46	149	149	149	149
37	42	Feb.	Feb.	Feb.	7	preview	3	47	0	0	0	0
38	43	9	9	9,	7	preview	3	48	153	153	153	153
	44	,	,		7	preview	3	49				
39	45	2018	2018	2018.	7	preview	3	50	297	297	297	297
	46	.	.		7	preview	3	51				
40	47	The	The	The	7	preview	3	52	148	148	148	148
41	48	news	news	news	7	preview	3	53	0	0	0	0
42	49	came	came	came	7	preview	3	54	302	302	302	302
43	50	one	one	one	7	preview	3	55	255	255	255	255
44	51	day	day	day	7	preview	3	56	0	0	0	0
45	52	after	after	after	7	preview	3	57	0	0	0	0
46	53	@entity0	The	The	7	preview	3	58	226	226	226	226
47			Hollywood	Hollywood	7	preview	3	59	115	115	115	115
48			Reporter	Reporter	7	preview	3	60	0	0	0	0
49	54	reported	reported	reported	7	preview	3	61	187	187	187	187
50	55	exclusively	exclusively	exclusively	7	preview	3	62	191	191	191	191
51	56	that	that	that	7	preview	3	63	0	0	0	0
52	57	the	the	the	7	preview	3	64	0	0	0	0
53	58	husband	husband	husband	7	preview	3	65	226	226	226	226
54	59	of	of	of	7	preview	3	66	0	0	0	0
55	60	@entity12	EL	EL	7	preview	3	67	0	0	0	0
56			James	James,	7	preview	3	68	0	0	0	0
	61	,	,		7	preview	3	69				
57	62	author	author	author	7	preview	3	70	184	0	0	0
58	63	of	of	of	7	preview	3	71	475	0	0	0
59	64	the	the	the	7	preview	3	72	276	140	312	140
60	65	-	-	-Fifty	7	preview	3	73	0	0	0	0
	66	@entity3	Fifty		7	preview	3	74				
61			Shades	Shades-	7	preview	3	75	162	162	162	162
	67	-	-		7	preview	3	76				
62	68	trilogy	trilogy	trilogy,	7	preview	3	77	140	140	140	140
	69	,	,		7	preview	3	78				
63	70	will	will	will	7	preview	3	79	0	0	0	0
64	71	write	write	write	7	preview	3	80	0	0	0	0
65	72	the	the	the	7	preview	3	81	152	152	152	152
66	73	script	script	script	7	preview	3	82	917	917	917	187
67	74	for	for	for	7	preview	3	83	0	0	0	0
68	75	the	the	the	7	preview	3	84	0	0	0	0
69	76	second	second	second	7	preview	3	85	445	445	1068	291
70	77	film	film	film.	7	preview	3	86	0	0	0	0
	78	.	.		7	preview	3	87				
71	79	@entity16	Niall	Niall	7	preview	3	88	200	200	200	200
72			Leonard	Leonard,	7	preview	3	89	227	227	227	227
	80	,	,		7	preview	3	90				
73	81	who	who	who	7	preview	3	91	0	0	0	0
74	82	is	is	is	7	preview	3	92	0	0	0	0
75	83	married	married	married	7	preview	3	93	465	465	465	226
76	84	and	and	and	7	preview	3	94	0	0	0	0
77	85	has	has	has	7	preview	3	95	0	0	0	0
78	86	two	two	two	7	preview	3	96	543	275	275	275
79	87	sons	sons	sons	7	preview	3	97	472	333	740	333
80	88	with	with	with	7	preview	3	98	0	0	0	0
81	89	the	the	the	7	preview	3	99	0	0	0	0
82	90	@entity19	British	British	7	preview	3	100	606	462	462	269
83	91	author	author	author,	7	preview	3	101	145	145	289	145
	92	,	,		7	preview	3	102				
84	93	is	is	is	7	preview	3	103	0	0	0	0
85	94	an	an	an	7	preview	3	104	0	0	0	0
86	95	author	author	author	7	preview	3	105	405	405	405	405
87	96	himself	himself	himself,	7	preview	3	106	164	0	0	0
	97	,	,		7	preview	3	107				
88	98	in	in	in	7	preview	3	108	0	0	0	0
89	99	addition	addition	addition	7	preview	3	109	387	108	551	108
90	100	to	to	to	7	preview	3	110	0	0	0	0
91	101	being	being	being	7	preview	3	111	151	151	151	151
92	102	a	a	a	7	preview	3	112	0	0	0	0
93	103	screenwriter	screenwriter	screenwriter.	7	preview	3	113	222	222	222	222
	104	.	.		7	preview	3	114				
94	105	@entity12	James	James,	7	preview	3	115	169	169	169	169
	106	,	,		7	preview	3	116				
95	107	whose	whose	whose	7	preview	3	117	314	0	0	0
96	108	real	real	real	7	preview	3	118	261	261	383	261
97	109	name	name	name	7	preview	3	119	164	0	0	0
98	110	is	is	is	7	preview	3	120	0	0	0	0
99	111	@entity12	Erika	Erika	7	preview	3	121	457	208	813	208
100			Leonard	Leonard,	7	preview	3	122	317	317	317	132
	112	,	,		7	preview	3	123				
101	113	has	has	has	7	preview	3	124	193	193	193	193
102	114	been	been	been	7	preview	3	125	690	0	0	0
103	115	credited	credited	credited	7	preview	3	126	1216	337	1906	337
104	116	with	with	with	7	preview	3	127	0	0	0	0
105	117	keeping	keeping	keeping	7	preview	3	128	238	238	238	238
106	118	a	a	a	7	preview	3	129	0	0	0	0
107	119	strong	strong	strong	7	preview	3	130	235	235	235	235
108	120	amount	amount	amount	7	preview	3	131	225	225	225	225
109	121	of	of	of	7	preview	3	132	0	0	0	0
110	122	creative	creative	creative	7	preview	3	133	332	332	332	332
111	123	control	control	control	7	preview	3	134	143	143	143	143
112	124	when	when	when	7	preview	3	135	0	0	0	0
113	125	it	it	it	7	preview	3	136	96	96	96	96
114	126	comes	comes	comes	7	preview	3	137	0	0	0	0
115	127	to	to	to	7	preview	3	138	231	231	231	231
116	128	@entity4	Universal	Universal-s	7	preview	3	139	176	176	176	176
	129	-s	-s		7	preview	3	140				
117	130	adaptations	adaptations	adaptations	7	preview	3	141	135	135	135	135
118	131	of	of	of	7	preview	3	142	0	0	0	0
119	132	her	her	her	7	preview	3	143	0	0	0	0
120	133	books	books	books,	7	preview	3	144	176	176	176	176
	134	,	,		7	preview	3	145				
121	135	the	the	the	7	preview	3	146	0	0	0	0
122	136	second	second	second	7	preview	3	147	279	279	279	279
123	137	of	of	of	7	preview	3	148	0	0	0	0
124	138	which	which	which	7	preview	3	149	361	361	361	214
125	139	is	is	is	7	preview	3	150	0	0	0	0
126	140	titled	titled	titled	7	preview	3	151	459	311	311	311
127	141	-	-	-Fifty	7	preview	3	152	361	272	509	155
	142	@entity32	Fifty		7	preview	3	153				
128			Shades	Shades	7	preview	3	154	216	0	0	0
129			Darker	Darker.-	7	preview	3	155	257	257	473	257
	143	.	.		7	preview	3	156				
130	144	-	-	After	7	preview	3	157	0	0	0	0
	145	After	After		7	preview	3	158				
131	146	clashing	clashing	clashing	7	preview	3	159	396	396	396	245
132	147	with	with	with	7	preview	3	160	0	0	0	0
133	148	@entity12	James	James,	7	preview	3	161	382	382	382	211
	149	,	,		7	preview	3	162				
134	150	@entity33	Sam	Sam	7	preview	3	163	0	0	0	0
135			Taylor	Taylor-Johnson	7	preview	3	164	233	233	233	233
			-		7	preview	3	165				
			Johnson		7	preview	3	166				
136	151	is	is	isn-t	7	preview	3	167	0	0	0	0
	152	n-t	n-t		7	preview	3	168				
137	153	returning	returning	returning	7	preview	3	169	267	267	267	136
138	154	to	to	to	7	preview	3	170	0	0	0	0
139	155	direct	direct	direct	7	preview	3	171	0	0	0	0
140	156	the	the	the	7	preview	3	172	204	204	204	204
141	157	sequel	sequel	sequel.	7	preview	3	173	157	157	157	157
	158	.	.		7	preview	3	174				
142	159	Stars	Stars	Stars	7	preview	3	175	232	0	0	0
143	160	@entity35	Dakota	Dakota	7	preview	3	176	366	366	598	241
144			Johnson	Johnson	7	preview	3	177	0	0	0	0
145	161	and	and	and	7	preview	3	178	0	0	0	0
146	162	@entity36	Jamie	Jamie	7	preview	3	179	0	0	0	0
147			Dornan	Dornan	7	preview	3	180	147	147	147	147
148	163	are	are	are	7	preview	3	181	0	0	0	0
149	164	negotiating	negotiating	negotiating	7	preview	3	182	188	188	188	188
150	165	for	for	for	7	preview	3	183	0	0	0	0
151	166	more	more	more	7	preview	3	184	163	163	163	163
152	167	money	money	money	7	preview	3	185	0	0	0	0
153	168	for	for	for	7	preview	3	186	0	0	0	0
154	169	the	the	the	7	preview	3	187	134	134	134	134
155	170	sequel	sequel	sequel	7	preview	3	188	141	141	141	141
156	171	after	after	after	7	preview	3	189	0	0	0	0
157	172	the	the	the	7	preview	3	190	0	0	0	0
158	173	first	first	first	7	preview	3	191	233	233	233	233
159	174	film	film	film,	7	preview	3	192	148	148	148	148
	175	,	,		7	preview	3	193				
160	176	release	release	release	7	preview	3	194	0	0	0	0
161	177	over	over	over	7	preview	3	195	280	185	185	185
162	178	@entity40	Valentine	Valentine-s	7	preview	3	196	0	0	0	0
			-s		7	preview	3	197				
163			Day	Day	7	preview	3	198	131	131	226	131
164	179	weekend	weekend	weekend	7	preview	3	199	88	88	88	88
165	180	of	of	of	7	preview	3	200	0	0	0	0
166	181	this	this	this	7	preview	3	201	0	0	0	0
167	182	year	year	year,	7	preview	3	202	0	0	0	0
	183	,	,		7	preview	3	203				
168	184	earned	earned	earned	7	preview	3	204	209	209	209	209
169	185	a	a	a	7	preview	3	205	0	0	0	0
170	186	massive	massive	massive	7	preview	3	206	508	199	199	199
171	187	$	$	$568.8	7	preview	3	207	334	334	334	164
	188	568.8	568.8		7	preview	3	208				
172	189	million	million	million	7	preview	3	209	176	176	176	176
173	190	worldwide	worldwide	worldwide.	7	preview	3	210	139	139	448	139
	191	.	.		7	preview	3	211				
