HumanPosition	AnonymizedPosition	AnonymizedToken	OriginalToken	ExperimentToken	Participant	Condition	TextNo	JointPosition	tt	fp	rp	ff
1	0	(	(	The	7	preview	6	1	0	0	0	0
2	1	@entity0	CNN	underwater	7	preview	6	2	563	0	0	0
	2	)	)		7	preview	6	3				
	3	The	The		7	preview	6	4				
	4	underwater	underwater		7	preview	6	5				
3	5	search	search	search	7	preview	6	6	0	0	0	0
4	6	area	area	area	7	preview	6	7	148	0	0	0
5	7	for	for	for	7	preview	6	8	0	0	0	0
6	8	missing	missing	missing	7	preview	6	9	282	0	0	0
7	9	@entity2	Malaysia	Malaysia	7	preview	6	10	140	0	0	0
8			Airlines	Airlines	7	preview	6	11	374	0	0	0
9			Flight	Flight	7	preview	6	12	0	0	0	0
10			370	370	7	preview	6	13	0	0	0	0
11	10	looks	looks	looks	7	preview	6	14	0	0	0	0
12	11	set	set	set	7	preview	6	15	385	0	0	0
13	12	to	to	to	7	preview	6	16	0	0	0	0
14	13	double	double	double	7	preview	6	17	203	0	0	0
15	14	in	in	in	7	preview	6	18	0	0	0	0
16	15	size	size	size.	7	preview	6	19	383	105	2478	105
	16	.	.		7	preview	6	20				
17	17	Teams	Teams	Teams	7	preview	6	21	0	0	0	0
18	18	are	are	are	7	preview	6	22	136	136	136	136
19	19	scouring	scouring	scouring	7	preview	6	23	173	173	173	173
20	20	the	the	the	7	preview	6	24	0	0	0	0
21	21	depths	depths	depths	7	preview	6	25	225	225	225	225
22	22	of	of	of	7	preview	6	26	0	0	0	0
23	23	a	a	a	7	preview	6	27	0	0	0	0
24	24	remote	remote	remote	7	preview	6	28	228	228	228	228
25	25	part	part	part	7	preview	6	29	166	0	0	0
26	26	of	of	of	7	preview	6	30	0	0	0	0
27	27	the	the	the	7	preview	6	31	165	165	331	165
28	28	southern	southern	southern	7	preview	6	32	418	418	418	418
29	29	@entity7	Indian	Indian	7	preview	6	33	153	153	153	153
30			Ocean	Ocean	7	preview	6	34	124	0	0	0
31	30	for	for	for	7	preview	6	35	116	116	240	116
32	31	the	the	the	7	preview	6	36	0	0	0	0
33	32	remains	remains	remains	7	preview	6	37	280	280	280	280
34	33	of	of	of	7	preview	6	38	0	0	0	0
35	34	the	the	the	7	preview	6	39	0	0	0	0
36	35	passenger	passenger	passenger	7	preview	6	40	202	202	202	202
37	36	jet	jet	jet	7	preview	6	41	133	133	133	133
38	37	that	that	that	7	preview	6	42	0	0	0	0
39	38	disappeared	disappeared	disappeared	7	preview	6	43	261	261	261	261
40	39	more	more	more	7	preview	6	44	138	138	138	138
41	40	than	than	than	7	preview	6	45	0	0	0	0
42	41	a	a	a	7	preview	6	46	0	0	0	0
43	42	year	year	year	7	preview	6	47	0	0	0	0
44	43	ago	ago	ago	7	preview	6	48	166	166	166	166
45	44	with	with	with	7	preview	6	49	0	0	0	0
46	45	239	239	239	7	preview	6	50	0	0	0	0
47	46	people	people	people	7	preview	6	51	552	552	552	154
48	47	on	on	on	7	preview	6	52	0	0	0	0
49	48	board	board	board.	7	preview	6	53	222	222	222	222
	49	.	.		7	preview	6	54				
50	50	So	So	So	7	preview	6	55	0	0	0	0
51	51	far	far	far,	7	preview	6	56	206	206	206	206
	52	,	,		7	preview	6	57				
52	53	they	they	they-ve	7	preview	6	58	0	0	0	0
	54	-ve	-ve		7	preview	6	59				
53	55	covered	covered	covered	7	preview	6	60	164	164	164	164
54	56	about	about	about	7	preview	6	61	163	0	0	0
55	57	60	60	60%	7	preview	6	62	183	183	346	183
	58	%	%		7	preview	6	63				
56	59	of	of	of	7	preview	6	64	0	0	0	0
57	60	the	the	the	7	preview	6	65	0	0	0	0
58	61	priority	priority	priority	7	preview	6	66	504	504	504	504
59	62	search	search	search	7	preview	6	67	242	242	242	242
60	63	zone	zone	zone	7	preview	6	68	158	158	158	158
61	64	without	without	without	7	preview	6	69	218	0	0	0
62	65	reporting	reporting	reporting	7	preview	6	70	691	550	550	233
63	66	any	any	any	7	preview	6	71	217	0	0	0
64	67	trace	trace	trace	7	preview	6	72	370	202	946	202
65	68	of	of	of	7	preview	6	73	0	0	0	0
66	69	the	the	the	7	preview	6	74	0	0	0	0
67	70	airliner	airliner	airliner.	7	preview	6	75	241	241	241	241
	71	.	.		7	preview	6	76				
68	72	Families	Families	Families	7	preview	6	77	232	232	232	232
69	73	of	of	of	7	preview	6	78	0	0	0	0
70	74	passengers	passengers	passengers	7	preview	6	79	172	172	172	172
71	75	and	and	and	7	preview	6	80	0	0	0	0
72	76	crew	crew	crew	7	preview	6	81	0	0	0	0
73	77	members	members	members	7	preview	6	82	183	183	183	183
74	78	still	still	still	7	preview	6	83	0	0	0	0
75	79	have	have	have	7	preview	6	84	137	0	0	0
76	80	no	no	no	7	preview	6	85	135	135	272	135
77	81	answers	answers	answers	7	preview	6	86	0	0	0	0
78	82	about	about	about	7	preview	6	87	0	0	0	0
79	83	what	what	what	7	preview	6	88	0	0	0	0
80	84	happened	happened	happened	7	preview	6	89	394	216	216	216
81	85	to	to	to	7	preview	6	90	0	0	0	0
82	86	their	their	their	7	preview	6	91	0	0	0	0
83	87	loved	loved	loved	7	preview	6	92	164	164	342	164
84	88	ones	ones	ones.	7	preview	6	93	156	0	0	0
	89	.	.		7	preview	6	94				
85	90	If	If	If	7	preview	6	95	0	0	0	0
86	91	the	the	the	7	preview	6	96	0	0	0	0
87	92	searchers	searchers	searchers	7	preview	6	97	353	353	353	195
88	93	have	have	haven-t	7	preview	6	98	140	0	0	0
	94	n-t	n-t		7	preview	6	99				
89	95	found	found	found	7	preview	6	100	140	140	280	140
90	96	anything	anything	anything	7	preview	6	101	254	254	254	254
91	97	by	by	by	7	preview	6	102	0	0	0	0
92	98	the	the	the	7	preview	6	103	0	0	0	0
93	99	time	time	time	7	preview	6	104	225	225	225	225
94	100	they	they	they-ve	7	preview	6	105	0	0	0	0
	101	-ve	-ve		7	preview	6	106				
95	102	covered	covered	covered	7	preview	6	107	354	200	200	200
96	103	the	the	the	7	preview	6	108	0	0	0	0
97	104	entire	entire	entire	7	preview	6	109	161	161	315	161
98	105	60,000	60,000	60,000-square-kilometer	7	preview	6	110	1398	1398	1554	217
	106	-	-		7	preview	6	111				
	107	square	square		7	preview	6	112				
	108	-	-		7	preview	6	113				
	109	kilometer	kilometer		7	preview	6	114				
99	110	priority	priority	priority	7	preview	6	115	282	0	0	0
100	111	zone	zone	zone,	7	preview	6	116	280	128	562	128
	112	,	,		7	preview	6	117				
101	113	the	the	the	7	preview	6	118	0	0	0	0
102	114	search	search	search	7	preview	6	119	321	321	321	182
103	115	will	will	will	7	preview	6	120	0	0	0	0
104	116	stretch	stretch	stretch	7	preview	6	121	217	217	217	217
105	117	into	into	into	7	preview	6	122	0	0	0	0
106	118	a	a	a	7	preview	6	123	0	0	0	0
107	119	new	new	new	7	preview	6	124	0	0	0	0
108	120	equally	equally	equally	7	preview	6	125	609	609	609	183
109	121	vast	vast	vast	7	preview	6	126	0	0	0	0
110	122	area	area	area,	7	preview	6	127	200	200	200	200
	123	,	,		7	preview	6	128				
111	124	government	government	government	7	preview	6	129	226	226	226	226
112	125	officials	officials	officials	7	preview	6	130	205	205	205	205
113	126	from	from	from	7	preview	6	131	0	0	0	0
114	127	@entity23	Malaysia	Malaysia,	7	preview	6	132	371	152	152	152
	128	,	,		7	preview	6	133				
115	129	@entity24	Australia	Australia	7	preview	6	134	939	403	1158	270
116	130	and	and	and	7	preview	6	135	92	0	0	0
117	131	@entity25	China	China	7	preview	6	136	129	0	0	0
118	132	announced	announced	announced	7	preview	6	137	934	729	1155	284
119	133	Thursday	Thursday	Thursday.	7	preview	6	138	173	173	173	173
	134	.	.		7	preview	6	139				
120	135	-	-	-Ministers	7	preview	6	140	455	257	257	257
	136	Ministers	Ministers		7	preview	6	141				
121	137	remain	remain	remain	7	preview	6	142	154	154	352	154
122	138	committed	committed	committed	7	preview	6	143	444	293	293	293
123	139	to	to	to	7	preview	6	144	0	0	0	0
124	140	bring	bring	bring	7	preview	6	145	194	194	194	194
125	141	closure	closure	closure	7	preview	6	146	534	328	685	188
126	142	and	and	and	7	preview	6	147	203	203	203	203
127	143	some	some	some	7	preview	6	148	0	0	0	0
128	144	peace	peace	peace	7	preview	6	149	553	553	553	253
129	145	to	to	to	7	preview	6	150	0	0	0	0
130	146	the	the	the	7	preview	6	151	236	236	236	236
131	147	families	families	families	7	preview	6	152	175	175	175	175
132	148	and	and	and	7	preview	6	153	0	0	0	0
133	149	loved	loved	loved	7	preview	6	154	0	0	0	0
134	150	ones	ones	ones	7	preview	6	155	217	217	217	217
135	151	of	of	of	7	preview	6	156	166	166	166	166
136	152	those	those	those	7	preview	6	157	0	0	0	0
137	153	on	on	on	7	preview	6	158	426	426	426	327
138	154	board	board	board	7	preview	6	159	0	0	0	0
139	155	@entity2	Malaysia	Malaysia	7	preview	6	160	524	524	524	384
140			Airlines	Airlines	7	preview	6	161	0	0	0	0
141			Flight	Flight	7	preview	6	162	0	0	0	0
142			MH370	MH370,-	7	preview	6	163	0	0	0	0
	156	,	,		7	preview	6	164				
	157	-	-		7	preview	6	165				
143	158	the	the	the	7	preview	6	166	0	0	0	0
144	159	three	three	three	7	preview	6	167	282	282	282	282
145	160	countries	countries	countries	7	preview	6	168	0	0	0	0
146	161	said	said	said	7	preview	6	169	0	0	0	0
147	162	in	in	in	7	preview	6	170	157	157	157	157
148	163	a	a	a	7	preview	6	171	0	0	0	0
149	164	joint	joint	joint	7	preview	6	172	0	0	0	0
150	165	statement	statement	statement.	7	preview	6	173	443	443	443	272
	166	.	.		7	preview	6	174				
151	167	The	The	The	7	preview	6	175	0	0	0	0
152	168	search	search	search	7	preview	6	176	231	0	0	0
153	169	of	of	of	7	preview	6	177	0	0	0	0
154	170	the	the	the	7	preview	6	178	0	0	0	0
155	171	current	current	current	7	preview	6	179	142	0	0	0
156	172	priority	priority	priority	7	preview	6	180	250	0	0	0
157	173	zone	zone	zone	7	preview	6	181	0	0	0	0
158	174	is	is	is	7	preview	6	182	135	0	0	0
159	175	expected	expected	expected	7	preview	6	183	147	0	0	0
160	176	to	to	to	7	preview	6	184	0	0	0	0
161	177	be	be	be	7	preview	6	185	0	0	0	0
162	178	completed	completed	completed	7	preview	6	186	442	0	0	0
163	179	in	in	in	7	preview	6	187	0	0	0	0
164	180	May	May	May.	7	preview	6	188	168	0	0	0
	181	.	.		7	preview	6	189				
165	182	Covering	Covering	Covering	7	preview	6	190	179	0	0	0
166	183	the	the	the	7	preview	6	191	0	0	0	0
167	184	new	new	new	7	preview	6	192	0	0	0	0
168	185	zone	zone	zone	7	preview	6	193	262	0	0	0
169	186	could	could	could	7	preview	6	194	116	116	2072	116
170	187	take	take	take	7	preview	6	195	256	256	256	256
171	188	as	as	as	7	preview	6	196	0	0	0	0
172	189	long	long	long	7	preview	6	197	134	134	134	134
173	190	as	as	as	7	preview	6	198	0	0	0	0
174	191	a	a	a	7	preview	6	199	0	0	0	0
175	192	year	year	year.	7	preview	6	200	249	249	249	249
	193	.	.		7	preview	6	201				
176	194	At	At	At	7	preview	6	202	0	0	0	0
177	195	that	that	that	7	preview	6	203	0	0	0	0
178	196	point	point	point,	7	preview	6	204	356	356	356	182
	197	,	,		7	preview	6	205				
179	198	-	-	-all	7	preview	6	206	0	0	0	0
	199	all	all		7	preview	6	207				
180	200	high	high	high	7	preview	6	208	270	144	144	144
181	201	probability	probability	probability	7	preview	6	209	155	155	281	155
182	202	search	search	search	7	preview	6	210	0	0	0	0
183	203	areas	areas	areas	7	preview	6	211	274	274	274	274
184	204	would	would	would	7	preview	6	212	0	0	0	0
185	205	have	have	have	7	preview	6	213	159	0	0	0
186	206	been	been	been	7	preview	6	214	236	236	395	236
187	207	covered	covered	covered,-	7	preview	6	215	0	0	0	0
	208	,	,		7	preview	6	216				
	209	-	-		7	preview	6	217				
188	210	the	the	the	7	preview	6	218	0	0	0	0
189	211	governments	governments	governments	7	preview	6	219	419	419	419	419
190	212	said	said	said	7	preview	6	220	151	151	151	151
191	213	Thursday	Thursday	Thursday.	7	preview	6	221	143	143	143	143
	214	.	.		7	preview	6	222				
192	215	The	The	The	7	preview	6	223	0	0	0	0
193	216	size	size	size	7	preview	6	224	0	0	0	0
194	217	of	of	of	7	preview	6	225	254	254	254	254
195	218	the	the	the	7	preview	6	226	98	98	98	98
196	219	doubled	doubled	doubled	7	preview	6	227	226	0	0	0
197	220	search	search	search	7	preview	6	228	148	148	374	148
198	221	area	area	area,	7	preview	6	229	0	0	0	0
	222	,	,		7	preview	6	230				
199	223	the	the	the	7	preview	6	231	0	0	0	0
200	224	equivalent	equivalent	equivalent	7	preview	6	232	482	482	482	256
201	225	of	of	of	7	preview	6	233	0	0	0	0
202	226	more	more	more	7	preview	6	234	141	141	141	141
203	227	than	than	than	7	preview	6	235	194	194	194	194
204	228	46,000	46,000	46,000	7	preview	6	236	219	219	219	126
205	229	square	square	square	7	preview	6	237	0	0	0	0
206	230	miles	miles	miles,	7	preview	6	238	565	565	565	565
	231	,	,		7	preview	6	239				
207	232	would	would	would	7	preview	6	240	0	0	0	0
208	233	be	be	be	7	preview	6	241	0	0	0	0
209	234	bigger	bigger	bigger	7	preview	6	242	338	338	338	247
210	235	than	than	than	7	preview	6	243	0	0	0	0
211	236	the	the	the	7	preview	6	244	0	0	0	0
212	237	@entity50	U.S.	U.S.	7	preview	6	245	276	276	276	276
213	238	state	state	state	7	preview	6	246	374	374	374	374
214	239	of	of	of	7	preview	6	247	0	0	0	0
215	240	@entity51	Pennsylvania	Pennsylvania.	7	preview	6	248	0	0	0	0
	241	.	.		7	preview	6	249				
216	242	Flight	Flight	Flight	7	preview	6	250	327	327	327	327
217	243	370	370	370	7	preview	6	251	225	225	225	225
218	244	vanished	vanished	vanished	7	preview	6	252	1035	1035	1035	441
219	245	after	after	after	7	preview	6	253	0	0	0	0
220	246	taking	taking	taking	7	preview	6	254	231	231	231	231
221	247	off	off	off	7	preview	6	255	0	0	0	0
222	248	from	from	from	7	preview	6	256	239	239	239	239
223	249	@entity53	Kuala	Kuala	7	preview	6	257	122	122	122	122
224			Lumpur	Lumpur,	7	preview	6	258	0	0	0	0
	250	,	,		7	preview	6	259				
225	251	@entity23	Malaysia	Malaysia,	7	preview	6	260	392	392	392	222
	252	,	,		7	preview	6	261				
226	253	on	on	on	7	preview	6	262	0	0	0	0
227	254	March	March	March	7	preview	6	263	335	335	335	187
228	255	8	8	8,	7	preview	6	264	0	0	0	0
	256	,	,		7	preview	6	265				
229	257	2014	2014	2014,	7	preview	6	266	492	492	492	247
	258	,	,		7	preview	6	267				
230	259	bound	bound	bound	7	preview	6	268	182	182	182	182
231	260	for	for	for	7	preview	6	269	0	0	0	0
232	261	@entity54	Beijing	Beijing.	7	preview	6	270	471	471	471	239
	262	.	.		7	preview	6	271				
233	263	Officials	Officials	Officials	7	preview	6	272	501	355	355	355
234	264	are	are	are	7	preview	6	273	124	124	270	124
235	265	still	still	still	7	preview	6	274	0	0	0	0
236	266	trying	trying	trying	7	preview	6	275	208	208	208	208
237	267	to	to	to	7	preview	6	276	132	132	132	132
238	268	figure	figure	figure	7	preview	6	277	171	0	0	0
239	269	out	out	out	7	preview	6	278	0	0	0	0
240	270	why	why	why	7	preview	6	279	118	118	289	118
241	271	it	it	it	7	preview	6	280	0	0	0	0
242	272	veered	veered	veered	7	preview	6	281	493	493	493	493
243	273	dramatically	dramatically	dramatically	7	preview	6	282	452	452	452	303
244	274	off	off	off	7	preview	6	283	0	0	0	0
245	275	course	course	course	7	preview	6	284	274	274	274	274
246	276	over	over	over	7	preview	6	285	170	170	170	170
247	277	the	the	the	7	preview	6	286	214	0	0	0
248	278	sea	sea	sea	7	preview	6	287	0	0	0	0
249	279	between	between	between	7	preview	6	288	543	215	613	215
250	280	@entity23	Malaysia	Malaysia	7	preview	6	289	288	288	432	288
251	281	and	and	and	7	preview	6	290	119	119	119	119
252	282	@entity58	Vietnam	Vietnam	7	preview	6	291	0	0	0	0
253	283	and	and	and	7	preview	6	292	252	252	252	252
254	284	where	where	where	7	preview	6	293	190	190	190	190
255	285	exactly	exactly	exactly	7	preview	6	294	182	182	182	182
256	286	it	it	it	7	preview	6	295	0	0	0	0
257	287	ended	ended	ended	7	preview	6	296	362	362	362	362
258	288	up	up	up.	7	preview	6	297	0	0	0	0
	289	.	.		7	preview	6	298				
259	290	An	An	An	7	preview	6	299	0	0	0	0
260	291	international	international	international	7	preview	6	300	323	323	323	323
261	292	team	team	team	7	preview	6	301	0	0	0	0
262	293	of	of	of	7	preview	6	302	220	220	220	220
263	294	experts	experts	experts	7	preview	6	303	0	0	0	0
264	295	used	used	used	7	preview	6	304	241	241	241	241
265	296	satellite	satellite	satellite	7	preview	6	305	384	384	384	384
266	297	data	data	data	7	preview	6	306	147	147	147	147
267	298	to	to	to	7	preview	6	307	0	0	0	0
268	299	calculate	calculate	calculate	7	preview	6	308	268	268	268	268
269	300	that	that	that	7	preview	6	309	0	0	0	0
270	301	the	the	the	7	preview	6	310	230	230	230	230
271	302	plane	plane	plane	7	preview	6	311	0	0	0	0
272	303	eventually	eventually	eventually	7	preview	6	312	191	191	191	191
273	304	went	went	went	7	preview	6	313	0	0	0	0
274	305	down	down	down	7	preview	6	314	583	242	242	242
275	306	in	in	in	7	preview	6	315	0	0	0	0
276	307	the	the	the	7	preview	6	316	0	0	0	0
277	308	southern	southern	southern	7	preview	6	317	411	144	752	144
278	309	@entity7	Indian	Indian	7	preview	6	318	166	0	0	0
279			Ocean	Ocean,	7	preview	6	319	237	237	403	237
	310	,	,		7	preview	6	320				
280	311	far	far	far	7	preview	6	321	0	0	0	0
281	312	off	off	off	7	preview	6	322	176	176	176	176
282	313	the	the	the	7	preview	6	323	0	0	0	0
283	314	coast	coast	coast	7	preview	6	324	434	434	434	434
284	315	of	of	of	7	preview	6	325	0	0	0	0
285	316	@entity24	Western	Western	7	preview	6	326	313	313	313	158
286			Australia	Australia.	7	preview	6	327	0	0	0	0
	317	.	.		7	preview	6	328				
287	318	The	The	The	7	preview	6	329	0	0	0	0
288	319	people	people	people	7	preview	6	330	300	300	300	300
289	320	on	on	on	7	preview	6	331	0	0	0	0
290	321	board	board	board	7	preview	6	332	177	0	0	0
291	322	the	the	the	7	preview	6	333	260	260	437	260
292	323	@entity64	Boeing	Boeing	7	preview	6	334	413	413	413	413
293			777	777	7	preview	6	335	0	0	0	0
294	324	came	came	came	7	preview	6	336	452	295	295	295
295	325	from	from	from	7	preview	6	337	0	0	0	0
296	326	various	various	various	7	preview	6	338	376	117	533	117
297	327	nations	nations	nations,	7	preview	6	339	138	138	138	138
	328	,	,		7	preview	6	340				
298	329	but	but	but	7	preview	6	341	0	0	0	0
299	330	the	the	the	7	preview	6	342	0	0	0	0
300	331	majority	majority	majority	7	preview	6	343	221	221	221	221
301	332	were	were	were	7	preview	6	344	158	158	158	158
302	333	@entity25	Chinese	Chinese.	7	preview	6	345	169	169	169	169
	334	.	.		7	preview	6	346				
