HumanPosition	AnonymizedPosition	AnonymizedToken	OriginalToken	ExperimentToken	Participant	Condition	TextNo	JointPosition	tt	fp	rp	ff	rb	sp
1	0	Many	Many	Many	8	nopreview	13	1	167	0	0	0	0	167
2	1	animals	animals	animals	8	nopreview	13	2	1934	0	0	0	0	1934
3	2	mimic	mimic	mimic	8	nopreview	13	3	869	0	0	0	0	869
4	3	human	human	human	8	nopreview	13	4	1656	0	0	0	0	1656
5	4	traits	traits	traits	8	nopreview	13	5	649	0	0	0	0	649
6	5	and	and	and	8	nopreview	13	6	0	0	0	0	0	0
7	6	vice	vice	vice	8	nopreview	13	7	386	0	0	0	0	386
8	7	versa	versa	versa	8	nopreview	13	8	179	0	0	0	0	179
9	8	but	but	but	8	nopreview	13	9	158	0	0	0	0	158
10	9	this	this	this	8	nopreview	13	10	154	0	0	0	0	154
11	10	puppy	puppy	puppy	8	nopreview	13	11	0	0	0	0	0	0
12	11	takes	takes	takes	8	nopreview	13	12	380	0	0	0	0	380
13	12	the	the	the	8	nopreview	13	13	0	0	0	0	0	0
14	13	biscuit	biscuit	biscuit.	8	nopreview	13	14	702	0	0	0	0	702
	14	.	.		8	nopreview	13	15						
15	15	@entity5	Leia	Leia,	8	nopreview	13	16	453	0	0	0	0	453
	16	,	,		8	nopreview	13	17						
16	17	an	an	an	8	nopreview	13	18	0	0	0	0	0	0
17	18	eight	eight	eight-month-old	8	nopreview	13	19	798	109	242	109	109	689
	19	-	-		8	nopreview	13	20						
	20	month	month		8	nopreview	13	21						
	21	-	-		8	nopreview	13	22						
	22	old	old		8	nopreview	13	23						
18	23	@entity6	Boxer	Boxer	8	nopreview	13	24	191	0	0	0	0	191
19	24	from	from	from	8	nopreview	13	25	0	0	0	0	0	0
20	25	@entity7	Pennsylvania	Pennsylvania,	8	nopreview	13	26	279	0	0	0	0	279
	26	,	,		8	nopreview	13	27						
21	27	was	was	was	8	nopreview	13	28	0	0	0	0	0	0
22	28	filmed	filmed	filmed	8	nopreview	13	29	270	0	0	0	0	270
23	29	as	as	as	8	nopreview	13	30	0	0	0	0	0	0
24	30	she	she	she	8	nopreview	13	31	127	0	0	0	0	127
25	31	lay	lay	lay	8	nopreview	13	32	134	0	0	0	0	134
26	32	on	on	on	8	nopreview	13	33	0	0	0	0	0	0
27	33	the	the	the	8	nopreview	13	34	225	0	0	0	0	225
28	34	couch	couch	couch	8	nopreview	13	35	0	0	0	0	0	0
29	35	and	and	and	8	nopreview	13	36	0	0	0	0	0	0
30	36	latched	latched	latched	8	nopreview	13	37	236	0	0	0	0	236
31	37	on	on	on	8	nopreview	13	38	97	0	0	0	0	97
32	38	to	to	to	8	nopreview	13	39	332	0	0	0	0	332
33	39	a	a	a	8	nopreview	13	40	0	0	0	0	0	0
34	40	baby	baby	baby-s	8	nopreview	13	41	306	0	0	0	0	306
	41	-s	-s		8	nopreview	13	42						
35	42	pacifier	pacifier	pacifier.	8	nopreview	13	43	359	0	0	0	0	359
	43	.	.		8	nopreview	13	44						
36	44	Footage	Footage	Footage	8	nopreview	13	45	206	0	0	0	0	206
37	45	shows	shows	shows	8	nopreview	13	46	194	0	0	0	0	194
38	46	her	her	her	8	nopreview	13	47	0	0	0	0	0	0
39	47	then	then	then	8	nopreview	13	48	295	0	0	0	0	295
40	48	sucking	sucking	sucking	8	nopreview	13	49	134	0	0	0	0	134
41	49	on	on	on	8	nopreview	13	50	0	0	0	0	0	0
42	50	it	it	it	8	nopreview	13	51	0	0	0	0	0	0
43	51	before	before	before	8	nopreview	13	52	0	0	0	0	0	0
44	52	closing	closing	closing	8	nopreview	13	53	181	0	0	0	0	181
45	53	her	her	her	8	nopreview	13	54	0	0	0	0	0	0
46	54	eyes	eyes	eyes	8	nopreview	13	55	0	0	0	0	0	0
47	55	and	and	and	8	nopreview	13	56	0	0	0	0	0	0
48	56	loudly	loudly	loudly	8	nopreview	13	57	114	0	0	0	0	114
49	57	snoring	snoring	snoring	8	nopreview	13	58	0	0	0	0	0	0
50	58	in	in	in	8	nopreview	13	59	362	0	0	0	0	362
51	59	her	her	her	8	nopreview	13	60	0	0	0	0	0	0
52	60	sleep	sleep	sleep.	8	nopreview	13	61	171	0	0	0	0	171
	61	.	.		8	nopreview	13	62						
53	62	A	A	A	8	nopreview	13	63	0	0	0	0	0	0
54	63	soothing	soothing	soothing	8	nopreview	13	64	278	0	0	0	0	278
55	64	rendition	rendition	rendition	8	nopreview	13	65	436	0	0	0	0	436
56	65	of	of	of	8	nopreview	13	66	176	0	0	0	0	176
57	66	@entity16	Twinkle	Twinkle,	8	nopreview	13	67	963	0	0	0	0	963
			,		8	nopreview	13	68						
58			Twinkle	Twinkle	8	nopreview	13	69	171	0	0	0	0	171
59			Little	Little	8	nopreview	13	70	143	0	0	0	0	143
60			Star	Star	8	nopreview	13	71	0	0	0	0	0	0
61	67	is	is	is	8	nopreview	13	72	0	0	0	0	0	0
62	68	heard	heard	heard	8	nopreview	13	73	248	0	0	0	0	248
63	69	playing	playing	playing	8	nopreview	13	74	140	0	0	0	0	140
64	70	away	away	away	8	nopreview	13	75	0	0	0	0	0	0
65	71	in	in	in	8	nopreview	13	76	0	0	0	0	0	0
66	72	the	the	the	8	nopreview	13	77	108	0	0	0	0	108
67	73	background	background	background.	8	nopreview	13	78	141	0	0	0	0	141
	74	.	.		8	nopreview	13	79						
68	75	The	The	The	8	nopreview	13	80	0	0	0	0	0	0
69	76	pup	pup	pup-s	8	nopreview	13	81	225	0	0	0	0	225
	77	-s	-s		8	nopreview	13	82						
70	78	owner	owner	owner,	8	nopreview	13	83	143	0	0	0	0	143
	79	,	,		8	nopreview	13	84						
71	80	@entity18	Dave	Dave	8	nopreview	13	85	123	0	0	0	0	123
72			McK	McK,	8	nopreview	13	86	400	0	0	0	0	400
	81	,	,		8	nopreview	13	87						
73	82	says	says	says	8	nopreview	13	88	652	0	0	0	0	652
74	83	that	that	that	8	nopreview	13	89	0	0	0	0	0	0
75	84	apparently	apparently	apparently	8	nopreview	13	90	141	0	0	0	0	141
76	85	@entity5	Leia	Leia	8	nopreview	13	91	210	0	0	0	0	210
77	86	loves	loves	loves	8	nopreview	13	92	0	0	0	0	0	0
78	87	to	to	to	8	nopreview	13	93	227	227	17381	227	227	0
79	88	suck	suck	suck	8	nopreview	13	94	169	169	17323	169	169	0
80	89	on	on	on	8	nopreview	13	95	185	185	185	185	185	0
81	90	her	her	her	8	nopreview	13	96	295	0	0	0	0	295
82	91	pacifier	pacifier	pacifier.	8	nopreview	13	97	145	145	440	145	145	0
	92	.	.		8	nopreview	13	98						
83	93	Each	Each	Each	8	nopreview	13	99	192	192	192	192	192	0
84	94	time	time	time	8	nopreview	13	100	0	0	0	0	0	0
85	95	around	around	around,	8	nopreview	13	101	150	150	150	150	150	0
	96	,	,		8	nopreview	13	102						
86	97	she	she	she	8	nopreview	13	103	145	145	145	145	145	0
87	98	immediately	immediately	immediately	8	nopreview	13	104	182	182	182	182	182	0
88	99	falls	falls	falls	8	nopreview	13	105	263	263	263	263	263	0
89	100	to	to	to	8	nopreview	13	106	0	0	0	0	0	0
90	101	sleep	sleep	sleep.	8	nopreview	13	107	197	197	197	197	197	0
	102	.	.		8	nopreview	13	108						
91	103	To	To	To	8	nopreview	13	109	0	0	0	0	0	0
92	104	date	date	date	8	nopreview	13	110	172	172	172	172	172	0
93	105	the	the	the	8	nopreview	13	111	0	0	0	0	0	0
94	106	video	video	video	8	nopreview	13	112	0	0	0	0	0	0
95	107	of	of	of	8	nopreview	13	113	446	446	446	446	446	0
96	108	@entity5	Leia	Leia	8	nopreview	13	114	0	0	0	0	0	0
97	109	has	has	has	8	nopreview	13	115	204	204	204	204	204	0
98	110	garnered	garnered	garnered	8	nopreview	13	116	230	230	230	230	230	0
99	111	more	more	more	8	nopreview	13	117	0	0	0	0	0	0
100	112	than	than	than	8	nopreview	13	118	156	156	156	156	156	0
101	113	145,000	145,000	145,000	8	nopreview	13	119	157	157	157	157	157	0
102	114	likes	likes	likes	8	nopreview	13	120	0	0	0	0	0	0
103	115	on	on	on	8	nopreview	13	121	313	313	313	313	313	0
104	116	@entity23	Facebook	Facebook,	8	nopreview	13	122	0	0	0	0	0	0
	117	,	,		8	nopreview	13	123						
105	118	with	with	with	8	nopreview	13	124	0	0	0	0	0	0
106	119	many	many	many	8	nopreview	13	125	214	214	214	214	214	0
107	120	viewers	viewers	viewers	8	nopreview	13	126	212	212	212	212	212	0
108	121	deeming	deeming	deeming	8	nopreview	13	127	0	0	0	0	0	0
109	122	the	the	the	8	nopreview	13	128	151	151	151	151	151	0
110	123	scene	scene	scene	8	nopreview	13	129	0	0	0	0	0	0
111	124	-	-	-cute-	8	nopreview	13	130	265	265	265	265	265	0
	125	cute	cute		8	nopreview	13	131						
	126	-	-		8	nopreview	13	132						
112	127	and	and	and	8	nopreview	13	133	0	0	0	0	0	0
113	128	-	-	-adorable-.	8	nopreview	13	134	249	249	249	249	249	0
	129	adorable	adorable		8	nopreview	13	135						
	130	-	-		8	nopreview	13	136						
	131	.	.		8	nopreview	13	137						
114	132	-	-	-This	8	nopreview	13	138	156	156	156	156	156	0
	133	This	This		8	nopreview	13	139						
115	134	has	has	has	8	nopreview	13	140	124	0	0	0	0	124
116	135	made	made	made	8	nopreview	13	141	316	0	0	0	0	316
117	136	my	my	my	8	nopreview	13	142	0	0	0	0	0	0
118	137	night	night	night,-	8	nopreview	13	143	110	110	550	110	110	0
	138	,	,		8	nopreview	13	144						
119	139	-	-	one	8	nopreview	13	145	0	0	0	0	0	0
120	140	one	one	fan	8	nopreview	13	146	174	0	0	0	0	174
121	141	fan	fan	exclaimed,	8	nopreview	13	147	147	147	321	147	147	0
	142	exclaimed	exclaimed		8	nopreview	13	148						
	143	,	,		8	nopreview	13	149						
122	144	while	while	while	8	nopreview	13	150	0	0	0	0	0	0
123	145	another	another	another	8	nopreview	13	151	210	210	210	210	210	0
124	146	added	added	added:	8	nopreview	13	152	0	0	0	0	0	0
125	147	:	:	-That	8	nopreview	13	153	0	0	0	0	0	0
	148	-	-		8	nopreview	13	154						
	149	That	That		8	nopreview	13	155						
126	150	is	is	is	8	nopreview	13	156	0	0	0	0	0	0
127	151	the	the	the	8	nopreview	13	157	180	180	180	180	180	0
128	152	cutest	cutest	cutest	8	nopreview	13	158	84	84	84	84	84	0
129	153	thing	thing	thing	8	nopreview	13	159	0	0	0	0	0	0
130	154	I	I	I-ve	8	nopreview	13	160	0	0	0	0	0	0
	155	-ve	-ve		8	nopreview	13	161						
131	156	ever	ever	ever	8	nopreview	13	162	158	0	0	0	0	158
132	157	seen	seen	seen!-	8	nopreview	13	163	160	160	318	160	160	0
	158	!	!		8	nopreview	13	164						
	159	-	-		8	nopreview	13	165						
133	160	When	When	When	8	nopreview	13	166	178	0	0	0	0	178
134	161	she	she	she-s	8	nopreview	13	167	0	0	0	0	0	0
	162	-s	-s		8	nopreview	13	168						
135	163	not	not	not	8	nopreview	13	169	117	117	295	117	117	0
136	164	snoozing	snoozing	snoozing,	8	nopreview	13	170	186	186	186	186	186	0
	165	,	,		8	nopreview	13	171						
137	166	@entity5	Leia	Leia	8	nopreview	13	172	0	0	0	0	0	0
138	167	is	is	is	8	nopreview	13	173	345	345	345	345	345	0
139	168	usually	usually	usually	8	nopreview	13	174	183	183	183	183	183	0
140	169	getting	getting	getting	8	nopreview	13	175	207	207	207	207	207	0
141	170	up	up	up	8	nopreview	13	176	0	0	0	0	0	0
142	171	to	to	to	8	nopreview	13	177	0	0	0	0	0	0
143	172	mischief	mischief	mischief	8	nopreview	13	178	190	190	190	190	190	0
144	173	with	with	with	8	nopreview	13	179	252	252	252	252	252	0
145	174	her	her	her	8	nopreview	13	180	0	0	0	0	0	0
146	175	older	older	older	8	nopreview	13	181	155	0	0	0	0	155
147	176	brother	brother	brother	8	nopreview	13	182	117	117	272	117	117	0
148	177	@entity31	Luke	Luke.	8	nopreview	13	183	272	272	272	272	272	0
	178	.	.		8	nopreview	13	184						
149	179	Together	Together	Together,	8	nopreview	13	185	157	157	157	157	157	0
	180	,	,		8	nopreview	13	186						
150	181	the	the	the	8	nopreview	13	187	0	0	0	0	0	0
151	182	canines	canines	canines	8	nopreview	13	188	283	283	283	283	283	0
152	183	have	have	have	8	nopreview	13	189	0	0	0	0	0	0
153	184	starred	starred	starred	8	nopreview	13	190	193	193	193	193	193	0
154	185	in	in	in	8	nopreview	13	191	0	0	0	0	0	0
155	186	numerous	numerous	numerous	8	nopreview	13	192	93	93	93	93	93	0
156	187	videos	videos	videos	8	nopreview	13	193	208	208	208	208	208	0
157	188	via	via	via	8	nopreview	13	194	0	0	0	0	0	0
158	189	@entity23	Facebook	Facebook	8	nopreview	13	195	228	228	228	228	228	0
159	190	and	and	and	8	nopreview	13	196	0	0	0	0	0	0
160	191	@entity34	YouTube	YouTube.	8	nopreview	13	197	231	231	231	231	231	0
	192	.	.		8	nopreview	13	198						
161	193	They	They	They	8	nopreview	13	199	0	0	0	0	0	0
162	194	also	also	also	8	nopreview	13	200	181	181	181	181	181	0
163	195	have	have	have	8	nopreview	13	201	0	0	0	0	0	0
164	196	their	their	their	8	nopreview	13	202	245	245	245	245	245	0
165	197	own	own	own	8	nopreview	13	203	0	0	0	0	0	0
166	198	website	website	website,	8	nopreview	13	204	163	163	163	163	163	0
	199	,	,		8	nopreview	13	205						
167	200	www.luketheboxer.com	www.luketheboxer.com	www.luketheboxer.com,	8	nopreview	13	206	545	545	545	226	545	0
168	201	where	where	where	8	nopreview	13	207	168	168	168	168	168	0
169	202	fans	fans	fans	8	nopreview	13	208	167	0	0	0	0	167
170	203	can	can	can	8	nopreview	13	209	249	0	0	0	0	249
171	204	buy	buy	buy	8	nopreview	13	210	0	0	0	0	0	0
172	205	calendars	calendars	calendars	8	nopreview	13	211	247	102	663	102	247	145
173	206	with	with	with	8	nopreview	13	212	138	0	0	0	0	138
174	207	their	their	their	8	nopreview	13	213	413	186	186	186	186	227
175	208	photographs	photographs	photographs	8	nopreview	13	214	434	216	443	216	216	218
176	209	on	on	on.	8	nopreview	13	215	390	177	746	177	390	213
	210	.	.		8	nopreview	13	216						
