HumanPosition	AnonymizedPosition	AnonymizedToken	OriginalToken	ExperimentToken	Participant	Condition	TextNo	JointPosition	tt	fp	rp	ff	rb	sp
	0	@entity0	Paris		8	nopreview	7	1						
	1	(	(		8	nopreview	7	2						
	2	@entity1	CNN		8	nopreview	7	3						
	3	)	)		8	nopreview	7	4						
0	4	Six	Six	Six	8	nopreview	7	5	0	0	0	0	0	0
2	5	survivors	survivors	survivors	8	nopreview	7	6	187	0	0	0	0	187
3	6	of	of	of	8	nopreview	7	7	0	0	0	0	0	0
4	7	the	the	the	8	nopreview	7	8	0	0	0	0	0	0
5	8	@entity0	Paris	Paris	8	nopreview	7	9	830	0	0	0	0	830
6	9	kosher	kosher	kosher	8	nopreview	7	10	1369	0	0	0	0	1369
7	10	supermarket	supermarket	supermarket	8	nopreview	7	11	370	0	0	0	0	370
8	11	siege	siege	siege	8	nopreview	7	12	0	0	0	0	0	0
9	12	in	in	in	8	nopreview	7	13	147	0	0	0	0	147
10	13	January	January	January	8	nopreview	7	14	292	0	0	0	0	292
11	14	are	are	are	8	nopreview	7	15	0	0	0	0	0	0
12	15	suing	suing	suing	8	nopreview	7	16	479	0	0	0	0	479
13	16	a	a	a	8	nopreview	7	17	0	0	0	0	0	0
14	17	@entity5	French	French	8	nopreview	7	18	840	0	0	0	0	840
15	18	media	media	media	8	nopreview	7	19	335	0	0	0	0	335
16	19	outlet	outlet	outlet	8	nopreview	7	20	240	0	0	0	0	240
17	20	for	for	for	8	nopreview	7	21	0	0	0	0	0	0
18	21	what	what	what	8	nopreview	7	22	0	0	0	0	0	0
19	22	they	they	they	8	nopreview	7	23	145	0	0	0	0	145
20	23	call	call	call	8	nopreview	7	24	0	0	0	0	0	0
21	24	dangerous	dangerous	dangerous	8	nopreview	7	25	311	0	0	0	0	311
22	25	live	live	live	8	nopreview	7	26	0	0	0	0	0	0
23	26	broadcasting	broadcasting	broadcasting	8	nopreview	7	27	288	0	0	0	0	288
24	27	during	during	during	8	nopreview	7	28	196	0	0	0	0	196
25	28	the	the	the	8	nopreview	7	29	0	0	0	0	0	0
26	29	hostage	hostage	hostage-taking.	8	nopreview	7	30	693	0	0	0	0	693
	30	-	-		8	nopreview	7	31						
	31	taking	taking		8	nopreview	7	32						
	32	.	.		8	nopreview	7	33						
27	33	According	According	According	8	nopreview	7	34	101	0	0	0	0	101
28	34	to	to	to	8	nopreview	7	35	0	0	0	0	0	0
29	35	@entity0	Paris	Paris	8	nopreview	7	36	140	0	0	0	0	140
30	36	prosecutor	prosecutor	prosecutor-s	8	nopreview	7	37	181	0	0	0	0	181
	37	-s	-s		8	nopreview	7	38						
31	38	spokeswoman	spokeswoman	spokeswoman	8	nopreview	7	39	452	0	0	0	0	452
32	39	@entity10	Agnes	Agnes	8	nopreview	7	40	0	0	0	0	0	0
33			Thibault	Thibault-Lecuivre,	8	nopreview	7	41	336	0	0	0	0	336
			-		8	nopreview	7	42						
			Lecuivre		8	nopreview	7	43						
	40	,	,		8	nopreview	7	44						
34	41	the	the	the	8	nopreview	7	45	0	0	0	0	0	0
35	42	lawsuit	lawsuit	lawsuit	8	nopreview	7	46	282	0	0	0	0	282
36	43	was	was	was	8	nopreview	7	47	0	0	0	0	0	0
37	44	filed	filed	filed	8	nopreview	7	48	351	0	0	0	0	351
38	45	March	March	March	8	nopreview	7	49	762	0	0	0	0	762
39	46	27	27	27	8	nopreview	7	50	0	0	0	0	0	0
40	47	and	and	and	8	nopreview	7	51	0	0	0	0	0	0
41	48	a	a	a	8	nopreview	7	52	0	0	0	0	0	0
42	49	preliminary	preliminary	preliminary	8	nopreview	7	53	325	0	0	0	0	325
43	50	investigation	investigation	investigation	8	nopreview	7	54	269	0	0	0	0	269
44	51	was	was	was	8	nopreview	7	55	0	0	0	0	0	0
45	52	opened	opened	opened	8	nopreview	7	56	214	0	0	0	0	214
46	53	by	by	by	8	nopreview	7	57	0	0	0	0	0	0
47	54	the	the	the	8	nopreview	7	58	142	0	0	0	0	142
48	55	prosecutor	prosecutor	prosecutor-s	8	nopreview	7	59	315	0	0	0	0	315
	56	-s	-s		8	nopreview	7	60						
49	57	office	office	office	8	nopreview	7	61	83	0	0	0	0	83
50	58	Wednesday	Wednesday	Wednesday.	8	nopreview	7	62	144	0	0	0	0	144
	59	.	.		8	nopreview	7	63						
51	60	The	The	The	8	nopreview	7	64	0	0	0	0	0	0
52	61	media	media	media	8	nopreview	7	65	253	0	0	0	0	253
53	62	outlet	outlet	outlet,	8	nopreview	7	66	217	0	0	0	0	217
	63	,	,		8	nopreview	7	67						
54	64	@entity1	CNN	CNN	8	nopreview	7	68	0	0	0	0	0	0
55	65	affiliate	affiliate	affiliate	8	nopreview	7	69	513	0	0	0	0	513
56	66	@entity16	BFMTV	BFMTV,	8	nopreview	7	70	978	0	0	0	0	978
	67	,	,		8	nopreview	7	71						
57	68	is	is	is	8	nopreview	7	72	0	0	0	0	0	0
58	69	accused	accused	accused	8	nopreview	7	73	174	0	0	0	0	174
59	70	of	of	of	8	nopreview	7	74	0	0	0	0	0	0
60	71	endangering	endangering	endangering	8	nopreview	7	75	409	0	0	0	0	409
61	72	the	the	the	8	nopreview	7	76	0	0	0	0	0	0
62	73	lives	lives	lives	8	nopreview	7	77	0	0	0	0	0	0
63	74	of	of	of	8	nopreview	7	78	205	0	0	0	0	205
64	75	the	the	the	8	nopreview	7	79	0	0	0	0	0	0
65	76	hostages	hostages	hostages,	8	nopreview	7	80	372	0	0	0	0	372
	77	,	,		8	nopreview	7	81						
66	78	who	who	who	8	nopreview	7	82	0	0	0	0	0	0
67	79	were	were	were	8	nopreview	7	83	162	0	0	0	0	162
68	80	hiding	hiding	hiding	8	nopreview	7	84	227	0	0	0	0	227
69	81	in	in	in	8	nopreview	7	85	306	111	14231	111	306	195
70	82	a	a	a	8	nopreview	7	86	0	0	0	0	0	0
71	83	cold	cold	cold	8	nopreview	7	87	0	0	0	0	0	0
72	84	room	room	room	8	nopreview	7	88	288	288	288	288	288	0
73	85	during	during	during	8	nopreview	7	89	228	228	228	228	228	0
74	86	the	the	the	8	nopreview	7	90	0	0	0	0	0	0
75	87	attack	attack	attack,	8	nopreview	7	91	247	0	0	0	0	247
	88	,	,		8	nopreview	7	92						
76	89	by	by	by	8	nopreview	7	93	0	0	0	0	0	0
77	90	broadcasting	broadcasting	broadcasting	8	nopreview	7	94	1204	159	1202	159	955	1045
78	91	their	their	their	8	nopreview	7	95	170	0	0	0	0	170
79	92	location	location	location	8	nopreview	7	96	745	210	210	210	210	535
80	93	live	live	live	8	nopreview	7	97	191	191	191	191	191	0
81	94	during	during	during	8	nopreview	7	98	449	0	0	0	0	449
82	95	the	the	the	8	nopreview	7	99	161	161	161	161	161	0
83	96	siege	siege	siege.	8	nopreview	7	100	0	0	0	0	0	0
	97	.	.		8	nopreview	7	101						
84	98	@entity23	BFM	BFM	8	nopreview	7	102	191	191	191	191	191	0
85	99	in	in	in	8	nopreview	7	103	431	431	431	431	431	0
86	100	a	a	a	8	nopreview	7	104	198	0	0	0	0	198
87	101	statement	statement	statement	8	nopreview	7	105	412	188	610	188	412	224
88	102	Friday	Friday	Friday	8	nopreview	7	106	221	0	0	0	0	221
89	103	said	said	said	8	nopreview	7	107	0	0	0	0	0	0
90	104	one	one	one	8	nopreview	7	108	200	110	421	110	200	90
91	105	of	of	of	8	nopreview	7	109	0	0	0	0	0	0
92	106	its	its	its	8	nopreview	7	110	243	85	85	85	85	158
93	107	journalists	journalists	journalists	8	nopreview	7	111	225	225	383	225	225	0
94	108	-	-	-mentioned	8	nopreview	7	112	287	287	287	287	287	0
	109	mentioned	mentioned		8	nopreview	7	113						
95	110	only	only	only	8	nopreview	7	114	0	0	0	0	0	0
96	111	once	once	once	8	nopreview	7	115	242	242	242	242	242	0
97	112	the	the	the	8	nopreview	7	116	170	0	0	0	0	170
98	113	presence	presence	presence	8	nopreview	7	117	609	260	593	260	423	349
99	114	of	of	of	8	nopreview	7	118	0	0	0	0	0	0
100	115	a	a	a	8	nopreview	7	119	225	0	0	0	0	225
101	116	woman	woman	woman	8	nopreview	7	120	345	202	202	202	202	143
102	117	hidden	hidden	hidden	8	nopreview	7	121	404	0	0	0	0	404
103	118	inside	inside	inside	8	nopreview	7	122	301	124	373	124	124	177
104	119	the	the	the	8	nopreview	7	123	166	166	166	166	166	0
105	120	@entity27	Hyper	Hyper	8	nopreview	7	124	585	0	0	0	0	585
106			Cacher	Cacher,	8	nopreview	7	125	856	152	2518	152	423	704
	121	,	,		8	nopreview	7	126						
107	122	on	on	on	8	nopreview	7	127	142	142	314	142	142	0
108	123	the	the	the	8	nopreview	7	128	188	0	0	0	0	188
109	124	basis	basis	basis	8	nopreview	7	129	319	319	319	319	319	0
110	125	of	of	of	8	nopreview	7	130	165	0	0	0	0	165
111	126	police	police	police	8	nopreview	7	131	0	0	0	0	0	0
112	127	sources	sources	sources	8	nopreview	7	132	458	242	242	242	242	216
113	128	on	on	on	8	nopreview	7	133	0	0	0	0	0	0
114	129	the	the	the	8	nopreview	7	134	0	0	0	0	0	0
115	130	ground	ground	ground.-	8	nopreview	7	135	451	167	2464	167	451	284
	131	.	.		8	nopreview	7	136						
116	132	-	-	-Immediately,	8	nopreview	7	137	287	287	287	110	287	0
	133	-	-		8	nopreview	7	138						
	134	Immediately	Immediately		8	nopreview	7	139						
	135	,	,		8	nopreview	7	140						
117	136	the	the	the	8	nopreview	7	141	0	0	0	0	0	0
118	137	chief	chief	chief	8	nopreview	7	142	0	0	0	0	0	0
119	138	editor	editor	editor	8	nopreview	7	143	219	219	219	219	219	0
120	139	felt	felt	felt	8	nopreview	7	144	0	0	0	0	0	0
121	140	that	that	that	8	nopreview	7	145	236	236	236	236	236	0
122	141	this	this	this	8	nopreview	7	146	0	0	0	0	0	0
123	142	information	information	information	8	nopreview	7	147	0	0	0	0	0	0
124	143	should	should	should	8	nopreview	7	148	0	0	0	0	0	0
125	144	not	not	not	8	nopreview	7	149	174	174	174	174	174	0
126	145	be	be	be	8	nopreview	7	150	0	0	0	0	0	0
127	146	released	released	released.	8	nopreview	7	151	201	201	201	201	201	0
	147	.	.		8	nopreview	7	152						
128	148	It	It	It	8	nopreview	7	153	0	0	0	0	0	0
129	149	therefore	therefore	therefore	8	nopreview	7	154	191	0	0	0	0	191
130	150	has	has	has	8	nopreview	7	155	0	0	0	0	0	0
131	151	subsequently	subsequently	subsequently	8	nopreview	7	156	347	153	538	153	347	194
132	152	never	never	never	8	nopreview	7	157	295	295	295	295	295	0
133	153	been	been	been	8	nopreview	7	158	0	0	0	0	0	0
134	154	repeated	repeated	repeated	8	nopreview	7	159	188	188	188	188	188	0
135	155	on	on	on	8	nopreview	7	160	0	0	0	0	0	0
136	156	air	air	air	8	nopreview	7	161	0	0	0	0	0	0
137	157	or	or	or	8	nopreview	7	162	227	0	0	0	0	227
138	158	posted	posted	posted	8	nopreview	7	163	587	192	419	192	192	395
139	159	on	on	on-screen.	8	nopreview	7	164	229	125	624	125	229	104
	160	-	-		8	nopreview	7	165						
	161	screen	screen		8	nopreview	7	166						
	162	.	.		8	nopreview	7	167						
140	163	@entity16	BFMTV	BFMTV	8	nopreview	7	168	322	322	322	96	322	0
141	164	regrets	regrets	regrets	8	nopreview	7	169	180	0	0	0	0	180
142	165	that	that	that	8	nopreview	7	170	146	146	326	146	146	0
143	166	the	the	the	8	nopreview	7	171	0	0	0	0	0	0
144	167	mention	mention	mention	8	nopreview	7	172	102	102	102	102	102	0
145	168	of	of	of	8	nopreview	7	173	0	0	0	0	0	0
146	169	this	this	this	8	nopreview	7	174	168	168	168	168	168	0
147	170	information	information	information	8	nopreview	7	175	241	241	241	241	241	0
148	171	could	could	could	8	nopreview	7	176	0	0	0	0	0	0
149	172	cause	cause	cause	8	nopreview	7	177	234	234	234	234	234	0
150	173	concern	concern	concern	8	nopreview	7	178	151	151	151	151	151	0
151	174	to	to	to	8	nopreview	7	179	0	0	0	0	0	0
152	175	the	the	the	8	nopreview	7	180	0	0	0	0	0	0
153	176	hostages	hostages	hostages,	8	nopreview	7	181	229	229	229	229	229	0
	177	,	,		8	nopreview	7	182						
154	178	as	as	as	8	nopreview	7	183	98	98	98	98	98	0
155	179	well	well	well	8	nopreview	7	184	179	0	0	0	0	179
156	180	as	as	as	8	nopreview	7	185	0	0	0	0	0	0
157	181	their	their	their	8	nopreview	7	186	100	100	279	100	100	0
158	182	relatives	relatives	relatives,	8	nopreview	7	187	221	221	221	221	221	0
	183	,	,		8	nopreview	7	188						
159	184	that	that	that	8	nopreview	7	189	0	0	0	0	0	0
160	185	their	their	their	8	nopreview	7	190	165	165	165	165	165	0
161	186	lives	lives	lives	8	nopreview	7	191	129	129	129	129	129	0
162	187	were	were	were	8	nopreview	7	192	0	0	0	0	0	0
163	188	in	in	in	8	nopreview	7	193	0	0	0	0	0	0
164	189	danger	danger	danger,-	8	nopreview	7	194	0	0	0	0	0	0
	190	,	,		8	nopreview	7	195						
	191	-	-		8	nopreview	7	196						
165	192	the	the	the	8	nopreview	7	197	0	0	0	0	0	0
166	193	statement	statement	statement	8	nopreview	7	198	0	0	0	0	0	0
167	194	said	said	said.	8	nopreview	7	199	0	0	0	0	0	0
	195	.	.		8	nopreview	7	200						
168	196	Gunman	Gunman	Gunman	8	nopreview	7	201	0	0	0	0	0	0
169	197	@entity47	Amedy	Amedy	8	nopreview	7	202	246	0	0	0	0	246
170			Coulibaly	Coulibaly,	8	nopreview	7	203	1214	0	0	0	0	1214
	198	,	,		8	nopreview	7	204						
171	199	also	also	also	8	nopreview	7	205	0	0	0	0	0	0
172	200	suspected	suspected	suspected	8	nopreview	7	206	251	0	0	0	0	251
173	201	in	in	in	8	nopreview	7	207	0	0	0	0	0	0
174	202	the	the	the	8	nopreview	7	208	0	0	0	0	0	0
175	203	slaying	slaying	slaying	8	nopreview	7	209	308	0	0	0	0	308
176	204	of	of	of	8	nopreview	7	210	0	0	0	0	0	0
177	205	a	a	a	8	nopreview	7	211	0	0	0	0	0	0
178	206	police	police	police	8	nopreview	7	212	0	0	0	0	0	0
179	207	officer	officer	officer,	8	nopreview	7	213	120	120	120	120	120	0
	208	,	,		8	nopreview	7	214						
180	209	stormed	stormed	stormed	8	nopreview	7	215	290	290	290	290	290	0
181	210	the	the	the	8	nopreview	7	216	148	148	148	148	148	0
182	211	@entity27	Hyper	Hyper	8	nopreview	7	217	734	734	2753	424	734	0
183	212	@entity51	Cacher	Cacher	8	nopreview	7	218	456	0	0	0	0	456
184			Jewish	Jewish	8	nopreview	7	219	627	0	0	0	0	627
185	213	supermarket	supermarket	supermarket	8	nopreview	7	220	237	0	0	0	0	237
186	214	on	on	on	8	nopreview	7	221	0	0	0	0	0	0
187	215	January	January	January	8	nopreview	7	222	0	0	0	0	0	0
188	216	9	9	9,	8	nopreview	7	223	274	0	0	0	0	274
	217	,	,		8	nopreview	7	224						
189	218	killing	killing	killing	8	nopreview	7	225	152	0	0	0	0	152
190	219	four	four	four	8	nopreview	7	226	0	0	0	0	0	0
191	220	people	people	people	8	nopreview	7	227	299	299	299	299	299	0
192	221	and	and	and	8	nopreview	7	228	0	0	0	0	0	0
193	222	taking	taking	taking	8	nopreview	7	229	152	152	152	152	152	0
194	223	others	others	others	8	nopreview	7	230	177	177	1923	177	177	0
195	224	hostage	hostage	hostage.	8	nopreview	7	231	215	0	0	0	0	215
	225	.	.		8	nopreview	7	232						
196	226	He	He	He	8	nopreview	7	233	0	0	0	0	0	0
197	227	was	was	was	8	nopreview	7	234	106	106	321	106	106	0
198	228	killed	killed	killed	8	nopreview	7	235	179	179	179	179	179	0
199	229	in	in	in	8	nopreview	7	236	0	0	0	0	0	0
200	230	the	the	the	8	nopreview	7	237	145	0	0	0	0	145
201	231	police	police	police	8	nopreview	7	238	167	167	312	167	167	0
202	232	operation	operation	operation	8	nopreview	7	239	216	216	216	216	216	0
203	233	to	to	to	8	nopreview	7	240	0	0	0	0	0	0
204	234	end	end	end	8	nopreview	7	241	0	0	0	0	0	0
205	235	the	the	the	8	nopreview	7	242	101	101	101	101	101	0
206	236	siege	siege	siege.	8	nopreview	7	243	186	186	186	186	186	0
	237	.	.		8	nopreview	7	244						
207	238	A	A	A	8	nopreview	7	245	0	0	0	0	0	0
208	239	24	24	24-year-old	8	nopreview	7	246	176	176	176	176	176	0
	240	-	-		8	nopreview	7	247						
	241	year	year		8	nopreview	7	248						
	242	-	-		8	nopreview	7	249						
	243	old	old		8	nopreview	7	250						
209	244	supermarket	supermarket	supermarket	8	nopreview	7	251	289	289	289	119	289	0
210	245	employee	employee	employee,	8	nopreview	7	252	162	162	162	162	162	0
	246	,	,		8	nopreview	7	253						
211	247	@entity57	Malian	Malian-born	8	nopreview	7	254	696	696	696	331	696	0
	248	-	-		8	nopreview	7	255						
	249	born	born		8	nopreview	7	256						
212	250	@entity56	Lassana	Lassana	8	nopreview	7	257	429	429	429	241	429	0
213			Bathily	Bathily,	8	nopreview	7	258	0	0	0	0	0	0
	251	,	,		8	nopreview	7	259						
214	252	was	was	was	8	nopreview	7	260	0	0	0	0	0	0
215	253	hailed	hailed	hailed	8	nopreview	7	261	189	189	189	189	189	0
216	254	as	as	as	8	nopreview	7	262	153	153	153	153	153	0
217	255	a	a	a	8	nopreview	7	263	0	0	0	0	0	0
218	256	hero	hero	hero	8	nopreview	7	264	161	161	161	161	161	0
219	257	afterward	afterward	afterward	8	nopreview	7	265	160	160	160	160	160	0
220	258	when	when	when	8	nopreview	7	266	0	0	0	0	0	0
221	259	it	it	it	8	nopreview	7	267	420	0	0	0	0	420
222	260	emerged	emerged	emerged	8	nopreview	7	268	124	124	309	124	124	0
223	261	that	that	that	8	nopreview	7	269	188	188	188	188	188	0
224	262	he	he	he	8	nopreview	7	270	0	0	0	0	0	0
225	263	had	had	had	8	nopreview	7	271	0	0	0	0	0	0
226	264	risked	risked	risked	8	nopreview	7	272	392	207	627	207	392	185
227	265	his	his	his	8	nopreview	7	273	0	0	0	0	0	0
228	266	life	life	life	8	nopreview	7	274	192	192	192	192	192	0
229	267	to	to	to	8	nopreview	7	275	0	0	0	0	0	0
230	268	hide	hide	hide	8	nopreview	7	276	0	0	0	0	0	0
231	269	15	15	15	8	nopreview	7	277	267	267	267	267	267	0
232	270	customers	customers	customers	8	nopreview	7	278	234	234	234	234	234	0
233	271	from	from	from	8	nopreview	7	279	0	0	0	0	0	0
234	272	@entity47	Coulibaly	Coulibaly	8	nopreview	7	280	431	431	431	273	431	0
235	273	in	in	in	8	nopreview	7	281	0	0	0	0	0	0
236	274	the	the	the	8	nopreview	7	282	0	0	0	0	0	0
237	275	cold	cold	cold	8	nopreview	7	283	284	284	284	284	284	0
238	276	room	room	room.	8	nopreview	7	284	0	0	0	0	0	0
	277	.	.		8	nopreview	7	285						
239	278	The	The	The	8	nopreview	7	286	0	0	0	0	0	0
240	279	hostage	hostage	hostage-taking	8	nopreview	7	287	1376	583	583	233	583	793
	280	-	-		8	nopreview	7	288						
	281	taking	taking		8	nopreview	7	289						
241	282	was	was	was	8	nopreview	7	290	0	0	0	0	0	0
242	283	the	the	the	8	nopreview	7	291	303	303	560	109	303	0
243	284	culmination	culmination	culmination	8	nopreview	7	292	186	186	186	186	186	0
244	285	of	of	of	8	nopreview	7	293	0	0	0	0	0	0
245	286	three	three	three	8	nopreview	7	294	196	196	196	196	196	0
246	287	days	days	days	8	nopreview	7	295	778	778	778	339	778	0
247	288	of	of	of	8	nopreview	7	296	0	0	0	0	0	0
248	289	terror	terror	terror	8	nopreview	7	297	173	0	0	0	0	173
249	290	in	in	in	8	nopreview	7	298	250	250	250	250	250	0
250	291	@entity0	Paris	Paris	8	nopreview	7	299	169	0	0	0	0	169
251	292	that	that	that	8	nopreview	7	300	463	116	285	116	116	347
252	293	began	began	began	8	nopreview	7	301	91	0	0	0	0	91
253	294	with	with	with	8	nopreview	7	302	374	249	249	249	249	125
254	295	the	the	the	8	nopreview	7	303	0	0	0	0	0	0
255	296	January	January	January	8	nopreview	7	304	594	81	81	81	81	513
256	297	7	7	7	8	nopreview	7	305	1125	344	888	344	575	781
257	298	shooting	shooting	shooting	8	nopreview	7	306	1319	312	312	312	312	1007
258	299	of	of	of	8	nopreview	7	307	161	0	0	0	0	161
259	300	12	12	12	8	nopreview	7	308	605	97	97	97	97	508
260	301	people	people	people	8	nopreview	7	309	839	188	656	188	334	651
261	302	at	at	at	8	nopreview	7	310	0	0	0	0	0	0
262	303	the	the	the	8	nopreview	7	311	290	0	0	0	0	290
263	304	offices	offices	offices	8	nopreview	7	312	816	330	330	330	330	486
264	305	of	of	of	8	nopreview	7	313	0	0	0	0	0	0
265	306	@entity5	French	French	8	nopreview	7	314	420	166	166	166	166	254
266	307	satirical	satirical	satirical	8	nopreview	7	315	1070	634	634	147	634	436
267	308	magazine	magazine	magazine	8	nopreview	7	316	1259	0	0	0	0	1259
268	309	@entity69	Charlie	Charlie	8	nopreview	7	317	1051	180	382	180	180	871
269			Hebdo	Hebdo.	8	nopreview	7	318	967	178	8242	178	967	789
	310	.	.		8	nopreview	7	319						
270	311	The	The	The	8	nopreview	7	320	0	0	0	0	0	0
271	312	two	two	two	8	nopreview	7	321	151	151	151	151	151	0
272	313	brothers	brothers	brothers	8	nopreview	7	322	866	866	866	212	866	0
273	314	blamed	blamed	blamed	8	nopreview	7	323	185	185	185	185	185	0
274	315	for	for	for	8	nopreview	7	324	0	0	0	0	0	0
275	316	that	that	that	8	nopreview	7	325	0	0	0	0	0	0
276	317	attack	attack	attack,	8	nopreview	7	326	437	208	208	208	208	229
	318	,	,		8	nopreview	7	327						
277	319	@entity72	Cherif	Cherif	8	nopreview	7	328	554	366	783	188	554	188
278	320	and	and	and	8	nopreview	7	329	0	0	0	0	0	0
279	321	@entity73	Said	Said	8	nopreview	7	330	215	0	0	0	0	215
280			Kouachi	Kouachi,	8	nopreview	7	331	254	254	469	101	254	0
	322	,	,		8	nopreview	7	332						
281	323	were	were	were	8	nopreview	7	333	0	0	0	0	0	0
282	324	killed	killed	killed	8	nopreview	7	334	384	384	384	208	384	0
283	325	on	on	on	8	nopreview	7	335	0	0	0	0	0	0
284	326	January	January	January	8	nopreview	7	336	216	216	216	216	216	0
285	327	9	9	9	8	nopreview	7	337	0	0	0	0	0	0
286	328	after	after	after	8	nopreview	7	338	0	0	0	0	0	0
287	329	a	a	a	8	nopreview	7	339	0	0	0	0	0	0
288	330	violent	violent	violent	8	nopreview	7	340	165	165	165	165	165	0
289	331	standoff	standoff	standoff	8	nopreview	7	341	226	226	226	226	226	0
290	332	at	at	at	8	nopreview	7	342	0	0	0	0	0	0
291	333	an	an	an	8	nopreview	7	343	143	0	0	0	0	143
292	334	industrial	industrial	industrial	8	nopreview	7	344	423	124	566	124	423	299
293	335	site	site	site.	8	nopreview	7	345	218	0	0	0	0	218
	336	.	.		8	nopreview	7	346						
294	337	The	The	The	8	nopreview	7	347	152	0	0	0	0	152
295	338	terror	terror	terror	8	nopreview	7	348	221	0	0	0	0	221
296	339	attacks	attacks	attacks	8	nopreview	7	349	508	0	0	0	0	508
297	340	claimed	claimed	claimed	8	nopreview	7	350	385	0	0	0	0	385
298	341	the	the	the	8	nopreview	7	351	0	0	0	0	0	0
299	342	lives	lives	lives	8	nopreview	7	352	0	0	0	0	0	0
300	343	of	of	of	8	nopreview	7	353	176	0	0	0	0	176
301	344	17	17	17	8	nopreview	7	354	0	0	0	0	0	0
302	345	people	people	people	8	nopreview	7	355	156	0	0	0	0	156
303	346	and	and	and	8	nopreview	7	356	0	0	0	0	0	0
304	347	put	put	put	8	nopreview	7	357	0	0	0	0	0	0
305	348	@entity5	France	France	8	nopreview	7	358	169	0	0	0	0	169
306	349	on	on	on	8	nopreview	7	359	107	0	0	0	0	107
307	350	a	a	a	8	nopreview	7	360	0	0	0	0	0	0
308	351	heightened	heightened	heightened	8	nopreview	7	361	207	0	0	0	0	207
309	352	state	state	state	8	nopreview	7	362	164	164	2463	164	164	0
310	353	of	of	of	8	nopreview	7	363	153	153	153	153	153	0
311	354	alert	alert	alert.	8	nopreview	7	364	195	195	195	195	195	0
	355	.	.		8	nopreview	7	365						
