HumanPosition	AnonymizedPosition	AnonymizedToken	OriginalToken	ExperimentToken	Participant	Condition	TextNo	JointPosition	tt	fp	rp	ff	rb	sp
	0	@entity2	Seoul		7	nopreview	4	1						
	1	(	(		7	nopreview	4	2						
	2	@entity3	CNN		7	nopreview	4	3						
	3	)	)		7	nopreview	4	4						
0	4	@entity1	South	South	7	nopreview	4	5	165	0	0	0	0	165
2			Korea	Korea	7	nopreview	4	6	135	0	0	0	0	135
	5	-s	-s		7	nopreview	4	7						
3	6	Prime	Prime	Prime	7	nopreview	4	8	0	0	0	0	0	0
4	7	Minister	Minister	Minister	7	nopreview	4	9	131	0	0	0	0	131
5	8	@entity0	Lee	Lee	7	nopreview	4	10	194	0	0	0	0	194
6			Wan	Wan-koo	7	nopreview	4	11	730	0	0	0	0	730
			-		7	nopreview	4	12						
			koo		7	nopreview	4	13						
7	9	offered	offered	offered	7	nopreview	4	14	507	0	0	0	0	507
8	10	to	to	to	7	nopreview	4	15	0	0	0	0	0	0
9	11	resign	resign	resign	7	nopreview	4	16	263	0	0	0	0	263
10	12	on	on	on	7	nopreview	4	17	0	0	0	0	0	0
11	13	Monday	Monday	Monday	7	nopreview	4	18	175	0	0	0	0	175
12	14	amid	amid	amid	7	nopreview	4	19	125	0	0	0	0	125
13	15	a	a	a	7	nopreview	4	20	175	0	0	0	0	175
14	16	growing	growing	growing	7	nopreview	4	21	218	0	0	0	0	218
15	17	political	political	political	7	nopreview	4	22	219	0	0	0	0	219
16	18	scandal	scandal	scandal.	7	nopreview	4	23	249	0	0	0	0	249
	19	.	.		7	nopreview	4	24						
17	20	@entity0	Lee	Lee	7	nopreview	4	25	128	0	0	0	0	128
18	21	will	will	will	7	nopreview	4	26	246	124	3660	124	246	122
19	22	stay	stay	stay	7	nopreview	4	27	161	161	161	161	161	0
20	23	in	in	in	7	nopreview	4	28	236	236	236	97	236	0
21	24	his	his	his	7	nopreview	4	29	170	170	170	170	170	0
22	25	official	official	official	7	nopreview	4	30	350	196	196	196	196	154
23	26	role	role	role	7	nopreview	4	31	285	160	439	160	285	125
24	27	until	until	until	7	nopreview	4	32	141	141	141	141	141	0
25	28	@entity1	South	South	7	nopreview	4	33	0	0	0	0	0	0
26			Korean	Korean	7	nopreview	4	34	305	305	305	171	305	0
27	29	President	President	President	7	nopreview	4	35	164	164	164	164	164	0
28	30	@entity6	Park	Park	7	nopreview	4	36	254	0	0	0	0	254
29			Geun	Geun-hye	7	nopreview	4	37	111	111	365	111	111	0
			-		7	nopreview	4	38						
			hye		7	nopreview	4	39						
30	31	accepts	accepts	accepts	7	nopreview	4	40	348	171	171	171	171	177
31	32	his	his	his	7	nopreview	4	41	0	0	0	0	0	0
32	33	resignation	resignation	resignation.	7	nopreview	4	42	174	174	351	174	174	0
	34	.	.		7	nopreview	4	43						
33	35	He	He	He	7	nopreview	4	44	0	0	0	0	0	0
34	36	has	has	has	7	nopreview	4	45	101	0	0	0	0	101
35	37	transferred	transferred	transferred	7	nopreview	4	46	501	126	602	126	501	375
36	38	his	his	his	7	nopreview	4	47	0	0	0	0	0	0
37	39	role	role	role	7	nopreview	4	48	277	277	277	142	277	0
38	40	of	of	of	7	nopreview	4	49	139	0	0	0	0	139
39	41	chairing	chairing	chairing	7	nopreview	4	50	487	332	332	180	332	155
40	42	Cabinet	Cabinet	Cabinet	7	nopreview	4	51	118	0	0	0	0	118
41	43	meetings	meetings	meetings	7	nopreview	4	52	95	95	507	95	95	0
42	44	to	to	to	7	nopreview	4	53	221	0	0	0	0	221
43	45	the	the	the	7	nopreview	4	54	157	157	249	157	157	0
44	46	deputy	deputy	deputy	7	nopreview	4	55	0	0	0	0	0	0
45	47	prime	prime	prime	7	nopreview	4	56	184	184	184	184	184	0
46	48	minister	minister	minister	7	nopreview	4	57	342	136	471	136	342	206
47	49	for	for	for	7	nopreview	4	58	101	0	0	0	0	101
48	50	the	the	the	7	nopreview	4	59	0	0	0	0	0	0
49	51	time	time	time	7	nopreview	4	60	132	132	132	132	132	0
50	52	being	being	being,	7	nopreview	4	61	126	126	227	126	126	0
	53	,	,		7	nopreview	4	62						
51	54	according	according	according	7	nopreview	4	63	239	239	239	99	239	0
52	55	to	to	to	7	nopreview	4	64	0	0	0	0	0	0
53	56	his	his	his	7	nopreview	4	65	100	100	100	100	100	0
54	57	office	office	office.	7	nopreview	4	66	258	258	258	109	258	0
	58	.	.		7	nopreview	4	67						
55	59	@entity13	Park	Park	7	nopreview	4	68	161	0	0	0	0	161
56	60	heard	heard	heard	7	nopreview	4	69	909	212	212	212	212	697
57	61	about	about	about	7	nopreview	4	70	150	0	0	0	0	150
58	62	the	the	the	7	nopreview	4	71	177	0	0	0	0	177
59	63	resignation	resignation	resignation	7	nopreview	4	72	330	105	1140	105	105	225
60	64	and	and	and	7	nopreview	4	73	111	111	486	111	111	0
61	65	called	called	called	7	nopreview	4	74	160	160	160	160	160	0
62	66	it	it	it	7	nopreview	4	75	0	0	0	0	0	0
63	67	-	-	-regrettable,-	7	nopreview	4	76	433	433	433	163	433	0
	68	regrettable	regrettable		7	nopreview	4	77						
	69	,	,		7	nopreview	4	78						
	70	-	-		7	nopreview	4	79						
64	71	according	according	according	7	nopreview	4	80	327	327	327	327	327	0
65	72	to	to	to	7	nopreview	4	81	0	0	0	0	0	0
66	73	the	the	the	7	nopreview	4	82	0	0	0	0	0	0
67	74	@entity1	South	South	7	nopreview	4	83	123	0	0	0	0	123
68			Korean	Korean	7	nopreview	4	84	96	96	219	96	96	0
69	75	presidential	presidential	presidential	7	nopreview	4	85	165	165	165	165	165	0
70	76	office	office	office.	7	nopreview	4	86	197	197	197	197	197	0
	77	.	.		7	nopreview	4	87						
71	78	Calls	Calls	Calls	7	nopreview	4	88	303	0	0	0	0	303
72	79	for	for	for	7	nopreview	4	89	142	142	294	142	142	0
73	80	@entity0	Lee	Lee	7	nopreview	4	90	131	0	0	0	0	131
74	81	to	to	to	7	nopreview	4	91	139	139	421	139	139	0
75	82	resign	resign	resign	7	nopreview	4	92	163	163	163	163	163	0
76	83	began	began	began	7	nopreview	4	93	336	336	336	336	336	0
77	84	after	after	after	7	nopreview	4	94	162	162	162	162	162	0
78	85	@entity1	South	South	7	nopreview	4	95	0	0	0	0	0	0
79			Korean	Korean	7	nopreview	4	96	0	0	0	0	0	0
80	86	tycoon	tycoon	tycoon	7	nopreview	4	97	331	331	331	331	331	0
81	87	@entity18	Sung	Sung	7	nopreview	4	98	251	149	149	149	149	102
82			Woan	Woan-jong	7	nopreview	4	99	246	246	348	120	246	0
			-		7	nopreview	4	100						
			jong		7	nopreview	4	101						
83	88	was	was	was	7	nopreview	4	102	197	197	197	197	197	0
84	89	found	found	found	7	nopreview	4	103	152	152	152	152	152	0
85	90	hanging	hanging	hanging	7	nopreview	4	104	160	160	160	160	160	0
86	91	from	from	from	7	nopreview	4	105	0	0	0	0	0	0
87	92	a	a	a	7	nopreview	4	106	99	0	0	0	0	99
88	93	tree	tree	tree	7	nopreview	4	107	139	139	238	139	139	0
89	94	in	in	in	7	nopreview	4	108	0	0	0	0	0	0
90	95	@entity2	Seoul	Seoul	7	nopreview	4	109	312	312	312	210	312	0
91	96	in	in	in	7	nopreview	4	110	0	0	0	0	0	0
92	97	an	an	an	7	nopreview	4	111	209	0	0	0	0	209
93	98	apparent	apparent	apparent	7	nopreview	4	112	588	160	390	160	282	428
94	99	suicide	suicide	suicide	7	nopreview	4	113	119	119	119	119	119	0
95	100	on	on	on	7	nopreview	4	114	0	0	0	0	0	0
96	101	April	April	April	7	nopreview	4	115	91	0	0	0	0	91
97	102	9	9	9.	7	nopreview	4	116	168	168	259	168	168	0
	103	.	.		7	nopreview	4	117						
98	104	@entity18	Sung	Sung,	7	nopreview	4	118	528	210	935	210	528	318
	105	,	,		7	nopreview	4	119						
99	106	who	who	who	7	nopreview	4	120	0	0	0	0	0	0
100	107	was	was	was	7	nopreview	4	121	150	150	150	150	150	0
101	108	under	under	under	7	nopreview	4	122	103	0	0	0	0	103
102	109	investigation	investigation	investigation	7	nopreview	4	123	115	115	218	115	115	0
103	110	for	for	for	7	nopreview	4	124	0	0	0	0	0	0
104	111	fraud	fraud	fraud	7	nopreview	4	125	139	139	139	139	139	0
105	112	and	and	and	7	nopreview	4	126	0	0	0	0	0	0
106	113	bribery	bribery	bribery,	7	nopreview	4	127	415	415	415	259	415	0
	114	,	,		7	nopreview	4	128						
107	115	left	left	left	7	nopreview	4	129	240	240	240	240	240	0
108	116	a	a	a	7	nopreview	4	130	0	0	0	0	0	0
109	117	note	note	note	7	nopreview	4	131	112	0	0	0	0	112
110	118	listing	listing	listing	7	nopreview	4	132	878	158	410	158	298	720
111	119	names	names	names	7	nopreview	4	133	96	0	0	0	0	96
112	120	and	and	and	7	nopreview	4	134	0	0	0	0	0	0
113	121	amounts	amounts	amounts	7	nopreview	4	135	311	0	0	0	0	311
114	122	of	of	of	7	nopreview	4	136	116	116	246	116	116	0
115	123	cash	cash	cash	7	nopreview	4	137	167	0	0	0	0	167
116	124	given	given	given	7	nopreview	4	138	155	155	1179	155	155	0
117	125	to	to	to	7	nopreview	4	139	159	159	159	159	159	0
118	126	top	top	top	7	nopreview	4	140	114	0	0	0	0	114
119	127	officials	officials	officials,	7	nopreview	4	141	154	154	268	154	154	0
	128	,	,		7	nopreview	4	142						
120	129	including	including	including	7	nopreview	4	143	169	169	169	169	169	0
121	130	those	those	those	7	nopreview	4	144	173	173	173	173	173	0
122	131	who	who	who	7	nopreview	4	145	105	105	105	105	105	0
123	132	work	work	work	7	nopreview	4	146	139	0	0	0	0	139
124	133	for	for	for	7	nopreview	4	147	0	0	0	0	0	0
125	134	the	the	the	7	nopreview	4	148	109	109	248	109	109	0
126	135	President	President	President.	7	nopreview	4	149	186	186	186	186	186	0
	136	.	.		7	nopreview	4	150						
127	137	@entity0	Lee	Lee	7	nopreview	4	151	125	0	0	0	0	125
128	138	and	and	and	7	nopreview	4	152	0	0	0	0	0	0
129	139	seven	seven	seven	7	nopreview	4	153	126	126	251	126	126	0
130	140	other	other	other	7	nopreview	4	154	208	208	208	208	208	0
131	141	politicians	politicians	politicians	7	nopreview	4	155	0	0	0	0	0	0
132	142	with	with	with	7	nopreview	4	156	165	0	0	0	0	165
133	143	links	links	links	7	nopreview	4	157	337	337	502	193	337	0
134	144	to	to	to	7	nopreview	4	158	0	0	0	0	0	0
135	145	the	the	the	7	nopreview	4	159	143	143	143	143	143	0
136	146	@entity1	South	South	7	nopreview	4	160	0	0	0	0	0	0
137			Korean	Korean	7	nopreview	4	161	114	0	0	0	0	114
138	147	President	President	President	7	nopreview	4	162	106	106	220	106	106	0
139	148	are	are	are	7	nopreview	4	163	170	0	0	0	0	170
140	149	under	under	under	7	nopreview	4	164	207	207	377	207	207	0
141	150	investigation	investigation	investigation.	7	nopreview	4	165	0	0	0	0	0	0
	151	.	.		7	nopreview	4	166						
142	152	A	A	A	7	nopreview	4	167	0	0	0	0	0	0
143	153	special	special	special	7	nopreview	4	168	586	281	281	281	281	305
144	154	prosecutor	prosecutor	prosecutor-s	7	nopreview	4	169	515	295	295	191	295	220
	155	-s	-s		7	nopreview	4	170						
145	156	team	team	team	7	nopreview	4	171	663	371	1188	371	663	292
146	157	has	has	has	7	nopreview	4	172	420	420	420	420	420	0
147	158	been	been	been	7	nopreview	4	173	84	84	84	84	84	0
148	159	established	established	established	7	nopreview	4	174	320	320	320	167	320	0
149	160	to	to	to	7	nopreview	4	175	161	161	161	161	161	0
150	161	investigate	investigate	investigate	7	nopreview	4	176	337	172	172	172	172	165
151	162	the	the	the	7	nopreview	4	177	569	569	734	177	569	0
152	163	case	case	case.	7	nopreview	4	178	0	0	0	0	0	0
	164	.	.		7	nopreview	4	179						
153	165	@entity0	Lee	Lee	7	nopreview	4	180	0	0	0	0	0	0
154	166	had	had	had	7	nopreview	4	181	960	309	309	309	309	651
155	167	adamantly	adamantly	adamantly	7	nopreview	4	182	704	375	1355	206	704	329
156	168	denied	denied	denied	7	nopreview	4	183	112	112	112	112	112	0
157	169	the	the	the	7	nopreview	4	184	119	119	119	119	119	0
158	170	allegations	allegations	allegations	7	nopreview	4	185	344	344	344	181	344	0
159	171	as	as	as	7	nopreview	4	186	216	216	216	216	216	0
160	172	the	the	the	7	nopreview	4	187	0	0	0	0	0	0
161	173	scandal	scandal	scandal	7	nopreview	4	188	227	0	0	0	0	227
162	174	escalated	escalated	escalated:	7	nopreview	4	189	317	100	544	100	317	217
163	175	:	:	-If	7	nopreview	4	190	95	0	0	0	0	95
	176	-	-		7	nopreview	4	191						
164	177	If	If	there	7	nopreview	4	192	140	140	235	140	140	0
	178	there	there		7	nopreview	4	193						
165	179	are	are	are	7	nopreview	4	194	0	0	0	0	0	0
166	180	any	any	any	7	nopreview	4	195	262	167	167	167	167	95
167	181	evidence	evidence	evidence,	7	nopreview	4	196	169	169	264	169	169	0
	182	,	,		7	nopreview	4	197						
168	183	I	I	I	7	nopreview	4	198	0	0	0	0	0	0
169	184	will	will	will	7	nopreview	4	199	141	141	141	141	141	0
170	185	give	give	give	7	nopreview	4	200	0	0	0	0	0	0
171	186	out	out	out	7	nopreview	4	201	581	159	159	159	159	422
172	187	my	my	my	7	nopreview	4	202	281	0	0	0	0	281
173	188	life	life	life.	7	nopreview	4	203	256	175	959	175	256	81
	189	.	.		7	nopreview	4	204						
174	190	As	As	As	7	nopreview	4	205	0	0	0	0	0	0
175	191	a	a	a	7	nopreview	4	206	140	0	0	0	0	140
176	192	Prime	Prime	Prime	7	nopreview	4	207	152	152	292	152	152	0
177	193	Minister	Minister	Minister,	7	nopreview	4	208	211	0	0	0	0	211
	194	,	,		7	nopreview	4	209						
178	195	I	I	I	7	nopreview	4	210	0	0	0	0	0	0
179	196	will	will	will	7	nopreview	4	211	298	82	509	82	298	216
180	197	accept	accept	accept	7	nopreview	4	212	160	160	160	160	160	0
181	198	Prosecutor	Prosecutor	Prosecutor	7	nopreview	4	213	248	140	140	140	140	108
182	199	@entity44	Office	Office-s	7	nopreview	4	214	132	132	240	132	132	0
	200	-s	-s		7	nopreview	4	215						
183	201	investigation	investigation	investigation	7	nopreview	4	216	388	174	174	174	174	214
184	202	first	first	first.-	7	nopreview	4	217	379	125	593	125	379	254
	203	.	.		7	nopreview	4	218						
185	204	-	-	Park	7	nopreview	4	219	714	0	0	0	0	714
	205	@entity46	Park		7	nopreview	4	220						
186	206	has	has	has	7	nopreview	4	221	1067	489	1781	319	1067	578
187	207	said	said	said	7	nopreview	4	222	206	206	206	206	206	0
188	208	that	that	that	7	nopreview	4	223	106	106	106	106	106	0
189	209	she	she	she	7	nopreview	4	224	0	0	0	0	0	0
190	210	is	is	is	7	nopreview	4	225	202	0	0	0	0	202
191	211	taking	taking	taking	7	nopreview	4	226	151	0	0	0	0	151
192	212	the	the	the	7	nopreview	4	227	309	95	448	95	95	214
193	213	accusations	accusations	accusations	7	nopreview	4	228	416	416	630	165	416	0
194	214	very	very	very	7	nopreview	4	229	248	0	0	0	0	248
195	215	seriously	seriously	seriously.	7	nopreview	4	230	363	132	268	132	132	231
	216	.	.		7	nopreview	4	231						
196	217	Before	Before	Before	7	nopreview	4	232	511	229	854	229	511	282
197	218	departing	departing	departing	7	nopreview	4	233	154	154	154	154	154	0
198	219	on	on	on	7	nopreview	4	234	0	0	0	0	0	0
199	220	her	her	her	7	nopreview	4	235	664	340	340	193	340	324
200	221	trip	trip	trip	7	nopreview	4	236	208	0	0	0	0	208
201	222	to	to	to	7	nopreview	4	237	291	141	823	141	291	150
202	223	@entity50	Central	Central	7	nopreview	4	238	269	269	269	161	269	0
203			and	and	7	nopreview	4	239	0	0	0	0	0	0
204			South	South	7	nopreview	4	240	494	0	0	0	0	494
205			America	America,	7	nopreview	4	241	122	0	0	0	0	122
	224	,	,		7	nopreview	4	242						
206	225	she	she	she	7	nopreview	4	243	0	0	0	0	0	0
207	226	condemned	condemned	condemned	7	nopreview	4	244	860	103	1354	103	860	757
208	227	political	political	political	7	nopreview	4	245	635	472	472	472	472	163
209	228	corruption	corruption	corruption	7	nopreview	4	246	294	294	294	294	294	0
210	229	in	in	in	7	nopreview	4	247	0	0	0	0	0	0
211	230	her	her	her	7	nopreview	4	248	414	0	0	0	0	414
212	231	country	country	country.	7	nopreview	4	249	667	136	942	136	528	531
	232	.	.		7	nopreview	4	250						
213	233	-	-	-Corruption	7	nopreview	4	251	427	308	308	182	308	119
	234	Corruption	Corruption		7	nopreview	4	252						
214	235	and	and	and	7	nopreview	4	253	128	0	0	0	0	128
215	236	deep	deep	deep-rooted	7	nopreview	4	254	439	0	0	0	0	439
	237	-	-		7	nopreview	4	255						
	238	rooted	rooted		7	nopreview	4	256						
216	239	evil	evil	evil	7	nopreview	4	257	149	0	0	0	0	149
217	240	are	are	are	7	nopreview	4	258	0	0	0	0	0	0
218	241	issues	issues	issues	7	nopreview	4	259	153	0	0	0	0	153
219	242	that	that	that	7	nopreview	4	260	370	123	1358	123	370	247
220	243	can	can	can	7	nopreview	4	261	0	0	0	0	0	0
221	244	lead	lead	lead	7	nopreview	4	262	138	138	138	138	138	0
222	245	to	to	to	7	nopreview	4	263	0	0	0	0	0	0
223	246	taking	taking	taking	7	nopreview	4	264	729	271	271	148	271	458
224	247	away	away	away	7	nopreview	4	265	422	0	0	0	0	422
225	248	people	people	people-s	7	nopreview	4	266	648	150	1528	150	648	498
	249	-s	-s		7	nopreview	4	267						
226	250	lives	lives	lives.	7	nopreview	4	268	0	0	0	0	0	0
	251	.	.		7	nopreview	4	269						
227	252	We	We	We	7	nopreview	4	270	0	0	0	0	0	0
228	253	take	take	take	7	nopreview	4	271	841	370	370	218	370	471
229	254	this	this	this	7	nopreview	4	272	315	203	786	203	315	112
230	255	very	very	very	7	nopreview	4	273	103	0	0	0	0	103
231	256	seriously	seriously	seriously.-	7	nopreview	4	274	707	0	0	0	0	707
	257	.	.		7	nopreview	4	275						
232	258	-	-	-We	7	nopreview	4	276	0	0	0	0	0	0
	259	-	-		7	nopreview	4	277						
233	260	We	We	must	7	nopreview	4	278	373	0	0	0	0	373
	261	must	must		7	nopreview	4	279						
234	262	make	make	make	7	nopreview	4	280	329	0	0	0	0	329
235	263	sure	sure	sure	7	nopreview	4	281	1723	98	1202	98	294	1625
236	264	to	to	to	7	nopreview	4	282	203	0	0	0	0	203
237	265	set	set	set	7	nopreview	4	283	192	192	2131	192	192	0
238	266	straight	straight	straight	7	nopreview	4	284	285	285	285	176	285	0
239	267	this	this	this	7	nopreview	4	285	286	286	286	286	286	0
240	268	issue	issue	issue	7	nopreview	4	286	134	134	134	134	134	0
241	269	as	as	as	7	nopreview	4	287	0	0	0	0	0	0
242	270	a	a	a	7	nopreview	4	288	361	361	361	197	361	0
243	271	matter	matter	matter	7	nopreview	4	289	0	0	0	0	0	0
244	272	of	of	of	7	nopreview	4	290	250	250	250	250	250	0
245	273	political	political	political	7	nopreview	4	291	220	0	0	0	0	220
246	274	reform	reform	reform.	7	nopreview	4	292	0	0	0	0	0	0
	275	.	.		7	nopreview	4	293						
247	276	I	I	I	7	nopreview	4	294	326	103	546	103	326	223
248	277	will	will	will	7	nopreview	4	295	0	0	0	0	0	0
249	278	not	not	not	7	nopreview	4	296	331	170	170	170	170	161
250	279	forgive	forgive	forgive	7	nopreview	4	297	163	163	324	163	163	0
251	280	anyone	anyone	anyone	7	nopreview	4	298	178	178	178	178	178	0
252	281	who	who	who	7	nopreview	4	299	125	125	125	125	125	0
253	282	is	is	is	7	nopreview	4	300	0	0	0	0	0	0
254	283	responsible	responsible	responsible	7	nopreview	4	301	224	224	224	224	224	0
255	284	for	for	for	7	nopreview	4	302	0	0	0	0	0	0
256	285	corruption	corruption	corruption	7	nopreview	4	303	530	530	530	182	530	0
257	286	or	or	or	7	nopreview	4	304	162	162	162	162	162	0
258	287	wrongdoing	wrongdoing	wrongdoing.-	7	nopreview	4	305	339	339	339	109	339	0
	288	.	.		7	nopreview	4	306						
259	289	-	-	Park	7	nopreview	4	307	257	0	0	0	0	257
	290	@entity13	Park		7	nopreview	4	308						
260	291	is	is	is	7	nopreview	4	309	230	118	234	118	118	112
261	292	in	in	in	7	nopreview	4	310	0	0	0	0	0	0
262	293	@entity66	Peru	Peru	7	nopreview	4	311	256	150	262	150	150	106
263	294	and	and	and	7	nopreview	4	312	0	0	0	0	0	0
264	295	is	is	is	7	nopreview	4	313	0	0	0	0	0	0
265	296	expected	expected	expected	7	nopreview	4	314	352	352	352	221	352	0
266	297	to	to	to	7	nopreview	4	315	0	0	0	0	0	0
267	298	arrive	arrive	arrive	7	nopreview	4	316	214	214	214	214	214	0
268	299	back	back	back	7	nopreview	4	317	0	0	0	0	0	0
269	300	to	to	to	7	nopreview	4	318	86	0	0	0	0	86
270	301	@entity1	South	South	7	nopreview	4	319	143	143	229	143	143	0
271			Korea	Korea	7	nopreview	4	320	0	0	0	0	0	0
272	302	on	on	on	7	nopreview	4	321	156	156	1124	156	156	0
273	303	April	April	April	7	nopreview	4	322	0	0	968	0	0	0
274	304	27	27	27.	7	nopreview	4	323	0	0	0	0	0	0
	305	.	.		7	nopreview	4	324						
