HumanPosition	AnonymizedPosition	AnonymizedToken	OriginalToken	ExperimentToken	Participant	Condition	TextNo	JointPosition	tt	fp	rp	ff	rb	sp
1	0	(	(	Blues	7	nopreview	5	1	952	0	0	0	0	952
	1	@entity2	CNN		7	nopreview	5	2						
	2	)	)		7	nopreview	5	3						
	3	@entity1	Blues		7	nopreview	5	4						
2	4	legend	legend	legend	7	nopreview	5	5	1364	0	0	0	0	1364
3	5	@entity0	B.B.	B.B.	7	nopreview	5	6	516	0	0	0	0	516
4			King	King	7	nopreview	5	7	495	0	0	0	0	495
5	6	was	was	was	7	nopreview	5	8	0	0	0	0	0	0
6	7	hospitalized	hospitalized	hospitalized	7	nopreview	5	9	581	120	2770	120	581	461
7	8	for	for	for	7	nopreview	5	10	279	279	279	179	279	0
8	9	dehydration	dehydration	dehydration,	7	nopreview	5	11	338	338	338	338	338	0
	10	,	,		7	nopreview	5	12						
9	11	though	though	though	7	nopreview	5	13	909	193	193	193	193	716
10	12	the	the	the	7	nopreview	5	14	0	0	0	0	0	0
11	13	ailment	ailment	ailment	7	nopreview	5	15	729	134	1100	134	588	595
12	14	did	did	didn-t	7	nopreview	5	16	397	397	972	188	397	0
	15	n-t	n-t		7	nopreview	5	17						
13	16	keep	keep	keep	7	nopreview	5	18	146	0	0	0	0	146
14	17	him	him	him	7	nopreview	5	19	242	113	259	113	113	129
15	18	out	out	out	7	nopreview	5	20	287	287	416	287	287	0
16	19	for	for	for	7	nopreview	5	21	305	305	305	159	305	0
17	20	long	long	long.	7	nopreview	5	22	0	0	0	0	0	0
	21	.	.		7	nopreview	5	23						
18	22	@entity0	King	King-s	7	nopreview	5	24	187	187	187	187	187	0
	23	-s	-s		7	nopreview	5	25						
19	24	dehydration	dehydration	dehydration	7	nopreview	5	26	178	178	1920	178	178	0
20	25	was	was	was	7	nopreview	5	27	313	0	0	0	0	313
21	26	caused	caused	caused	7	nopreview	5	28	155	155	278	155	155	0
22	27	by	by	by	7	nopreview	5	29	114	114	304	114	114	0
23	28	his	his	his	7	nopreview	5	30	276	276	276	170	276	0
24	29	Type	Type	Type	7	nopreview	5	31	181	181	181	181	181	0
25	30	II	II	II	7	nopreview	5	32	0	0	0	0	0	0
26	31	diabetes	diabetes	diabetes,	7	nopreview	5	33	200	200	200	200	200	0
	32	,	,		7	nopreview	5	34						
27	33	but	but	but	7	nopreview	5	35	185	185	185	185	185	0
28	34	he	he	he	7	nopreview	5	36	0	0	0	0	0	0
29	35	-	-	-is	7	nopreview	5	37	0	0	0	0	0	0
	36	is	is		7	nopreview	5	38						
30	37	much	much	much	7	nopreview	5	39	169	0	0	0	0	169
31	38	better	better	better,-	7	nopreview	5	40	531	109	278	109	109	422
	39	,	,		7	nopreview	5	41						
	40	-	-		7	nopreview	5	42						
32	41	his	his	his	7	nopreview	5	43	455	0	0	0	0	455
33	42	daughter	daughter	daughter,	7	nopreview	5	44	570	122	122	122	122	448
	43	,	,		7	nopreview	5	45						
34	44	@entity6	Claudette	Claudette	7	nopreview	5	46	148	0	0	0	0	148
35			King	King,	7	nopreview	5	47	0	0	0	0	0	0
	45	,	,		7	nopreview	5	48						
36	46	told	told	told	7	nopreview	5	49	260	0	0	0	0	260
37	47	the	the	the	7	nopreview	5	50	0	0	0	0	0	0
38	48	@entity9	Los	Los	7	nopreview	5	51	0	0	0	0	0	0
39			Angeles	Angeles	7	nopreview	5	52	167	0	0	0	0	167
40			Times	Times.	7	nopreview	5	53	169	0	0	0	0	169
	49	.	.		7	nopreview	5	54						
41	50	The	The	The	7	nopreview	5	55	225	107	2294	107	225	118
42	51	legendary	legendary	legendary	7	nopreview	5	56	590	0	0	0	0	590
43	52	guitarist	guitarist	guitarist	7	nopreview	5	57	573	101	1163	101	573	472
44	53	and	and	and	7	nopreview	5	58	0	0	0	0	0	0
45	54	vocalist	vocalist	vocalist	7	nopreview	5	59	409	409	409	227	409	0
46	55	released	released	released	7	nopreview	5	60	285	285	285	285	285	0
47	56	a	a	a	7	nopreview	5	61	0	0	0	0	0	0
48	57	statement	statement	statement	7	nopreview	5	62	293	293	293	170	293	0
49	58	thanking	thanking	thanking	7	nopreview	5	63	165	165	165	165	165	0
50	59	those	those	those	7	nopreview	5	64	171	171	171	171	171	0
51	60	who	who	who	7	nopreview	5	65	188	188	188	188	188	0
52	61	have	have	have	7	nopreview	5	66	98	98	98	98	98	0
53	62	expressed	expressed	expressed	7	nopreview	5	67	117	0	0	0	0	117
54	63	their	their	their	7	nopreview	5	68	101	101	218	101	101	0
55	64	concerns	concerns	concerns.	7	nopreview	5	69	146	146	146	146	146	0
	65	.	.		7	nopreview	5	70						
56	66	-	-	-I-m	7	nopreview	5	71	0	0	0	0	0	0
	67	I	I		7	nopreview	5	72						
	68	-m	-m		7	nopreview	5	73						
57	69	feeling	feeling	feeling	7	nopreview	5	74	152	152	152	152	152	0
58	70	much	much	much	7	nopreview	5	75	0	0	0	0	0	0
59	71	better	better	better	7	nopreview	5	76	141	141	141	141	141	0
60	72	and	and	and	7	nopreview	5	77	0	0	0	0	0	0
61	73	am	am	am	7	nopreview	5	78	0	0	0	0	0	0
62	74	leaving	leaving	leaving	7	nopreview	5	79	302	302	302	179	302	0
63	75	the	the	the	7	nopreview	5	80	0	0	0	0	0	0
64	76	hospital	hospital	hospital	7	nopreview	5	81	124	124	124	124	124	0
65	77	today	today	today,-	7	nopreview	5	82	117	0	0	0	0	117
	78	,	,		7	nopreview	5	83						
	79	-	-		7	nopreview	5	84						
66	80	@entity0	King	King	7	nopreview	5	85	227	97	214	97	97	130
67	81	said	said	said	7	nopreview	5	86	254	109	239	109	109	145
68	82	in	in	in	7	nopreview	5	87	0	0	0	0	0	0
69	83	a	a	a	7	nopreview	5	88	228	228	1281	228	228	0
70	84	message	message	message	7	nopreview	5	89	175	175	175	175	175	0
71	85	Tuesday	Tuesday	Tuesday.	7	nopreview	5	90	165	165	165	165	165	0
	86	.	.		7	nopreview	5	91						
72	87	@entity17	Angela	Angela	7	nopreview	5	92	210	210	210	210	210	0
73			Moore	Moore,	7	nopreview	5	93	196	196	196	196	196	0
	88	,	,		7	nopreview	5	94						
74	89	a	a	a	7	nopreview	5	95	0	0	0	0	0	0
75	90	publicist	publicist	publicist	7	nopreview	5	96	189	189	189	189	189	0
76	91	for	for	for	7	nopreview	5	97	0	0	0	0	0	0
77	92	@entity6	Claudette	Claudette	7	nopreview	5	98	470	470	470	110	470	0
78			King	King,	7	nopreview	5	99	0	0	0	0	0	0
	93	,	,		7	nopreview	5	100						
79	94	said	said	said	7	nopreview	5	101	98	0	0	0	0	98
80	95	later	later	later	7	nopreview	5	102	206	0	0	0	0	206
81	96	in	in	in	7	nopreview	5	103	0	0	0	0	0	0
82	97	the	the	the	7	nopreview	5	104	0	0	0	0	0	0
83	98	day	day	day	7	nopreview	5	105	111	111	415	111	111	0
84	99	that	that	that	7	nopreview	5	106	145	145	145	145	145	0
85	100	he	he	he	7	nopreview	5	107	0	0	0	0	0	0
86	101	was	was	was	7	nopreview	5	108	88	0	0	0	0	88
87	102	back	back	back	7	nopreview	5	109	233	233	321	233	233	0
88	103	home	home	home	7	nopreview	5	110	0	0	0	0	0	0
89	104	resting	resting	resting	7	nopreview	5	111	278	278	278	278	278	0
90	105	and	and	and	7	nopreview	5	112	0	0	0	0	0	0
91	106	enjoying	enjoying	enjoying	7	nopreview	5	113	181	181	181	181	181	0
92	107	time	time	time	7	nopreview	5	114	142	142	142	142	142	0
93	108	with	with	with	7	nopreview	5	115	0	0	0	0	0	0
94	109	his	his	his	7	nopreview	5	116	108	108	108	108	108	0
95	110	grandchildren	grandchildren	grandchildren.	7	nopreview	5	117	266	266	266	113	266	0
	111	.	.		7	nopreview	5	118						
96	112	-	-	-He	7	nopreview	5	119	0	0	0	0	0	0
	113	He	He		7	nopreview	5	120						
97	114	was	was	was	7	nopreview	5	121	124	0	0	0	0	124
98	115	struggling	struggling	struggling	7	nopreview	5	122	369	238	238	238	238	131
99	116	before	before	before,	7	nopreview	5	123	379	123	634	123	379	256
	117	,	,		7	nopreview	5	124						
100	118	and	and	and	7	nopreview	5	125	0	0	0	0	0	0
101	119	he	he	he	7	nopreview	5	126	0	0	0	0	0	0
102	120	is	is	is	7	nopreview	5	127	0	0	0	0	0	0
103	121	a	a	a	7	nopreview	5	128	215	215	215	215	215	0
104	122	trouper	trouper	trouper,-	7	nopreview	5	129	143	143	143	143	143	0
	123	,	,		7	nopreview	5	130						
	124	-	-		7	nopreview	5	131						
105	125	@entity17	Moore	Moore	7	nopreview	5	132	0	0	0	0	0	0
106	126	said	said	said.	7	nopreview	5	133	189	189	189	189	189	0
	127	.	.		7	nopreview	5	134						
107	128	-	-	-He	7	nopreview	5	135	0	0	0	0	0	0
	129	He	He		7	nopreview	5	136						
108	130	was	was	wasn-t	7	nopreview	5	137	134	0	0	0	0	134
	131	n-t	n-t		7	nopreview	5	138						
109	132	going	going	going	7	nopreview	5	139	0	0	0	0	0	0
110	133	to	to	to	7	nopreview	5	140	266	114	400	114	266	152
111	134	let	let	let	7	nopreview	5	141	0	0	0	0	0	0
112	135	his	his	his	7	nopreview	5	142	126	126	126	126	126	0
113	136	fans	fans	fans	7	nopreview	5	143	132	132	132	132	132	0
114	137	down	down	down.-	7	nopreview	5	144	140	140	140	140	140	0
	138	.	.		7	nopreview	5	145						
115	139	-	-	No	7	nopreview	5	146	0	0	0	0	0	0
116	140	No	No	more	7	nopreview	5	147	304	0	0	0	0	304
117	141	more	more	information	7	nopreview	5	148	740	134	374	134	238	606
	142	information	information		7	nopreview	5	149						
118	143	on	on	on	7	nopreview	5	150	201	0	0	0	0	201
119	144	@entity0	King	King-s	7	nopreview	5	151	530	128	1401	128	530	402
	145	-s	-s		7	nopreview	5	152						
120	146	condition	condition	condition	7	nopreview	5	153	147	147	147	147	147	0
121	147	or	or	or	7	nopreview	5	154	0	0	0	0	0	0
122	148	where	where	where	7	nopreview	5	155	170	170	170	170	170	0
123	149	he	he	he	7	nopreview	5	156	0	0	0	0	0	0
124	150	was	was	was	7	nopreview	5	157	0	0	0	0	0	0
125	151	hospitalized	hospitalized	hospitalized	7	nopreview	5	158	116	116	116	116	116	0
126	152	was	was	was	7	nopreview	5	159	0	0	0	0	0	0
127	153	immediately	immediately	immediately	7	nopreview	5	160	140	140	140	140	140	0
128	154	available	available	available.	7	nopreview	5	161	170	170	170	170	170	0
	155	.	.		7	nopreview	5	162						
129	156	@entity0	B.B.	B.B.	7	nopreview	5	163	0	0	0	0	0	0
130	157	is	is	is	7	nopreview	5	164	178	178	178	178	178	0
131	158	short	short	short	7	nopreview	5	165	82	0	0	0	0	82
132	159	for	for	for	7	nopreview	5	166	165	165	247	165	165	0
133	160	@entity24	Blues	Blues	7	nopreview	5	167	223	223	223	223	223	0
134			Boy	Boy,	7	nopreview	5	168	184	184	184	184	184	0
	161	,	,		7	nopreview	5	169						
135	162	part	part	part	7	nopreview	5	170	128	128	128	128	128	0
136	163	of	of	of	7	nopreview	5	171	0	0	0	0	0	0
137	164	the	the	the	7	nopreview	5	172	0	0	0	0	0	0
138	165	name	name	name	7	nopreview	5	173	127	0	0	0	0	127
139	166	he	he	he	7	nopreview	5	174	0	0	0	0	0	0
140	167	used	used	used	7	nopreview	5	175	126	126	253	126	126	0
141	168	as	as	as	7	nopreview	5	176	318	0	0	0	0	318
142	169	a	a	a	7	nopreview	5	177	0	0	0	0	0	0
143	170	@entity27	Memphis	Memphis	7	nopreview	5	178	471	0	0	0	0	471
144	171	disc	disc	disc	7	nopreview	5	179	220	116	116	116	116	104
145	172	jockey	jockey	jockey,	7	nopreview	5	180	237	101	1130	101	237	136
	173	,	,		7	nopreview	5	181						
146	174	the	the	the	7	nopreview	5	182	0	0	0	0	0	0
147	175	@entity0	Beale	Beale	7	nopreview	5	183	360	180	180	180	180	180
148			Street	Street	7	nopreview	5	184	125	0	0	0	0	125
149			Blues	Blues	7	nopreview	5	185	140	140	445	140	140	0
150			Boy	Boy.	7	nopreview	5	186	0	0	0	0	0	0
	176	.	.		7	nopreview	5	187						
151	177	He	He	He	7	nopreview	5	188	0	0	0	0	0	0
152	178	was	was	was	7	nopreview	5	189	0	0	0	0	0	0
153	179	inducted	inducted	inducted	7	nopreview	5	190	918	229	229	229	229	689
154	180	into	into	into	7	nopreview	5	191	487	0	0	0	0	487
155	181	the	the	the	7	nopreview	5	192	513	141	1689	141	513	372
156	182	@entity28	Rock	Rock	7	nopreview	5	193	0	0	0	0	0	0
157			and	and	7	nopreview	5	194	239	0	0	0	0	239
158			Roll	Roll	7	nopreview	5	195	0	0	0	0	0	0
159			Hall	Hall	7	nopreview	5	196	389	389	389	389	389	0
160			of	of	7	nopreview	5	197	0	0	0	0	0	0
161			Fame	Fame	7	nopreview	5	198	91	0	0	0	0	91
162	183	in	in	in	7	nopreview	5	199	103	103	103	103	103	0
163	184	1987	1987	1987,	7	nopreview	5	200	619	619	619	619	619	0
	185	,	,		7	nopreview	5	201						
164	186	and	and	and	7	nopreview	5	202	0	0	0	0	0	0
165	187	has	has	has	7	nopreview	5	203	261	0	0	0	0	261
166	188	30	30	30	7	nopreview	5	204	302	167	167	167	167	135
167	189	@entity30	Grammy	Grammy	7	nopreview	5	205	701	168	168	168	168	533
168	190	nominations	nominations	nominations.	7	nopreview	5	206	373	196	1302	196	373	177
	191	.	.		7	nopreview	5	207						
169	192	@entity0	King	King,	7	nopreview	5	208	198	0	0	0	0	198
	193	,	,		7	nopreview	5	209						
170	194	89	89	89,	7	nopreview	5	210	274	0	0	0	0	274
	195	,	,		7	nopreview	5	211						
171	196	has	has	has	7	nopreview	5	212	342	0	0	0	0	342
172	197	used	used	used	7	nopreview	5	213	259	0	0	0	0	259
173	198	various	various	various	7	nopreview	5	214	581	0	0	0	0	581
174	199	models	models	models	7	nopreview	5	215	562	102	2216	102	562	460
175	200	of	of	of	7	nopreview	5	216	0	0	0	0	0	0
176	201	@entity33	Gibson	Gibson	7	nopreview	5	217	622	622	622	176	622	0
177	202	guitars	guitars	guitars	7	nopreview	5	218	177	177	177	177	177	0
178	203	over	over	over	7	nopreview	5	219	116	0	0	0	0	116
179	204	the	the	the	7	nopreview	5	220	0	0	0	0	0	0
180	205	years	years	years,	7	nopreview	5	221	142	142	258	142	142	0
	206	,	,		7	nopreview	5	222						
181	207	and	and	and	7	nopreview	5	223	0	0	0	0	0	0
182	208	named	named	named	7	nopreview	5	224	532	532	532	532	532	0
183	209	each	each	each	7	nopreview	5	225	0	0	0	0	0	0
184	210	one	one	one	7	nopreview	5	226	130	0	0	0	0	130
185	211	of	of	of	7	nopreview	5	227	319	0	0	0	0	319
186	212	them	them	them	7	nopreview	5	228	112	0	0	0	0	112
187	213	@entity35	Lucille	Lucille.	7	nopreview	5	229	420	98	981	98	420	322
	214	.	.		7	nopreview	5	230						
188	215	In	In	In	7	nopreview	5	231	122	0	0	0	0	122
189	216	the	the	the	7	nopreview	5	232	160	160	282	160	160	0
190	217	1980s	1980s	1980s,	7	nopreview	5	233	482	243	243	243	243	239
	218	,	,		7	nopreview	5	234						
191	219	@entity33	Gibson	Gibson	7	nopreview	5	235	163	163	163	163	163	0
192	220	officially	officially	officially	7	nopreview	5	236	491	197	197	197	197	294
193	221	dropped	dropped	dropped	7	nopreview	5	237	470	198	198	198	198	272
194	222	the	the	the	7	nopreview	5	238	0	0	0	0	0	0
195	223	model	model	model	7	nopreview	5	239	314	314	314	127	314	0
196	224	number	number	number	7	nopreview	5	240	177	177	177	177	177	0
197	225	on	on	on	7	nopreview	5	241	360	360	360	199	360	0
198	226	the	the	the	7	nopreview	5	242	0	0	0	0	0	0
199	227	guitar	guitar	guitar	7	nopreview	5	243	112	0	0	0	0	112
200	228	he	he	he	7	nopreview	5	244	314	127	239	127	127	187
201	229	used	used	used	7	nopreview	5	245	149	0	0	0	0	149
202	230	last	last	last	7	nopreview	5	246	396	0	0	0	0	396
203	231	and	and	and	7	nopreview	5	247	145	145	801	145	145	0
204	232	most	most	most.	7	nopreview	5	248	181	0	0	0	0	181
	233	.	.		7	nopreview	5	249						
205	234	It	It	It	7	nopreview	5	250	123	123	1185	123	123	0
206	235	became	became	became	7	nopreview	5	251	122	0	0	0	0	122
207	236	a	a	a	7	nopreview	5	252	0	0	0	0	0	0
208	237	custom	custom	custom-made	7	nopreview	5	253	228	108	350	108	228	120
	238	-	-		7	nopreview	5	254						
	239	made	made		7	nopreview	5	255						
209	240	signature	signature	signature	7	nopreview	5	256	259	162	162	162	162	97
210	241	model	model	model	7	nopreview	5	257	0	0	0	0	0	0
211	242	named	named	named	7	nopreview	5	258	424	225	322	225	225	199
212	243	@entity35	Lucille	Lucille,	7	nopreview	5	259	155	155	354	155	155	0
	244	,	,		7	nopreview	5	260						
213	245	manufactured	manufactured	manufactured	7	nopreview	5	261	155	155	155	155	155	0
214	246	exclusively	exclusively	exclusively	7	nopreview	5	262	174	174	174	174	174	0
215	247	for	for	for	7	nopreview	5	263	105	0	0	0	0	105
216	248	the	the	the	7	nopreview	5	264	134	0	0	0	0	134
217	249	-	-	-King	7	nopreview	5	265	0	0	0	0	0	0
	250	@entity40	King		7	nopreview	5	266						
218			of	of	7	nopreview	5	267	185	185	185	185	185	0
219			the	the	7	nopreview	5	268	0	0	0	0	0	0
220			Blues	Blues.-	7	nopreview	5	269	103	103	342	103	103	0
	251	.	.		7	nopreview	5	270						
221	252	-	-	Some	7	nopreview	5	271	0	0	0	0	0	0
	253	Some	Some		7	nopreview	5	272						
222	254	of	of	of	7	nopreview	5	273	110	0	0	0	0	110
223	255	his	his	his	7	nopreview	5	274	177	177	177	177	177	0
224	256	hits	hits	hits	7	nopreview	5	275	295	179	179	179	179	116
225	257	include	include	include	7	nopreview	5	276	309	173	535	173	309	136
226	258	-	-	-The	7	nopreview	5	277	0	0	0	0	0	0
	259	The	The		7	nopreview	5	278						
227	260	Thrill	Thrill	Thrill	7	nopreview	5	279	143	0	0	0	0	143
228	261	Is	Is	Is	7	nopreview	5	280	0	0	0	0	0	0
229	262	Gone	Gone	Gone,-	7	nopreview	5	281	102	102	245	102	102	0
	263	,	,		7	nopreview	5	282						
	264	-	-		7	nopreview	5	283						
230	265	which	which	which	7	nopreview	5	284	0	0	0	0	0	0
231	266	won	won	won	7	nopreview	5	285	258	258	258	258	258	0
232	267	him	him	him	7	nopreview	5	286	0	0	0	0	0	0
233	268	his	his	his	7	nopreview	5	287	0	0	0	0	0	0
234	269	first	first	first	7	nopreview	5	288	135	135	135	135	135	0
235	270	Grammy	Grammy	Grammy	7	nopreview	5	289	0	0	0	0	0	0
236	271	in	in	in	7	nopreview	5	290	0	0	0	0	0	0
237	272	1970	1970	1970,	7	nopreview	5	291	179	179	179	179	179	0
	273	,	,		7	nopreview	5	292						
238	274	-	-	-There	7	nopreview	5	293	0	0	0	0	0	0
	275	@entity44	There		7	nopreview	5	294						
239			Must	Must	7	nopreview	5	295	341	192	192	192	192	149
240			be	be	7	nopreview	5	296	0	0	0	0	0	0
241			a	a	7	nopreview	5	297	0	0	0	0	0	0
242			Better	Better	7	nopreview	5	298	127	127	276	127	127	0
243			World	World	7	nopreview	5	299	139	0	0	0	0	139
244			Somewhere	Somewhere-	7	nopreview	5	300	102	102	241	102	102	0
	276	-	-		7	nopreview	5	301						
245	277	and	and	and	7	nopreview	5	302	0	0	0	0	0	0
246	278	-	-	-When	7	nopreview	5	303	0	0	0	0	0	0
	279	@entity45	When		7	nopreview	5	304						
247			Love	Love	7	nopreview	5	305	179	179	179	179	179	0
248			Comes	Comes	7	nopreview	5	306	214	214	214	214	214	0
249			to	to	7	nopreview	5	307	0	0	0	0	0	0
250			Town	Town,-	7	nopreview	5	308	0	0	0	0	0	0
	280	,	,		7	nopreview	5	309						
	281	-	-		7	nopreview	5	310						
251	282	a	a	a	7	nopreview	5	311	0	0	0	0	0	0
252	283	collaboration	collaboration	collaboration	7	nopreview	5	312	161	161	161	161	161	0
253	284	with	with	with	7	nopreview	5	313	0	0	0	0	0	0
254	285	@entity47	U2	U2.	7	nopreview	5	314	401	141	141	141	141	260
	286	.	.		7	nopreview	5	315						
255	287	Last	Last	Last	7	nopreview	5	316	306	121	121	121	121	185
256	288	year	year	year,	7	nopreview	5	317	121	121	566	121	121	0
	289	,	,		7	nopreview	5	318						
257	290	the	the	the	7	nopreview	5	319	0	0	0	0	0	0
258	291	bluesman	bluesman	bluesman	7	nopreview	5	320	143	143	143	143	143	0
259	292	suffered	suffered	suffered	7	nopreview	5	321	180	180	180	180	180	0
260	293	from	from	from	7	nopreview	5	322	0	0	0	0	0	0
261	294	dehydration	dehydration	dehydration	7	nopreview	5	323	210	210	210	210	210	0
262	295	and	and	and	7	nopreview	5	324	0	0	0	0	0	0
263	296	exhaustion	exhaustion	exhaustion	7	nopreview	5	325	222	222	222	137	222	0
264	297	after	after	after	7	nopreview	5	326	151	0	0	0	0	151
265	298	a	a	a	7	nopreview	5	327	0	0	0	0	0	0
266	299	show	show	show	7	nopreview	5	328	139	139	139	139	139	0
267	300	in	in	in	7	nopreview	5	329	0	0	0	0	0	0
268	301	@entity52	Chicago	Chicago,	7	nopreview	5	330	85	85	236	85	85	0
	302	,	,		7	nopreview	5	331						
269	303	forcing	forcing	forcing	7	nopreview	5	332	113	0	0	0	0	113
270	304	him	him	him	7	nopreview	5	333	106	106	219	106	106	0
271	305	to	to	to	7	nopreview	5	334	0	0	0	0	0	0
272	306	cancel	cancel	cancel	7	nopreview	5	335	163	163	163	163	163	0
273	307	the	the	the	7	nopreview	5	336	0	0	0	0	0	0
274	308	remainder	remainder	remainder	7	nopreview	5	337	271	156	156	156	156	115
275	309	of	of	of	7	nopreview	5	338	0	0	0	0	0	0
276	310	his	his	his	7	nopreview	5	339	0	0	0	0	0	0
277	311	tour	tour	tour.	7	nopreview	5	340	115	115	560	115	115	0
	312	.	.		7	nopreview	5	341						
