HumanPosition	AnonymizedPosition	AnonymizedToken	OriginalToken	ExperimentToken	Participant	Condition	TextNo	JointPosition	tt	fp	rp	ff	rb	sp
1	0	(	(	Two	6	nopreview	1	1	0	0	0	0	0	0
2	1	@entity1	CNN	passengers	6	nopreview	1	2	520	405	405	84	405	115
	2	)	)		6	nopreview	1	3						
	3	Two	Two		6	nopreview	1	4						
	4	passengers	passengers		6	nopreview	1	5						
3	5	found	found	found	6	nopreview	1	6	236	236	351	236	236	0
4	6	dead	dead	dead	6	nopreview	1	7	159	159	159	159	159	0
5	7	on	on	on	6	nopreview	1	8	0	0	0	0	0	0
6	8	a	a	a	6	nopreview	1	9	0	0	0	0	0	0
7	9	cruise	cruise	cruise	6	nopreview	1	10	452	452	452	316	452	0
8	10	ship	ship	ship	6	nopreview	1	11	202	202	202	202	202	0
9	11	in	in	in	6	nopreview	1	12	0	0	0	0	0	0
10	12	@entity4	Puerto	Puerto	6	nopreview	1	13	337	337	337	241	337	0
11			Rico	Rico	6	nopreview	1	14	0	0	0	0	0	0
12	13	appear	appear	appear	6	nopreview	1	15	455	455	455	245	455	0
13	14	to	to	to	6	nopreview	1	16	0	0	0	0	0	0
14	15	have	have	have	6	nopreview	1	17	242	242	242	242	242	0
15	16	died	died	died	6	nopreview	1	18	216	216	216	216	216	0
16	17	in	in	in	6	nopreview	1	19	0	0	0	0	0	0
17	18	a	a	a	6	nopreview	1	20	0	0	0	0	0	0
18	19	murder	murder	murder-suicide,	6	nopreview	1	21	763	558	3377	333	558	205
	20	-	-		6	nopreview	1	22						
	21	suicide	suicide		6	nopreview	1	23						
	22	,	,		6	nopreview	1	24						
19	23	the	the	the	6	nopreview	1	25	153	0	0	0	0	153
20	24	cruise	cruise	cruise	6	nopreview	1	26	871	339	972	339	614	532
21	25	line	line	line	6	nopreview	1	27	0	0	0	0	0	0
22	26	said	said	said.	6	nopreview	1	28	532	532	532	389	532	0
	27	.	.		6	nopreview	1	29						
23	28	@entity6	Holland	Holland	6	nopreview	1	30	273	273	273	273	273	0
24			America	America	6	nopreview	1	31	356	356	356	356	356	0
25			Line	Line	6	nopreview	1	32	224	224	224	224	224	0
26	29	said	said	said	6	nopreview	1	33	0	0	0	0	0	0
27	30	two	two	two	6	nopreview	1	34	339	339	339	339	339	0
28	31	guests	guests	guests	6	nopreview	1	35	292	292	292	292	292	0
29	32	were	were	were	6	nopreview	1	36	0	0	0	0	0	0
30	33	found	found	found	6	nopreview	1	37	283	283	283	283	283	0
31	34	dead	dead	dead	6	nopreview	1	38	187	187	187	187	187	0
32	35	inside	inside	inside	6	nopreview	1	39	228	228	228	228	228	0
33	36	their	their	their	6	nopreview	1	40	205	205	205	205	205	0
34	37	stateroom	stateroom	stateroom	6	nopreview	1	41	867	0	0	0	0	867
35	38	on	on	on	6	nopreview	1	42	130	0	0	0	0	130
36	39	the	the	the	6	nopreview	1	43	644	124	1281	124	405	520
37	40	@entity9	ms	ms	6	nopreview	1	44	184	0	0	0	0	184
38			Ryndam	Ryndam	6	nopreview	1	45	1955	160	2019	160	1596	1795
39	41	at	at	at	6	nopreview	1	46	435	0	0	0	0	435
40	42	11:30	11:30	11:30	6	nopreview	1	47	444	444	444	236	444	0
41	43	a.m.	a.m.	a.m.	6	nopreview	1	48	252	252	252	252	252	0
42	44	Thursday	Thursday	Thursday.	6	nopreview	1	49	317	317	317	317	317	0
	45	.	.		6	nopreview	1	50						
43	46	-	-	-The	6	nopreview	1	51	0	0	0	0	0	0
	47	The	The		6	nopreview	1	52						
44	48	cabin	cabin	cabin	6	nopreview	1	53	383	383	383	207	383	0
45	49	was	was	was	6	nopreview	1	54	0	0	0	0	0	0
46	50	immediately	immediately	immediately	6	nopreview	1	55	255	255	255	255	255	0
47	51	secured	secured	secured,	6	nopreview	1	56	242	242	242	242	242	0
	52	,	,		6	nopreview	1	57						
48	53	and	and	and	6	nopreview	1	58	0	0	0	0	0	0
49	54	the	the	the	6	nopreview	1	59	258	258	258	258	258	0
50	55	authorities	authorities	authorities	6	nopreview	1	60	148	148	148	148	148	0
51	56	were	were	were	6	nopreview	1	61	0	0	0	0	0	0
52	57	notified	notified	notified,	6	nopreview	1	62	273	273	273	273	273	0
	58	,	,		6	nopreview	1	63						
53	59	including	including	including	6	nopreview	1	64	432	432	432	200	432	0
54	60	the	the	the	6	nopreview	1	65	0	0	0	0	0	0
55	61	@entity12	FBI	FBI,-	6	nopreview	1	66	427	427	427	285	427	0
	62	,	,		6	nopreview	1	67						
	63	-	-		6	nopreview	1	68						
56	64	@entity6	Holland	Holland	6	nopreview	1	69	260	260	260	260	260	0
57			America	America	6	nopreview	1	70	378	378	378	105	378	0
58	65	said	said	said.	6	nopreview	1	71	448	448	448	264	448	0
	66	.	.		6	nopreview	1	72						
59	67	-	-	-We	6	nopreview	1	73	0	0	0	0	0	0
	68	We	We		6	nopreview	1	74						
60	69	are	are	are	6	nopreview	1	75	378	378	378	378	378	0
61	70	cooperating	cooperating	cooperating	6	nopreview	1	76	231	231	231	231	231	0
62	71	fully	fully	fully	6	nopreview	1	77	239	239	239	239	239	0
63	72	with	with	with	6	nopreview	1	78	0	0	0	0	0	0
64	73	the	the	the	6	nopreview	1	79	300	300	300	300	300	0
65	74	investigation	investigation	investigation,	6	nopreview	1	80	216	216	216	216	216	0
	75	,	,		6	nopreview	1	81						
66	76	and	and	and	6	nopreview	1	82	0	0	0	0	0	0
67	77	the	the	the	6	nopreview	1	83	319	319	319	319	319	0
68	78	authorities	authorities	authorities	6	nopreview	1	84	189	189	189	189	189	0
69	79	will	will	will	6	nopreview	1	85	199	0	0	0	0	199
70	80	make	make	make	6	nopreview	1	86	233	115	432	115	233	118
71	81	the	the	the	6	nopreview	1	87	0	0	0	0	0	0
72	82	official	official	official	6	nopreview	1	88	673	290	290	290	290	383
73	83	determination	determination	determination	6	nopreview	1	89	599	353	982	353	599	246
74	84	on	on	on	6	nopreview	1	90	0	0	0	0	0	0
75	85	what	what	what	6	nopreview	1	91	0	0	0	0	0	0
76	86	occurred	occurred	occurred.-	6	nopreview	1	92	0	0	0	0	0	0
	87	.	.		6	nopreview	1	93						
77	88	-	-	FBI	6	nopreview	1	94	0	0	0	0	0	0
78	89	@entity12	FBI	spokesman	6	nopreview	1	95	509	509	509	204	509	0
	90	spokesman	spokesman		6	nopreview	1	96						
79	91	@entity17	Moises	Moises	6	nopreview	1	97	470	470	470	277	470	0
80			Quiñones	Quinones	6	nopreview	1	98	1275	1275	1275	390	1275	0
81	92	said	said	said	6	nopreview	1	99	230	0	0	0	0	230
82	93	authorities	authorities	authorities	6	nopreview	1	100	603	136	833	136	603	467
83	94	were	were	were	6	nopreview	1	101	220	0	0	0	0	220
84	95	on	on	on	6	nopreview	1	102	170	170	390	170	170	0
85	96	scene	scene	scene	6	nopreview	1	103	0	0	0	0	0	0
86	97	investigating	investigating	investigating.	6	nopreview	1	104	300	300	300	136	300	0
	98	.	.		6	nopreview	1	105						
87	99	The	The	The	6	nopreview	1	106	0	0	0	0	0	0
88	100	ship	ship	ship	6	nopreview	1	107	407	407	407	407	407	0
89	101	left	left	left	6	nopreview	1	108	0	0	0	0	0	0
90	102	@entity21	Tampa	Tampa,	6	nopreview	1	109	590	391	391	158	391	199
	103	,	,		6	nopreview	1	110						
91	104	@entity22	Florida	Florida,	6	nopreview	1	111	563	427	427	201	427	136
	105	,	,		6	nopreview	1	112						
92	106	on	on	on	6	nopreview	1	113	128	0	0	0	0	128
93	107	March	March	March	6	nopreview	1	114	437	225	225	225	225	212
94	108	29	29	29	6	nopreview	1	115	0	0	0	0	0	0
95	109	on	on	on	6	nopreview	1	116	532	242	242	242	242	290
96	110	a	a	a	6	nopreview	1	117	0	0	0	0	0	0
97	111	14	14	14-day	6	nopreview	1	118	1175	358	648	216	358	817
	112	-	-		6	nopreview	1	119						
	113	day	day		6	nopreview	1	120						
98	114	@entity24	Southern	Southern	6	nopreview	1	121	556	266	591	153	266	290
99			Caribbean	Caribbean	6	nopreview	1	122	245	0	0	0	0	245
100	115	cruise	cruise	cruise.	6	nopreview	1	123	203	0	0	0	0	203
	116	.	.		6	nopreview	1	124						
101	117	It	It	It-s	6	nopreview	1	125	0	0	0	0	0	0
	118	-s	-s		6	nopreview	1	126						
102	119	currently	currently	currently	6	nopreview	1	127	336	0	0	0	0	336
103	120	in	in	in	6	nopreview	1	128	0	0	0	0	0	0
104	121	@entity26	San	San	6	nopreview	1	129	375	0	0	0	0	375
105			Juan	Juan,	6	nopreview	1	130	0	0	0	0	0	0
	122	,	,		6	nopreview	1	131						
106	123	@entity4	Puerto	Puerto	6	nopreview	1	132	302	0	0	0	0	302
107			Rico	Rico.	6	nopreview	1	133	437	0	0	0	0	437
	124	.	.		6	nopreview	1	134						
108	125	@entity28	Puerto	Puerto	6	nopreview	1	135	752	365	4107	365	752	387
109			Rico	Rico	6	nopreview	1	136	0	0	0	0	0	0
110			Port	Port	6	nopreview	1	137	311	311	311	311	311	0
111			Authority	Authority	6	nopreview	1	138	224	224	224	224	224	0
112	126	spokesman	spokesman	spokesman	6	nopreview	1	139	242	242	242	242	242	0
113	127	@entity27	Efraín	Efrain	6	nopreview	1	140	543	543	543	233	543	0
114			Santiago	Santiago	6	nopreview	1	141	949	476	476	282	476	473
115	128	told	told	told	6	nopreview	1	142	637	0	0	0	0	637
116	129	@entity30	El	El	6	nopreview	1	143	166	166	965	166	166	0
117			Nuevo	Nuevo	6	nopreview	1	144	519	293	830	293	519	226
118			Dia	Dia	6	nopreview	1	145	414	414	414	414	414	0
119	130	newspaper	newspaper	newspaper	6	nopreview	1	146	494	494	494	269	494	0
120	131	that	that	that	6	nopreview	1	147	0	0	0	0	0	0
121	132	the	the	the	6	nopreview	1	148	0	0	0	0	0	0
122	133	cleaning	cleaning	cleaning	6	nopreview	1	149	322	322	322	127	322	0
123	134	staff	staff	staff	6	nopreview	1	150	356	356	356	356	356	0
124	135	on	on	on	6	nopreview	1	151	0	0	0	0	0	0
125	136	the	the	the	6	nopreview	1	152	339	339	339	339	339	0
126	137	ship	ship	ship	6	nopreview	1	153	0	0	0	0	0	0
127	138	had	had	had	6	nopreview	1	154	0	0	0	0	0	0
128	139	discovered	discovered	discovered	6	nopreview	1	155	373	373	373	141	373	0
129	140	the	the	the	6	nopreview	1	156	0	0	0	0	0	0
130	141	deceased	deceased	deceased	6	nopreview	1	157	314	314	314	314	314	0
131	142	passengers	passengers	passengers	6	nopreview	1	158	296	296	296	296	296	0
132	143	after	after	after	6	nopreview	1	159	0	0	0	0	0	0
133	144	knocking	knocking	knocking	6	nopreview	1	160	409	409	409	265	409	0
134	145	on	on	on	6	nopreview	1	161	0	0	0	0	0	0
135	146	the	the	the	6	nopreview	1	162	507	507	507	311	507	0
136	147	cabin	cabin	cabin-s	6	nopreview	1	163	0	0	0	0	0	0
	148	-s	-s		6	nopreview	1	164						
137	149	door	door	door.	6	nopreview	1	165	227	227	1399	227	227	0
	150	.	.		6	nopreview	1	166						
