HumanPosition	AnonymizedPosition	AnonymizedToken	OriginalToken	ExperimentToken	Participant	Condition	TextNo	JointPosition	tt	fp	rp	ff	rb	sp
0	0	@entity0	Alejandro	Alejandro	6	nopreview	12	1	541	261	261	261	261	280
2			Valverde	Valverde	6	nopreview	12	2	1175	789	789	303	789	386
3	1	successfully	successfully	successfully	6	nopreview	12	3	284	284	284	284	284	0
4	2	defended	defended	defended	6	nopreview	12	4	303	303	303	303	303	0
5	3	his	his	his	6	nopreview	12	5	168	0	0	0	0	168
6	4	@entity2	Fleche	Fleche	6	nopreview	12	6	528	178	346	178	178	350
7			Wallonne	Wallonne	6	nopreview	12	7	919	119	707	119	357	800
8	5	title	title	title	6	nopreview	12	8	289	289	289	289	289	0
9	6	on	on	on	6	nopreview	12	9	0	0	0	0	0	0
10	7	Wednesday	Wednesday	Wednesday	6	nopreview	12	10	0	0	0	0	0	0
11	8	as	as	as	6	nopreview	12	11	0	0	0	0	0	0
12	9	@entity3	Chris	Chris	6	nopreview	12	12	1177	0	0	0	0	1177
13			Froome	Froome	6	nopreview	12	13	213	0	2979	0	0	213
14	10	finished	finished	finished	6	nopreview	12	14	763	0	0	0	0	763
15	11	back	back	back	6	nopreview	12	15	152	0	0	0	0	152
16	12	in	in	in	6	nopreview	12	16	184	0	0	0	0	184
17	13	123rd	123rd	123rd	6	nopreview	12	17	1012	0	0	0	0	1012
18	14	after	after	after	6	nopreview	12	18	815	0	0	0	0	815
19	15	a	a	a	6	nopreview	12	19	163	0	0	0	0	163
20	16	fall	fall	fall.	6	nopreview	12	20	381	0	0	0	0	381
	17	.	.		6	nopreview	12	21						
21	18	@entity4	Movistar	Movistar	6	nopreview	12	22	701	0	0	0	0	701
22	19	rider	rider	rider	6	nopreview	12	23	751	0	0	0	0	751
23	20	@entity0	Valverde	Valverde	6	nopreview	12	24	586	190	190	190	190	396
24	21	sprinted	sprinted	sprinted	6	nopreview	12	25	496	200	4659	200	200	296
25	22	to	to	to	6	nopreview	12	26	190	0	0	0	0	190
26	23	victory	victory	victory	6	nopreview	12	27	374	0	0	0	0	374
27	24	ahead	ahead	ahead	6	nopreview	12	28	681	0	0	0	0	681
28	25	of	of	of	6	nopreview	12	29	0	0	0	0	0	0
29	26	@entity6	Julian	Julian	6	nopreview	12	30	359	0	0	0	0	359
30			Alaphilippe	Alaphilippe	6	nopreview	12	31	824	0	0	0	0	824
31	27	and	and	and	6	nopreview	12	32	0	0	0	0	0	0
32	28	@entity7	Michael	Michael	6	nopreview	12	33	247	0	0	0	0	247
33			Albasini	Albasini	6	nopreview	12	34	1424	94	5296	94	1424	1330
34	29	in	in	in	6	nopreview	12	35	0	0	0	0	0	0
35	30	a	a	a	6	nopreview	12	36	268	268	268	268	268	0
36	31	race	race	race	6	nopreview	12	37	0	0	0	0	0	0
37	32	which	which	which	6	nopreview	12	38	219	0	0	0	0	219
38	33	saw	saw	saw	6	nopreview	12	39	708	392	927	293	708	316
39	34	former	former	former	6	nopreview	12	40	731	731	1293	731	731	0
40	35	winner	winner	winner	6	nopreview	12	41	388	0	0	0	0	388
41	36	@entity9	Philippe	Philippe	6	nopreview	12	42	287	0	0	0	0	287
42			Gilbert	Gilbert	6	nopreview	12	43	383	0	0	0	0	383
43	37	pull	pull	pull	6	nopreview	12	44	256	0	0	0	0	256
44	38	out	out	out	6	nopreview	12	45	321	0	0	0	0	321
45	39	after	after	after	6	nopreview	12	46	112	0	0	0	0	112
46	40	a	a	a	6	nopreview	12	47	150	0	0	0	0	150
47	41	bad	bad	bad	6	nopreview	12	48	0	0	0	0	0	0
48	42	crash	crash	crash	6	nopreview	12	49	499	0	0	0	0	499
49	43	some	some	some	6	nopreview	12	50	254	0	0	0	0	254
50	44	50	50	50	6	nopreview	12	51	176	0	0	0	0	176
51	45	kilometres	kilometres	kilometres	6	nopreview	12	52	439	0	0	0	0	439
52	46	from	from	from	6	nopreview	12	53	213	0	0	0	0	213
53	47	the	the	the	6	nopreview	12	54	187	0	0	0	0	187
54	48	end	end	end.	6	nopreview	12	55	323	323	3988	102	323	0
	49	.	.		6	nopreview	12	56						
55	50	@entity3	Froome	Froome	6	nopreview	12	57	352	0	0	0	0	352
56	51	was	was	was	6	nopreview	12	58	358	126	710	126	358	232
57	52	involved	involved	involved	6	nopreview	12	59	289	289	289	289	289	0
58	53	in	in	in	6	nopreview	12	60	259	259	259	259	259	0
59	54	a	a	a	6	nopreview	12	61	0	0	0	0	0	0
60	55	crash	crash	crash	6	nopreview	12	62	0	0	0	0	0	0
61	56	in	in	in	6	nopreview	12	63	250	250	250	250	250	0
62	57	the	the	the	6	nopreview	12	64	0	0	0	0	0	0
63	58	final	final	final	6	nopreview	12	65	175	175	175	175	175	0
64	59	12	12	12	6	nopreview	12	66	0	0	0	0	0	0
65	60	kilometres	kilometres	kilometres	6	nopreview	12	67	215	215	215	215	215	0
66	61	but	but	but	6	nopreview	12	68	170	170	170	170	170	0
67	62	was	was	was	6	nopreview	12	69	106	106	106	106	106	0
68	63	able	able	able	6	nopreview	12	70	278	278	278	278	278	0
69	64	to	to	to	6	nopreview	12	71	0	0	0	0	0	0
70	65	get	get	get	6	nopreview	12	72	273	273	273	273	273	0
71	66	back	back	back	6	nopreview	12	73	178	178	178	178	178	0
72	67	on	on	on	6	nopreview	12	74	0	0	0	0	0	0
73	68	his	his	his	6	nopreview	12	75	236	236	236	236	236	0
74	69	bike	bike	bike	6	nopreview	12	76	115	115	115	115	115	0
75	70	and	and	and	6	nopreview	12	77	0	0	0	0	0	0
76	71	finish	finish	finish.	6	nopreview	12	78	258	258	258	258	258	0
	72	.	.		6	nopreview	12	79						
77	73	@entity14	Spain	Team	6	nopreview	12	80	833	610	1232	610	610	223
	74	-s	-s		6	nopreview	12	81						
	75	@entity0	Alejandro		6	nopreview	12	82						
			Valverde		6	nopreview	12	83						
	76	(	(		6	nopreview	12	84						
	77	centre	centre		6	nopreview	12	85						
	78	)	)		6	nopreview	12	86						
	79	realises	realises		6	nopreview	12	87						
	80	he	he		6	nopreview	12	88						
78	81	-s	-s	Sky-s	6	nopreview	12	89	405	238	628	238	405	167
	82	done	done		6	nopreview	12	90						
	83	enough	enough		6	nopreview	12	91						
	84	to	to		6	nopreview	12	92						
79	85	claim	claim	sports	6	nopreview	12	93	394	394	394	394	394	0
	86	victory	victory		6	nopreview	12	94						
	87	in	in		6	nopreview	12	95						
	88	@entity17	Belgium		6	nopreview	12	96						
	89	-s	-s		6	nopreview	12	97						
	90	@entity2	Fleche		6	nopreview	12	98						
	91	@entity0	Wallonne		6	nopreview	12	99						
			Valverde		6	nopreview	12	100						
	92	(	(		6	nopreview	12	101						
	93	centre	centre		6	nopreview	12	102						
	94	)	)		6	nopreview	12	103						
	95	finished	finished		6	nopreview	12	104						
	96	ahead	ahead		6	nopreview	12	105						
	97	of	of		6	nopreview	12	106						
	98	@entity6	Julian		6	nopreview	12	107						
			Alaphilippe		6	nopreview	12	108						
	99	(	(		6	nopreview	12	109						
	100	left	left		6	nopreview	12	110						
	101	)	)		6	nopreview	12	111						
	102	and	and		6	nopreview	12	112						
	103	@entity7	Michael		6	nopreview	12	113						
			Albasini		6	nopreview	12	114						
	104	(	(		6	nopreview	12	115						
	105	right	right		6	nopreview	12	116						
	106	)	)		6	nopreview	12	117						
	107	on	on		6	nopreview	12	118						
	108	Wednesday	Wednesday		6	nopreview	12	119						
	109	@entity20	Team		6	nopreview	12	120						
			Sky		6	nopreview	12	121						
	110	-s	-s		6	nopreview	12	122						
	111	sports	sports		6	nopreview	12	123						
80	112	director	director	director	6	nopreview	12	124	288	288	288	288	288	0
81	113	@entity19	Gabriel	Gabriel	6	nopreview	12	125	276	276	276	276	276	0
82			Rasch	Rasch	6	nopreview	12	126	318	318	318	88	318	0
83	114	praised	praised	praised	6	nopreview	12	127	431	431	431	181	431	0
84	115	@entity3	Froome	Froome	6	nopreview	12	128	139	139	139	139	139	0
85	116	for	for	for	6	nopreview	12	129	99	99	99	99	99	0
86	117	finishing	finishing	finishing	6	nopreview	12	130	266	266	266	266	266	0
87	118	the	the	the	6	nopreview	12	131	264	0	0	0	0	264
88	119	race	race	race	6	nopreview	12	132	172	172	436	172	172	0
89	120	and	and	and	6	nopreview	12	133	337	337	337	337	337	0
90	121	said	said	said	6	nopreview	12	134	401	401	401	401	401	0
91	122	he	he	he	6	nopreview	12	135	0	0	0	0	0	0
92	123	expects	expects	expects	6	nopreview	12	136	393	393	393	393	393	0
93	124	the	the	the	6	nopreview	12	137	0	0	0	0	0	0
94	125	former	former	former	6	nopreview	12	138	300	300	300	300	300	0
95	126	@entity23	Tour	Tour	6	nopreview	12	139	331	331	331	331	331	0
96			de	de	6	nopreview	12	140	0	0	0	0	0	0
97			France	France	6	nopreview	12	141	196	196	196	196	196	0
98	127	winner	winner	winner	6	nopreview	12	142	189	189	189	189	189	0
99	128	will	will	will	6	nopreview	12	143	281	0	0	0	0	281
100	129	be	be	be	6	nopreview	12	144	353	230	230	230	230	123
101	130	fine	fine	fine	6	nopreview	12	145	266	266	670	266	266	0
102	131	to	to	to	6	nopreview	12	146	0	0	0	0	0	0
103	132	take	take	take	6	nopreview	12	147	231	231	231	231	231	0
104	133	part	part	part	6	nopreview	12	148	164	164	164	164	164	0
105	134	in	in	in	6	nopreview	12	149	0	0	0	0	0	0
106	135	the	the	the	6	nopreview	12	150	0	0	0	0	0	0
107	136	@entity25	Tour	Tour	6	nopreview	12	151	385	172	172	172	172	213
108			de	de	6	nopreview	12	152	0	0	0	0	0	0
109			Romandie	Romandie	6	nopreview	12	153	838	200	1051	200	838	638
110	137	next	next	next	6	nopreview	12	154	204	204	204	204	204	0
111	138	week	week	week.	6	nopreview	12	155	133	133	133	133	133	0
	139	.	.		6	nopreview	12	156						
112	140	@entity19	Rasch	Rasch	6	nopreview	12	157	540	266	266	266	266	274
113	141	told	told	told	6	nopreview	12	158	400	400	400	400	400	0
114	142	@entity26	TeamSky.com	TeamSky.com:	6	nopreview	12	159	1375	662	1389	191	1115	713
115	143	:	:	-Chris	6	nopreview	12	160	275	275	535	275	275	0
	144	-	-		6	nopreview	12	161						
	145	@entity3	Chris		6	nopreview	12	162						
116	146	was	was	was	6	nopreview	12	163	376	376	376	263	376	0
117	147	pretty	pretty	pretty	6	nopreview	12	164	270	270	270	270	270	0
118	148	banged	banged	banged	6	nopreview	12	165	265	265	265	265	265	0
119	149	up	up	up	6	nopreview	12	166	238	238	238	238	238	0
120	150	but	but	but	6	nopreview	12	167	294	294	294	294	294	0
121	151	showed	showed	showed	6	nopreview	12	168	0	0	0	0	0	0
122	152	real	real	real	6	nopreview	12	169	301	301	301	178	301	0
123	153	courage	courage	courage	6	nopreview	12	170	176	176	176	176	176	0
124	154	to	to	to	6	nopreview	12	171	0	0	0	0	0	0
125	155	finish	finish	finish	6	nopreview	12	172	238	238	238	238	238	0
126	156	the	the	the	6	nopreview	12	173	0	0	0	0	0	0
127	157	race	race	race	6	nopreview	12	174	340	340	340	340	340	0
128	158	and	and	and	6	nopreview	12	175	0	0	0	0	0	0
129	159	we	we	we-ll	6	nopreview	12	176	238	238	238	238	238	0
	160	-ll	-ll		6	nopreview	12	177						
130	161	assess	assess	assess	6	nopreview	12	178	185	185	185	185	185	0
131	162	his	his	his	6	nopreview	12	179	144	144	144	144	144	0
132	163	injuries	injuries	injuries	6	nopreview	12	180	246	246	246	246	246	0
133	164	overnight	overnight	overnight.	6	nopreview	12	181	189	189	189	189	189	0
	165	.	.		6	nopreview	12	182						
134	166	-	-	-He	6	nopreview	12	183	0	0	0	0	0	0
	167	He	He		6	nopreview	12	184						
135	168	has	has	hasn-t	6	nopreview	12	185	335	335	335	335	335	0
	169	n-t	n-t		6	nopreview	12	186						
136	170	needed	needed	needed	6	nopreview	12	187	251	251	251	251	251	0
137	171	to	to	to	6	nopreview	12	188	0	0	0	0	0	0
138	172	go	go	go	6	nopreview	12	189	278	278	278	278	278	0
139	173	to	to	to	6	nopreview	12	190	0	0	0	0	0	0
140	174	hospital	hospital	hospital	6	nopreview	12	191	186	186	186	186	186	0
141	175	and	and	and	6	nopreview	12	192	145	0	0	0	0	145
142	176	right	right	right	6	nopreview	12	193	393	260	260	260	260	133
143	177	now	now	now,	6	nopreview	12	194	288	288	566	288	288	0
	178	,	,		6	nopreview	12	195						
144	179	as	as	as	6	nopreview	12	196	0	0	0	0	0	0
145	180	things	things	things	6	nopreview	12	197	288	288	288	288	288	0
146	181	stand	stand	stand,	6	nopreview	12	198	127	0	0	0	0	127
	182	,	,		6	nopreview	12	199						
147	183	we	we	we-re	6	nopreview	12	200	457	137	584	137	457	320
	184	-re	-re		6	nopreview	12	201						
148	185	still	still	still	6	nopreview	12	202	0	0	0	0	0	0
149	186	expecting	expecting	expecting	6	nopreview	12	203	239	239	239	239	239	0
150	187	him	him	him	6	nopreview	12	204	179	179	179	179	179	0
151	188	to	to	to	6	nopreview	12	205	0	0	0	0	0	0
152	189	line	line	line	6	nopreview	12	206	240	240	240	240	240	0
153	190	up	up	up	6	nopreview	12	207	0	0	0	0	0	0
154	191	at	at	at	6	nopreview	12	208	0	0	0	0	0	0
155	192	the	the	the	6	nopreview	12	209	217	217	217	217	217	0
156	193	@entity25	Tour	Tour	6	nopreview	12	210	0	0	0	0	0	0
157			de	de	6	nopreview	12	211	165	165	165	165	165	0
158			Romandie	Romandie	6	nopreview	12	212	131	131	131	131	131	0
159	194	next	next	next	6	nopreview	12	213	120	0	0	0	0	120
160	195	Tuesday	Tuesday	Tuesday.-	6	nopreview	12	214	501	192	2013	192	501	309
	196	.	.		6	nopreview	12	215						
161	197	-	-	Team	6	nopreview	12	216	0	0	0	0	0	0
	198	@entity20	Team		6	nopreview	12	217						
162			Sky	Sky-s	6	nopreview	12	218	657	0	0	0	0	657
	199	-s	-s		6	nopreview	12	219						
163	200	@entity3	Chris	Chris	6	nopreview	12	220	114	114	771	114	114	0
164			Froome	Froome	6	nopreview	12	221	179	179	179	179	179	0
165	201	fell	fell	fell	6	nopreview	12	222	699	252	252	252	252	447
166	202	in	in	in	6	nopreview	12	223	260	260	707	260	260	0
167	203	the	the	the	6	nopreview	12	224	240	240	240	240	240	0
168	204	closing	closing	closing	6	nopreview	12	225	413	413	413	215	413	0
169	205	12km	12km	12km	6	nopreview	12	226	203	203	203	203	203	0
170	206	but	but	but	6	nopreview	12	227	0	0	0	0	0	0
171	207	fought	fought	fought	6	nopreview	12	228	316	316	316	316	316	0
172	208	on	on	on	6	nopreview	12	229	0	0	0	0	0	0
173	209	to	to	to	6	nopreview	12	230	280	280	280	280	280	0
174	210	finish	finish	finish	6	nopreview	12	231	0	0	0	0	0	0
175	211	the	the	the	6	nopreview	12	232	147	147	147	147	147	0
176	212	race	race	race	6	nopreview	12	233	0	0	0	0	0	0
177	213	despite	despite	despite	6	nopreview	12	234	213	0	0	0	0	213
178	214	being	being	being	6	nopreview	12	235	131	131	344	131	131	0
179	215	-	-	-banged	6	nopreview	12	236	339	339	339	339	339	0
	216	banged	banged		6	nopreview	12	237						
180	217	up	up	up-.	6	nopreview	12	238	240	240	240	240	240	0
	218	-	-		6	nopreview	12	239						
