HumanPosition	AnonymizedPosition	AnonymizedToken	OriginalToken	ExperimentToken	Participant	Condition	TextNo	JointPosition	tt	fp	rp	ff	rb	sp
1	0	This	This	This	6	nopreview	16	1	166	0	0	0	0	166
2	1	is	is	is	6	nopreview	16	2	0	0	0	0	0	0
3	2	the	the	the	6	nopreview	16	3	554	109	585	109	419	445
4	3	shocking	shocking	shocking	6	nopreview	16	4	199	0	0	0	0	199
5	4	moment	moment	moment	6	nopreview	16	5	267	267	267	165	267	0
6	5	a	a	a	6	nopreview	16	6	0	0	0	0	0	0
7	6	pit	pit	pit	6	nopreview	16	7	734	237	237	237	237	497
8	7	crew	crew	crew	6	nopreview	16	8	564	125	249	125	125	439
9	8	member	member	member	6	nopreview	16	9	325	159	611	159	325	166
10	9	was	was	was	6	nopreview	16	10	213	0	0	0	0	213
11	10	hit	hit	hit	6	nopreview	16	11	321	321	321	321	321	0
12	11	by	by	by	6	nopreview	16	12	0	0	0	0	0	0
13	12	a	a	a	6	nopreview	16	13	0	0	0	0	0	0
14	13	car	car	car	6	nopreview	16	14	300	300	300	300	300	0
15	14	on	on	on	6	nopreview	16	15	0	0	0	0	0	0
16	15	Sunday	Sunday	Sunday	6	nopreview	16	16	1247	976	976	620	976	271
17	16	during	during	during	6	nopreview	16	17	579	365	365	365	365	214
18	17	the	the	the	6	nopreview	16	18	88	88	88	88	88	0
19	18	inaugural	inaugural	inaugural	6	nopreview	16	19	675	311	311	133	311	364
20	19	@entity4	IndyCar	IndyCar	6	nopreview	16	20	1542	619	619	444	619	923
21	20	@entity3	Grand	Grand	6	nopreview	16	21	465	195	195	195	195	270
22			Prix	Prix	6	nopreview	16	22	0	0	0	0	0	0
23	21	of	of	of	6	nopreview	16	23	433	0	0	0	0	433
24	22	@entity5	Louisiana	Louisiana.	6	nopreview	16	24	1290	196	1846	196	1036	1094
	23	.	.		6	nopreview	16	25						
25	24	@entity6	Todd	Todd	6	nopreview	16	26	908	807	807	807	807	101
26			Phillips	Phillips,	6	nopreview	16	27	743	154	154	154	154	589
	25	,	,		6	nopreview	16	28						
27	26	a	a	a	6	nopreview	16	29	0	0	0	0	0	0
28	27	front	front	front-outside	6	nopreview	16	30	874	636	636	248	636	238
	28	-	-		6	nopreview	16	31						
	29	outside	outside		6	nopreview	16	32						
29	30	tire	tire	tire	6	nopreview	16	33	217	217	217	217	217	0
30	31	changer	changer	changer	6	nopreview	16	34	616	366	366	147	366	250
31	32	for	for	for	6	nopreview	16	35	628	356	356	356	356	272
32	33	@entity8	Dayle	Dayle	6	nopreview	16	36	583	124	647	124	375	459
33			Coyne	Coyne	6	nopreview	16	37	733	356	356	356	356	377
34			Racing	Racing,	6	nopreview	16	38	391	295	295	295	295	96
	34	,	,		6	nopreview	16	39						
35	35	was	was	was	6	nopreview	16	40	352	352	352	352	352	0
36	36	injured	injured	injured	6	nopreview	16	41	0	0	0	0	0	0
37	37	when	when	when	6	nopreview	16	42	154	154	154	154	154	0
38	38	he	he	he	6	nopreview	16	43	360	360	360	360	360	0
39	39	was	was	was	6	nopreview	16	44	172	172	172	172	172	0
40	40	struck	struck	struck	6	nopreview	16	45	180	180	180	180	180	0
41	41	by	by	by	6	nopreview	16	46	0	0	0	0	0	0
42	42	the	the	the	6	nopreview	16	47	220	220	220	220	220	0
43	43	car	car	car	6	nopreview	16	48	0	0	0	0	0	0
44	44	of	of	of	6	nopreview	16	49	165	165	165	165	165	0
45	45	@entity10	Francesco	Francesco	6	nopreview	16	50	334	334	334	146	334	0
46			Dracone	Dracone,	6	nopreview	16	51	641	641	641	267	641	0
	46	,	,		6	nopreview	16	52						
47	47	who	who	who	6	nopreview	16	53	274	274	274	274	274	0
48	48	had	had	had	6	nopreview	16	54	423	322	322	322	322	101
49	49	come	come	come	6	nopreview	16	55	225	225	225	225	225	0
50	50	in	in	in	6	nopreview	16	56	0	0	0	0	0	0
51	51	on	on	on	6	nopreview	16	57	211	211	211	211	211	0
52	52	Lap	Lap	Lap	6	nopreview	16	58	227	227	227	227	227	0
53	53	25	25	25	6	nopreview	16	59	0	0	0	0	0	0
54	54	for	for	for	6	nopreview	16	60	277	0	0	0	0	277
55	55	tyres	tyres	tyres	6	nopreview	16	61	327	188	465	188	188	139
56	56	and	and	and	6	nopreview	16	62	355	355	494	190	355	0
57	57	fuel	fuel	fuel.	6	nopreview	16	63	0	0	0	0	0	0
	58	.	.		6	nopreview	16	64						
58	59	@entity10	Dracone	Dracone	6	nopreview	16	65	471	339	339	339	339	132
59	60	spun	spun	spun	6	nopreview	16	66	566	341	698	341	566	225
60	61	while	while	while	6	nopreview	16	67	161	161	161	161	161	0
61	62	exiting	exiting	exiting	6	nopreview	16	68	559	290	290	114	290	269
62	63	his	his	his	6	nopreview	16	69	817	324	883	161	614	493
63	64	put	put	put	6	nopreview	16	70	247	247	450	247	247	0
64	65	box	box	box,	6	nopreview	16	71	0	0	0	0	0	0
	66	,	,		6	nopreview	16	72						
65	67	clipping	clipping	clipping	6	nopreview	16	73	448	448	448	255	448	0
66	68	@entity15	Phillips	Phillips-	6	nopreview	16	74	169	169	169	169	169	0
	69	-	-		6	nopreview	16	75						
67	70	leg	leg	leg.	6	nopreview	16	76	256	256	256	256	256	0
	71	.	.		6	nopreview	16	77						
68	72	@entity6	Todd	Phillips	6	nopreview	16	78	216	216	216	216	216	0
			Phillips		6	nopreview	16	79						
69	73	waits	waits	was	6	nopreview	16	80	0	0	0	0	0	0
70	74	in	in	taken	6	nopreview	16	81	245	245	245	245	245	0
	75	the	the		6	nopreview	16	82						
71	76	pit	pit	to	6	nopreview	16	83	0	0	0	0	0	0
72	77	lane	lane	the	6	nopreview	16	84	363	363	363	192	363	0
73	78	as	as	infield	6	nopreview	16	85	406	406	406	210	406	0
	79	the	the		6	nopreview	16	86						
	80	car	car		6	nopreview	16	87						
	81	makes	makes		6	nopreview	16	88						
	82	a	a		6	nopreview	16	89						
	83	stop	stop		6	nopreview	16	90						
	84	during	during		6	nopreview	16	91						
	85	the	the		6	nopreview	16	92						
	86	race	race		6	nopreview	16	93						
	87	in	in		6	nopreview	16	94						
	88	@entity5	Louisiana		6	nopreview	16	95						
	89	The	The		6	nopreview	16	96						
	90	car	car		6	nopreview	16	97						
	91	of	of		6	nopreview	16	98						
	92	@entity10	Francesco		6	nopreview	16	99						
			Dracone		6	nopreview	16	100						
	93	spun	spun		6	nopreview	16	101						
	94	out	out		6	nopreview	16	102						
	95	of	of		6	nopreview	16	103						
	96	control	control		6	nopreview	16	104						
	97	in	in		6	nopreview	16	105						
	98	the	the		6	nopreview	16	106						
	99	wet	wet		6	nopreview	16	107						
	100	conditions	conditions		6	nopreview	16	108						
	101	as	as		6	nopreview	16	109						
	102	@entity6	Phillips		6	nopreview	16	110						
	103	tried	tried		6	nopreview	16	111						
	104	to	to		6	nopreview	16	112						
	105	get	get		6	nopreview	16	113						
	106	out	out		6	nopreview	16	114						
	107	the	the		6	nopreview	16	115						
	108	way	way		6	nopreview	16	116						
	109	The	The		6	nopreview	16	117						
	110	rear	rear		6	nopreview	16	118						
	111	end	end		6	nopreview	16	119						
	112	of	of		6	nopreview	16	120						
	113	the	the		6	nopreview	16	121						
	114	car	car		6	nopreview	16	122						
	115	made	made		6	nopreview	16	123						
	116	contact	contact		6	nopreview	16	124						
	117	with	with		6	nopreview	16	125						
	118	the	the		6	nopreview	16	126						
	119	pit	pit		6	nopreview	16	127						
	120	crew	crew		6	nopreview	16	128						
	121	worker	worker		6	nopreview	16	129						
	122	sweeping	sweeping		6	nopreview	16	130						
	123	his	his		6	nopreview	16	131						
	124	legs	legs		6	nopreview	16	132						
	125	from	from		6	nopreview	16	133						
	126	underneath	underneath		6	nopreview	16	134						
	127	him	him		6	nopreview	16	135						
	128	@entity6	Phillips		6	nopreview	16	136						
	129	was	was		6	nopreview	16	137						
	130	flipped	flipped		6	nopreview	16	138						
	131	upside	upside		6	nopreview	16	139						
	132	down	down		6	nopreview	16	140						
	133	by	by		6	nopreview	16	141						
	134	the	the		6	nopreview	16	142						
	135	force	force		6	nopreview	16	143						
	136	of	of		6	nopreview	16	144						
	137	the	the		6	nopreview	16	145						
	138	car	car		6	nopreview	16	146						
	139	but	but		6	nopreview	16	147						
	140	escaped	escaped		6	nopreview	16	148						
	141	only	only		6	nopreview	16	149						
	142	with	with		6	nopreview	16	150						
	143	minor	minor		6	nopreview	16	151						
	144	injuries	injuries		6	nopreview	16	152						
	145	@entity6	Phillips		6	nopreview	16	153						
	146	was	was		6	nopreview	16	154						
	147	taken	taken		6	nopreview	16	155						
	148	to	to		6	nopreview	16	156						
	149	the	the		6	nopreview	16	157						
	150	infield	infield		6	nopreview	16	158						
74	151	care	care	care	6	nopreview	16	159	167	167	167	167	167	0
75	152	center	center	center	6	nopreview	16	160	377	377	377	377	377	0
76	153	for	for	for	6	nopreview	16	161	0	0	0	0	0	0
77	154	treatment	treatment	treatment	6	nopreview	16	162	254	254	254	254	254	0
78	155	where	where	where	6	nopreview	16	163	290	290	290	290	290	0
79	156	he	he	he	6	nopreview	16	164	0	0	0	0	0	0
80	157	has	has	has	6	nopreview	16	165	306	306	306	306	306	0
81	158	received	received	received	6	nopreview	16	166	0	0	0	0	0	0
82	159	stitches	stitches	stitches	6	nopreview	16	167	315	315	315	315	315	0
83	160	for	for	for	6	nopreview	16	168	0	0	0	0	0	0
84	161	a	a	a	6	nopreview	16	169	221	221	221	221	221	0
85	162	cut	cut	cut	6	nopreview	16	170	170	170	170	170	170	0
86	163	on	on	on	6	nopreview	16	171	0	0	0	0	0	0
87	164	his	his	his	6	nopreview	16	172	261	261	261	261	261	0
88	165	leg	leg	leg	6	nopreview	16	173	0	0	0	0	0	0
89	166	and	and	and	6	nopreview	16	174	0	0	0	0	0	0
90	167	has	has	has	6	nopreview	16	175	356	356	356	356	356	0
91	168	been	been	been	6	nopreview	16	176	112	112	112	112	112	0
92	169	released	released	released.	6	nopreview	16	177	332	332	332	138	332	0
	170	.	.		6	nopreview	16	178						
93	171	Many	Many	Many	6	nopreview	16	179	382	382	382	382	382	0
94	172	cars	cars	cars	6	nopreview	16	180	0	0	0	0	0	0
95	173	struggled	struggled	struggled	6	nopreview	16	181	242	242	242	242	242	0
96	174	with	with	with	6	nopreview	16	182	423	423	423	423	423	0
97	175	traction	traction	traction	6	nopreview	16	183	400	400	400	141	400	0
98	176	during	during	during	6	nopreview	16	184	223	223	223	223	223	0
99	177	the	the	the	6	nopreview	16	185	0	0	0	0	0	0
100	178	race	race	race	6	nopreview	16	186	240	240	240	240	240	0
101	179	after	after	after	6	nopreview	16	187	352	352	352	352	352	0
102	180	rain	rain	rain	6	nopreview	16	188	252	252	252	252	252	0
103	181	had	had	had	6	nopreview	16	189	0	0	0	0	0	0
104	182	fallen	fallen	fallen	6	nopreview	16	190	362	362	362	362	362	0
105	183	for	for	for	6	nopreview	16	191	177	177	177	177	177	0
106	184	hours	hours	hours	6	nopreview	16	192	362	362	362	129	362	0
107	185	leading	leading	leading	6	nopreview	16	193	299	299	299	174	299	0
108	186	up	up	up	6	nopreview	16	194	0	0	0	0	0	0
109	187	to	to	to	6	nopreview	16	195	301	301	301	301	301	0
110	188	the	the	the	6	nopreview	16	196	0	0	0	0	0	0
111	189	green	green	green	6	nopreview	16	197	359	359	359	359	359	0
112	190	flag	flag	flag.	6	nopreview	16	198	0	0	0	0	0	0
	191	.	.		6	nopreview	16	199						
113	192	@entity10	Dracone	Dracone	6	nopreview	16	200	209	209	209	209	209	0
114	193	did	did	did	6	nopreview	16	201	0	0	0	0	0	0
115	194	not	not	not	6	nopreview	16	202	378	378	378	378	378	0
116	195	finish	finish	finish	6	nopreview	16	203	340	340	340	340	340	0
117	196	the	the	the	6	nopreview	16	204	178	0	0	0	0	178
118	197	race	race	race	6	nopreview	16	205	147	147	325	147	147	0
119	198	and	and	and	6	nopreview	16	206	0	0	0	0	0	0
120	199	wound	wound	wound	6	nopreview	16	207	248	248	248	248	248	0
121	200	up	up	up	6	nopreview	16	208	120	120	120	120	120	0
122	201	23rd	23rd	23rd.	6	nopreview	16	209	328	328	5280	328	328	0
	202	.	.		6	nopreview	16	210						
