HumanPosition	AnonymizedPosition	AnonymizedToken	OriginalToken	ExperimentToken	Participant	Condition	TextNo	JointPosition	tt	fp	rp	ff	rb	sp
1	0	(	(	Sabra	6	nopreview	2	1	1364	0	0	0	0	1364
	1	@entity2	CNN		6	nopreview	2	2						
	2	)	)		6	nopreview	2	3						
	3	@entity1	Sabra		6	nopreview	2	4						
2			Dipping	Dipping	6	nopreview	2	5	1272	0	0	0	0	1272
3			Co.	Co.	6	nopreview	2	6	174	0	0	0	0	174
4	4	is	is	is	6	nopreview	2	7	0	0	0	0	0	0
5	5	recalling	recalling	recalling	6	nopreview	2	8	834	0	0	0	0	834
6	6	30,000	30,000	30,000	6	nopreview	2	9	578	0	0	0	0	578
7	7	cases	cases	cases	6	nopreview	2	10	356	0	0	0	0	356
8	8	of	of	of	6	nopreview	2	11	0	0	0	0	0	0
9	9	hummus	hummus	hummus	6	nopreview	2	12	985	0	0	0	0	985
10	10	due	due	due	6	nopreview	2	13	723	0	0	0	0	723
11	11	to	to	to	6	nopreview	2	14	180	0	0	0	0	180
12	12	possible	possible	possible	6	nopreview	2	15	379	0	0	0	0	379
13	13	contamination	contamination	contamination	6	nopreview	2	16	264	0	0	0	0	264
14	14	with	with	with	6	nopreview	2	17	0	0	0	0	0	0
15	15	@entity6	Listeria	Listeria,	6	nopreview	2	18	1113	92	5419	92	756	1021
	16	,	,		6	nopreview	2	19						
16	17	the	the	the	6	nopreview	2	20	709	494	494	494	494	215
17	18	@entity0	U.S.	U.S.	6	nopreview	2	21	0	0	0	0	0	0
18			Food	Food	6	nopreview	2	22	192	192	192	192	192	0
19			and	and	6	nopreview	2	23	411	0	0	0	0	411
20			Drug	Drug	6	nopreview	2	24	599	223	223	223	223	376
21			Administration	Administration	6	nopreview	2	25	524	257	257	257	257	267
22	19	said	said	said	6	nopreview	2	26	387	0	0	0	0	387
23	20	Wednesday	Wednesday	Wednesday.	6	nopreview	2	27	1329	201	1793	201	886	1128
	21	.	.		6	nopreview	2	28						
24	22	The	The	The	6	nopreview	2	29	0	0	0	0	0	0
25	23	nationwide	nationwide	nationwide	6	nopreview	2	30	0	0	0	0	0	0
26	24	recall	recall	recall	6	nopreview	2	31	271	0	0	0	0	271
27	25	is	is	is	6	nopreview	2	32	0	0	0	0	0	0
28	26	voluntary	voluntary	voluntary.	6	nopreview	2	33	414	0	0	0	0	414
	27	.	.		6	nopreview	2	34						
29	28	So	So	So	6	nopreview	2	35	351	0	0	0	0	351
30	29	far	far	far,	6	nopreview	2	36	0	0	0	0	0	0
	30	,	,		6	nopreview	2	37						
31	31	no	no	no	6	nopreview	2	38	321	0	0	0	0	321
32	32	illnesses	illnesses	illnesses	6	nopreview	2	39	202	0	0	0	0	202
33	33	caused	caused	caused	6	nopreview	2	40	241	0	0	0	0	241
34	34	by	by	by	6	nopreview	2	41	0	0	0	0	0	0
35	35	the	the	the	6	nopreview	2	42	607	0	0	0	0	607
36	36	hummus	hummus	hummus	6	nopreview	2	43	158	0	0	0	0	158
37	37	have	have	have	6	nopreview	2	44	308	0	0	0	0	308
38	38	been	been	been	6	nopreview	2	45	845	137	3010	137	137	708
39	39	reported	reported	reported.	6	nopreview	2	46	644	186	1352	186	644	458
	40	.	.		6	nopreview	2	47						
40	41	The	The	The	6	nopreview	2	48	0	0	0	0	0	0
41	42	potential	potential	potential	6	nopreview	2	49	553	553	553	148	553	0
42	43	for	for	for	6	nopreview	2	50	246	246	246	246	246	0
43	44	contamination	contamination	contamination	6	nopreview	2	51	233	233	233	233	233	0
44	45	was	was	was	6	nopreview	2	52	0	0	0	0	0	0
45	46	discovered	discovered	discovered	6	nopreview	2	53	287	287	287	287	287	0
46	47	when	when	when	6	nopreview	2	54	185	185	185	185	185	0
47	48	a	a	a	6	nopreview	2	55	0	0	0	0	0	0
48	49	routine	routine	routine,	6	nopreview	2	56	296	296	296	296	296	0
	50	,	,		6	nopreview	2	57						
49	51	random	random	random	6	nopreview	2	58	309	309	309	309	309	0
50	52	sample	sample	sample	6	nopreview	2	59	169	169	169	169	169	0
51	53	collected	collected	collected	6	nopreview	2	60	280	280	280	123	280	0
52	54	at	at	at	6	nopreview	2	61	490	490	490	490	490	0
53	55	a	a	a	6	nopreview	2	62	0	0	0	0	0	0
54	56	@entity14	Michigan	Michigan	6	nopreview	2	63	0	0	0	0	0	0
55	57	store	store	store	6	nopreview	2	64	255	255	255	255	255	0
56	58	on	on	on	6	nopreview	2	65	162	0	0	0	0	162
57	59	March	March	March	6	nopreview	2	66	277	277	439	277	277	0
58	60	30	30	30	6	nopreview	2	67	230	230	230	230	230	0
59	61	tested	tested	tested	6	nopreview	2	68	287	287	287	287	287	0
60	62	positive	positive	positive	6	nopreview	2	69	214	214	214	214	214	0
61	63	for	for	for	6	nopreview	2	70	0	0	0	0	0	0
62	64	@entity6	Listeria	Listeria	6	nopreview	2	71	514	514	514	272	514	0
63	65	monocytogenes	monocytogenes	monocytogenes.	6	nopreview	2	72	1854	1854	1854	340	1854	0
	66	.	.		6	nopreview	2	73						
64	67	The	The	The	6	nopreview	2	74	234	0	0	0	0	234
65	68	@entity0	FDA	FDA	6	nopreview	2	75	395	209	443	209	209	186
66	69	issued	issued	issued	6	nopreview	2	76	1142	706	2233	706	1142	436
67	70	a	a	a	6	nopreview	2	77	0	0	0	0	0	0
68	71	list	list	list	6	nopreview	2	78	210	210	210	210	210	0
69	72	of	of	of	6	nopreview	2	79	0	0	0	0	0	0
70	73	the	the	the	6	nopreview	2	80	232	232	232	232	232	0
71	74	products	products	products	6	nopreview	2	81	0	0	0	0	0	0
72	75	in	in	in	6	nopreview	2	82	133	0	0	0	0	133
73	76	the	the	the	6	nopreview	2	83	396	396	529	396	396	0
74	77	recall	recall	recall.	6	nopreview	2	84	0	0	0	0	0	0
	78	.	.		6	nopreview	2	85						
75	79	Anyone	Anyone	Anyone	6	nopreview	2	86	275	275	275	275	275	0
76	80	who	who	who	6	nopreview	2	87	0	0	0	0	0	0
77	81	has	has	has	6	nopreview	2	88	247	247	247	247	247	0
78	82	purchased	purchased	purchased	6	nopreview	2	89	193	193	193	193	193	0
79	83	any	any	any	6	nopreview	2	90	176	176	176	176	176	0
80	84	of	of	of	6	nopreview	2	91	0	0	0	0	0	0
81	85	the	the	the	6	nopreview	2	92	222	222	222	222	222	0
82	86	items	items	items	6	nopreview	2	93	119	119	119	119	119	0
83	87	is	is	is	6	nopreview	2	94	263	0	0	0	0	263
84	88	urged	urged	urged	6	nopreview	2	95	166	166	429	166	166	0
85	89	to	to	to	6	nopreview	2	96	143	0	0	0	0	143
86	90	dispose	dispose	dispose	6	nopreview	2	97	173	173	316	173	173	0
87	91	of	of	of	6	nopreview	2	98	0	0	0	0	0	0
88	92	or	or	or	6	nopreview	2	99	920	517	517	146	517	403
89	93	return	return	return	6	nopreview	2	100	136	136	539	136	136	0
90	94	it	it	it	6	nopreview	2	101	0	0	0	0	0	0
91	95	to	to	to	6	nopreview	2	102	155	0	0	0	0	155
92	96	the	the	the	6	nopreview	2	103	229	229	384	229	229	0
93	97	store	store	store	6	nopreview	2	104	0	0	0	0	0	0
94	98	for	for	for	6	nopreview	2	105	0	0	0	0	0	0
95	99	a	a	a	6	nopreview	2	106	282	0	0	0	0	282
96	100	full	full	full	6	nopreview	2	107	188	188	470	188	188	0
97	101	refund	refund	refund.	6	nopreview	2	108	200	200	200	200	200	0
	102	.	.		6	nopreview	2	109						
98	103	Listeria	Listeria	Listeria	6	nopreview	2	110	447	447	447	447	447	0
99	104	monocytogenes	monocytogenes	monocytogenes	6	nopreview	2	111	1418	1418	1418	308	1418	0
100	105	can	can	can	6	nopreview	2	112	340	340	340	340	340	0
101	106	cause	cause	cause	6	nopreview	2	113	0	0	0	0	0	0
102	107	serious	serious	serious	6	nopreview	2	114	351	351	351	351	351	0
103	108	and	and	and	6	nopreview	2	115	0	0	0	0	0	0
104	109	sometimes	sometimes	sometimes	6	nopreview	2	116	355	355	355	355	355	0
105	110	fatal	fatal	fatal	6	nopreview	2	117	282	282	282	282	282	0
106	111	infections	infections	infections	6	nopreview	2	118	251	251	251	251	251	0
107	112	in	in	in	6	nopreview	2	119	0	0	0	0	0	0
108	113	young	young	young	6	nopreview	2	120	350	350	350	350	350	0
109	114	children	children	children,	6	nopreview	2	121	275	275	275	275	275	0
	115	,	,		6	nopreview	2	122						
110	116	frail	frail	frail	6	nopreview	2	123	290	290	290	290	290	0
111	117	or	or	or	6	nopreview	2	124	186	0	0	0	0	186
112	118	elderly	elderly	elderly	6	nopreview	2	125	228	228	414	228	228	0
113	119	people	people	people,	6	nopreview	2	126	0	0	0	0	0	0
	120	,	,		6	nopreview	2	127						
114	121	and	and	and	6	nopreview	2	128	0	0	0	0	0	0
115	122	others	others	others	6	nopreview	2	129	332	332	332	184	332	0
116	123	with	with	with	6	nopreview	2	130	269	269	269	269	269	0
117	124	weakened	weakened	weakened	6	nopreview	2	131	214	214	214	214	214	0
118	125	immune	immune	immune	6	nopreview	2	132	229	229	229	229	229	0
119	126	systems	systems	systems,	6	nopreview	2	133	165	165	165	165	165	0
	127	,	,		6	nopreview	2	134						
120	128	the	the	the	6	nopreview	2	135	264	264	264	264	264	0
121	129	@entity0	FDA	FDA	6	nopreview	2	136	382	382	382	382	382	0
122	130	says	says	says.	6	nopreview	2	137	619	619	619	118	619	0
	131	.	.		6	nopreview	2	138						
123	132	Although	Although	Although	6	nopreview	2	139	460	460	460	330	460	0
124	133	some	some	some	6	nopreview	2	140	332	332	332	332	332	0
125	134	people	people	people	6	nopreview	2	141	0	0	0	0	0	0
126	135	may	may	may	6	nopreview	2	142	291	291	291	152	291	0
127	136	suffer	suffer	suffer	6	nopreview	2	143	0	0	0	0	0	0
128	137	only	only	only	6	nopreview	2	144	338	338	338	338	338	0
129	138	short	short	short-term	6	nopreview	2	145	479	479	479	244	479	0
	139	-	-		6	nopreview	2	146						
	140	term	term		6	nopreview	2	147						
130	141	symptoms	symptoms	symptoms	6	nopreview	2	148	275	275	275	275	275	0
131	142	such	such	such	6	nopreview	2	149	237	237	237	237	237	0
132	143	as	as	as	6	nopreview	2	150	0	0	0	0	0	0
133	144	high	high	high	6	nopreview	2	151	301	301	301	301	301	0
134	145	fever	fever	fever,	6	nopreview	2	152	271	271	271	271	271	0
	146	,	,		6	nopreview	2	153						
135	147	severe	severe	severe	6	nopreview	2	154	316	0	0	0	0	316
136	148	headache	headache	headache,	6	nopreview	2	155	188	102	504	102	188	86
	149	,	,		6	nopreview	2	156						
137	150	nausea	nausea	nausea,	6	nopreview	2	157	228	228	228	228	228	0
	151	,	,		6	nopreview	2	158						
138	152	abdominal	abdominal	abdominal	6	nopreview	2	159	313	313	313	313	313	0
139	153	pain	pain	pain	6	nopreview	2	160	240	240	240	240	240	0
140	154	and	and	and	6	nopreview	2	161	0	0	0	0	0	0
141	155	diarrhea	diarrhea	diarrhea,	6	nopreview	2	162	281	281	281	281	281	0
	156	,	,		6	nopreview	2	163						
142	157	@entity6	Listeria	Listeria	6	nopreview	2	164	275	275	275	275	275	0
143	158	can	can	can	6	nopreview	2	165	0	0	0	0	0	0
144	159	also	also	also	6	nopreview	2	166	472	292	292	292	292	180
145	160	cause	cause	cause	6	nopreview	2	167	254	142	3524	142	254	112
146	161	miscarriages	miscarriages	miscarriages	6	nopreview	2	168	0	0	0	0	0	0
147	162	and	and	and	6	nopreview	2	169	0	0	0	0	0	0
148	163	stillbirths	stillbirths	stillbirths	6	nopreview	2	170	0	0	0	0	0	0
149	164	among	among	among	6	nopreview	2	171	0	0	0	0	0	0
150	165	pregnant	pregnant	pregnant	6	nopreview	2	172	0	0	0	0	0	0
151	166	women	women	women.	6	nopreview	2	173	0	0	0	0	0	0
	167	.	.		6	nopreview	2	174						
