HumanPosition	AnonymizedPosition	AnonymizedToken	OriginalToken	ExperimentToken	Participant	Condition	TextNo	JointPosition	tt	fp	rp	ff
1	0	A	A	A	12	preview	18	1	0	0	0	0
2	1	man	man	man	12	preview	18	2	473	227	227	227
3	2	was	was	was	12	preview	18	3	0	0	0	0
4	3	horrified	horrified	horrified	12	preview	18	4	388	200	200	200
5	4	after	after	after	12	preview	18	5	328	328	328	200
6	5	finding	finding	finding	12	preview	18	6	203	203	203	203
7	6	a	a	a	12	preview	18	7	0	0	0	0
8	7	five	five	five	12	preview	18	8	538	429	429	429
9	8	inch	inch	inch	12	preview	18	9	226	226	226	226
10	9	piece	piece	piece	12	preview	18	10	346	346	346	209
11	10	of	of	of	12	preview	18	11	0	0	0	0
12	11	TIMBER	TIMBER	TIMBER	12	preview	18	12	0	0	0	0
13	12	in	in	in	12	preview	18	13	200	0	0	0
14	13	his	his	his	12	preview	18	14	528	208	408	208
15	14	frozen	frozen	frozen	12	preview	18	15	1042	497	497	497
16	15	curry	curry	curry.	12	preview	18	16	409	214	1274	214
	16	.	.		12	preview	18	17				
17	17	@entity5	John	John	12	preview	18	18	314	0	0	0
18			Foran	Foran-s	12	preview	18	19	822	157	861	157
	18	’s	’s		12	preview	18	20				
19	19	wife	wife	wife	12	preview	18	21	282	282	282	282
20	20	@entity4	Nita	Nita	12	preview	18	22	190	190	190	190
21	21	was	was	was	12	preview	18	23	0	0	0	0
22	22	preparing	preparing	preparing	12	preview	18	24	428	428	428	290
23	23	a	a	a	12	preview	18	25	0	0	0	0
24	24	chicken	chicken	chicken	12	preview	18	26	179	179	179	179
25	25	tikka	tikka	tikka	12	preview	18	27	346	346	346	346
26	26	biryani	biryani	biryani	12	preview	18	28	281	281	281	281
27	27	stir	stir	stir-fry	12	preview	18	29	781	781	781	516
	28	-	-		12	preview	18	30				
	29	fry	fry		12	preview	18	31				
28	30	on	on	on	12	preview	18	32	185	185	185	185
29	31	Tuesday	Tuesday	Tuesday	12	preview	18	33	0	0	0	0
30	32	April	April	April	12	preview	18	34	605	605	605	605
31	33	7	7	7	12	preview	18	35	0	0	0	0
32	34	when	when	when	12	preview	18	36	225	225	225	225
33	35	he	he	he	12	preview	18	37	182	182	182	182
34	36	found	found	found	12	preview	18	38	0	0	0	0
35	37	the	the	the	12	preview	18	39	179	179	179	179
36	38	splinter	splinter	splinter-covered	12	preview	18	40	1520	1212	1212	235
	39	-	-		12	preview	18	41				
	40	covered	covered		12	preview	18	42				
37	41	shard	shard	shard.	12	preview	18	43	203	203	511	203
	42	.	.		12	preview	18	44				
38	43	The	The	The	12	preview	18	45	0	0	0	0
39	44	£	£	£2	12	preview	18	46	272	272	272	272
	45	2	2		12	preview	18	47				
40	46	ready	ready	ready	12	preview	18	48	276	276	276	97
41	47	meal	meal	meal	12	preview	18	49	168	168	168	168
42	48	was	was	was	12	preview	18	50	341	341	341	218
43	49	bought	bought	bought	12	preview	18	51	217	217	217	217
44	50	from	from	from	12	preview	18	52	0	0	0	0
45	51	an	an	an	12	preview	18	53	0	0	0	0
46	52	@entity11	Iceland	Iceland	12	preview	18	54	326	326	326	145
47			Foods	Foods	12	preview	18	55	118	118	118	118
48	53	store	store	store	12	preview	18	56	231	231	231	231
49	54	in	in	in	12	preview	18	57	0	0	0	0
50	55	@entity12	Spytty	Spytty	12	preview	18	58	543	543	543	165
51			Retail	Retail	12	preview	18	59	564	564	564	313
52			Park	Park	12	preview	18	60	204	204	204	204
53	56	near	near	near	12	preview	18	61	266	266	266	266
54	57	the	the	the	12	preview	18	62	0	0	0	0
55	58	couple	couple	couple-s	12	preview	18	63	341	341	341	341
	59	’s	’s		12	preview	18	64				
56	60	home	home	home	12	preview	18	65	97	97	97	97
57	61	in	in	in	12	preview	18	66	0	0	0	0
58	62	@entity15	Newport	Newport,	12	preview	18	67	459	459	459	188
	63	,	,		12	preview	18	68				
59	64	@entity16	South	South	12	preview	18	69	224	224	224	224
60			Wales	Wales,	12	preview	18	70	299	299	299	120
	65	,	,		12	preview	18	71				
61	66	within	within	within	12	preview	18	72	391	391	391	103
62	67	the	the	the	12	preview	18	73	160	160	160	160
63	68	last	last	last	12	preview	18	74	271	271	271	271
64	69	two	two	two	12	preview	18	75	90	90	90	90
65	70	weeks	weeks	weeks.	12	preview	18	76	94	94	94	94
	71	.	.		12	preview	18	77				
66	72	@entity5	John	John,	12	preview	18	78	458	458	458	458
			Foran		12	preview	18	79				
	73	was	was		12	preview	18	80				
67	74	horrified	horrified	59,	12	preview	18	81	0	0	0	0
	75	to	to		12	preview	18	82				
	76	find	find		12	preview	18	83				
	77	a	a		12	preview	18	84				
68	78	five	five	said:	12	preview	18	85	381	381	381	191
	79	inch	inch		12	preview	18	86				
	80	piece	piece		12	preview	18	87				
	81	of	of		12	preview	18	88				
	82	timber	timber		12	preview	18	89				
	83	in	in		12	preview	18	90				
	84	his	his		12	preview	18	91				
	85	@entity11	Iceland		12	preview	18	92				
	86	chicken	chicken		12	preview	18	93				
	87	tikka	tikka		12	preview	18	94				
	88	biryani	biryani		12	preview	18	95				
	89	curry	curry		12	preview	18	96				
	90	@entity5	John		12	preview	18	97				
	91	,	,		12	preview	18	98				
	92	59	59		12	preview	18	99				
	93	,	,		12	preview	18	100				
	94	said	said		12	preview	18	101				
69	95	:	:	-When	12	preview	18	102	0	0	0	0
	96	-	-		12	preview	18	103				
	97	When	When		12	preview	18	104				
70	98	it	it	it	12	preview	18	105	237	237	237	237
71	99	fell	fell	fell	12	preview	18	106	193	193	193	193
72	100	out	out	out	12	preview	18	107	0	0	0	0
73	101	of	of	of	12	preview	18	108	305	305	305	305
74	102	the	the	the	12	preview	18	109	0	0	0	0
75	103	bag	bag	bag	12	preview	18	110	227	227	227	227
76	104	I	I	I	12	preview	18	111	0	0	0	0
77	105	could	could	couldn-t	12	preview	18	112	316	316	316	228
	106	n’t	n’t		12	preview	18	113				
78	107	believe	believe	believe	12	preview	18	114	160	160	160	160
79	108	it	it	it.	12	preview	18	115	0	0	0	0
	109	.	.		12	preview	18	116				
80	110	-	-	-As	12	preview	18	117	343	161	161	161
	111	As	As		12	preview	18	118				
81	112	@entity4	Nita	Nita	12	preview	18	119	562	215	397	215
82	113	was	was	was	12	preview	18	120	250	250	250	250
83	114	putting	putting	putting	12	preview	18	121	182	0	0	0
84	115	it	it	it	12	preview	18	122	732	184	184	184
85	116	in	in	in	12	preview	18	123	972	180	180	180
86	117	the	the	the	12	preview	18	124	395	195	195	195
87	118	stir	stir	stir	12	preview	18	125	1338	124	1643	124
88	119	fry	fry	fry	12	preview	18	126	868	0	0	0
89	120	dish	dish	dish,	12	preview	18	127	522	0	0	0
	121	,	,		12	preview	18	128				
90	122	she	she	she	12	preview	18	129	193	0	0	0
91	123	thought	thought	thought	12	preview	18	130	316	0	0	0
92	124	it	it	it	12	preview	18	131	248	0	0	0
93	125	was	was	was	12	preview	18	132	0	0	0	0
94	126	just	just	just	12	preview	18	133	611	0	0	0
95	127	a	a	a	12	preview	18	134	0	0	0	0
96	128	big	big	big	12	preview	18	135	636	0	0	0
97	129	bit	bit	bit	12	preview	18	136	1188	0	0	0
98	130	of	of	of	12	preview	18	137	369	0	0	0
99	131	veg	veg	veg.	12	preview	18	138	378	0	0	0
	132	.	.		12	preview	18	139				
100	133	-	-	-It	12	preview	18	140	0	0	0	0
	134	It	It		12	preview	18	141				
101	135	was	was	was	12	preview	18	142	456	0	0	0
102	136	a	a	a	12	preview	18	143	0	0	0	0
103	137	piece	piece	piece	12	preview	18	144	397	0	0	0
104	138	of	of	of	12	preview	18	145	0	0	0	0
105	139	wood	wood	wood	12	preview	18	146	326	0	0	0
106	140	with	with	with	12	preview	18	147	443	235	9325	235
107	141	splinters	splinters	splinters	12	preview	18	148	477	174	382	174
108	142	coming	coming	coming	12	preview	18	149	203	203	506	203
109	143	off	off	off	12	preview	18	150	179	179	179	179
110	144	it	it	it.	12	preview	18	151	167	167	167	167
	145	.	.		12	preview	18	152				
111	146	-	-	-I	12	preview	18	153	0	0	0	0
	147	I	I		12	preview	18	154				
112	148	just	just	just	12	preview	18	155	168	168	168	168
113	149	do	do	don-t	12	preview	18	156	315	315	315	98
	150	n’t	n’t		12	preview	18	157				
114	151	understand	understand	understand	12	preview	18	158	136	136	136	136
115	152	how	how	how	12	preview	18	159	288	288	288	288
116	153	it	it	it	12	preview	18	160	0	0	0	0
117	154	got	got	got	12	preview	18	161	287	287	287	287
118	155	inside	inside	inside.-	12	preview	18	162	0	0	0	0
	156	.	.		12	preview	18	163				
119	157	-	-	Shocked	12	preview	18	164	431	431	431	290
	158	@entity11	Iceland		12	preview	18	165				
	159	said	said		12	preview	18	166				
	160	they	they		12	preview	18	167				
	161	are	are		12	preview	18	168				
	162	carrying	carrying		12	preview	18	169				
	163	out	out		12	preview	18	170				
	164	a	a		12	preview	18	171				
	165	thorough	thorough		12	preview	18	172				
	166	investigation	investigation		12	preview	18	173				
	167	into	into		12	preview	18	174				
	168	how	how		12	preview	18	175				
	169	the	the		12	preview	18	176				
	170	timber	timber		12	preview	18	177				
	171	shard	shard		12	preview	18	178				
	172	came	came		12	preview	18	179				
	173	to	to		12	preview	18	180				
	174	be	be		12	preview	18	181				
	175	in	in		12	preview	18	182				
	176	the	the		12	preview	18	183				
	177	curry	curry		12	preview	18	184				
	178	Shocked	Shocked		12	preview	18	185				
120	179	@entity5	John	John	12	preview	18	186	222	222	222	222
121	180	immediately	immediately	immediately	12	preview	18	187	199	199	199	199
122	181	contacted	contacted	contacted	12	preview	18	188	496	299	299	299
123	182	@entity11	Iceland	Iceland	12	preview	18	189	324	158	521	158
124	183	who	who	who	12	preview	18	190	144	144	144	144
125	184	are	are	are	12	preview	18	191	171	0	0	0
126	185	currently	currently	currently	12	preview	18	192	288	136	459	136
127	186	investigating	investigating	investigating	12	preview	18	193	241	241	241	241
128	187	the	the	the	12	preview	18	194	110	0	0	0
129	188	matter	matter	matter.	12	preview	18	195	211	211	321	211
	189	.	.		12	preview	18	196				
130	190	He	He	He	12	preview	18	197	0	0	0	0
131	191	said	said	said:	12	preview	18	198	340	340	340	250
132	192	:	:	-It	12	preview	18	199	0	0	0	0
	193	“	“		12	preview	18	200				
133	194	It	It	may	12	preview	18	201	258	258	258	258
134	195	may	may	only	12	preview	18	202	0	0	0	0
135	196	only	only	have	12	preview	18	203	187	187	187	187
	197	have	have		12	preview	18	204				
136	198	been	been	been	12	preview	18	205	345	345	345	160
137	199	£	£	£2	12	preview	18	206	0	0	0	0
	200	2	2		12	preview	18	207				
138	201	but	but	but	12	preview	18	208	181	181	181	181
139	202	that	that	that-s	12	preview	18	209	324	0	0	0
	203	’s	’s		12	preview	18	210				
140	204	beside	beside	beside	12	preview	18	211	492	179	364	179
141	205	the	the	the	12	preview	18	212	100	100	552	100
142	206	point	point	point.	12	preview	18	213	0	0	0	0
	207	.	.		12	preview	18	214				
143	208	-	-	-Things	12	preview	18	215	244	244	244	244
	209	Things	Things		12	preview	18	216				
144	210	like	like	like	12	preview	18	217	320	320	320	320
145	211	this	this	this	12	preview	18	218	0	0	0	0
146	212	should	should	should	12	preview	18	219	136	136	136	136
147	213	not	not	not	12	preview	18	220	0	0	0	0
148	214	be	be	be	12	preview	18	221	0	0	0	0
149	215	in	in	in	12	preview	18	222	225	225	225	225
150	216	your	your	your	12	preview	18	223	256	256	256	256
151	217	food	food	food.	12	preview	18	224	0	0	0	0
	218	.	.		12	preview	18	225				
152	219	-	-	-I	12	preview	18	226	0	0	0	0
	220	I	I		12	preview	18	227				
153	221	contacted	contacted	contacted	12	preview	18	228	631	631	631	282
154	222	@entity11	Iceland	Iceland	12	preview	18	229	257	257	257	123
155	223	and	and	and	12	preview	18	230	104	104	104	104
156	224	all	all	all	12	preview	18	231	238	238	238	238
157	225	they	they	they	12	preview	18	232	266	266	266	266
158	226	said	said	said	12	preview	18	233	493	255	255	255
159	227	was	was	was	12	preview	18	234	0	0	0	0
160	228	take	take	take	12	preview	18	235	364	137	602	137
161	229	it	it	it	12	preview	18	236	0	0	0	0
162	230	back	back	back	12	preview	18	237	152	0	0	0
163	231	to	to	to	12	preview	18	238	609	353	505	353
164	232	the	the	the	12	preview	18	239	0	0	0	0
165	233	shop	shop	shop	12	preview	18	240	195	195	195	195
166	234	and	and	and	12	preview	18	241	159	159	415	159
167	235	that	that	that	12	preview	18	242	304	304	304	304
168	236	they	they	they-ll	12	preview	18	243	0	0	0	0
	237	’ll	’ll		12	preview	18	244				
169	238	be	be	be	12	preview	18	245	173	173	173	173
170	239	in	in	in	12	preview	18	246	268	268	268	268
171	240	touch	touch	touch.	12	preview	18	247	0	0	0	0
	241	.	.		12	preview	18	248				
172	242	-	-	-But	12	preview	18	249	155	0	0	0
	243	But	But		12	preview	18	250				
173	244	I	I	I	12	preview	18	251	123	0	0	0
174	245	want	want	want	12	preview	18	252	0	0	0	0
175	246	people	people	people	12	preview	18	253	258	0	0	0
176	247	to	to	to	12	preview	18	254	0	0	0	0
177	248	know	know	know	12	preview	18	255	212	0	0	0
178	249	what	what	what	12	preview	18	256	0	0	0	0
179	250	could	could	could	12	preview	18	257	217	0	0	0
180	251	be	be	be	12	preview	18	258	0	0	0	0
181	252	hiding	hiding	hiding	12	preview	18	259	290	0	0	0
182	253	in	in	in	12	preview	18	260	0	0	0	0
183	254	their	their	their	12	preview	18	261	188	0	0	0
184	255	meal	meal	meal.-	12	preview	18	262	158	0	0	0
	256	.	.		12	preview	18	263				
185	257	”	”	An	12	preview	18	264	0	0	0	0
186	258	An	An	Iceland	12	preview	18	265	189	0	0	0
	259	@entity11	Iceland		12	preview	18	266				
187	260	spokeswoman	spokeswoman	spokeswoman	12	preview	18	267	263	0	0	0
188	261	said	said	said:	12	preview	18	268	204	0	0	0
189	262	:	:	-Please	12	preview	18	269	470	0	0	0
	263	’	’		12	preview	18	270				
	264	Please	Please		12	preview	18	271				
190	265	be	be	be	12	preview	18	272	0	0	0	0
191	266	assured	assured	assured	12	preview	18	273	225	0	0	0
192	267	that	that	that	12	preview	18	274	247	0	0	0
193	268	we	we	we	12	preview	18	275	0	0	0	0
194	269	take	take	take	12	preview	18	276	196	0	0	0
195	270	all	all	all	12	preview	18	277	196	0	0	0
196	271	complaints	complaints	complaints	12	preview	18	278	336	0	0	0
197	272	extremely	extremely	extremely	12	preview	18	279	209	0	0	0
198	273	seriously	seriously	seriously.	12	preview	18	280	215	0	0	0
	274	.	.		12	preview	18	281				
199	275	We	We	We	12	preview	18	282	0	0	0	0
200	276	can	can	can	12	preview	18	283	0	0	0	0
201	277	confirm	confirm	confirm	12	preview	18	284	253	0	0	0
202	278	that	that	that	12	preview	18	285	387	230	4834	230
203	279	Mr	Mr	Mr	12	preview	18	286	167	0	0	0
204	280	@entity5	Foran	Foran	12	preview	18	287	342	137	666	137
205	281	has	has	has	12	preview	18	288	0	0	0	0
206	282	now	now	now	12	preview	18	289	209	209	209	209
207	283	been	been	been	12	preview	18	290	233	233	233	233
208	284	in	in	in	12	preview	18	291	0	0	0	0
209	285	touch	touch	touch	12	preview	18	292	199	199	199	199
210	286	with	with	with	12	preview	18	293	173	0	0	0
211	287	our	our	our	12	preview	18	294	173	173	346	173
212	288	customer	customer	customer	12	preview	18	295	213	213	213	213
213	289	care	care	care	12	preview	18	296	173	0	0	0
214	290	department	department	department	12	preview	18	297	246	91	419	91
215	291	regarding	regarding	regarding	12	preview	18	298	497	497	497	136
216	292	the	the	the	12	preview	18	299	0	0	0	0
217	293	foreign	foreign	foreign	12	preview	18	300	476	476	476	358
218	294	body	body	body	12	preview	18	301	0	0	0	0
219	295	found	found	found	12	preview	18	302	245	245	245	245
220	296	in	in	in	12	preview	18	303	0	0	0	0
221	297	his	his	his	12	preview	18	304	199	199	199	199
222	298	ready	ready	ready	12	preview	18	305	273	273	273	273
223	299	meal	meal	meal.	12	preview	18	306	228	228	228	228
	300	.	.		12	preview	18	307				
224	301	-	-	-Mr	12	preview	18	308	239	239	239	239
	302	Mr	Mr		12	preview	18	309				
225	303	@entity5	Foran	Foran	12	preview	18	310	202	202	202	202
226	304	is	is	is	12	preview	18	311	0	0	0	0
227	305	returning	returning	returning	12	preview	18	312	418	418	418	418
228	306	the	the	the	12	preview	18	313	517	517	517	253
229	307	item	item	item	12	preview	18	314	0	0	0	0
230	308	to	to	to	12	preview	18	315	103	0	0	0
231	309	the	the	the	12	preview	18	316	291	291	394	291
232	310	store	store	store	12	preview	18	317	0	0	0	0
233	311	and	and	and	12	preview	18	318	167	0	0	0
234	312	the	the	the	12	preview	18	319	218	218	385	218
235	313	foreign	foreign	foreign	12	preview	18	320	390	390	390	239
236	314	body	body	body	12	preview	18	321	143	0	0	0
237	315	will	will	will	12	preview	18	322	97	97	240	97
238	316	be	be	be	12	preview	18	323	206	206	206	206
239	317	collected	collected	collected	12	preview	18	324	202	202	202	202
240	318	by	by	by	12	preview	18	325	230	0	0	0
241	319	our	our	our	12	preview	18	326	243	243	473	243
242	320	supplier	supplier	supplier	12	preview	18	327	0	0	0	0
243	321	in	in	in	12	preview	18	328	95	0	0	0
244	322	order	order	order	12	preview	18	329	244	244	339	244
245	323	for	for	for	12	preview	18	330	217	217	217	217
246	324	them	them	them	12	preview	18	331	0	0	0	0
247	325	to	to	to	12	preview	18	332	0	0	0	0
248	326	carry	carry	carry	12	preview	18	333	106	106	106	106
249	327	out	out	out	12	preview	18	334	0	0	0	0
250	328	a	a	a	12	preview	18	335	164	0	0	0
251	329	thorough	thorough	thorough	12	preview	18	336	144	144	308	144
252	330	investigation	investigation	investigation.	12	preview	18	337	225	225	225	225
	331	.	.		12	preview	18	338				
253	332	As	As	As	12	preview	18	339	0	0	0	0
254	333	soon	soon	soon	12	preview	18	340	291	291	291	291
255	334	as	as	as	12	preview	18	341	161	161	161	161
256	335	we	we	we	12	preview	18	342	277	277	277	277
257	336	have	have	have	12	preview	18	343	0	0	0	0
258	337	the	the	the	12	preview	18	344	188	188	188	188
259	338	results	results	results	12	preview	18	345	111	111	111	111
260	339	of	of	of	12	preview	18	346	275	275	275	180
261	340	this	this	this	12	preview	18	347	0	0	0	0
262	341	investigation	investigation	investigation	12	preview	18	348	318	318	318	182
263	342	we	we	we	12	preview	18	349	269	269	269	269
264	343	will	will	will	12	preview	18	350	0	0	0	0
265	344	get	get	get	12	preview	18	351	394	394	394	394
266	345	back	back	back	12	preview	18	352	0	0	0	0
267	346	in	in	in	12	preview	18	353	0	0	0	0
268	347	touch	touch	touch	12	preview	18	354	211	211	211	211
269	348	with	with	with	12	preview	18	355	270	270	270	270
270	349	Mr	Mr	Mr	12	preview	18	356	0	0	0	0
271	350	@entity5	Foran	Foran.-	12	preview	18	357	155	155	155	155
	351	.	.		12	preview	18	358				
