HumanPosition	AnonymizedPosition	AnonymizedToken	OriginalToken	ExperimentToken	Participant	Condition	TextNo	JointPosition	tt	fp	rp	ff
1	0	A	A	A	12	preview	20	1	0	0	0	0
2	1	physician	physician	physician,	12	preview	20	2	322	0	0	0
	2	,	,		12	preview	20	3				
3	3	93	93	93,	12	preview	20	4	0	0	0	0
	4	,	,		12	preview	20	5				
4	5	who	who	who	12	preview	20	6	244	0	0	0
5				was	12	preview	20	7	202	0	0	0
6	6	team	team	team	12	preview	20	8	617	0	0	0
7	7	doctor	doctor	doctor	12	preview	20	9	242	0	0	0
8	8	for	for	for	12	preview	20	10	188	0	0	0
9	9	five	five	five	12	preview	20	11	106	0	0	0
10	10	@entity6	U.S.	U.S.	12	preview	20	12	195	0	0	0
11	11	men	men	men-s	12	preview	20	13	308	0	0	0
	12	-s	-s		12	preview	20	14				
12	13	@entity4	Olympic	Olympic	12	preview	20	15	214	0	0	0
13	14	hockey	hockey	hockey	12	preview	20	16	231	0	0	0
14	15	squads	squads	squads,	12	preview	20	17	282	0	0	0
	16	,	,		12	preview	20	18				
15	17	including	including	including	12	preview	20	19	256	0	0	0
16	18	the	the	the	12	preview	20	20	118	0	0	0
17	19	-	-	-Miracle	12	preview	20	21	283	161	3808	161
	20	@entity8	Miracle		12	preview	20	22				
18			on	on	12	preview	20	23	0	0	0	0
19			Ice	Ice-	12	preview	20	24	251	251	251	120
	21	-	-		12	preview	20	25				
20	22	team	team	team	12	preview	20	26	0	0	0	0
21	23	that	that	that	12	preview	20	27	245	245	245	245
22	24	won	won	won	12	preview	20	28	286	286	286	286
23	25	in	in	in	12	preview	20	29	348	348	348	348
24	26	the	the	the	12	preview	20	30	192	192	192	192
25	27	1980	1980	1980-s,	12	preview	20	31	0	0	0	0
	28	-s	-s		12	preview	20	32				
	29	,	,		12	preview	20	33				
26	30	has	has	has	12	preview	20	34	285	285	285	285
27	31	suffered	suffered	suffered	12	preview	20	35	0	0	0	0
28	32	serious	serious	serious	12	preview	20	36	367	367	367	176
29	33	injuries	injuries	injuries	12	preview	20	37	273	273	273	273
30	34	in	in	in	12	preview	20	38	85	85	85	85
31	35	an	an	an	12	preview	20	39	0	0	0	0
32	36	attack	attack	attack	12	preview	20	40	155	155	155	155
33	37	while	while	while	12	preview	20	41	311	311	311	311
34	38	visiting	visiting	visiting	12	preview	20	42	204	204	204	204
35	39	his	his	his	12	preview	20	43	0	0	0	0
36	40	wife	wife	wife-s	12	preview	20	44	322	322	322	173
	41	-s	-s		12	preview	20	45				
37	42	grave	grave	grave	12	preview	20	46	323	323	323	323
38	43	on	on	on	12	preview	20	47	0	0	0	0
39	44	Sunday	Sunday	Sunday.	12	preview	20	48	548	548	548	214
	45	.	.		12	preview	20	49				
40	46	@entity13	George	George	12	preview	20	50	594	249	249	249
41			Nagobads	Nagobads	12	preview	20	51	831	369	369	260
42	47	was	was	was	12	preview	20	52	145	145	145	145
43	48	allegedly	allegedly	allegedly	12	preview	20	53	218	218	218	113
44	49	mugged	mugged	mugged	12	preview	20	54	299	299	299	150
45	50	by	by	by	12	preview	20	55	0	0	0	0
46	51	a	a	a	12	preview	20	56	119	119	119	119
47	52	teenager	teenager	teenager	12	preview	20	57	120	120	120	120
48	53	on	on	on	12	preview	20	58	0	0	0	0
49	54	Sunday	Sunday	Sunday	12	preview	20	59	180	180	180	180
50	55	afternoon	afternoon	afternoon	12	preview	20	60	451	451	451	267
51	56	at	at	at	12	preview	20	61	249	0	0	0
52	57	the	the	the	12	preview	20	62	468	279	279	279
53	58	@entity15	Crystal	Crystal	12	preview	20	63	573	326	1818	326
54			Lake	Lake	12	preview	20	64	166	0	0	0
55			Cemetery	Cemetery	12	preview	20	65	477	167	643	167
56	59	in	in	in	12	preview	20	66	0	0	0	0
57	60	@entity16	Minneapolis	Minneapolis	12	preview	20	67	416	416	416	137
58	61	while	while	while	12	preview	20	68	284	284	284	117
59	62	laying	laying	laying	12	preview	20	69	448	448	448	315
60	63	flowers	flowers	flowers	12	preview	20	70	156	156	156	156
61	64	on	on	on	12	preview	20	71	0	0	0	0
62	65	his	his	his	12	preview	20	72	0	0	0	0
63	66	wife	wife	wife	12	preview	20	73	175	175	175	175
64	67	@entity18	Velta	Velta-s	12	preview	20	74	322	322	322	187
	68	-s	-s		12	preview	20	75				
65	69	grave	grave	grave.	12	preview	20	76	164	164	164	164
	70	.	.		12	preview	20	77				
66	71	He	He	He	12	preview	20	78	0	0	0	0
67	72	was	was	was	12	preview	20	79	167	167	167	167
68	73	released	released	released	12	preview	20	80	324	324	324	193
69	74	from	from	from	12	preview	20	81	0	0	0	0
70	75	the	the	the	12	preview	20	82	254	254	254	254
71	76	hospital	hospital	hospital	12	preview	20	83	0	0	0	0
72	77	on	on	on	12	preview	20	84	155	0	0	0
73	78	Tuesday	Tuesday	Tuesday	12	preview	20	85	87	87	242	87
74	79	with	with	with	12	preview	20	86	474	319	319	319
75	80	18	18	18	12	preview	20	87	207	207	362	207
76	81	stitches	stitches	stitches	12	preview	20	88	129	129	129	129
77	82	in	in	in	12	preview	20	89	0	0	0	0
78	83	his	his	his	12	preview	20	90	154	154	154	154
79	84	head	head	head.	12	preview	20	91	0	0	0	0
	85	.	.		12	preview	20	92				
80	86	Scroll	Scroll	After	12	preview	20	93	214	214	214	214
	87	down	down		12	preview	20	94				
	88	for	for		12	preview	20	95				
81	89	video	video	allegedly	12	preview	20	96	501	501	501	263
	90	Injured	Injured		12	preview	20	97				
	91	:	:		12	preview	20	98				
	92	Dr.	Dr.		12	preview	20	99				
	93	@entity13	George		12	preview	20	100				
			Nagobads		12	preview	20	101				
	94	,	,		12	preview	20	102				
	95	pictured	pictured		12	preview	20	103				
	96	in	in		12	preview	20	104				
	97	2010	2010		12	preview	20	105				
	98	with	with		12	preview	20	106				
	99	his	his		12	preview	20	107				
	100	@entity25	Hall		12	preview	20	108				
			of		12	preview	20	109				
			Fame		12	preview	20	110				
	101	plaque	plaque		12	preview	20	111				
	102	,	,		12	preview	20	112				
	103	was	was		12	preview	20	113				
	104	allegedly	allegedly		12	preview	20	114				
82	105	attacked	attacked	being	12	preview	20	115	264	264	502	264
	106	on	on		12	preview	20	116				
	107	Sunday	Sunday		12	preview	20	117				
	108	by	by		12	preview	20	118				
	109	a	a		12	preview	20	119				
	110	teenager	teenager		12	preview	20	120				
	111	in	in		12	preview	20	121				
83	112	a	a	attacked	12	preview	20	122	164	164	164	164
	113	cemetary	cemetary		12	preview	20	123				
	114	Visiting	Visiting		12	preview	20	124				
	115	his	his		12	preview	20	125				
	116	wife	wife		12	preview	20	126				
	117	:	:		12	preview	20	127				
	118	@entity13	Nagobads		12	preview	20	128				
	119	was	was		12	preview	20	129				
	120	visiting	visiting		12	preview	20	130				
	121	his	his		12	preview	20	131				
	122	wife	wife		12	preview	20	132				
	123	-s	-s		12	preview	20	133				
	124	grave	grave		12	preview	20	134				
	125	at	at		12	preview	20	135				
	126	The	The		12	preview	20	136				
	127	@entity15	Crystal		12	preview	20	137				
			Lake		12	preview	20	138				
			Cemetery		12	preview	20	139				
	128	when	when		12	preview	20	140				
	129	he	he		12	preview	20	141				
	130	was	was		12	preview	20	142				
	131	allegedly	allegedly		12	preview	20	143				
	132	beaten	beaten		12	preview	20	144				
	133	with	with		12	preview	20	145				
	134	a	a		12	preview	20	146				
	135	snowbrush	snowbrush		12	preview	20	147				
	136	After	After		12	preview	20	148				
	137	allegedly	allegedly		12	preview	20	149				
	138	being	being		12	preview	20	150				
	139	attacked	attacked		12	preview	20	151				
84	140	by	by	by	12	preview	20	152	0	0	0	0
85	141	a	a	a	12	preview	20	153	136	136	136	136
86	142	snowbrush	snowbrush	snowbrush	12	preview	20	154	1024	1024	1024	127
87	143	on	on	on	12	preview	20	155	199	199	199	199
88	144	Sunday	Sunday	Sunday,	12	preview	20	156	88	88	88	88
	145	,	,		12	preview	20	157				
89	146	a	a	a	12	preview	20	158	0	0	0	0
90	147	bloodied	bloodied	bloodied	12	preview	20	159	523	523	523	162
91	148	@entity31	Nagobads	Nagobads	12	preview	20	160	663	663	663	244
92	149	managed	managed	managed	12	preview	20	161	368	368	368	215
93	150	to	to	to	12	preview	20	162	0	0	0	0
94	151	get	get	get	12	preview	20	163	214	214	214	214
95	152	back	back	back	12	preview	20	164	159	159	159	159
96	153	in	in	in	12	preview	20	165	0	0	0	0
97	154	his	his	his	12	preview	20	166	300	300	300	215
98	155	car	car	car	12	preview	20	167	0	0	0	0
99	156	and	and	and	12	preview	20	168	0	0	0	0
100	157	drive	drive	drive	12	preview	20	169	247	247	247	247
101	158	away	away	away.	12	preview	20	170	318	318	318	217
	159	.	.		12	preview	20	171				
102	160	@entity31	Nagobads	Nagobads,	12	preview	20	172	416	416	416	288
	161	,	,		12	preview	20	173				
103	162	who	who	who	12	preview	20	174	260	260	260	260
104	163	is	is	is	12	preview	20	175	0	0	0	0
105	164	recovering	recovering	recovering	12	preview	20	176	441	441	441	293
106	165	at	at	at	12	preview	20	177	0	0	0	0
107	166	home	home	home,	12	preview	20	178	93	93	93	93
	167	,	,		12	preview	20	179				
108	168	said	said	said	12	preview	20	180	197	197	197	197
109	169	on	on	on	12	preview	20	181	89	89	89	89
110	170	Tuesday	Tuesday	Tuesday	12	preview	20	182	0	0	0	0
111	171	that	that	that	12	preview	20	183	96	96	96	96
112	172	he	he	he	12	preview	20	184	0	0	0	0
113	173	sped	sped	sped	12	preview	20	185	216	216	216	216
114	174	to	to	to	12	preview	20	186	212	212	212	212
115	175	a	a	a	12	preview	20	187	0	0	0	0
116	176	nearby	nearby	nearby	12	preview	20	188	266	266	266	266
117	177	hospital	hospital	hospital	12	preview	20	189	184	184	184	184
118	178	following	following	following	12	preview	20	190	82	82	82	82
119	179	the	the	the	12	preview	20	191	207	207	207	207
120	180	beating	beating	beating.	12	preview	20	192	202	202	202	202
	181	.	.		12	preview	20	193				
121	182	He	He	He	12	preview	20	194	0	0	0	0
122	183	told	told	told	12	preview	20	195	325	325	325	222
123	184	@entity37	The	The	12	preview	20	196	110	110	110	110
124			Star	Star	12	preview	20	197	278	278	278	278
125			Tribune	Tribune	12	preview	20	198	258	258	258	258
126	185	that	that	that	12	preview	20	199	165	165	165	165
127	186	he	he	he	12	preview	20	200	0	0	0	0
128	187	suffered	suffered	suffered	12	preview	20	201	423	423	423	260
129	188	a	a	a	12	preview	20	202	0	0	0	0
130	189	slight	slight	slight	12	preview	20	203	260	260	260	260
131	190	concussion	concussion	concussion	12	preview	20	204	269	269	269	269
132	191	and	and	and	12	preview	20	205	98	98	98	98
133	192	was	was	was	12	preview	20	206	373	373	373	284
134	193	kept	kept	kept	12	preview	20	207	0	0	0	0
135	194	overnight	overnight	overnight	12	preview	20	208	267	267	267	267
136	195	for	for	for	12	preview	20	209	0	0	0	0
137	196	observation	observation	observation.	12	preview	20	210	426	426	426	144
	197	.	.		12	preview	20	211				
138	198	Video	Video	-I	12	preview	20	212	0	0	0	0
	199	courtesy	courtesy		12	preview	20	213				
	200	@entity40	Fox		12	preview	20	214				
			9		12	preview	20	215				
139	201	-	-	brought	12	preview	20	216	255	255	255	255
	202	I	I		12	preview	20	217				
	203	brought	brought		12	preview	20	218				
140	204	new	new	new	12	preview	20	219	217	217	217	217
141	205	flowers	flowers	flowers	12	preview	20	220	0	0	0	0
142	206	and	and	and	12	preview	20	221	242	242	242	242
143	207	was	was	was	12	preview	20	222	85	85	85	85
144	208	just	just	just	12	preview	20	223	343	215	215	215
145	209	stooping	stooping	stooping	12	preview	20	224	317	130	445	130
146	210	down	down	down,-	12	preview	20	225	188	188	188	188
	211	,	,		12	preview	20	226				
147	212	-	-	said	12	preview	20	227	324	324	324	156
	213	said	said		12	preview	20	228				
148	214	@entity13	Nagobads	Nagobads	12	preview	20	229	600	600	600	390
149	215	of	of	of	12	preview	20	230	241	241	241	241
150	216	honoring	honoring	honoring	12	preview	20	231	703	703	703	241
151	217	his	his	his	12	preview	20	232	0	0	0	0
152	218	wife	wife	wife	12	preview	20	233	0	0	0	0
153	219	@entity31	Velta	Velta	12	preview	20	234	335	335	335	174
154			Nagobads	Nagobads	12	preview	20	235	327	327	327	327
155	220	who	who	who	12	preview	20	236	185	185	185	185
156	221	died	died	died	12	preview	20	237	309	309	309	178
157	222	in	in	in	12	preview	20	238	181	181	181	181
158	223	2005	2005	2005.	12	preview	20	239	314	314	314	314
	224	.	.		12	preview	20	240				
159	225	Nagobads	Nagobads	Nagobads	12	preview	20	241	276	276	276	276
160	226	said	said	said	12	preview	20	242	208	208	208	94
161	227	that	that	that	12	preview	20	243	213	213	213	213
162	228	by	by	by	12	preview	20	244	154	0	0	0
163	229	throwing	throwing	throwing	12	preview	20	245	166	166	320	166
164	230	his	his	his	12	preview	20	246	196	196	196	196
165	231	wallet	wallet	wallet	12	preview	20	247	328	328	328	219
166	232	in	in	in	12	preview	20	248	0	0	0	0
167	233	attempt	attempt	attempt	12	preview	20	249	414	414	414	224
168	234	to	to	to	12	preview	20	250	0	0	0	0
169	235	distract	distract	distract	12	preview	20	251	410	303	303	162
170	236	the	the	the	12	preview	20	252	202	202	309	202
171	237	teen	teen	teen	12	preview	20	253	307	307	307	307
172	238	he	he	he	12	preview	20	254	0	0	0	0
173	239	was	was	was	12	preview	20	255	0	0	0	0
174	240	able	able	able	12	preview	20	256	144	144	144	144
175	241	to	to	to	12	preview	20	257	151	151	151	151
176	242	get	get	get	12	preview	20	258	0	0	0	0
177	243	away	away	away	12	preview	20	259	230	230	230	230
178	244	without	without	without	12	preview	20	260	226	226	226	226
179	245	further	further	further	12	preview	20	261	254	254	254	254
180	246	harm	harm	harm.	12	preview	20	262	99	99	99	99
	247	.	.		12	preview	20	263				
181	248	-	-	-I-m	12	preview	20	264	0	0	0	0
	249	I	I		12	preview	20	265				
	250	’m	’m		12	preview	20	266				
182	251	so	so	so	12	preview	20	267	328	328	328	328
183	252	lucky	lucky	lucky.	12	preview	20	268	214	214	214	214
	253	.	.		12	preview	20	269				
184	254	…	…	...	12	preview	20	270	0	0	0	0
185	255	I	I	I	12	preview	20	271	0	0	0	0
186	256	used	used	used	12	preview	20	272	273	273	273	273
187	257	that	that	that	12	preview	20	273	316	126	126	126
188	258	little	little	little	12	preview	20	274	352	352	542	352
189	259	trick	trick	trick	12	preview	20	275	285	285	285	147
190	260	and	and	and	12	preview	20	276	0	0	0	0
191	261	threw	threw	threw	12	preview	20	277	356	356	356	201
192	262	the	the	the	12	preview	20	278	0	0	0	0
193	263	wallet	wallet	wallet	12	preview	20	279	205	205	205	205
194	264	to	to	to	12	preview	20	280	144	0	0	0
195	265	get	get	get	12	preview	20	281	221	221	365	221
196	266	to	to	to	12	preview	20	282	181	0	0	0
197	267	my	my	my	12	preview	20	283	218	218	399	218
198	268	car	car	car-	12	preview	20	284	0	0	0	0
	269	-	-		12	preview	20	285				
199	270	about	about	about	12	preview	20	286	217	217	217	217
200	271	40	40	40	12	preview	20	287	163	163	163	163
201	272	yards	yards	yards	12	preview	20	288	232	232	232	232
202	273	away	away	away,	12	preview	20	289	0	0	0	0
	274	,	,		12	preview	20	290				
203	275	the	the	the	12	preview	20	291	182	182	182	182
204	276	doctor	doctor	doctor	12	preview	20	292	126	126	126	126
205	277	said	said	said.	12	preview	20	293	229	229	229	229
	278	.	.		12	preview	20	294				
206	279	As	As	As	12	preview	20	295	161	161	161	161
207	280	the	the	the	12	preview	20	296	193	0	0	0
208	281	boy	boy	boy	12	preview	20	297	122	122	315	122
209	282	picked	picked	picked	12	preview	20	298	276	276	276	155
210	283	up	up	up	12	preview	20	299	0	0	0	0
211	284	the	the	the	12	preview	20	300	190	190	190	190
212	285	wallet	wallet	wallet,	12	preview	20	301	267	267	267	267
	286	,	,		12	preview	20	302				
213	287	@entity31	Nagobads	Nagobads	12	preview	20	303	266	266	266	266
214	288	continued	continued	continued,	12	preview	20	304	414	414	414	287
	289	,	,		12	preview	20	305				
215	290	-	-	-I	12	preview	20	306	0	0	0	0
	291	I	I		12	preview	20	307				
216	292	was	was	was	12	preview	20	308	351	351	351	351
217	293	running	running	running	12	preview	20	309	0	0	0	0
218	294	…	…	...	12	preview	20	310	0	0	0	0
219	295	really	really	really	12	preview	20	311	279	279	279	279
220	296	fast	fast	fast.	12	preview	20	312	230	230	230	230
	297	.	.		12	preview	20	313				
221	298	I	I	I	12	preview	20	314	0	0	0	0
222	299	was	was	was	12	preview	20	315	0	0	0	0
223	300	surprised	surprised	surprised	12	preview	20	316	142	142	142	142
224	301	how	how	how	12	preview	20	317	226	0	0	0
225	302	I	I	I	12	preview	20	318	0	0	0	0
226	303	could	could	could	12	preview	20	319	322	155	548	155
227	304	run	run	run	12	preview	20	320	0	0	0	0
228	305	like	like	like	12	preview	20	321	340	340	340	172
229	306	this	this	this.-	12	preview	20	322	0	0	0	0
	307	.	.		12	preview	20	323				
230	308	-	-	Nagobads	12	preview	20	324	394	394	394	394
	309	Victory	Victory		12	preview	20	325				
	310	:	:		12	preview	20	326				
	311	He	He		12	preview	20	327				
	312	was	was		12	preview	20	328				
	313	the	the		12	preview	20	329				
	314	doctor	doctor		12	preview	20	330				
	315	fro	fro		12	preview	20	331				
	316	the	the		12	preview	20	332				
	317	-	-		12	preview	20	333				
	318	@entity8	Miracle		12	preview	20	334				
			on		12	preview	20	335				
			Ice		12	preview	20	336				
	319	-	-		12	preview	20	337				
	320	team	team		12	preview	20	338				
	321	that	that		12	preview	20	339				
	322	won	won		12	preview	20	340				
	323	the	the		12	preview	20	341				
	324	improbable	improbable		12	preview	20	342				
	325	gold	gold		12	preview	20	343				
	326	medal	medal		12	preview	20	344				
	327	in	in		12	preview	20	345				
	328	@entity62	Lake		12	preview	20	346				
	329	@entity8	Placid		12	preview	20	347				
			Miracle		12	preview	20	348				
			on		12	preview	20	349				
			Ice		12	preview	20	350				
	330	:	:		12	preview	20	351				
	331	Nagobads	Nagobads		12	preview	20	352				
231	332	was	was	said	12	preview	20	353	322	322	322	322
232	333	team	team	that	12	preview	20	354	103	0	0	0
233	334	doctor	doctor	he	12	preview	20	355	380	163	266	163
	335	for	for		12	preview	20	356				
234	336	the	the	bled	12	preview	20	357	419	258	636	258
235	337	famous	famous	heavily	12	preview	20	358	223	223	223	223
	338	-	-		12	preview	20	359				
	339	@entity8	Miracle		12	preview	20	360				
			on		12	preview	20	361				
			Ice		12	preview	20	362				
	340	-	-		12	preview	20	363				
	341	team	team		12	preview	20	364				
	342	that	that		12	preview	20	365				
	343	won	won		12	preview	20	366				
	344	@entity4	Olympic		12	preview	20	367				
	345	gold	gold		12	preview	20	368				
	346	in	in		12	preview	20	369				
	347	1980	1980		12	preview	20	370				
	348	and	and		12	preview	20	371				
	349	that	that		12	preview	20	372				
	350	inspired	inspired		12	preview	20	373				
	351	the	the		12	preview	20	374				
	352	2004	2004		12	preview	20	375				
	353	movie	movie		12	preview	20	376				
	354	-	-		12	preview	20	377				
	355	Miracle	Miracle		12	preview	20	378				
	356	-	-		12	preview	20	379				
	357	@entity13	Nagobads		12	preview	20	380				
	358	said	said		12	preview	20	381				
	359	that	that		12	preview	20	382				
	360	he	he		12	preview	20	383				
	361	bled	bled		12	preview	20	384				
	362	heavily	heavily		12	preview	20	385				
236	363	while	while	while	12	preview	20	386	172	172	172	172
237	364	behind	behind	behind	12	preview	20	387	602	602	602	165
238	365	the	the	the	12	preview	20	388	0	0	0	0
239	366	wheel	wheel	wheel	12	preview	20	389	217	217	217	217
240	367	of	of	of	12	preview	20	390	186	186	186	186
241	368	his	his	his	12	preview	20	391	197	197	197	197
242	369	car	car	car	12	preview	20	392	0	0	0	0
243	370	and	and	and	12	preview	20	393	179	179	179	179
244	371	risked	risked	risked	12	preview	20	394	159	159	159	159
245	372	being	being	being	12	preview	20	395	373	373	373	198
246	373	stopped	stopped	stopped	12	preview	20	396	0	0	0	0
247	374	by	by	by	12	preview	20	397	0	0	0	0
248	375	a	a	a	12	preview	20	398	318	318	318	318
249	376	cop	cop	cop.	12	preview	20	399	183	183	183	183
	377	.	.		12	preview	20	400				
250	378	-	-	-I	12	preview	20	401	0	0	0	0
	379	I	I		12	preview	20	402				
251	380	drove	drove	drove	12	preview	20	403	216	216	216	216
252	381	way	way	way	12	preview	20	404	0	0	0	0
253	382	over	over	over	12	preview	20	405	616	215	215	215
254	383	the	the	the	12	preview	20	406	135	135	536	135
255	384	speed	speed	speed	12	preview	20	407	356	356	356	150
256	385	limit	limit	limit.	12	preview	20	408	0	0	0	0
	386	.	.		12	preview	20	409				
257	387	If	If	If	12	preview	20	410	0	0	0	0
258	388	a	a	a	12	preview	20	411	501	0	0	0
259	389	cop	cop	cop	12	preview	20	412	139	139	475	139
260	390	catches	catches	catches	12	preview	20	413	176	176	341	176
261	391	me	me	me,	12	preview	20	414	0	0	0	0
	392	,	,		12	preview	20	415				
262	393	that	that	that-s	12	preview	20	416	457	457	457	255
	394	’s	’s		12	preview	20	417				
263	395	fine	fine	fine,-	12	preview	20	418	0	0	0	0
	396	,	,		12	preview	20	419				
264	397	-	-	he	12	preview	20	420	0	0	0	0
265	398	he	he	said	12	preview	20	421	84	84	84	84
	399	said	said		12	preview	20	422				
266	400	he	he	he	12	preview	20	423	150	150	150	150
267	401	thought	thought	thought	12	preview	20	424	493	298	298	298
268	402	after	after	after	12	preview	20	425	789	290	290	290
269	403	the	the	the	12	preview	20	426	245	245	245	245
270	404	attack	attack	attack	12	preview	20	427	340	257	1034	257
271	405	on	on	on	12	preview	20	428	105	0	0	0
272	406	Sunday	Sunday	Sunday.	12	preview	20	429	296	296	401	117
	407	.	.		12	preview	20	430				
273	408	Witness	Witness	Witness	12	preview	20	431	302	302	302	204
274	409	@entity76	Justin	Justin	12	preview	20	432	418	418	418	262
275			McCarthy	McCarthy	12	preview	20	433	144	144	144	144
276	410	says	says	says	12	preview	20	434	206	206	206	206
277	411	he	he	he	12	preview	20	435	0	0	0	0
278	412	saw	saw	saw	12	preview	20	436	244	244	244	244
279	413	a	a	a	12	preview	20	437	0	0	0	0
280	414	young	young	young	12	preview	20	438	185	185	185	185
281	415	man	man	man	12	preview	20	439	0	0	0	0
282	416	around	around	around	12	preview	20	440	333	175	175	175
283	417	the	the	the	12	preview	20	441	345	0	0	0
284	418	age	age	age	12	preview	20	442	143	143	306	143
285	419	of	of	of	12	preview	20	443	149	0	0	0
286	420	14	14	14	12	preview	20	444	195	195	684	195
287	421	or	or	or	12	preview	20	445	131	131	131	131
288	422	15	15	15	12	preview	20	446	128	128	128	128
289	423	looking	looking	looking	12	preview	20	447	315	0	0	0
290	424	through	through	through	12	preview	20	448	270	134	585	134
291	425	a	a	a	12	preview	20	449	0	0	0	0
292	426	wallet	wallet	wallet	12	preview	20	450	456	227	227	227
293	427	near	near	near	12	preview	20	451	506	354	583	354
294	428	the	the	the	12	preview	20	452	219	219	371	219
295	429	mausoleum	mausoleum	mausoleum	12	preview	20	453	398	398	398	290
296	430	before	before	before	12	preview	20	454	167	167	167	167
297	431	fleeing	fleeing	fleeing	12	preview	20	455	197	197	197	197
298	432	by	by	by	12	preview	20	456	0	0	0	0
299	433	bicycle	bicycle	bicycle	12	preview	20	457	415	415	415	138
300	434	and	and	and	12	preview	20	458	0	0	0	0
301	435	jumping	jumping	jumping	12	preview	20	459	353	353	353	353
302	436	over	over	over	12	preview	20	460	417	417	417	193
303	437	a	a	a	12	preview	20	461	0	0	0	0
304	438	fence	fence	fence.	12	preview	20	462	0	0	0	0
	439	.	.		12	preview	20	463				
305	440	-	-	-I	12	preview	20	464	0	0	0	0
	441	I	I		12	preview	20	465				
306	442	saw	saw	saw	12	preview	20	466	233	233	233	233
307	443	the	the	the	12	preview	20	467	340	340	340	340
308	444	kid	kid	kid	12	preview	20	468	0	0	0	0
309	445	there	there	there.	12	preview	20	469	366	187	187	187
	446	.	.		12	preview	20	470				
310	447	I	I	I	12	preview	20	471	0	0	0	0
311	448	put	put	put	12	preview	20	472	270	0	0	0
312	449	two	two	two	12	preview	20	473	432	0	0	0
313	450	and	and	and	12	preview	20	474	163	0	0	0
314	451	two	two	two	12	preview	20	475	505	0	0	0
315	452	together	together	together,	12	preview	20	476	138	0	0	0
	453	,	,		12	preview	20	477				
316	454	and	and	and	12	preview	20	478	0	0	0	0
317	455	I	I	I	12	preview	20	479	0	0	0	0
318	456	just	just	just	12	preview	20	480	443	0	0	0
319	457	got	got	got	12	preview	20	481	443	0	0	0
320	458	really	really	really	12	preview	20	482	467	0	0	0
321	459	mad	mad	mad,-	12	preview	20	483	520	0	0	0
	460	,	,		12	preview	20	484				
322	461	-	-	said	12	preview	20	485	481	0	0	0
	462	said	said		12	preview	20	486				
323	463	@entity76	McCarthy	McCarthy.	12	preview	20	487	428	0	0	0
	464	.	.		12	preview	20	488				
324	465	@entity76	McCarthy	McCarthy	12	preview	20	489	101	0	0	0
325	466	said	said	said	12	preview	20	490	308	0	0	0
326	467	he	he	he	12	preview	20	491	0	0	0	0
327	468	chased	chased	chased	12	preview	20	492	248	0	0	0
328	469	the	the	the	12	preview	20	493	271	0	0	0
329	470	teen	teen	teen	12	preview	20	494	0	0	0	0
330	471	but	but	but	12	preview	20	495	245	0	0	0
331	472	not	not	not	12	preview	20	496	409	0	0	0
332	473	very	very	very	12	preview	20	497	108	0	0	0
333	474	far	far	far.	12	preview	20	498	145	0	0	0
	475	.	.		12	preview	20	499				
334	476	-	-	-I-m	12	preview	20	500	0	0	0	0
	477	I	I		12	preview	20	501				
	478	’m	’m		12	preview	20	502				
335	479	52	52	52	12	preview	20	503	708	198	7012	198
336	480	and	and	and	12	preview	20	504	222	222	222	222
337	481	I	I	I-m	12	preview	20	505	216	216	216	216
	482	’m	’m		12	preview	20	506				
338	483	kind	kind	kind	12	preview	20	507	0	0	0	0
339	484	of	of	of	12	preview	20	508	0	0	0	0
340	485	fat	fat	fat.	12	preview	20	509	314	314	314	191
	486	.	.		12	preview	20	510				
341	487	It	It	It	12	preview	20	511	0	0	0	0
342	488	was	was	wasn-t	12	preview	20	512	443	193	193	193
	489	n’t	n’t		12	preview	20	513				
343	490	going	going	going	12	preview	20	514	482	170	449	170
344	491	to	to	to	12	preview	20	515	0	0	0	0
345	492	happen	happen	happen.	12	preview	20	516	128	128	411	128
	493	.	.		12	preview	20	517				
346	494	…	…	...	12	preview	20	518	0	0	0	0
347	495	I	I	I	12	preview	20	519	0	0	0	0
348	496	was	was	was	12	preview	20	520	187	0	0	0
349	497	completely	completely	completely	12	preview	20	521	321	176	508	176
350	498	exhausted	exhausted	exhausted,-	12	preview	20	522	316	316	316	165
	499	,	,		12	preview	20	523				
351	500	-	-	said	12	preview	20	524	174	174	174	174
	501	said	said		12	preview	20	525				
352	502	@entity76	McCarthy	McCarthy.	12	preview	20	526	262	262	262	118
	503	.	.		12	preview	20	527				
353	504	@entity87	Mccarthy	McCarthy	12	preview	20	528	122	122	122	122
354	505	said	said	said	12	preview	20	529	258	258	258	258
355	506	that	that	that	12	preview	20	530	243	243	243	243
356	507	@entity13	Nagobads	Nagobads	12	preview	20	531	206	0	0	0
357	508	told	told	told	12	preview	20	532	377	377	377	377
358	509	him	him	him,	12	preview	20	533	0	0	0	0
	510	,	,		12	preview	20	534				
359	511	-	-	-I	12	preview	20	535	0	0	0	0
	512	I	I		12	preview	20	536				
360	513	gave	gave	gave	12	preview	20	537	220	220	220	220
361	514	him	him	him	12	preview	20	538	186	186	186	186
362	515	my	my	my	12	preview	20	539	0	0	0	0
363	516	wallet	wallet	wallet,	12	preview	20	540	219	219	219	219
	517	,	,		12	preview	20	541				
364	518	and	and	and	12	preview	20	542	0	0	0	0
365	519	he	he	he	12	preview	20	543	211	211	211	211
366	520	still	still	still	12	preview	20	544	123	123	123	123
367	521	tried	tried	tried	12	preview	20	545	215	215	215	215
368	522	to	to	to	12	preview	20	546	120	120	120	120
369	523	kill	kill	kill	12	preview	20	547	0	0	0	0
370	524	me	me	me.-	12	preview	20	548	0	0	0	0
	525	.	.		12	preview	20	549				
371	526	’	’	Nagobads	12	preview	20	550	747	497	497	235
	527	@entity13	Nagobads		12	preview	20	551				
372	528	was	was	was	12	preview	20	552	281	281	281	281
373	529	the	the	the	12	preview	20	553	0	0	0	0
374	530	@entity89	University	University	12	preview	20	554	392	214	214	214
375			of	of	12	preview	20	555	0	0	0	0
376			Minnesota	Minnesota	12	preview	20	556	490	233	918	233
377	531	men	men	men-s	12	preview	20	557	346	346	346	346
	532	-s	-s		12	preview	20	558				
378	533	hockey	hockey	hockey	12	preview	20	559	253	253	253	253
379	534	team	team	team	12	preview	20	560	0	0	0	0
380	535	physician	physician	physician	12	preview	20	561	420	273	273	129
381	536	for	for	for	12	preview	20	562	363	363	363	363
382	537	34	34	34	12	preview	20	563	0	0	0	0
383	538	years	years	years	12	preview	20	564	178	178	178	178
384	539	until	until	until	12	preview	20	565	237	237	237	237
385	540	his	his	his	12	preview	20	566	125	0	0	0
386	541	retirement	retirement	retirement	12	preview	20	567	163	163	288	163
387	542	in	in	in	12	preview	20	568	0	0	0	0
388	543	1992	1992	1992.	12	preview	20	569	387	387	387	387
	544	.	.		12	preview	20	570				
389	545	He	He	He	12	preview	20	571	0	0	0	0
390	546	also	also	also	12	preview	20	572	820	373	373	201
391	547	worked	worked	worked	12	preview	20	573	704	178	1151	178
392	548	for	for	for	12	preview	20	574	107	107	107	107
393	549	the	the	the	12	preview	20	575	125	125	125	125
394	550	@entity93	Minnesota	Minnesota	12	preview	20	576	182	182	329	182
395			North	North	12	preview	20	577	292	292	292	292
396			Stars	Stars	12	preview	20	578	426	292	292	292
397	551	in	in	in	12	preview	20	579	94	94	94	94
398	552	the	the	the	12	preview	20	580	0	0	0	0
399	553	late	late	late	12	preview	20	581	439	439	439	187
400	554	1980s	1980s	1980s	12	preview	20	582	165	165	165	165
401	555	and	and	and	12	preview	20	583	0	0	0	0
402	556	early	early	early	12	preview	20	584	181	181	181	181
403	557	1990s	1990s	1990s.	12	preview	20	585	103	103	103	103
	558	.	.		12	preview	20	586				
404	559	And	And	And	12	preview	20	587	756	329	329	329
405	560	he	he	he	12	preview	20	588	320	161	747	161
406	561	was	was	was	12	preview	20	589	0	0	0	0
407	562	team	team	team	12	preview	20	590	301	301	301	301
408	563	doctor	doctor	doctor	12	preview	20	591	372	372	372	151
409	564	for	for	for	12	preview	20	592	229	229	229	229
410	565	the	the	the	12	preview	20	593	0	0	0	0
411	566	famous	famous	famous	12	preview	20	594	158	158	292	158
412	567	-	-	-Miracle	12	preview	20	595	0	0	0	0
	568	@entity8	Miracle		12	preview	20	596				
413			on	on	12	preview	20	597	0	0	0	0
414			Ice	Ice-	12	preview	20	598	0	0	0	0
	569	-	-		12	preview	20	599				
415	570	team	team	team	12	preview	20	600	387	387	387	387
416	571	that	that	that	12	preview	20	601	0	0	0	0
417	572	won	won	won	12	preview	20	602	220	220	220	220
418	573	@entity4	Olympic	Olympic	12	preview	20	603	0	0	0	0
419	574	gold	gold	gold	12	preview	20	604	176	176	176	176
420	575	in	in	in	12	preview	20	605	0	0	0	0
421	576	1980	1980	1980.	12	preview	20	606	0	0	0	0
	577	.	.		12	preview	20	607				
422	578	He	He	He	12	preview	20	608	155	0	0	0
423	579	was	was	was	12	preview	20	609	0	0	0	0
424	580	played	played	played	12	preview	20	610	637	231	792	136
425	581	by	by	by	12	preview	20	611	139	0	0	0
426	582	@entity96	Kenneth	Kenneth	12	preview	20	612	167	167	712	167
427			Welsh	Welsh	12	preview	20	613	108	108	108	108
428	583	in	in	in	12	preview	20	614	196	0	0	0
429	584	the	the	the	12	preview	20	615	604	487	683	124
430	585	2004	2004	2004	12	preview	20	616	0	0	0	0
431	586	movie	movie	movie	12	preview	20	617	170	170	170	170
432	587	-	-	-Miracle,-	12	preview	20	618	214	214	214	214
	588	@entity98	Miracle		12	preview	20	619				
	589	,	,		12	preview	20	620				
433	590	-	-	about	12	preview	20	621	232	232	232	232
	591	about	about		12	preview	20	622				
434	592	the	the	the	12	preview	20	623	0	0	0	0
435	593	@entity6	USA	USA-s	12	preview	20	624	490	173	173	173
	594	’s	’s		12	preview	20	625				
436	595	improbable	improbable	improbable	12	preview	20	626	677	321	994	130
437	596	gold	gold	gold	12	preview	20	627	308	308	308	308
438	597	medal	medal	medal	12	preview	20	628	400	400	400	232
439	598	run	run	run	12	preview	20	629	0	0	0	0
440	599	in	in	in	12	preview	20	630	238	238	238	238
441	600	@entity62	Lake	Lake	12	preview	20	631	150	150	267	150
442			Placid	Placid.	12	preview	20	632	163	163	163	163
	601	.	.		12	preview	20	633				
443	602	The	The	The	12	preview	20	634	208	208	208	208
444	603	cemetery	cemetery	cemetery	12	preview	20	635	172	172	172	172
445	604	is	is	is	12	preview	20	636	269	269	269	269
446	605	owned	owned	owned	12	preview	20	637	156	156	156	156
447	606	by	by	by	12	preview	20	638	0	0	0	0
448	607	@entity101	Bill	Bill	12	preview	20	639	177	177	177	177
449			McReavy	McReavy,	12	preview	20	640	445	445	445	445
	608	,	,		12	preview	20	641				
450	609	who	who	who	12	preview	20	642	327	327	327	327
451	610	said	said	said,	12	preview	20	643	0	0	0	0
	611	,	,		12	preview	20	644				
452	612	-	-	-This	12	preview	20	645	178	178	178	178
	613	This	This		12	preview	20	646				
453	614	is	is	is	12	preview	20	647	253	253	253	253
454	615	an	an	an	12	preview	20	648	0	0	0	0
455	616	isolated	isolated	isolated	12	preview	20	649	295	295	295	295
456	617	incident	incident	incident	12	preview	20	650	306	306	306	160
457	618	and	and	and	12	preview	20	651	308	0	0	0
458	619	we	we	we	12	preview	20	652	384	384	384	384
459	620	are	are	are	12	preview	20	653	0	0	0	0
460	621	looking	looking	looking	12	preview	20	654	433	182	182	182
461	622	at	at	at	12	preview	20	655	0	0	0	0
462	623	it	it	it	12	preview	20	656	340	187	591	187
463	624	very	very	very	12	preview	20	657	0	0	0	0
464	625	closely	closely	closely.-	12	preview	20	658	201	201	201	201
	626	.	.		12	preview	20	659				
465	627	-	-	Unfortunately,	12	preview	20	660	247	247	247	247
	628	Unfortunately	Unfortunately		12	preview	20	661				
	629	,	,		12	preview	20	662				
466	630	It	It	it	12	preview	20	663	205	205	205	205
467	631	was	was	wasn-t	12	preview	20	664	178	178	178	178
	632	n-t	n-t		12	preview	20	665				
468	633	captured	captured	captured	12	preview	20	666	356	356	356	356
469	634	on	on	on	12	preview	20	667	0	0	0	0
470	635	security	security	security	12	preview	20	668	187	0	0	0
471	636	video	video	video.	12	preview	20	669	140	140	841	140
	637	.	.		12	preview	20	670				
