HumanPosition	AnonymizedPosition	AnonymizedToken	OriginalToken	ExperimentToken	Participant	Condition	TextNo	JointPosition	tt	fp	rp	ff
1	0	One	One	One	10	nopreview	14	1	0	0	0	0
2	1	@entity1	Wall	Wall	10	nopreview	14	2	252	252	252	252
3			Street	Street	10	nopreview	14	3	0	0	0	0
4	2	trader	trader	trader	10	nopreview	14	4	414	233	233	142
5	3	closed	closed	closed	10	nopreview	14	5	707	239	634	239
6	4	out	out	out	10	nopreview	14	6	342	0	0	0
7	5	his	his	his	10	nopreview	14	7	163	163	300	163
8	6	week	week	week	10	nopreview	14	8	631	430	430	430
9	7	a	a	a	10	nopreview	14	9	0	0	0	0
10	8	few	few	few	10	nopreview	14	10	631	0	0	0
11	9	million	million	million	10	nopreview	14	11	305	156	1596	156
12	10	dollars	dollars	dollars	10	nopreview	14	12	0	0	0	0
13	11	richer	richer	richer	10	nopreview	14	13	221	221	221	221
14	12	last	last	last	10	nopreview	14	14	317	317	317	141
15	13	Friday	Friday	Friday	10	nopreview	14	15	85	85	85	85
16	14	-	-	-	10	nopreview	14	16	0	0	0	0
17	15	and	and	and	10	nopreview	14	17	178	0	0	0
18	16	it	it	it	10	nopreview	14	18	0	0	0	0
19	17	was	was	was	10	nopreview	14	19	96	96	274	96
20	18	all	all	all	10	nopreview	14	20	0	0	0	0
21	19	thanks	thanks	thanks	10	nopreview	14	21	187	187	187	187
22	20	to	to	to	10	nopreview	14	22	0	0	0	0
23	21	social	social	social	10	nopreview	14	23	321	321	321	168
24	22	media	media	media.	10	nopreview	14	24	296	296	296	296
	23	.	.		10	nopreview	14	25				
25	24	The	The	The	10	nopreview	14	26	0	0	0	0
26	25	unnamed	unnamed	unnamed	10	nopreview	14	27	188	188	188	188
27	26	trader	trader	trader	10	nopreview	14	28	211	211	211	211
28	27	used	used	used	10	nopreview	14	29	418	260	260	260
29	28	perfect	perfect	perfect	10	nopreview	14	30	459	223	617	223
30	29	timing	timing	timing	10	nopreview	14	31	93	93	93	93
31	30	to	to	to	10	nopreview	14	32	0	0	0	0
32	31	capitalize	capitalize	capitalize	10	nopreview	14	33	238	0	0	0
33	32	on	on	on	10	nopreview	14	34	106	106	344	106
34	33	one	one	one	10	nopreview	14	35	0	0	0	0
35	34	of	of	of	10	nopreview	14	36	191	191	191	191
36	35	the	the	the	10	nopreview	14	37	0	0	0	0
37	36	biggest	biggest	biggest	10	nopreview	14	38	157	157	157	157
38	37	deals	deals	deals	10	nopreview	14	39	0	0	0	0
39	38	of	of	of	10	nopreview	14	40	284	284	284	192
40	39	the	the	the	10	nopreview	14	41	0	0	0	0
41	40	year	year	year	10	nopreview	14	42	0	0	0	0
42	41	when	when	when	10	nopreview	14	43	152	152	152	152
43	42	@entity10	Wall	Wall	10	nopreview	14	44	0	0	0	0
44			Street	Street	10	nopreview	14	45	211	211	211	211
45			Journal	Journal	10	nopreview	14	46	0	0	0	0
46	43	mergers	mergers	mergers	10	nopreview	14	47	209	209	209	209
47	44	and	and	and	10	nopreview	14	48	0	0	0	0
48	45	acquisitions	acquisitions	acquisitions	10	nopreview	14	49	360	360	360	105
49	46	reporter	reporter	reporter	10	nopreview	14	50	221	221	221	221
50	47	@entity9	Dana	Dana	10	nopreview	14	51	150	150	150	150
51			Mattioli	Mattioli	10	nopreview	14	52	389	389	389	196
52	48	took	took	took	10	nopreview	14	53	0	0	0	0
53	49	to	to	to	10	nopreview	14	54	374	374	374	196
54	50	@entity11	Twitter	Twitter	10	nopreview	14	55	0	0	0	0
55	51	to	to	to	10	nopreview	14	56	0	0	0	0
56	52	announce	announce	announce	10	nopreview	14	57	353	353	353	353
57	53	that	that	that	10	nopreview	14	58	0	0	0	0
58	54	@entity12	Intel	Intel	10	nopreview	14	59	803	499	499	361
59	55	was	was	was	10	nopreview	14	60	358	358	662	202
60	56	in	in	in	10	nopreview	14	61	147	147	147	147
61	57	talks	talks	talks	10	nopreview	14	62	232	0	0	0
62	58	to	to	to	10	nopreview	14	63	0	0	0	0
63	59	buy	buy	buy	10	nopreview	14	64	152	0	0	0
64	60	one	one	one	10	nopreview	14	65	304	0	0	0
65	61	of	of	of	10	nopreview	14	66	85	85	773	85
66	62	its	its	its	10	nopreview	14	67	208	208	208	208
67	63	competitors	competitors	competitors,	10	nopreview	14	68	184	184	184	184
	64	,	,		10	nopreview	14	69				
68	65	chipmaker	chipmaker	chipmaker	10	nopreview	14	70	532	532	532	267
69	66	@entity16	Altera	Altera.	10	nopreview	14	71	984	721	721	721
	67	.	.		10	nopreview	14	72				
70	68	Seconds	Seconds	Seconds	10	nopreview	14	73	179	179	179	179
71	69	later	later	later,	10	nopreview	14	74	1091	160	160	160
	70	,	,		10	nopreview	14	75				
72	71	the	the	the	10	nopreview	14	76	0	0	0	0
73	72	trader	trader	trader	10	nopreview	14	77	516	325	1447	325
74	73	had	had	had	10	nopreview	14	78	102	102	102	102
75	74	snapped	snapped	snapped	10	nopreview	14	79	232	0	0	0
76	75	up	up	up	10	nopreview	14	80	258	0	0	0
77	76	3,158	3,158	3,158	10	nopreview	14	81	1806	0	0	0
78	77	contracts	contracts	contracts	10	nopreview	14	82	535	0	0	0
79	78	of	of	of	10	nopreview	14	83	0	0	0	0
80	79	@entity16	Altera	Altera,	10	nopreview	14	84	1432	96	3473	96
	80	,	,		10	nopreview	14	85				
81	81	with	with	with	10	nopreview	14	86	145	0	0	0
82	82	each	each	each	10	nopreview	14	87	800	398	1417	398
83	83	option	option	option	10	nopreview	14	88	1350	362	1197	362
84	84	contract	contract	contract	10	nopreview	14	89	1340	0	0	0
85	85	giving	giving	giving	10	nopreview	14	90	485	0	0	0
86	86	them	them	them	10	nopreview	14	91	0	0	0	0
87	87	the	the	the	10	nopreview	14	92	184	0	0	0
88	88	right	right	right	10	nopreview	14	93	0	0	0	0
89	89	to	to	to	10	nopreview	14	94	0	0	0	0
90	90	purchase	purchase	purchase	10	nopreview	14	95	271	0	0	0
91	91	100	100	100	10	nopreview	14	96	0	0	0	0
92	92	shares	shares	shares.	10	nopreview	14	97	1033	0	0	0
	93	.	.		10	nopreview	14	98				
93	94	Scroll	Scroll	CNBC	10	nopreview	14	99	554	0	0	0
	95	down	down		10	nopreview	14	100				
	96	for	for		10	nopreview	14	101				
	97	video	video		10	nopreview	14	102				
	98	An	An		10	nopreview	14	103				
	99	unnamed	unnamed		10	nopreview	14	104				
	100	@entity1	Wall		10	nopreview	14	105				
			Street		10	nopreview	14	106				
	101	trader	trader		10	nopreview	14	107				
	102	made	made		10	nopreview	14	108				
	103	a	a		10	nopreview	14	109				
	104	profit	profit		10	nopreview	14	110				
	105	of	of		10	nopreview	14	111				
	106	approximately	approximately		10	nopreview	14	112				
	107	$	$		10	nopreview	14	113				
	108	2.5million	2.5million		10	nopreview	14	114				
	109	on	on		10	nopreview	14	115				
	110	Friday	Friday		10	nopreview	14	116				
	111	thanks	thanks		10	nopreview	14	117				
	112	to	to		10	nopreview	14	118				
	113	a	a		10	nopreview	14	119				
	114	tweet	tweet		10	nopreview	14	120				
	115	from	from		10	nopreview	14	121				
	116	the	the		10	nopreview	14	122				
	117	@entity10	Wall		10	nopreview	14	123				
			Street		10	nopreview	14	124				
			Journal		10	nopreview	14	125				
	118	The	The		10	nopreview	14	126				
	119	trader	trader		10	nopreview	14	127				
	120	purchased	purchased		10	nopreview	14	128				
	121	315,800	315,800		10	nopreview	14	129				
	122	shares	shares		10	nopreview	14	130				
	123	of	of		10	nopreview	14	131				
	124	chipmaker	chipmaker		10	nopreview	14	132				
	125	@entity16	Altera		10	nopreview	14	133				
	126	one	one		10	nopreview	14	134				
	127	minute	minute		10	nopreview	14	135				
	128	after	after		10	nopreview	14	136				
	129	the	the		10	nopreview	14	137				
	130	@entity10	Journal		10	nopreview	14	138				
	131	reported	reported		10	nopreview	14	139				
	132	@entity12	Intel		10	nopreview	14	140				
	133	was	was		10	nopreview	14	141				
	134	in	in		10	nopreview	14	142				
	135	talks	talks		10	nopreview	14	143				
	136	to	to		10	nopreview	14	144				
	137	purchase	purchase		10	nopreview	14	145				
	138	them	them		10	nopreview	14	146				
	139	@entity32	CNBC		10	nopreview	14	147				
94	140	reports	reports	reports	10	nopreview	14	148	980	0	0	0
95	141	that	that	that	10	nopreview	14	149	0	0	0	0
96	142	the	the	the	10	nopreview	14	150	446	0	0	0
97	143	trader	trader	trader	10	nopreview	14	151	749	268	268	268
98	144	paid	paid	paid	10	nopreview	14	152	468	283	6976	283
99	145	$	$	$36	10	nopreview	14	153	0	0	0	0
	146	36	36		10	nopreview	14	154				
100	147	a	a	a	10	nopreview	14	155	324	324	324	324
101	148	share	share	share,	10	nopreview	14	156	239	239	239	239
	149	,	,		10	nopreview	14	157				
102	150	and	and	and	10	nopreview	14	158	146	0	0	0
103	151	the	the	the	10	nopreview	14	159	0	0	0	0
104	152	call	call	call	10	nopreview	14	160	302	143	143	143
105	153	option	option	option	10	nopreview	14	161	319	0	0	0
106	154	was	was	was	10	nopreview	14	162	406	127	881	127
107	155	a	a	a	10	nopreview	14	163	0	0	0	0
108	156	mere	mere	mere	10	nopreview	14	164	168	168	317	168
109	157	35	35	35	10	nopreview	14	165	416	416	416	416
110	158	cents	cents	cents	10	nopreview	14	166	151	0	0	0
111	159	as	as	as	10	nopreview	14	167	428	228	379	228
112	160	options	options	options	10	nopreview	14	168	170	170	170	170
113	161	on	on	on	10	nopreview	14	169	0	0	0	0
114	162	the	the	the	10	nopreview	14	170	1106	426	1306	250
115	163	stock	stock	stock,	10	nopreview	14	171	591	591	591	192
	164	,	,		10	nopreview	14	172				
116	165	at	at	at	10	nopreview	14	173	0	0	0	0
117	166	that	that	that	10	nopreview	14	174	242	242	242	242
118	167	point	point	point	10	nopreview	14	175	0	0	0	0
119	168	valued	valued	valued	10	nopreview	14	176	384	384	384	174
120	169	at	at	at	10	nopreview	14	177	0	0	0	0
121	170	$	$	$34.76	10	nopreview	14	178	700	700	700	268
	171	34.76	34.76		10	nopreview	14	179				
122	172	a	a	a	10	nopreview	14	180	226	226	226	123
123	173	share	share	share,	10	nopreview	14	181	346	0	0	0
	174	,	,		10	nopreview	14	182				
124	175	were	were	were	10	nopreview	14	183	0	0	0	0
125	176	set	set	set	10	nopreview	14	184	343	100	689	100
126	177	to	to	to	10	nopreview	14	185	0	0	0	0
127	178	expire	expire	expire	10	nopreview	14	186	203	203	203	203
128	179	in	in	in	10	nopreview	14	187	0	0	0	0
129	180	just	just	just	10	nopreview	14	188	342	342	342	342
130	181	a	a	a	10	nopreview	14	189	0	0	0	0
131	182	few	few	few	10	nopreview	14	190	0	0	0	0
132	183	weeks	weeks	weeks.	10	nopreview	14	191	212	212	212	212
	184	.	.		10	nopreview	14	192				
133	185	3:32pm	3:32pm	When	10	nopreview	14	193	0	0	0	0
	186	:	:		10	nopreview	14	194				
	187	The	The		10	nopreview	14	195				
134	188	@entity10	Wall	the	10	nopreview	14	196	188	188	188	188
			Street		10	nopreview	14	197				
			Journal		10	nopreview	14	198				
	189	reports	reports		10	nopreview	14	199				
	190	that	that		10	nopreview	14	200				
135	191	@entity12	Intel	market	10	nopreview	14	201	229	229	229	229
	192	is	is		10	nopreview	14	202				
	193	in	in		10	nopreview	14	203				
	194	talks	talks		10	nopreview	14	204				
	195	to	to		10	nopreview	14	205				
	196	buy	buy		10	nopreview	14	206				
	197	@entity16	Altera		10	nopreview	14	207				
	198	.	.		10	nopreview	14	208				
	199	3:33pm	3:33pm		10	nopreview	14	209				
	200	:	:		10	nopreview	14	210				
	201	Trader	Trader		10	nopreview	14	211				
	202	purchases	purchases		10	nopreview	14	212				
	203	315,800	315,800		10	nopreview	14	213				
	204	shares	shares		10	nopreview	14	214				
	205	of	of		10	nopreview	14	215				
	206	@entity16	Altera		10	nopreview	14	216				
	207	at	at		10	nopreview	14	217				
	208	$	$		10	nopreview	14	218				
	209	36	36		10	nopreview	14	219				
	210	a	a		10	nopreview	14	220				
	211	share	share		10	nopreview	14	221				
	212	for	for		10	nopreview	14	222				
	213	a	a		10	nopreview	14	223				
	214	total	total		10	nopreview	14	224				
	215	cost	cost		10	nopreview	14	225				
	216	of	of		10	nopreview	14	226				
	217	$	$		10	nopreview	14	227				
	218	11,368,000	11,368,000		10	nopreview	14	228				
	219	plus	plus		10	nopreview	14	229				
	220	$	$		10	nopreview	14	230				
	221	110,530	110,530		10	nopreview	14	231				
	222	for	for		10	nopreview	14	232				
	223	a	a		10	nopreview	14	233				
	224	$	$		10	nopreview	14	234				
	225	0.35	0.35		10	nopreview	14	235				
	226	call	call		10	nopreview	14	236				
	227	option	option		10	nopreview	14	237				
	228	.	.		10	nopreview	14	238				
	229	3:35pm	3:35pm		10	nopreview	14	239				
	230	:	:		10	nopreview	14	240				
	231	@entity46	Nasdaq		10	nopreview	14	241				
	232	suspends	suspends		10	nopreview	14	242				
	233	trading	trading		10	nopreview	14	243				
	234	of	of		10	nopreview	14	244				
	235	@entity16	Altera		10	nopreview	14	245				
	236	in	in		10	nopreview	14	246				
	237	the	the		10	nopreview	14	247				
	238	wake	wake		10	nopreview	14	248				
136	239	of	of	closed	10	nopreview	14	249	0	0	0	0
	240	the	the		10	nopreview	14	250				
	241	@entity10	Journal		10	nopreview	14	251				
	242	-s	-s		10	nopreview	14	252				
	243	tweet	tweet		10	nopreview	14	253				
	244	.	.		10	nopreview	14	254				
	245	4:00pm	4:00pm		10	nopreview	14	255				
	246	:	:		10	nopreview	14	256				
	247	Trader	Trader		10	nopreview	14	257				
	248	sells	sells		10	nopreview	14	258				
	249	@entity16	Altera		10	nopreview	14	259				
	250	at	at		10	nopreview	14	260				
	251	the	the		10	nopreview	14	261				
	252	new	new		10	nopreview	14	262				
	253	share	share		10	nopreview	14	263				
	254	price	price		10	nopreview	14	264				
	255	of	of		10	nopreview	14	265				
	256	$	$		10	nopreview	14	266				
	257	44.39	44.39		10	nopreview	14	267				
	258	for	for		10	nopreview	14	268				
	259	a	a		10	nopreview	14	269				
	260	total	total		10	nopreview	14	270				
	261	of	of		10	nopreview	14	271				
	262	$	$		10	nopreview	14	272				
	263	14,018,362	14,018,362		10	nopreview	14	273				
	264	.	.		10	nopreview	14	274				
	265	This	This		10	nopreview	14	275				
	266	,	,		10	nopreview	14	276				
	267	after	after		10	nopreview	14	277				
	268	factoring	factoring		10	nopreview	14	278				
	269	in	in		10	nopreview	14	279				
	270	the	the		10	nopreview	14	280				
	271	intital	intital		10	nopreview	14	281				
	272	share	share		10	nopreview	14	282				
	273	price	price		10	nopreview	14	283				
	274	and	and		10	nopreview	14	284				
	275	call	call		10	nopreview	14	285				
	276	option	option		10	nopreview	14	286				
	277	,	,		10	nopreview	14	287				
	278	leaves	leaves		10	nopreview	14	288				
	279	them	them		10	nopreview	14	289				
	280	with	with		10	nopreview	14	290				
	281	a	a		10	nopreview	14	291				
	282	profit	profit		10	nopreview	14	292				
	283	of	of		10	nopreview	14	293				
	284	approximately	approximately		10	nopreview	14	294				
	285	$	$		10	nopreview	14	295				
	286	2,539.832	2,539.832		10	nopreview	14	296				
	287	.	.		10	nopreview	14	297				
	288	This	This		10	nopreview	14	298				
	289	call	call		10	nopreview	14	299				
	290	option	option		10	nopreview	14	300				
	291	allowed	allowed		10	nopreview	14	301				
137	292	the	the	for	10	nopreview	14	302	100	100	100	100
138	293	trader	trader	the	10	nopreview	14	303	0	0	0	0
	294	the	the		10	nopreview	14	304				
139	295	right	right	day,	10	nopreview	14	305	129	129	129	129
	296	to	to		10	nopreview	14	306				
	297	purchase	purchase		10	nopreview	14	307				
	298	more	more		10	nopreview	14	308				
	299	shares	shares		10	nopreview	14	309				
	300	in	in		10	nopreview	14	310				
140	301	the	the	Altera	10	nopreview	14	311	147	0	0	0
	302	company	company		10	nopreview	14	312				
	303	,	,		10	nopreview	14	313				
	304	in	in		10	nopreview	14	314				
	305	this	this		10	nopreview	14	315				
	306	case	case		10	nopreview	14	316				
	307	315,800	315,800		10	nopreview	14	317				
	308	shares	shares		10	nopreview	14	318				
	309	,	,		10	nopreview	14	319				
	310	at	at		10	nopreview	14	320				
	311	the	the		10	nopreview	14	321				
	312	cost	cost		10	nopreview	14	322				
	313	of	of		10	nopreview	14	323				
	314	$	$		10	nopreview	14	324				
	315	36	36		10	nopreview	14	325				
	316	,	,		10	nopreview	14	326				
	317	even	even		10	nopreview	14	327				
	318	though	though		10	nopreview	14	328				
	319	the	the		10	nopreview	14	329				
	320	value	value		10	nopreview	14	330				
	321	of	of		10	nopreview	14	331				
	322	shares	shares		10	nopreview	14	332				
	323	quickly	quickly		10	nopreview	14	333				
	324	began	began		10	nopreview	14	334				
	325	to	to		10	nopreview	14	335				
	326	rise	rise		10	nopreview	14	336				
	327	.	.		10	nopreview	14	337				
	328	Just	Just		10	nopreview	14	338				
	329	28	28		10	nopreview	14	339				
	330	minutes	minutes		10	nopreview	14	340				
	331	later	later		10	nopreview	14	341				
141	332	,	,	was	10	nopreview	14	342	0	0	0	0
142	333	when	when	valued	10	nopreview	14	343	105	105	252	105
	334	the	the		10	nopreview	14	344				
	335	market	market		10	nopreview	14	345				
	336	closed	closed		10	nopreview	14	346				
	337	for	for		10	nopreview	14	347				
	338	the	the		10	nopreview	14	348				
	339	day	day		10	nopreview	14	349				
	340	,	,		10	nopreview	14	350				
	341	@entity16	Altera		10	nopreview	14	351				
	342	was	was		10	nopreview	14	352				
	343	valued	valued		10	nopreview	14	353				
143	344	at	at	at	10	nopreview	14	354	117	0	0	0
144	345	$	$	$44.39	10	nopreview	14	355	189	189	189	189
	346	44.39	44.39		10	nopreview	14	356				
145	347	per	per	per	10	nopreview	14	357	264	0	0	0
146	348	share	share	share.	10	nopreview	14	358	331	331	712	331
	349	.	.		10	nopreview	14	359				
147	350	That	That	That	10	nopreview	14	360	0	0	0	0
148	351	was	was	was	10	nopreview	14	361	197	197	197	197
149	352	an	an	an	10	nopreview	14	362	0	0	0	0
150	353	increase	increase	increase	10	nopreview	14	363	144	144	144	144
151	354	of	of	of	10	nopreview	14	364	0	0	0	0
152	355	28	28	28%,	10	nopreview	14	365	251	251	251	251
	356	%	%		10	nopreview	14	366				
	357	,	,		10	nopreview	14	367				
153	358	but	but	but	10	nopreview	14	368	0	0	0	0
154	359	because	because	because	10	nopreview	14	369	181	181	181	181
155	360	of	of	of	10	nopreview	14	370	0	0	0	0
156	361	the	the	the	10	nopreview	14	371	0	0	0	0
157	362	call	call	call	10	nopreview	14	372	192	0	0	0
158	363	option	option	option,	10	nopreview	14	373	0	0	0	0
	364	,	,		10	nopreview	14	374				
159	365	the	the	the	10	nopreview	14	375	92	92	284	92
160	366	trader	trader	trader	10	nopreview	14	376	140	0	0	0
161	367	was	was	was	10	nopreview	14	377	194	194	334	194
162	368	able	able	able	10	nopreview	14	378	0	0	0	0
163	369	to	to	to	10	nopreview	14	379	0	0	0	0
164	370	sell	sell	sell	10	nopreview	14	380	0	0	0	0
165	371	their	their	their	10	nopreview	14	381	167	167	167	167
166	372	stocks	stocks	stocks	10	nopreview	14	382	161	161	161	161
167	373	at	at	at	10	nopreview	14	383	0	0	0	0
168	374	a	a	a	10	nopreview	14	384	0	0	0	0
169	375	far	far	far	10	nopreview	14	385	0	0	0	0
170	376	greater	greater	greater	10	nopreview	14	386	300	300	300	186
171	377	profit	profit	profit.	10	nopreview	14	387	0	0	0	0
	378	.	.		10	nopreview	14	388				
172	379	So	So	So	10	nopreview	14	389	0	0	0	0
173	380	instead	instead	instead	10	nopreview	14	390	159	0	0	0
174	381	of	of	of	10	nopreview	14	391	90	90	249	90
175	382	making	making	making	10	nopreview	14	392	0	0	249	0
176	383	a	a	a	10	nopreview	14	393	142	142	142	142
177	384	28	28	28%	10	nopreview	14	394	0	0	0	0
	385	%	%		10	nopreview	14	395				
178	386	profit	profit	profit,	10	nopreview	14	396	307	307	307	144
	387	,	,		10	nopreview	14	397				
179	388	the	the	the	10	nopreview	14	398	0	0	0	0
180	389	trader	trader	trader	10	nopreview	14	399	282	282	282	282
181	390	made	made	made	10	nopreview	14	400	248	0	0	0
182	391	a	a	a	10	nopreview	14	401	0	0	0	0
183	392	2,220	2,220	2,220%	10	nopreview	14	402	690	167	661	167
	393	%	%		10	nopreview	14	403				
184	394	profit	profit	profit	10	nopreview	14	404	155	155	432	155
185	395	of	of	of	10	nopreview	14	405	0	0	0	0
186	396	roughly	roughly	roughly	10	nopreview	14	406	257	257	257	257
187	397	$	$	$2.5million	10	nopreview	14	407	433	433	433	208
	398	2.5million	2.5million		10	nopreview	14	408				
188	399	when	when	when	10	nopreview	14	409	161	0	0	0
189	400	they	they	they	10	nopreview	14	410	205	205	205	205
190	401	sold	sold	sold	10	nopreview	14	411	188	0	2968	0
191	402	their	their	their	10	nopreview	14	412	169	169	518	169
192	403	shares	shares	shares.	10	nopreview	14	413	180	180	180	180
	404	.	.		10	nopreview	14	414				
193	405	Even	Even	Even	10	nopreview	14	415	0	0	0	0
194	406	more	more	more	10	nopreview	14	416	187	187	187	187
195	407	impressive	impressive	impressive	10	nopreview	14	417	290	290	290	290
196	408	is	is	is	10	nopreview	14	418	0	0	0	0
197	409	that	that	that	10	nopreview	14	419	161	161	161	161
198	410	the	the	the	10	nopreview	14	420	0	0	0	0
199	411	trader	trader	trader	10	nopreview	14	421	145	145	145	145
200	412	managed	managed	managed	10	nopreview	14	422	200	200	200	200
201	413	to	to	to	10	nopreview	14	423	0	0	0	0
202	414	make	make	make	10	nopreview	14	424	0	0	0	0
203	415	the	the	the	10	nopreview	14	425	196	196	196	196
204	416	purchase	purchase	purchase	10	nopreview	14	426	163	163	163	163
205	417	just	just	just	10	nopreview	14	427	0	0	0	0
206	418	minutes	minutes	minutes	10	nopreview	14	428	254	254	254	254
207	419	before	before	before	10	nopreview	14	429	0	0	0	0
208	420	@entity46	Nasdaq	Nasdaq	10	nopreview	14	430	562	562	562	231
209	421	suspended	suspended	suspended	10	nopreview	14	431	0	0	0	0
210	422	trading	trading	trading	10	nopreview	14	432	212	212	212	212
211	423	of	of	of	10	nopreview	14	433	0	0	0	0
212	424	@entity16	Altera	Altera	10	nopreview	14	434	239	239	239	239
213	425	because	because	because	10	nopreview	14	435	188	0	0	0
214	426	of	of	of	10	nopreview	14	436	0	0	0	0
215	427	the	the	the	10	nopreview	14	437	100	100	288	100
216	428	tweet	tweet	tweet	10	nopreview	14	438	189	189	189	189
217	429	from	from	from	10	nopreview	14	439	0	0	0	0
218	430	@entity9	Mattioli	Mattioli.	10	nopreview	14	440	424	424	424	210
	431	.	.		10	nopreview	14	441				
219	432	What	What	What-s	10	nopreview	14	442	0	0	0	0
	433	-s	-s		10	nopreview	14	443				
220	434	more	more	more,	10	nopreview	14	444	452	452	452	145
	435	,	,		10	nopreview	14	445				
221	436	call	call	call	10	nopreview	14	446	239	0	0	0
222	437	options	options	options	10	nopreview	14	447	349	193	588	193
223	438	for	for	for	10	nopreview	14	448	0	0	0	0
224	439	@entity16	Altera	Altera	10	nopreview	14	449	378	378	378	247
225	440	had	had	had	10	nopreview	14	450	123	0	0	0
226	441	at	at	at	10	nopreview	14	451	207	207	207	207
227	442	that	that	that	10	nopreview	14	452	141	0	0	0
228	443	point	point	point	10	nopreview	14	453	144	0	0	0
229	444	reached	reached	reached	10	nopreview	14	454	122	122	266	122
230	445	a	a	a	10	nopreview	14	455	0	0	0	0
231	446	price	price	price	10	nopreview	14	456	347	173	437	173
232	447	of	of	of	10	nopreview	14	457	0	0	0	0
233	448	$	$	$8.10	10	nopreview	14	458	354	139	528	139
	449	8.10	8.10		10	nopreview	14	459				
234	450	by	by	by	10	nopreview	14	460	0	0	0	0
235	451	the	the	the	10	nopreview	14	461	658	0	0	0
236	452	end	end	end	10	nopreview	14	462	336	181	994	181
237	453	of	of	of	10	nopreview	14	463	0	0	0	0
238	454	the	the	the	10	nopreview	14	464	171	171	171	171
239	455	day	day	day.	10	nopreview	14	465	0	0	0	0
	456	.	.		10	nopreview	14	466				
240	457	There	There	There	10	nopreview	14	467	0	0	0	0
241	458	is	is	is	10	nopreview	14	468	259	259	259	259
242	459	also	also	also	10	nopreview	14	469	0	0	0	0
243	460	a	a	a	10	nopreview	14	470	0	0	0	0
244	461	chance	chance	chance,	10	nopreview	14	471	169	169	169	169
	462	,	,		10	nopreview	14	472				
245	463	reports	reports	reports	10	nopreview	14	473	296	296	296	296
246	464	@entity90	Matt	Matt	10	nopreview	14	474	199	0	0	0
247			Khouw	Khouw,	10	nopreview	14	475	776	0	0	0
	465	,	,		10	nopreview	14	476				
248	466	that	that	that	10	nopreview	14	477	108	108	1083	108
249	467	the	the	the	10	nopreview	14	478	357	357	357	190
250	468	trader	trader	trader	10	nopreview	14	479	0	0	0	0
251	469	could	could	could	10	nopreview	14	480	374	231	231	231
252	470	have	have	have	10	nopreview	14	481	0	0	0	0
253	471	been	been	been	10	nopreview	14	482	536	0	0	0
254	472	aware	aware	aware	10	nopreview	14	483	166	166	166	166
255	473	of	of	of	10	nopreview	14	484	303	0	0	0
256	474	@entity12	Intel	Intel-s	10	nopreview	14	485	599	324	1581	324
	475	-s	-s		10	nopreview	14	486				
257	476	plan	plan	plan	10	nopreview	14	487	182	182	182	182
258	477	to	to	to	10	nopreview	14	488	0	0	0	0
259	478	buy	buy	buy	10	nopreview	14	489	0	0	0	0
260	479	@entity16	Altera	Altera	10	nopreview	14	490	327	327	327	208
261	480	early	early	early,	10	nopreview	14	491	303	0	0	0
	481	,	,		10	nopreview	14	492				
262	482	or	or	or	10	nopreview	14	493	0	0	0	0
263	483	that	that	that	10	nopreview	14	494	529	110	727	110
264	484	they	they	they	10	nopreview	14	495	214	0	0	0
265	485	used	used	used	10	nopreview	14	496	613	414	932	414
266	486	a	a	a	10	nopreview	14	497	0	0	0	0
267	487	bot	bot	bot	10	nopreview	14	498	144	0	0	0
268	488	to	to	to	10	nopreview	14	499	244	244	388	244
269	489	quickly	quickly	quickly	10	nopreview	14	500	169	169	169	169
270	490	buy	buy	buy	10	nopreview	14	501	0	0	0	0
271	491	the	the	the	10	nopreview	14	502	422	422	422	278
272	492	shares	shares	shares.	10	nopreview	14	503	364	364	364	364
	493	.	.		10	nopreview	14	504				
273	494	-	-	-A	10	nopreview	14	505	0	0	0	0
	495	A	A		10	nopreview	14	506				
274	496	bot	bot	bot	10	nopreview	14	507	0	0	0	0
275	497	is	is	is	10	nopreview	14	508	219	219	219	219
276	498	not	not	not	10	nopreview	14	509	0	0	0	0
277	499	as	as	as	10	nopreview	14	510	254	254	254	254
278	500	outlandish	outlandish	outlandish	10	nopreview	14	511	216	216	216	216
279	501	as	as	as	10	nopreview	14	512	0	0	0	0
280	502	it	it	it	10	nopreview	14	513	183	0	0	0
281	503	sounds	sounds	sounds,-	10	nopreview	14	514	233	114	416	114
	504	,	,		10	nopreview	14	515				
282	505	-	-	Khouw	10	nopreview	14	516	214	214	214	214
	506	@entity90	Khouw		10	nopreview	14	517				
283	507	said	said	said.	10	nopreview	14	518	870	870	870	183
	508	.	.		10	nopreview	14	519				
284	509	-	-	-Traders	10	nopreview	14	520	329	329	329	187
	510	Traders	Traders		10	nopreview	14	521				
285	511	need	need	need	10	nopreview	14	522	0	0	0	0
286	512	to	to	to	10	nopreview	14	523	223	223	223	223
287	513	aggregate	aggregate	aggregate	10	nopreview	14	524	216	216	216	216
288	514	and	and	and	10	nopreview	14	525	0	0	0	0
289	515	filter	filter	filter	10	nopreview	14	526	264	264	264	264
290	516	through	through	through	10	nopreview	14	527	213	213	213	213
291	517	tremendous	tremendous	tremendous	10	nopreview	14	528	311	311	311	196
292	518	amounts	amounts	amounts	10	nopreview	14	529	174	0	0	0
293	519	of	of	of	10	nopreview	14	530	107	107	281	107
294	520	data	data	data	10	nopreview	14	531	266	266	266	266
295	521	quickly	quickly	quickly	10	nopreview	14	532	161	161	161	161
296	522	and	and	and	10	nopreview	14	533	0	0	0	0
297	523	will	will	will	10	nopreview	14	534	227	227	227	227
298	524	rely	rely	rely	10	nopreview	14	535	162	162	162	162
299	525	on	on	on	10	nopreview	14	536	123	0	0	0
300	526	technology	technology	technology	10	nopreview	14	537	474	260	260	260
301	527	to	to	to	10	nopreview	14	538	0	0	0	0
302	528	help	help	help	10	nopreview	14	539	621	403	958	403
303	529	if	if	if	10	nopreview	14	540	219	0	0	0
304	530	it	it	it	10	nopreview	14	541	0	0	0	0
305	531	is	is	is	10	nopreview	14	542	483	0	0	0
306	532	available	available	available.-	10	nopreview	14	543	931	266	1633	140
	533	.	.		10	nopreview	14	544				
307	534	-	-	As	10	nopreview	14	545	0	0	0	0
308	535	As	As	for	10	nopreview	14	546	0	0	0	0
309	536	for	for	Intel-s	10	nopreview	14	547	273	273	273	160
	537	@entity12	Intel		10	nopreview	14	548				
	538	-s	-s		10	nopreview	14	549				
310	539	reported	reported	reported	10	nopreview	14	550	278	278	278	278
311	540	purchase	purchase	purchase	10	nopreview	14	551	171	171	171	171
312	541	of	of	of	10	nopreview	14	552	0	0	0	0
313	542	@entity16	Altera	Altera,	10	nopreview	14	553	240	240	240	240
	543	,	,		10	nopreview	14	554				
314	544	that	that	that	10	nopreview	14	555	0	0	0	0
315	545	still	still	still	10	nopreview	14	556	440	440	440	299
316	546	has	has	has	10	nopreview	14	557	0	0	0	0
317	547	yet	yet	yet	10	nopreview	14	558	0	0	0	0
318	548	to	to	to	10	nopreview	14	559	181	0	0	0
319	549	happen	happen	happen.	10	nopreview	14	560	993	287	1174	287
	550	.	.		10	nopreview	14	561				
320	551	Meanwhile	Meanwhile	Meanwhile,	10	nopreview	14	562	150	150	150	150
	552	,	,		10	nopreview	14	563				
321	553	@entity12	Intel	Intel	10	nopreview	14	564	222	0	0	0
322	554	share	share	share	10	nopreview	14	565	180	0	0	0
323	555	prices	prices	prices	10	nopreview	14	566	101	101	503	101
324	556	fell	fell	fell	10	nopreview	14	567	208	208	208	208
325	557	earlier	earlier	earlier	10	nopreview	14	568	176	176	176	176
326	558	this	this	this	10	nopreview	14	569	0	0	0	0
327	559	week	week	week	10	nopreview	14	570	157	157	157	157
328	560	in	in	in	10	nopreview	14	571	0	0	0	0
329	561	response	response	response	10	nopreview	14	572	195	195	195	195
330	562	to	to	to	10	nopreview	14	573	0	0	0	0
331	563	the	the	the	10	nopreview	14	574	0	0	0	0
332	564	news	news	news	10	nopreview	14	575	206	206	206	206
333	565	that	that	that	10	nopreview	14	576	0	0	0	0
334	566	they	they	they	10	nopreview	14	577	0	0	0	0
335	567	might	might	might	10	nopreview	14	578	166	166	166	166
336	568	purchase	purchase	purchase	10	nopreview	14	579	0	0	0	0
337	569	@entity16	Altera	Altera.	10	nopreview	14	580	0	0	0	0
	570	.	.		10	nopreview	14	581				
