HumanPosition	AnonymizedPosition	AnonymizedToken	OriginalToken	ExperimentToken	Participant	Condition	TextNo	JointPosition	tt	fp	rp	ff
1	0	Per	Per	Per	10	nopreview	15	1	380	0	0	0
2	1	@entity0	Mertesacker	Mertesacker	10	nopreview	15	2	623	138	1003	138
3	2	looks	looks	looks	10	nopreview	15	3	288	0	0	0
4	3	set	set	set	10	nopreview	15	4	376	160	338	160
5	4	to	to	to	10	nopreview	15	5	221	0	0	0
6	5	be	be	be	10	nopreview	15	6	0	0	0	0
7	6	ruled	ruled	ruled	10	nopreview	15	7	141	0	0	0
8	7	out	out	out	10	nopreview	15	8	351	168	1039	168
9	8	of	of	of	10	nopreview	15	9	0	0	0	0
10	9	@entity2	Arsenal	Arsenal-s	10	nopreview	15	10	130	130	130	130
	10	’s	’s		10	nopreview	15	11				
11	11	derby	derby	derby	10	nopreview	15	12	266	266	266	266
12	12	against	against	against	10	nopreview	15	13	159	159	159	159
13	13	@entity3	Chelsea	Chelsea	10	nopreview	15	14	285	285	285	285
14	14	although	although	although	10	nopreview	15	15	175	175	175	175
15	15	the	the	the	10	nopreview	15	16	0	0	175	0
16	16	defender	defender	defender	10	nopreview	15	17	169	169	169	169
17	17	has	has	has	10	nopreview	15	18	0	0	0	0
18	18	escaped	escaped	escaped	10	nopreview	15	19	231	231	231	231
19	19	any	any	any	10	nopreview	15	20	0	0	0	0
20	20	serious	serious	serious	10	nopreview	15	21	368	368	368	138
21	21	ankle	ankle	ankle	10	nopreview	15	22	121	0	0	0
22	22	ligament	ligament	ligament	10	nopreview	15	23	372	178	299	178
23	23	damage	damage	damage.	10	nopreview	15	24	1252	722	1446	219
	24	.	.		10	nopreview	15	25				
24	25	@entity0	Mertesacker	Mertesacker,	10	nopreview	15	26	316	316	316	174
	26	,	,		10	nopreview	15	27				
25	27	captain	captain	captain	10	nopreview	15	28	90	0	0	0
26	28	during	during	during	10	nopreview	15	29	524	227	317	227
27	29	the	the	the	10	nopreview	15	30	332	332	629	176
28	30	long	long	long	10	nopreview	15	31	206	0	0	0
29	31	absence	absence	absence	10	nopreview	15	32	705	168	374	168
30	32	of	of	of	10	nopreview	15	33	0	0	0	0
31	33	@entity8	Mikel	Mikel	10	nopreview	15	34	209	209	209	209
32			Arteta	Arteta,	10	nopreview	15	35	1294	291	1831	291
	34	,	,		10	nopreview	15	36				
33	35	limped	limped	limped	10	nopreview	15	37	178	178	178	178
34	36	off	off	off	10	nopreview	15	38	0	0	0	0
35	37	during	during	during	10	nopreview	15	39	395	395	395	395
36	38	the	the	the	10	nopreview	15	40	0	0	0	0
37	39	second	second	second	10	nopreview	15	41	190	190	190	190
38	40	half	half	half	10	nopreview	15	42	0	0	0	0
39	41	of	of	of	10	nopreview	15	43	0	0	0	0
40	42	the	the	the	10	nopreview	15	44	0	0	0	0
41	43	@entity10	FA	FA	10	nopreview	15	45	212	0	0	0
42			Cup	Cup	10	nopreview	15	46	0	0	0	0
43	44	semi-final	semi-final	semi-final	10	nopreview	15	47	337	91	549	91
44	45	against	against	against	10	nopreview	15	48	160	160	160	160
45	46	@entity12	Reading	Reading	10	nopreview	15	49	228	228	228	228
46	47	at	at	at	10	nopreview	15	50	0	0	0	0
47	48	@entity13	Wembley	Wembley	10	nopreview	15	51	396	396	396	396
48	49	on	on	on	10	nopreview	15	52	0	0	0	0
49	50	Saturday	Saturday	Saturday.	10	nopreview	15	53	453	453	453	280
	51	.	.		10	nopreview	15	54				
50	52	There	There	There	10	nopreview	15	55	0	0	0	0
51	53	were	were	were	10	nopreview	15	56	266	266	266	266
52	54	fears	fears	fears	10	nopreview	15	57	180	180	180	180
53	55	of	of	of	10	nopreview	15	58	113	113	113	113
54	56	a	a	a	10	nopreview	15	59	0	0	0	0
55	57	serious	serious	serious	10	nopreview	15	60	202	0	0	0
56	58	injury	injury	injury	10	nopreview	15	61	502	86	493	86
57	59	for	for	for	10	nopreview	15	62	0	0	0	0
58	60	the	the	the	10	nopreview	15	63	237	237	448	237
59	61	6ft	6ft	6ft	10	nopreview	15	64	363	363	363	223
60	62	6in	6in	6in	10	nopreview	15	65	255	255	255	150
61	63	@entity17	German	German	10	nopreview	15	66	853	853	853	177
62	64	after	after	after	10	nopreview	15	67	0	0	0	0
63	65	he	he	he	10	nopreview	15	68	258	258	258	258
64	66	twisted	twisted	twisted	10	nopreview	15	69	210	210	210	210
65	67	the	the	the	10	nopreview	15	70	0	0	0	0
66	68	joint	joint	joint	10	nopreview	15	71	216	216	216	216
67	69	but	but	but	10	nopreview	15	72	0	0	0	0
68	70	subsequent	subsequent	subsequent	10	nopreview	15	73	235	235	235	235
69	71	scans	scans	scans	10	nopreview	15	74	0	0	0	0
70	72	have	have	have	10	nopreview	15	75	0	0	0	0
71	73	shown	shown	shown	10	nopreview	15	76	195	195	195	195
72	74	it	it	it	10	nopreview	15	77	106	0	0	0
73	75	is	is	is	10	nopreview	15	78	162	0	195	0
74	76	a	a	a	10	nopreview	15	79	0	0	0	0
75	77	minor	minor	minor	10	nopreview	15	80	221	221	221	221
76	78	sprain	sprain	sprain.	10	nopreview	15	81	236	236	504	236
	79	.	.		10	nopreview	15	82				
77	80	Per	Per	He	10	nopreview	15	83	0	0	0	0
78	81	@entity0	Mertesacker	is	10	nopreview	15	84	143	0	0	0
	82	will	will		10	nopreview	15	85				
79	83	miss	miss	not	10	nopreview	15	86	350	350	493	350
	84	@entity2	Arsenal		10	nopreview	15	87				
	85	-s	-s		10	nopreview	15	88				
80	86	visit	visit	expected	10	nopreview	15	89	0	0	0	0
	87	by	by		10	nopreview	15	90				
	88	@entity3	Chelsea		10	nopreview	15	91				
	89	on	on		10	nopreview	15	92				
	90	Sunday	Sunday		10	nopreview	15	93				
	91	due	due		10	nopreview	15	94				
	92	to	to		10	nopreview	15	95				
	93	an	an		10	nopreview	15	96				
	94	ankle	ankle		10	nopreview	15	97				
	95	injury	injury		10	nopreview	15	98				
	96	The	The		10	nopreview	15	99				
	97	stand	stand		10	nopreview	15	100				
	98	-	-		10	nopreview	15	101				
	99	in	in		10	nopreview	15	102				
	100	Gunners	Gunners		10	nopreview	15	103				
	101	captain	captain		10	nopreview	15	104				
	102	went	went		10	nopreview	15	105				
	103	down	down		10	nopreview	15	106				
	104	in	in		10	nopreview	15	107				
	105	@entity2	Arsenal		10	nopreview	15	108				
	106	-s	-s		10	nopreview	15	109				
	107	@entity10	FA		10	nopreview	15	110				
			Cup		10	nopreview	15	111				
	108	semi-final	semi-final		10	nopreview	15	112				
	109	win	win		10	nopreview	15	113				
	110	over	over		10	nopreview	15	114				
	111	@entity12	Reading		10	nopreview	15	115				
	112	on	on		10	nopreview	15	116				
	113	Saturday	Saturday		10	nopreview	15	117				
	114	He	He		10	nopreview	15	118				
	115	is	is		10	nopreview	15	119				
	116	not	not		10	nopreview	15	120				
	117	expected	expected		10	nopreview	15	121				
81	118	to	to	to	10	nopreview	15	122	0	0	0	0
82	119	be	be	be	10	nopreview	15	123	199	199	199	199
83	120	fit	fit	fit	10	nopreview	15	124	0	0	0	0
84	121	in	in	in	10	nopreview	15	125	0	0	0	0
85	122	time	time	time	10	nopreview	15	126	273	273	273	273
86	123	for	for	for	10	nopreview	15	127	331	331	331	331
87	124	Sunday	Sunday	Sunday,	10	nopreview	15	128	407	91	91	91
	125	,	,		10	nopreview	15	129				
88	126	however	however	however,	10	nopreview	15	130	191	0	0	0
	127	,	,		10	nopreview	15	131				
89	128	and	and	and	10	nopreview	15	132	0	0	0	0
90	129	likely	likely	likely	10	nopreview	15	133	795	0	0	0
91	130	to	to	to	10	nopreview	15	134	143	0	0	0
92	131	be	be	be	10	nopreview	15	135	329	0	0	0
93	132	replaced	replaced	replaced	10	nopreview	15	136	135	0	0	0
94	133	at	at	at	10	nopreview	15	137	0	0	0	0
95	134	centre	centre	centre-half	10	nopreview	15	138	345	0	0	0
	135	-	-		10	nopreview	15	139				
	136	half	half		10	nopreview	15	140				
96	137	by	by	by	10	nopreview	15	141	160	0	0	0
97	138	@entity26	Gabriel	Gabriel	10	nopreview	15	142	519	350	350	183
98			Paulista	Paulista,	10	nopreview	15	143	1322	329	645	329
	139	,	,		10	nopreview	15	144				
99	140	who	who	who	10	nopreview	15	145	124	0	0	0
100	141	has	has	has	10	nopreview	15	146	422	248	3806	248
101	142	started	started	started	10	nopreview	15	147	0	0	0	0
102	143	three	three	three	10	nopreview	15	148	121	121	121	121
103	144	times	times	times	10	nopreview	15	149	154	154	154	154
104	145	in	in	in	10	nopreview	15	150	0	0	0	0
105	146	the	the	the	10	nopreview	15	151	109	0	0	0
106	147	@entity28	Barclays	Barclays	10	nopreview	15	152	398	191	191	191
107			Premier	Premier	10	nopreview	15	153	102	102	102	102
108			League	League	10	nopreview	15	154	0	0	0	0
109	148	since	since	since	10	nopreview	15	155	143	143	143	143
110	149	he	he	he	10	nopreview	15	156	0	0	0	0
111	150	was	was	was	10	nopreview	15	157	0	0	0	0
112	151	signed	signed	signed	10	nopreview	15	158	355	162	162	162
113	152	in	in	in	10	nopreview	15	159	103	103	612	103
114	153	January	January	January	10	nopreview	15	160	97	97	97	97
115	154	from	from	from	10	nopreview	15	161	0	0	0	0
116	155	@entity29	Villarreal	Villarreal.	10	nopreview	15	162	636	329	329	123
	156	.	.		10	nopreview	15	163				
117	157	@entity3	Chelsea	Chelsea	10	nopreview	15	164	272	272	272	272
118	158	come	come	come	10	nopreview	15	165	390	132	697	132
119	159	into	into	into	10	nopreview	15	166	180	0	0	0
120	160	the	the	the	10	nopreview	15	167	0	0	0	0
121	161	match	match	match	10	nopreview	15	168	197	197	377	197
122	162	with	with	with	10	nopreview	15	169	0	0	0	0
123	163	a	a	a	10	nopreview	15	170	145	0	0	0
124	164	10	10	10-point	10	nopreview	15	171	272	156	156	156
	165	-	-		10	nopreview	15	172				
	166	point	point		10	nopreview	15	173				
125	167	lead	lead	lead	10	nopreview	15	174	375	0	0	0
126	168	over	over	over	10	nopreview	15	175	432	284	284	284
127	169	their	their	their	10	nopreview	15	176	195	195	195	195
128	170	@entity33	London	London	10	nopreview	15	177	240	150	1024	150
129	171	rivals	rivals	rivals	10	nopreview	15	178	236	0	0	0
130	172	and	and	and	10	nopreview	15	179	0	0	0	0
131	173	will	will	will	10	nopreview	15	180	0	0	0	0
132	174	need	need	need	10	nopreview	15	181	299	105	341	105
133	175	to	to	to	10	nopreview	15	182	214	0	0	0
134	176	capitulate	capitulate	capitulate	10	nopreview	15	183	453	161	506	161
135	177	in	in	in	10	nopreview	15	184	0	0	0	0
136	178	spectacular	spectacular	spectacular	10	nopreview	15	185	549	178	904	178
137	179	fashion	fashion	fashion	10	nopreview	15	186	190	190	190	190
138	180	to	to	to	10	nopreview	15	187	0	0	0	0
139	181	not	not	not	10	nopreview	15	188	125	0	0	0
140	182	take	take	take	10	nopreview	15	189	510	289	289	289
141	183	the	the	the	10	nopreview	15	190	320	132	666	132
142	184	@entity28	Premier	Premier	10	nopreview	15	191	0	0	0	0
143			League	League	10	nopreview	15	192	157	0	0	0
144	185	title	title	title.	10	nopreview	15	193	115	115	272	115
	186	.	.		10	nopreview	15	194				
145	187	Second	Second	Second-placed	10	nopreview	15	195	663	243	243	243
	188	-	-		10	nopreview	15	196				
	189	placed	placed		10	nopreview	15	197				
146	190	@entity2	Arsenal	Arsenal,	10	nopreview	15	198	189	189	189	189
	191	,	,		10	nopreview	15	199				
147	192	on	on	on	10	nopreview	15	200	179	0	0	0
148	193	66	66	66	10	nopreview	15	201	367	367	367	153
149	194	points	points	points,	10	nopreview	15	202	0	0	0	0
	195	,	,		10	nopreview	15	203				
150	196	lead	lead	lead	10	nopreview	15	204	0	0	0	0
151	197	@entity38	Manchester	Manchester	10	nopreview	15	205	311	311	311	208
152			United	United	10	nopreview	15	206	0	0	0	0
153	198	on	on	on	10	nopreview	15	207	161	161	161	161
154	199	65	65	65	10	nopreview	15	208	0	0	0	0
155	200	and	and	and	10	nopreview	15	209	364	364	963	276
156	201	@entity39	Manchester	Manchester	10	nopreview	15	210	0	0	0	0
157			City	City	10	nopreview	15	211	0	0	0	0
158	202	on	on	on	10	nopreview	15	212	0	0	0	0
159	203	64	64	64.	10	nopreview	15	213	0	0	0	0
	204	.	.		10	nopreview	15	214				
