HumanPosition	AnonymizedPosition	AnonymizedToken	OriginalToken	ExperimentToken	Participant	Condition	TextNo	JointPosition	tt	fp	rp	ff
1	0	(	(	Blues	10	nopreview	5	1	168	168	168	168
	1	@entity2	CNN		10	nopreview	5	2				
	2	)	)		10	nopreview	5	3				
	3	@entity1	Blues		10	nopreview	5	4				
2	4	legend	legend	legend	10	nopreview	5	5	162	162	162	162
3	5	@entity0	B.B.	B.B.	10	nopreview	5	6	0	0	0	0
4			King	King	10	nopreview	5	7	136	136	136	136
5	6	was	was	was	10	nopreview	5	8	0	0	0	0
6	7	hospitalized	hospitalized	hospitalized	10	nopreview	5	9	248	248	248	248
7	8	for	for	for	10	nopreview	5	10	0	0	0	0
8	9	dehydration	dehydration	dehydration,	10	nopreview	5	11	427	427	427	193
	10	,	,		10	nopreview	5	12				
9	11	though	though	though	10	nopreview	5	13	195	195	195	195
10	12	the	the	the	10	nopreview	5	14	0	0	0	0
11	13	ailment	ailment	ailment	10	nopreview	5	15	194	194	194	194
12	14	did	did	didn-t	10	nopreview	5	16	143	143	143	143
	15	n-t	n-t		10	nopreview	5	17				
13	16	keep	keep	keep	10	nopreview	5	18	0	0	0	0
14	17	him	him	him	10	nopreview	5	19	150	0	0	0
15	18	out	out	out	10	nopreview	5	20	126	126	276	126
16	19	for	for	for	10	nopreview	5	21	372	372	372	165
17	20	long	long	long.	10	nopreview	5	22	139	139	346	139
	21	.	.		10	nopreview	5	23				
18	22	@entity0	King	King-s	10	nopreview	5	24	186	186	186	186
	23	-s	-s		10	nopreview	5	25				
19	24	dehydration	dehydration	dehydration	10	nopreview	5	26	242	242	242	242
20	25	was	was	was	10	nopreview	5	27	0	0	0	0
21	26	caused	caused	caused	10	nopreview	5	28	218	218	218	218
22	27	by	by	by	10	nopreview	5	29	0	0	0	0
23	28	his	his	his	10	nopreview	5	30	188	188	188	188
24	29	Type	Type	Type	10	nopreview	5	31	166	0	0	0
25	30	II	II	II	10	nopreview	5	32	153	153	319	153
26	31	diabetes	diabetes	diabetes,	10	nopreview	5	33	496	496	496	496
	32	,	,		10	nopreview	5	34				
27	33	but	but	but	10	nopreview	5	35	183	183	183	183
28	34	he	he	he	10	nopreview	5	36	0	0	0	0
29	35	-	-	-is	10	nopreview	5	37	0	0	0	0
	36	is	is		10	nopreview	5	38				
30	37	much	much	much	10	nopreview	5	39	220	0	0	0
31	38	better	better	better,-	10	nopreview	5	40	238	105	458	105
	39	,	,		10	nopreview	5	41				
	40	-	-		10	nopreview	5	42				
32	41	his	his	his	10	nopreview	5	43	0	0	0	0
33	42	daughter	daughter	daughter,	10	nopreview	5	44	411	411	411	299
	43	,	,		10	nopreview	5	45				
34	44	@entity6	Claudette	Claudette	10	nopreview	5	46	415	415	415	265
35			King	King,	10	nopreview	5	47	448	448	448	448
	45	,	,		10	nopreview	5	48				
36	46	told	told	told	10	nopreview	5	49	0	0	0	0
37	47	the	the	the	10	nopreview	5	50	312	312	312	312
38	48	@entity9	Los	Los	10	nopreview	5	51	0	0	0	0
39			Angeles	Angeles	10	nopreview	5	52	294	294	294	294
40			Times	Times.	10	nopreview	5	53	669	669	669	669
	49	.	.		10	nopreview	5	54				
41	50	The	The	The	10	nopreview	5	55	163	163	163	163
42	51	legendary	legendary	legendary	10	nopreview	5	56	206	0	0	0
43	52	guitarist	guitarist	guitarist	10	nopreview	5	57	199	0	0	0
44	53	and	and	and	10	nopreview	5	58	111	111	516	111
45	54	vocalist	vocalist	vocalist	10	nopreview	5	59	130	130	130	130
46	55	released	released	released	10	nopreview	5	60	163	163	163	163
47	56	a	a	a	10	nopreview	5	61	0	0	0	0
48	57	statement	statement	statement	10	nopreview	5	62	226	226	226	226
49	58	thanking	thanking	thanking	10	nopreview	5	63	350	150	150	150
50	59	those	those	those	10	nopreview	5	64	0	0	0	0
51	60	who	who	who	10	nopreview	5	65	655	281	686	281
52	61	have	have	have	10	nopreview	5	66	172	0	0	0
53	62	expressed	expressed	expressed	10	nopreview	5	67	466	0	0	0
54	63	their	their	their	10	nopreview	5	68	317	119	295	119
55	64	concerns	concerns	concerns.	10	nopreview	5	69	553	250	1382	250
	65	.	.		10	nopreview	5	70				
56	66	-	-	-I-m	10	nopreview	5	71	0	0	0	0
	67	I	I		10	nopreview	5	72				
	68	-m	-m		10	nopreview	5	73				
57	69	feeling	feeling	feeling	10	nopreview	5	74	164	164	164	164
58	70	much	much	much	10	nopreview	5	75	168	168	168	168
59	71	better	better	better	10	nopreview	5	76	228	228	228	228
60	72	and	and	and	10	nopreview	5	77	0	0	0	0
61	73	am	am	am	10	nopreview	5	78	0	0	0	0
62	74	leaving	leaving	leaving	10	nopreview	5	79	1007	676	676	676
63	75	the	the	the	10	nopreview	5	80	199	0	0	0
64	76	hospital	hospital	hospital	10	nopreview	5	81	148	148	678	148
65	77	today	today	today,-	10	nopreview	5	82	416	197	197	197
	78	,	,		10	nopreview	5	83				
	79	-	-		10	nopreview	5	84				
66	80	@entity0	King	King	10	nopreview	5	85	415	0	0	0
67	81	said	said	said	10	nopreview	5	86	491	141	1125	141
68	82	in	in	in	10	nopreview	5	87	164	0	0	0
69	83	a	a	a	10	nopreview	5	88	430	161	325	161
70	84	message	message	message	10	nopreview	5	89	411	0	0	0
71	85	Tuesday	Tuesday	Tuesday.	10	nopreview	5	90	1291	561	1971	561
	86	.	.		10	nopreview	5	91				
72	87	@entity17	Angela	Angela	10	nopreview	5	92	177	0	0	0
73			Moore	Moore,	10	nopreview	5	93	395	200	572	200
	88	,	,		10	nopreview	5	94				
74	89	a	a	a	10	nopreview	5	95	0	0	0	0
75	90	publicist	publicist	publicist	10	nopreview	5	96	353	353	353	353
76	91	for	for	for	10	nopreview	5	97	0	0	0	0
77	92	@entity6	Claudette	Claudette	10	nopreview	5	98	334	334	334	183
78			King	King,	10	nopreview	5	99	148	148	148	148
	93	,	,		10	nopreview	5	100				
79	94	said	said	said	10	nopreview	5	101	0	0	0	0
80	95	later	later	later	10	nopreview	5	102	434	0	0	0
81	96	in	in	in	10	nopreview	5	103	170	0	0	0
82	97	the	the	the	10	nopreview	5	104	222	103	476	103
83	98	day	day	day	10	nopreview	5	105	259	155	609	155
84	99	that	that	that	10	nopreview	5	106	188	0	0	0
85	100	he	he	he	10	nopreview	5	107	0	0	0	0
86	101	was	was	was	10	nopreview	5	108	340	170	170	170
87	102	back	back	back	10	nopreview	5	109	333	0	0	0
88	103	home	home	home	10	nopreview	5	110	190	190	881	190
89	104	resting	resting	resting	10	nopreview	5	111	255	255	255	255
90	105	and	and	and	10	nopreview	5	112	0	0	0	0
91	106	enjoying	enjoying	enjoying	10	nopreview	5	113	248	248	248	248
92	107	time	time	time	10	nopreview	5	114	0	0	0	0
93	108	with	with	with	10	nopreview	5	115	174	174	174	174
94	109	his	his	his	10	nopreview	5	116	140	140	140	140
95	110	grandchildren	grandchildren	grandchildren.	10	nopreview	5	117	337	337	337	337
	111	.	.		10	nopreview	5	118				
96	112	-	-	-He	10	nopreview	5	119	0	0	0	0
	113	He	He		10	nopreview	5	120				
97	114	was	was	was	10	nopreview	5	121	283	0	0	0
98	115	struggling	struggling	struggling	10	nopreview	5	122	265	265	265	265
99	116	before	before	before,	10	nopreview	5	123	422	257	705	257
	117	,	,		10	nopreview	5	124				
100	118	and	and	and	10	nopreview	5	125	251	0	0	0
101	119	he	he	he	10	nopreview	5	126	0	0	0	0
102	120	is	is	is	10	nopreview	5	127	352	352	352	224
103	121	a	a	a	10	nopreview	5	128	0	0	0	0
104	122	trouper	trouper	trouper,-	10	nopreview	5	129	1004	728	1255	440
	123	,	,		10	nopreview	5	130				
	124	-	-		10	nopreview	5	131				
105	125	@entity17	Moore	Moore	10	nopreview	5	132	0	0	0	0
106	126	said	said	said.	10	nopreview	5	133	460	460	460	214
	127	.	.		10	nopreview	5	134				
107	128	-	-	-He	10	nopreview	5	135	146	146	146	146
	129	He	He		10	nopreview	5	136				
108	130	was	was	wasn-t	10	nopreview	5	137	221	221	221	221
	131	n-t	n-t		10	nopreview	5	138				
109	132	going	going	going	10	nopreview	5	139	0	0	221	0
110	133	to	to	to	10	nopreview	5	140	0	0	0	0
111	134	let	let	let	10	nopreview	5	141	187	0	0	0
112	135	his	his	his	10	nopreview	5	142	156	156	343	156
113	136	fans	fans	fans	10	nopreview	5	143	173	173	173	173
114	137	down	down	down.-	10	nopreview	5	144	0	0	0	0
	138	.	.		10	nopreview	5	145				
115	139	-	-	No	10	nopreview	5	146	117	0	0	0
116	140	No	No	more	10	nopreview	5	147	161	0	0	0
117	141	more	more	information	10	nopreview	5	148	415	99	385	99
	142	information	information		10	nopreview	5	149				
118	143	on	on	on	10	nopreview	5	150	0	0	0	0
119	144	@entity0	King	King-s	10	nopreview	5	151	0	0	0	0
	145	-s	-s		10	nopreview	5	152				
120	146	condition	condition	condition	10	nopreview	5	153	401	401	709	185
121	147	or	or	or	10	nopreview	5	154	187	187	187	187
122	148	where	where	where	10	nopreview	5	155	0	0	0	0
123	149	he	he	he	10	nopreview	5	156	0	0	0	0
124	150	was	was	was	10	nopreview	5	157	0	0	0	0
125	151	hospitalized	hospitalized	hospitalized	10	nopreview	5	158	243	243	243	243
126	152	was	was	was	10	nopreview	5	159	0	0	0	0
127	153	immediately	immediately	immediately	10	nopreview	5	160	170	170	170	170
128	154	available	available	available.	10	nopreview	5	161	305	305	305	197
	155	.	.		10	nopreview	5	162				
129	156	@entity0	B.B.	B.B.	10	nopreview	5	163	256	0	0	0
130	157	is	is	is	10	nopreview	5	164	217	217	217	217
131	158	short	short	short	10	nopreview	5	165	648	0	0	0
132	159	for	for	for	10	nopreview	5	166	351	188	188	188
133	160	@entity24	Blues	Blues	10	nopreview	5	167	816	475	847	258
134			Boy	Boy,	10	nopreview	5	168	754	404	1790	404
	161	,	,		10	nopreview	5	169				
135	162	part	part	part	10	nopreview	5	170	171	171	171	171
136	163	of	of	of	10	nopreview	5	171	0	0	0	0
137	164	the	the	the	10	nopreview	5	172	0	0	0	0
138	165	name	name	name	10	nopreview	5	173	199	199	199	199
139	166	he	he	he	10	nopreview	5	174	0	0	0	0
140	167	used	used	used	10	nopreview	5	175	479	247	247	247
141	168	as	as	as	10	nopreview	5	176	0	0	0	0
142	169	a	a	a	10	nopreview	5	177	0	0	0	0
143	170	@entity27	Memphis	Memphis	10	nopreview	5	178	218	218	450	218
144	171	disc	disc	disc	10	nopreview	5	179	143	143	143	143
145	172	jockey	jockey	jockey,	10	nopreview	5	180	0	0	0	0
	173	,	,		10	nopreview	5	181				
146	174	the	the	the	10	nopreview	5	182	0	0	0	0
147	175	@entity0	Beale	Beale	10	nopreview	5	183	0	0	0	0
148			Street	Street	10	nopreview	5	184	102	0	0	0
149			Blues	Blues	10	nopreview	5	185	711	414	414	179
150			Boy	Boy.	10	nopreview	5	186	250	0	0	0
	176	.	.		10	nopreview	5	187				
151	177	He	He	He	10	nopreview	5	188	0	0	0	0
152	178	was	was	was	10	nopreview	5	189	604	239	1253	239
153	179	inducted	inducted	inducted	10	nopreview	5	190	264	0	0	0
154	180	into	into	into	10	nopreview	5	191	0	0	0	0
155	181	the	the	the	10	nopreview	5	192	360	0	0	0
156	182	@entity28	Rock	Rock	10	nopreview	5	193	0	0	0	0
157			and	and	10	nopreview	5	194	0	0	0	0
158			Roll	Roll	10	nopreview	5	195	0	0	0	0
159			Hall	Hall	10	nopreview	5	196	0	0	0	0
160			of	of	10	nopreview	5	197	83	0	0	0
161			Fame	Fame	10	nopreview	5	198	0	0	0	0
162	183	in	in	in	10	nopreview	5	199	174	0	0	0
163	184	1987	1987	1987,	10	nopreview	5	200	214	0	0	0
	185	,	,		10	nopreview	5	201				
164	186	and	and	and	10	nopreview	5	202	0	0	0	0
165	187	has	has	has	10	nopreview	5	203	342	0	0	0
166	188	30	30	30	10	nopreview	5	204	181	0	0	0
167	189	@entity30	Grammy	Grammy	10	nopreview	5	205	435	0	0	0
168	190	nominations	nominations	nominations.	10	nopreview	5	206	289	0	0	0
	191	.	.		10	nopreview	5	207				
169	192	@entity0	King	King,	10	nopreview	5	208	224	0	0	0
	193	,	,		10	nopreview	5	209				
170	194	89	89	89,	10	nopreview	5	210	336	0	0	0
	195	,	,		10	nopreview	5	211				
171	196	has	has	has	10	nopreview	5	212	553	0	0	0
172	197	used	used	used	10	nopreview	5	213	299	0	0	0
173	198	various	various	various	10	nopreview	5	214	1112	0	0	0
174	199	models	models	models	10	nopreview	5	215	286	0	0	0
175	200	of	of	of	10	nopreview	5	216	163	0	0	0
176	201	@entity33	Gibson	Gibson	10	nopreview	5	217	0	0	0	0
177	202	guitars	guitars	guitars	10	nopreview	5	218	190	0	0	0
178	203	over	over	over	10	nopreview	5	219	148	0	0	0
179	204	the	the	the	10	nopreview	5	220	145	0	0	0
180	205	years	years	years,	10	nopreview	5	221	0	0	0	0
	206	,	,		10	nopreview	5	222				
181	207	and	and	and	10	nopreview	5	223	0	0	0	0
182	208	named	named	named	10	nopreview	5	224	184	0	0	0
183	209	each	each	each	10	nopreview	5	225	0	0	0	0
184	210	one	one	one	10	nopreview	5	226	0	0	0	0
185	211	of	of	of	10	nopreview	5	227	101	0	0	0
186	212	them	them	them	10	nopreview	5	228	267	0	0	0
187	213	@entity35	Lucille	Lucille.	10	nopreview	5	229	1641	0	0	0
	214	.	.		10	nopreview	5	230				
188	215	In	In	In	10	nopreview	5	231	0	0	0	0
189	216	the	the	the	10	nopreview	5	232	0	0	0	0
190	217	1980s	1980s	1980s,	10	nopreview	5	233	195	0	0	0
	218	,	,		10	nopreview	5	234				
191	219	@entity33	Gibson	Gibson	10	nopreview	5	235	293	0	0	0
192	220	officially	officially	officially	10	nopreview	5	236	822	0	0	0
193	221	dropped	dropped	dropped	10	nopreview	5	237	467	0	0	0
194	222	the	the	the	10	nopreview	5	238	0	0	0	0
195	223	model	model	model	10	nopreview	5	239	235	0	0	0
196	224	number	number	number	10	nopreview	5	240	266	0	0	0
197	225	on	on	on	10	nopreview	5	241	0	0	0	0
198	226	the	the	the	10	nopreview	5	242	176	0	0	0
199	227	guitar	guitar	guitar	10	nopreview	5	243	128	0	0	0
200	228	he	he	he	10	nopreview	5	244	121	0	0	0
201	229	used	used	used	10	nopreview	5	245	352	0	0	0
202	230	last	last	last	10	nopreview	5	246	159	0	0	0
203	231	and	and	and	10	nopreview	5	247	0	0	0	0
204	232	most	most	most.	10	nopreview	5	248	1197	0	0	0
	233	.	.		10	nopreview	5	249				
205	234	It	It	It	10	nopreview	5	250	0	0	0	0
206	235	became	became	became	10	nopreview	5	251	353	0	0	0
207	236	a	a	a	10	nopreview	5	252	0	0	0	0
208	237	custom	custom	custom-made	10	nopreview	5	253	235	0	0	0
	238	-	-		10	nopreview	5	254				
	239	made	made		10	nopreview	5	255				
209	240	signature	signature	signature	10	nopreview	5	256	251	0	0	0
210	241	model	model	model	10	nopreview	5	257	443	0	0	0
211	242	named	named	named	10	nopreview	5	258	0	0	0	0
212	243	@entity35	Lucille	Lucille,	10	nopreview	5	259	306	0	0	0
	244	,	,		10	nopreview	5	260				
213	245	manufactured	manufactured	manufactured	10	nopreview	5	261	489	0	0	0
214	246	exclusively	exclusively	exclusively	10	nopreview	5	262	236	0	0	0
215	247	for	for	for	10	nopreview	5	263	0	0	0	0
216	248	the	the	the	10	nopreview	5	264	286	0	0	0
217	249	-	-	-King	10	nopreview	5	265	0	0	0	0
	250	@entity40	King		10	nopreview	5	266				
218			of	of	10	nopreview	5	267	0	0	0	0
219			the	the	10	nopreview	5	268	362	0	0	0
220			Blues	Blues.-	10	nopreview	5	269	1170	114	16533	114
	251	.	.		10	nopreview	5	270				
221	252	-	-	Some	10	nopreview	5	271	0	0	0	0
	253	Some	Some		10	nopreview	5	272				
222	254	of	of	of	10	nopreview	5	273	200	200	200	200
223	255	his	his	his	10	nopreview	5	274	0	0	0	0
224	256	hits	hits	hits	10	nopreview	5	275	303	303	303	303
225	257	include	include	include	10	nopreview	5	276	148	148	148	148
226	258	-	-	-The	10	nopreview	5	277	0	0	0	0
	259	The	The		10	nopreview	5	278				
227	260	Thrill	Thrill	Thrill	10	nopreview	5	279	213	0	0	0
228	261	Is	Is	Is	10	nopreview	5	280	0	0	0	0
229	262	Gone	Gone	Gone,-	10	nopreview	5	281	1278	98	1491	98
	263	,	,		10	nopreview	5	282				
	264	-	-		10	nopreview	5	283				
230	265	which	which	which	10	nopreview	5	284	90	0	0	0
231	266	won	won	won	10	nopreview	5	285	230	230	320	230
232	267	him	him	him	10	nopreview	5	286	0	0	0	0
233	268	his	his	his	10	nopreview	5	287	0	0	0	0
234	269	first	first	first	10	nopreview	5	288	253	253	253	253
235	270	Grammy	Grammy	Grammy	10	nopreview	5	289	101	101	101	101
236	271	in	in	in	10	nopreview	5	290	0	0	0	0
237	272	1970	1970	1970,	10	nopreview	5	291	268	268	268	268
	273	,	,		10	nopreview	5	292				
238	274	-	-	-There	10	nopreview	5	293	0	0	0	0
	275	@entity44	There		10	nopreview	5	294				
239			Must	Must	10	nopreview	5	295	335	335	335	191
240			be	be	10	nopreview	5	296	0	0	0	0
241			a	a	10	nopreview	5	297	137	137	137	137
242			Better	Better	10	nopreview	5	298	0	0	0	0
243			World	World	10	nopreview	5	299	166	0	0	0
244			Somewhere	Somewhere-	10	nopreview	5	300	252	102	418	102
	276	-	-		10	nopreview	5	301				
245	277	and	and	and	10	nopreview	5	302	0	0	0	0
246	278	-	-	-When	10	nopreview	5	303	115	0	0	0
	279	@entity45	When		10	nopreview	5	304				
247			Love	Love	10	nopreview	5	305	336	336	451	336
248			Comes	Comes	10	nopreview	5	306	368	368	368	368
249			to	to	10	nopreview	5	307	0	0	0	0
250			Town	Town,-	10	nopreview	5	308	610	610	610	213
	280	,	,		10	nopreview	5	309				
	281	-	-		10	nopreview	5	310				
251	282	a	a	a	10	nopreview	5	311	0	0	0	0
252	283	collaboration	collaboration	collaboration	10	nopreview	5	312	204	204	204	204
253	284	with	with	with	10	nopreview	5	313	0	0	0	0
254	285	@entity47	U2	U2.	10	nopreview	5	314	776	776	776	187
	286	.	.		10	nopreview	5	315				
255	287	Last	Last	Last	10	nopreview	5	316	0	0	0	0
256	288	year	year	year,	10	nopreview	5	317	181	181	181	181
	289	,	,		10	nopreview	5	318				
257	290	the	the	the	10	nopreview	5	319	0	0	0	0
258	291	bluesman	bluesman	bluesman	10	nopreview	5	320	316	316	316	214
259	292	suffered	suffered	suffered	10	nopreview	5	321	288	288	288	288
260	293	from	from	from	10	nopreview	5	322	0	0	0	0
261	294	dehydration	dehydration	dehydration	10	nopreview	5	323	566	566	566	242
262	295	and	and	and	10	nopreview	5	324	0	0	0	0
263	296	exhaustion	exhaustion	exhaustion	10	nopreview	5	325	0	0	0	0
264	297	after	after	after	10	nopreview	5	326	0	0	0	0
265	298	a	a	a	10	nopreview	5	327	0	0	0	0
266	299	show	show	show	10	nopreview	5	328	176	176	176	176
267	300	in	in	in	10	nopreview	5	329	0	0	0	0
268	301	@entity52	Chicago	Chicago,	10	nopreview	5	330	178	178	178	178
	302	,	,		10	nopreview	5	331				
269	303	forcing	forcing	forcing	10	nopreview	5	332	236	0	0	0
270	304	him	him	him	10	nopreview	5	333	0	0	0	0
271	305	to	to	to	10	nopreview	5	334	92	92	328	92
272	306	cancel	cancel	cancel	10	nopreview	5	335	146	146	146	146
273	307	the	the	the	10	nopreview	5	336	0	0	0	0
274	308	remainder	remainder	remainder	10	nopreview	5	337	567	567	567	86
275	309	of	of	of	10	nopreview	5	338	0	0	0	0
276	310	his	his	his	10	nopreview	5	339	0	0	0	0
277	311	tour	tour	tour.	10	nopreview	5	340	0	0	0	0
	312	.	.		10	nopreview	5	341				
