HumanPosition	AnonymizedPosition	AnonymizedToken	OriginalToken	ExperimentToken	Participant	Condition	TextNo	JointPosition	tt	fp	rp	ff	rb	sp
1	0	Many	Many	Many	6	preview	13	1	0	0	0	0	0	0
2	1	animals	animals	animals	6	preview	13	2	330	0	0	0	0	330
3	2	mimic	mimic	mimic	6	preview	13	3	314	0	0	0	0	314
4	3	human	human	human	6	preview	13	4	189	0	0	0	0	189
5	4	traits	traits	traits	6	preview	13	5	212	0	0	0	0	212
6	5	and	and	and	6	preview	13	6	0	0	0	0	0	0
7	6	vice	vice	vice	6	preview	13	7	0	0	0	0	0	0
8	7	versa	versa	versa	6	preview	13	8	0	0	0	0	0	0
9	8	but	but	but	6	preview	13	9	0	0	0	0	0	0
10	9	this	this	this	6	preview	13	10	150	0	0	0	0	150
11	10	puppy	puppy	puppy	6	preview	13	11	0	0	0	0	0	0
12	11	takes	takes	takes	6	preview	13	12	0	0	0	0	0	0
13	12	the	the	the	6	preview	13	13	196	0	0	0	0	196
14	13	biscuit	biscuit	biscuit.	6	preview	13	14	91	0	0	0	0	91
	14	.	.		6	preview	13	15						
15	15	@entity5	Leia	Leia,	6	preview	13	16	0	0	0	0	0	0
	16	,	,		6	preview	13	17						
16	17	an	an	an	6	preview	13	18	0	0	0	0	0	0
17	18	eight	eight	eight-month-old	6	preview	13	19	484	165	1966	165	484	319
	19	-	-		6	preview	13	20						
	20	month	month		6	preview	13	21						
	21	-	-		6	preview	13	22						
	22	old	old		6	preview	13	23						
18	23	@entity6	Boxer	Boxer	6	preview	13	24	469	0	0	0	0	469
19	24	from	from	from	6	preview	13	25	0	0	0	0	0	0
20	25	@entity7	Pennsylvania	Pennsylvania,	6	preview	13	26	313	313	782	161	313	0
	26	,	,		6	preview	13	27						
21	27	was	was	was	6	preview	13	28	0	0	0	0	0	0
22	28	filmed	filmed	filmed	6	preview	13	29	514	514	514	514	514	0
23	29	as	as	as	6	preview	13	30	0	0	0	0	0	0
24	30	she	she	she	6	preview	13	31	0	0	0	0	0	0
25	31	lay	lay	lay	6	preview	13	32	229	229	229	229	229	0
26	32	on	on	on	6	preview	13	33	0	0	0	0	0	0
27	33	the	the	the	6	preview	13	34	0	0	0	0	0	0
28	34	couch	couch	couch	6	preview	13	35	124	124	124	124	124	0
29	35	and	and	and	6	preview	13	36	0	0	0	0	0	0
30	36	latched	latched	latched	6	preview	13	37	234	0	0	0	0	234
31	37	on	on	on	6	preview	13	38	0	0	0	0	0	0
32	38	to	to	to	6	preview	13	39	0	0	0	0	0	0
33	39	a	a	a	6	preview	13	40	128	128	362	128	128	0
34	40	baby	baby	baby-s	6	preview	13	41	0	0	0	0	0	0
	41	-s	-s		6	preview	13	42						
35	42	pacifier	pacifier	pacifier.	6	preview	13	43	223	223	223	223	223	0
	43	.	.		6	preview	13	44						
36	44	Footage	Footage	Footage	6	preview	13	45	0	0	0	0	0	0
37	45	shows	shows	shows	6	preview	13	46	339	339	339	339	339	0
38	46	her	her	her	6	preview	13	47	0	0	0	0	0	0
39	47	then	then	then	6	preview	13	48	151	151	151	151	151	0
40	48	sucking	sucking	sucking	6	preview	13	49	208	0	0	0	0	208
41	49	on	on	on	6	preview	13	50	0	0	0	0	0	0
42	50	it	it	it	6	preview	13	51	245	245	453	245	245	0
43	51	before	before	before	6	preview	13	52	0	0	0	0	0	0
44	52	closing	closing	closing	6	preview	13	53	252	0	0	0	0	252
45	53	her	her	her	6	preview	13	54	0	0	0	0	0	0
46	54	eyes	eyes	eyes	6	preview	13	55	144	144	396	144	144	0
47	55	and	and	and	6	preview	13	56	166	166	166	166	166	0
48	56	loudly	loudly	loudly	6	preview	13	57	0	0	0	0	0	0
49	57	snoring	snoring	snoring	6	preview	13	58	0	0	0	0	0	0
50	58	in	in	in	6	preview	13	59	167	167	167	167	167	0
51	59	her	her	her	6	preview	13	60	0	0	0	0	0	0
52	60	sleep	sleep	sleep.	6	preview	13	61	133	133	133	133	133	0
	61	.	.		6	preview	13	62						
53	62	A	A	A	6	preview	13	63	0	0	0	0	0	0
54	63	soothing	soothing	soothing	6	preview	13	64	444	0	0	0	0	444
55	64	rendition	rendition	rendition	6	preview	13	65	445	313	313	313	313	132
56	65	of	of	of	6	preview	13	66	0	0	0	0	0	0
57	66	@entity16	Twinkle	Twinkle,	6	preview	13	67	223	223	629	223	223	0
			,		6	preview	13	68						
58			Twinkle	Twinkle	6	preview	13	69	237	0	0	0	0	237
59			Little	Little	6	preview	13	70	179	179	416	179	179	0
60			Star	Star	6	preview	13	71	0	0	0	0	0	0
61	67	is	is	is	6	preview	13	72	0	0	0	0	0	0
62	68	heard	heard	heard	6	preview	13	73	0	0	0	0	0	0
63	69	playing	playing	playing	6	preview	13	74	223	223	393	223	223	0
64	70	away	away	away	6	preview	13	75	146	146	146	146	146	0
65	71	in	in	in	6	preview	13	76	0	0	0	0	0	0
66	72	the	the	the	6	preview	13	77	0	0	0	0	0	0
67	73	background	background	background.	6	preview	13	78	0	0	0	0	0	0
	74	.	.		6	preview	13	79						
68	75	The	The	The	6	preview	13	80	0	0	0	0	0	0
69	76	pup	pup	pup-s	6	preview	13	81	286	286	286	286	286	0
	77	-s	-s		6	preview	13	82						
70	78	owner	owner	owner,	6	preview	13	83	0	0	0	0	0	0
	79	,	,		6	preview	13	84						
71	80	@entity18	Dave	Dave	6	preview	13	85	151	151	151	151	151	0
72			McK	McK,	6	preview	13	86	0	0	0	0	0	0
	81	,	,		6	preview	13	87						
73	82	says	says	says	6	preview	13	88	415	415	415	245	415	0
74	83	that	that	that	6	preview	13	89	0	0	0	0	0	0
75	84	apparently	apparently	apparently	6	preview	13	90	220	220	220	220	220	0
76	85	@entity5	Leia	Leia	6	preview	13	91	0	0	0	0	0	0
77	86	loves	loves	loves	6	preview	13	92	449	449	449	364	449	0
78	87	to	to	to	6	preview	13	93	0	0	0	0	0	0
79	88	suck	suck	suck	6	preview	13	94	0	0	0	0	0	0
80	89	on	on	on	6	preview	13	95	0	0	0	0	0	0
81	90	her	her	her	6	preview	13	96	0	0	0	0	0	0
82	91	pacifier	pacifier	pacifier.	6	preview	13	97	271	271	271	271	271	0
	92	.	.		6	preview	13	98						
83	93	Each	Each	Each	6	preview	13	99	0	0	0	0	0	0
84	94	time	time	time	6	preview	13	100	216	0	0	0	0	216
85	95	around	around	around,	6	preview	13	101	281	175	497	175	281	106
	96	,	,		6	preview	13	102						
86	97	she	she	she	6	preview	13	103	0	0	0	0	0	0
87	98	immediately	immediately	immediately	6	preview	13	104	246	0	0	0	0	246
88	99	falls	falls	falls	6	preview	13	105	147	147	393	147	147	0
89	100	to	to	to	6	preview	13	106	0	0	0	0	0	0
90	101	sleep	sleep	sleep.	6	preview	13	107	0	0	0	0	0	0
	102	.	.		6	preview	13	108						
91	103	To	To	To	6	preview	13	109	0	0	0	0	0	0
92	104	date	date	date	6	preview	13	110	328	0	0	0	0	328
93	105	the	the	the	6	preview	13	111	0	0	0	0	0	0
94	106	video	video	video	6	preview	13	112	155	0	0	0	0	155
95	107	of	of	of	6	preview	13	113	0	0	0	0	0	0
96	108	@entity5	Leia	Leia	6	preview	13	114	147	147	630	147	147	0
97	109	has	has	has	6	preview	13	115	0	0	0	0	0	0
98	110	garnered	garnered	garnered	6	preview	13	116	0	0	0	0	0	0
99	111	more	more	more	6	preview	13	117	181	181	181	181	181	0
100	112	than	than	than	6	preview	13	118	0	0	0	0	0	0
101	113	145,000	145,000	145,000	6	preview	13	119	115	115	115	115	115	0
102	114	likes	likes	likes	6	preview	13	120	148	0	0	0	0	148
103	115	on	on	on	6	preview	13	121	0	0	0	0	0	0
104	116	@entity23	Facebook	Facebook,	6	preview	13	122	157	157	305	157	157	0
	117	,	,		6	preview	13	123						
105	118	with	with	with	6	preview	13	124	0	0	0	0	0	0
106	119	many	many	many	6	preview	13	125	179	179	179	179	179	0
107	120	viewers	viewers	viewers	6	preview	13	126	0	0	0	0	0	0
108	121	deeming	deeming	deeming	6	preview	13	127	176	176	176	176	176	0
109	122	the	the	the	6	preview	13	128	0	0	0	0	0	0
110	123	scene	scene	scene	6	preview	13	129	0	0	0	0	0	0
111	124	-	-	-cute-	6	preview	13	130	164	0	0	0	0	164
	125	cute	cute		6	preview	13	131						
	126	-	-		6	preview	13	132						
112	127	and	and	and	6	preview	13	133	208	208	372	208	208	0
113	128	-	-	-adorable-.	6	preview	13	134	0	0	0	0	0	0
	129	adorable	adorable		6	preview	13	135						
	130	-	-		6	preview	13	136						
	131	.	.		6	preview	13	137						
114	132	-	-	-This	6	preview	13	138	443	443	443	443	443	0
	133	This	This		6	preview	13	139						
115	134	has	has	has	6	preview	13	140	0	0	0	0	0	0
116	135	made	made	made	6	preview	13	141	0	0	0	0	0	0
117	136	my	my	my	6	preview	13	142	128	0	0	0	0	128
118	137	night	night	night,-	6	preview	13	143	0	0	0	0	0	0
	138	,	,		6	preview	13	144						
119	139	-	-	one	6	preview	13	145	0	0	0	0	0	0
120	140	one	one	fan	6	preview	13	146	0	0	0	0	0	0
121	141	fan	fan	exclaimed,	6	preview	13	147	149	149	277	149	149	0
	142	exclaimed	exclaimed		6	preview	13	148						
	143	,	,		6	preview	13	149						
122	144	while	while	while	6	preview	13	150	0	0	0	0	0	0
123	145	another	another	another	6	preview	13	151	0	0	0	0	0	0
124	146	added	added	added:	6	preview	13	152	0	0	0	0	0	0
125	147	:	:	-That	6	preview	13	153	0	0	0	0	0	0
	148	-	-		6	preview	13	154						
	149	That	That		6	preview	13	155						
126	150	is	is	is	6	preview	13	156	0	0	0	0	0	0
127	151	the	the	the	6	preview	13	157	0	0	0	0	0	0
128	152	cutest	cutest	cutest	6	preview	13	158	0	0	0	0	0	0
129	153	thing	thing	thing	6	preview	13	159	0	0	0	0	0	0
130	154	I	I	I-ve	6	preview	13	160	0	0	0	0	0	0
	155	-ve	-ve		6	preview	13	161						
131	156	ever	ever	ever	6	preview	13	162	0	0	0	0	0	0
132	157	seen	seen	seen!-	6	preview	13	163	0	0	0	0	0	0
	158	!	!		6	preview	13	164						
	159	-	-		6	preview	13	165						
133	160	When	When	When	6	preview	13	166	0	0	0	0	0	0
134	161	she	she	she-s	6	preview	13	167	0	0	0	0	0	0
	162	-s	-s		6	preview	13	168						
135	163	not	not	not	6	preview	13	169	0	0	0	0	0	0
136	164	snoozing	snoozing	snoozing,	6	preview	13	170	0	0	0	0	0	0
	165	,	,		6	preview	13	171						
137	166	@entity5	Leia	Leia	6	preview	13	172	206	0	0	0	0	206
138	167	is	is	is	6	preview	13	173	0	0	0	0	0	0
139	168	usually	usually	usually	6	preview	13	174	0	0	0	0	0	0
140	169	getting	getting	getting	6	preview	13	175	228	0	0	0	0	228
141	170	up	up	up	6	preview	13	176	0	0	0	0	0	0
142	171	to	to	to	6	preview	13	177	0	0	0	0	0	0
143	172	mischief	mischief	mischief	6	preview	13	178	209	0	0	0	0	209
144	173	with	with	with	6	preview	13	179	0	0	0	0	0	0
145	174	her	her	her	6	preview	13	180	0	0	0	0	0	0
146	175	older	older	older	6	preview	13	181	379	0	0	0	0	379
147	176	brother	brother	brother	6	preview	13	182	0	0	0	0	0	0
148	177	@entity31	Luke	Luke.	6	preview	13	183	375	112	311	112	112	263
	178	.	.		6	preview	13	184						
149	179	Together	Together	Together,	6	preview	13	185	259	259	1345	259	259	0
	180	,	,		6	preview	13	186						
150	181	the	the	the	6	preview	13	187	0	0	0	0	0	0
151	182	canines	canines	canines	6	preview	13	188	0	0	0	0	0	0
152	183	have	have	have	6	preview	13	189	160	160	160	160	160	0
153	184	starred	starred	starred	6	preview	13	190	0	0	0	0	0	0
154	185	in	in	in	6	preview	13	191	0	0	0	0	0	0
155	186	numerous	numerous	numerous	6	preview	13	192	201	201	201	201	201	0
156	187	videos	videos	videos	6	preview	13	193	146	146	146	146	146	0
157	188	via	via	via	6	preview	13	194	0	0	0	0	0	0
158	189	@entity23	Facebook	Facebook	6	preview	13	195	0	0	0	0	0	0
159	190	and	and	and	6	preview	13	196	0	0	0	0	0	0
160	191	@entity34	YouTube	YouTube.	6	preview	13	197	0	0	0	0	0	0
	192	.	.		6	preview	13	198						
161	193	They	They	They	6	preview	13	199	0	0	0	0	0	0
162	194	also	also	also	6	preview	13	200	0	0	0	0	0	0
163	195	have	have	have	6	preview	13	201	276	0	0	0	0	276
164	196	their	their	their	6	preview	13	202	146	0	0	0	0	146
165	197	own	own	own	6	preview	13	203	0	0	0	0	0	0
166	198	website	website	website,	6	preview	13	204	196	0	0	0	0	196
	199	,	,		6	preview	13	205						
167	200	www.luketheboxer.com	www.luketheboxer.com	www.luketheboxer.com,	6	preview	13	206	904	0	0	0	0	904
168	201	where	where	where	6	preview	13	207	0	0	0	0	0	0
169	202	fans	fans	fans	6	preview	13	208	0	0	0	0	0	0
170	203	can	can	can	6	preview	13	209	0	0	0	0	0	0
171	204	buy	buy	buy	6	preview	13	210	228	228	1750	228	228	0
172	205	calendars	calendars	calendars	6	preview	13	211	149	149	149	149	149	0
173	206	with	with	with	6	preview	13	212	0	0	0	0	0	0
174	207	their	their	their	6	preview	13	213	0	0	0	0	0	0
175	208	photographs	photographs	photographs	6	preview	13	214	0	0	0	0	0	0
176	209	on	on	on.	6	preview	13	215	0	0	0	0	0	0
	210	.	.		6	preview	13	216						
