HumanPosition	AnonymizedPosition	AnonymizedToken	OriginalToken	ExperimentToken	Participant	Condition	TextNo	JointPosition	tt	fp	rp	ff	rb	sp
1	0	One	One	One	6	preview	14	1	0	0	0	0	0	0
2	1	@entity1	Wall	Wall	6	preview	14	2	0	0	0	0	0	0
3			Street	Street	6	preview	14	3	254	0	0	0	0	254
4	2	trader	trader	trader	6	preview	14	4	0	0	0	0	0	0
5	3	closed	closed	closed	6	preview	14	5	248	0	0	0	0	248
6	4	out	out	out	6	preview	14	6	0	0	0	0	0	0
7	5	his	his	his	6	preview	14	7	390	0	0	0	0	390
8	6	week	week	week	6	preview	14	8	330	0	0	0	0	330
9	7	a	a	a	6	preview	14	9	0	0	0	0	0	0
10	8	few	few	few	6	preview	14	10	0	0	0	0	0	0
11	9	million	million	million	6	preview	14	11	198	0	0	0	0	198
12	10	dollars	dollars	dollars	6	preview	14	12	236	0	0	0	0	236
13	11	richer	richer	richer	6	preview	14	13	312	0	0	0	0	312
14	12	last	last	last	6	preview	14	14	0	0	0	0	0	0
15	13	Friday	Friday	Friday	6	preview	14	15	159	0	0	0	0	159
16	14	-	-	-	6	preview	14	16	0	0	0	0	0	0
17	15	and	and	and	6	preview	14	17	0	0	0	0	0	0
18	16	it	it	it	6	preview	14	18	0	0	0	0	0	0
19	17	was	was	was	6	preview	14	19	201	0	0	0	0	201
20	18	all	all	all	6	preview	14	20	0	0	0	0	0	0
21	19	thanks	thanks	thanks	6	preview	14	21	225	0	0	0	0	225
22	20	to	to	to	6	preview	14	22	0	0	0	0	0	0
23	21	social	social	social	6	preview	14	23	250	0	0	0	0	250
24	22	media	media	media.	6	preview	14	24	240	0	0	0	0	240
	23	.	.		6	preview	14	25						
25	24	The	The	The	6	preview	14	26	0	0	0	0	0	0
26	25	unnamed	unnamed	unnamed	6	preview	14	27	394	0	0	0	0	394
27	26	trader	trader	trader	6	preview	14	28	0	0	0	0	0	0
28	27	used	used	used	6	preview	14	29	177	0	0	0	0	177
29	28	perfect	perfect	perfect	6	preview	14	30	414	0	0	0	0	414
30	29	timing	timing	timing	6	preview	14	31	0	0	0	0	0	0
31	30	to	to	to	6	preview	14	32	0	0	0	0	0	0
32	31	capitalize	capitalize	capitalize	6	preview	14	33	221	0	0	0	0	221
33	32	on	on	on	6	preview	14	34	0	0	0	0	0	0
34	33	one	one	one	6	preview	14	35	146	0	0	0	0	146
35	34	of	of	of	6	preview	14	36	0	0	0	0	0	0
36	35	the	the	the	6	preview	14	37	0	0	0	0	0	0
37	36	biggest	biggest	biggest	6	preview	14	38	505	0	0	0	0	505
38	37	deals	deals	deals	6	preview	14	39	0	0	0	0	0	0
39	38	of	of	of	6	preview	14	40	0	0	0	0	0	0
40	39	the	the	the	6	preview	14	41	0	0	0	0	0	0
41	40	year	year	year	6	preview	14	42	0	0	0	0	0	0
42	41	when	when	when	6	preview	14	43	235	0	0	0	0	235
43	42	@entity10	Wall	Wall	6	preview	14	44	0	0	0	0	0	0
44			Street	Street	6	preview	14	45	597	0	0	0	0	597
45			Journal	Journal	6	preview	14	46	163	0	0	0	0	163
46	43	mergers	mergers	mergers	6	preview	14	47	136	0	0	0	0	136
47	44	and	and	and	6	preview	14	48	0	0	0	0	0	0
48	45	acquisitions	acquisitions	acquisitions	6	preview	14	49	1008	0	0	0	0	1008
49	46	reporter	reporter	reporter	6	preview	14	50	320	0	0	0	0	320
50	47	@entity9	Dana	Dana	6	preview	14	51	671	0	0	0	0	671
51			Mattioli	Mattioli	6	preview	14	52	1253	0	0	0	0	1253
52	48	took	took	took	6	preview	14	53	201	0	0	0	0	201
53	49	to	to	to	6	preview	14	54	334	0	0	0	0	334
54	50	@entity11	Twitter	Twitter	6	preview	14	55	449	0	0	0	0	449
55	51	to	to	to	6	preview	14	56	206	0	0	0	0	206
56	52	announce	announce	announce	6	preview	14	57	583	0	0	0	0	583
57	53	that	that	that	6	preview	14	58	132	0	0	0	0	132
58	54	@entity12	Intel	Intel	6	preview	14	59	398	0	0	0	0	398
59	55	was	was	was	6	preview	14	60	0	0	0	0	0	0
60	56	in	in	in	6	preview	14	61	0	0	0	0	0	0
61	57	talks	talks	talks	6	preview	14	62	0	0	0	0	0	0
62	58	to	to	to	6	preview	14	63	558	0	0	0	0	558
63	59	buy	buy	buy	6	preview	14	64	181	0	0	0	0	181
64	60	one	one	one	6	preview	14	65	0	0	0	0	0	0
65	61	of	of	of	6	preview	14	66	155	0	0	0	0	155
66	62	its	its	its	6	preview	14	67	258	0	0	0	0	258
67	63	competitors	competitors	competitors,	6	preview	14	68	947	0	0	0	0	947
	64	,	,		6	preview	14	69						
68	65	chipmaker	chipmaker	chipmaker	6	preview	14	70	778	0	0	0	0	778
69	66	@entity16	Altera	Altera.	6	preview	14	71	218	0	0	0	0	218
	67	.	.		6	preview	14	72						
70	68	Seconds	Seconds	Seconds	6	preview	14	73	986	0	0	0	0	986
71	69	later	later	later,	6	preview	14	74	0	0	0	0	0	0
	70	,	,		6	preview	14	75						
72	71	the	the	the	6	preview	14	76	355	0	0	0	0	355
73	72	trader	trader	trader	6	preview	14	77	588	0	0	0	0	588
74	73	had	had	had	6	preview	14	78	0	0	0	0	0	0
75	74	snapped	snapped	snapped	6	preview	14	79	189	0	0	0	0	189
76	75	up	up	up	6	preview	14	80	0	0	0	0	0	0
77	76	3,158	3,158	3,158	6	preview	14	81	267	0	0	0	0	267
78	77	contracts	contracts	contracts	6	preview	14	82	509	146	11865	146	304	363
79	78	of	of	of	6	preview	14	83	0	0	0	0	0	0
80	79	@entity16	Altera	Altera,	6	preview	14	84	590	411	616	411	411	179
	80	,	,		6	preview	14	85						
81	81	with	with	with	6	preview	14	86	799	0	0	0	0	799
82	82	each	each	each	6	preview	14	87	1023	0	0	0	0	1023
83	83	option	option	option	6	preview	14	88	914	222	1355	222	222	692
84	84	contract	contract	contract	6	preview	14	89	985	218	595	218	218	767
85	85	giving	giving	giving	6	preview	14	90	636	327	327	327	327	309
86	86	them	them	them	6	preview	14	91	191	191	191	191	191	0
87	87	the	the	the	6	preview	14	92	0	0	0	0	0	0
88	88	right	right	right	6	preview	14	93	262	262	262	262	262	0
89	89	to	to	to	6	preview	14	94	0	0	0	0	0	0
90	90	purchase	purchase	purchase	6	preview	14	95	383	0	0	0	0	383
91	91	100	100	100	6	preview	14	96	0	0	0	0	0	0
92	92	shares	shares	shares.	6	preview	14	97	602	119	2575	119	200	483
	93	.	.		6	preview	14	98						
93	94	Scroll	Scroll	CNBC	6	preview	14	99	410	0	0	0	0	410
	95	down	down		6	preview	14	100						
	96	for	for		6	preview	14	101						
	97	video	video		6	preview	14	102						
	98	An	An		6	preview	14	103						
	99	unnamed	unnamed		6	preview	14	104						
	100	@entity1	Wall		6	preview	14	105						
			Street		6	preview	14	106						
	101	trader	trader		6	preview	14	107						
	102	made	made		6	preview	14	108						
	103	a	a		6	preview	14	109						
	104	profit	profit		6	preview	14	110						
	105	of	of		6	preview	14	111						
	106	approximately	approximately		6	preview	14	112						
	107	$	$		6	preview	14	113						
	108	2.5million	2.5million		6	preview	14	114						
	109	on	on		6	preview	14	115						
	110	Friday	Friday		6	preview	14	116						
	111	thanks	thanks		6	preview	14	117						
	112	to	to		6	preview	14	118						
	113	a	a		6	preview	14	119						
	114	tweet	tweet		6	preview	14	120						
	115	from	from		6	preview	14	121						
	116	the	the		6	preview	14	122						
	117	@entity10	Wall		6	preview	14	123						
			Street		6	preview	14	124						
			Journal		6	preview	14	125						
	118	The	The		6	preview	14	126						
	119	trader	trader		6	preview	14	127						
	120	purchased	purchased		6	preview	14	128						
	121	315,800	315,800		6	preview	14	129						
	122	shares	shares		6	preview	14	130						
	123	of	of		6	preview	14	131						
	124	chipmaker	chipmaker		6	preview	14	132						
	125	@entity16	Altera		6	preview	14	133						
	126	one	one		6	preview	14	134						
	127	minute	minute		6	preview	14	135						
	128	after	after		6	preview	14	136						
	129	the	the		6	preview	14	137						
	130	@entity10	Journal		6	preview	14	138						
	131	reported	reported		6	preview	14	139						
	132	@entity12	Intel		6	preview	14	140						
	133	was	was		6	preview	14	141						
	134	in	in		6	preview	14	142						
	135	talks	talks		6	preview	14	143						
	136	to	to		6	preview	14	144						
	137	purchase	purchase		6	preview	14	145						
	138	them	them		6	preview	14	146						
	139	@entity32	CNBC		6	preview	14	147						
94	140	reports	reports	reports	6	preview	14	148	851	430	430	147	430	421
95	141	that	that	that	6	preview	14	149	0	0	0	0	0	0
96	142	the	the	the	6	preview	14	150	152	0	0	0	0	152
97	143	trader	trader	trader	6	preview	14	151	447	0	0	0	0	447
98	144	paid	paid	paid	6	preview	14	152	0	0	0	0	0	0
99	145	$	$	$36	6	preview	14	153	540	184	615	184	383	356
	146	36	36		6	preview	14	154						
100	147	a	a	a	6	preview	14	155	0	0	0	0	0	0
101	148	share	share	share,	6	preview	14	156	287	162	162	162	162	125
	149	,	,		6	preview	14	157						
102	150	and	and	and	6	preview	14	158	126	0	0	0	0	126
103	151	the	the	the	6	preview	14	159	361	203	203	203	203	158
104	152	call	call	call	6	preview	14	160	172	0	0	0	0	172
105	153	option	option	option	6	preview	14	161	116	0	0	0	0	116
106	154	was	was	was	6	preview	14	162	1586	0	0	0	0	1586
107	155	a	a	a	6	preview	14	163	154	0	0	0	0	154
108	156	mere	mere	mere	6	preview	14	164	626	0	0	0	0	626
109	157	35	35	35	6	preview	14	165	713	139	1882	139	460	574
110	158	cents	cents	cents	6	preview	14	166	634	239	239	239	239	395
111	159	as	as	as	6	preview	14	167	0	0	0	0	0	0
112	160	options	options	options	6	preview	14	168	493	0	0	0	0	493
113	161	on	on	on	6	preview	14	169	303	303	10362	303	303	0
114	162	the	the	the	6	preview	14	170	0	0	0	0	0	0
115	163	stock	stock	stock,	6	preview	14	171	181	181	433	181	181	0
	164	,	,		6	preview	14	172						
116	165	at	at	at	6	preview	14	173	233	0	0	0	0	233
117	166	that	that	that	6	preview	14	174	81	81	81	81	81	0
118	167	point	point	point	6	preview	14	175	426	132	132	132	132	294
119	168	valued	valued	valued	6	preview	14	176	217	0	0	0	0	217
120	169	at	at	at	6	preview	14	177	0	0	0	0	0	0
121	170	$	$	$34.76	6	preview	14	178	660	370	1404	370	660	290
	171	34.76	34.76		6	preview	14	179						
122	172	a	a	a	6	preview	14	180	0	0	0	0	0	0
123	173	share	share	share,	6	preview	14	181	178	0	0	0	0	178
	174	,	,		6	preview	14	182						
124	175	were	were	were	6	preview	14	183	284	0	0	0	0	284
125	176	set	set	set	6	preview	14	184	242	0	0	0	0	242
126	177	to	to	to	6	preview	14	185	0	0	0	0	0	0
127	178	expire	expire	expire	6	preview	14	186	327	148	1031	148	327	179
128	179	in	in	in	6	preview	14	187	0	0	0	0	0	0
129	180	just	just	just	6	preview	14	188	0	0	0	0	0	0
130	181	a	a	a	6	preview	14	189	0	0	0	0	0	0
131	182	few	few	few	6	preview	14	190	224	224	224	224	224	0
132	183	weeks	weeks	weeks.	6	preview	14	191	0	0	0	0	0	0
	184	.	.		6	preview	14	192						
133	185	3:32pm	3:32pm	When	6	preview	14	193	0	0	0	0	0	0
	186	:	:		6	preview	14	194						
	187	The	The		6	preview	14	195						
134	188	@entity10	Wall	the	6	preview	14	196	131	0	0	0	0	131
			Street		6	preview	14	197						
			Journal		6	preview	14	198						
	189	reports	reports		6	preview	14	199						
	190	that	that		6	preview	14	200						
135	191	@entity12	Intel	market	6	preview	14	201	280	280	280	280	280	0
	192	is	is		6	preview	14	202						
	193	in	in		6	preview	14	203						
	194	talks	talks		6	preview	14	204						
	195	to	to		6	preview	14	205						
	196	buy	buy		6	preview	14	206						
	197	@entity16	Altera		6	preview	14	207						
	198	.	.		6	preview	14	208						
	199	3:33pm	3:33pm		6	preview	14	209						
	200	:	:		6	preview	14	210						
	201	Trader	Trader		6	preview	14	211						
	202	purchases	purchases		6	preview	14	212						
	203	315,800	315,800		6	preview	14	213						
	204	shares	shares		6	preview	14	214						
	205	of	of		6	preview	14	215						
	206	@entity16	Altera		6	preview	14	216						
	207	at	at		6	preview	14	217						
	208	$	$		6	preview	14	218						
	209	36	36		6	preview	14	219						
	210	a	a		6	preview	14	220						
	211	share	share		6	preview	14	221						
	212	for	for		6	preview	14	222						
	213	a	a		6	preview	14	223						
	214	total	total		6	preview	14	224						
	215	cost	cost		6	preview	14	225						
	216	of	of		6	preview	14	226						
	217	$	$		6	preview	14	227						
	218	11,368,000	11,368,000		6	preview	14	228						
	219	plus	plus		6	preview	14	229						
	220	$	$		6	preview	14	230						
	221	110,530	110,530		6	preview	14	231						
	222	for	for		6	preview	14	232						
	223	a	a		6	preview	14	233						
	224	$	$		6	preview	14	234						
	225	0.35	0.35		6	preview	14	235						
	226	call	call		6	preview	14	236						
	227	option	option		6	preview	14	237						
	228	.	.		6	preview	14	238						
	229	3:35pm	3:35pm		6	preview	14	239						
	230	:	:		6	preview	14	240						
	231	@entity46	Nasdaq		6	preview	14	241						
	232	suspends	suspends		6	preview	14	242						
	233	trading	trading		6	preview	14	243						
	234	of	of		6	preview	14	244						
	235	@entity16	Altera		6	preview	14	245						
	236	in	in		6	preview	14	246						
	237	the	the		6	preview	14	247						
	238	wake	wake		6	preview	14	248						
136	239	of	of	closed	6	preview	14	249	275	275	406	275	275	0
	240	the	the		6	preview	14	250						
	241	@entity10	Journal		6	preview	14	251						
	242	-s	-s		6	preview	14	252						
	243	tweet	tweet		6	preview	14	253						
	244	.	.		6	preview	14	254						
	245	4:00pm	4:00pm		6	preview	14	255						
	246	:	:		6	preview	14	256						
	247	Trader	Trader		6	preview	14	257						
	248	sells	sells		6	preview	14	258						
	249	@entity16	Altera		6	preview	14	259						
	250	at	at		6	preview	14	260						
	251	the	the		6	preview	14	261						
	252	new	new		6	preview	14	262						
	253	share	share		6	preview	14	263						
	254	price	price		6	preview	14	264						
	255	of	of		6	preview	14	265						
	256	$	$		6	preview	14	266						
	257	44.39	44.39		6	preview	14	267						
	258	for	for		6	preview	14	268						
	259	a	a		6	preview	14	269						
	260	total	total		6	preview	14	270						
	261	of	of		6	preview	14	271						
	262	$	$		6	preview	14	272						
	263	14,018,362	14,018,362		6	preview	14	273						
	264	.	.		6	preview	14	274						
	265	This	This		6	preview	14	275						
	266	,	,		6	preview	14	276						
	267	after	after		6	preview	14	277						
	268	factoring	factoring		6	preview	14	278						
	269	in	in		6	preview	14	279						
	270	the	the		6	preview	14	280						
	271	intital	intital		6	preview	14	281						
	272	share	share		6	preview	14	282						
	273	price	price		6	preview	14	283						
	274	and	and		6	preview	14	284						
	275	call	call		6	preview	14	285						
	276	option	option		6	preview	14	286						
	277	,	,		6	preview	14	287						
	278	leaves	leaves		6	preview	14	288						
	279	them	them		6	preview	14	289						
	280	with	with		6	preview	14	290						
	281	a	a		6	preview	14	291						
	282	profit	profit		6	preview	14	292						
	283	of	of		6	preview	14	293						
	284	approximately	approximately		6	preview	14	294						
	285	$	$		6	preview	14	295						
	286	2,539.832	2,539.832		6	preview	14	296						
	287	.	.		6	preview	14	297						
	288	This	This		6	preview	14	298						
	289	call	call		6	preview	14	299						
	290	option	option		6	preview	14	300						
	291	allowed	allowed		6	preview	14	301						
137	292	the	the	for	6	preview	14	302	0	0	0	0	0	0
138	293	trader	trader	the	6	preview	14	303	0	0	0	0	0	0
	294	the	the		6	preview	14	304						
139	295	right	right	day,	6	preview	14	305	0	0	0	0	0	0
	296	to	to		6	preview	14	306						
	297	purchase	purchase		6	preview	14	307						
	298	more	more		6	preview	14	308						
	299	shares	shares		6	preview	14	309						
	300	in	in		6	preview	14	310						
140	301	the	the	Altera	6	preview	14	311	0	0	0	0	0	0
	302	company	company		6	preview	14	312						
	303	,	,		6	preview	14	313						
	304	in	in		6	preview	14	314						
	305	this	this		6	preview	14	315						
	306	case	case		6	preview	14	316						
	307	315,800	315,800		6	preview	14	317						
	308	shares	shares		6	preview	14	318						
	309	,	,		6	preview	14	319						
	310	at	at		6	preview	14	320						
	311	the	the		6	preview	14	321						
	312	cost	cost		6	preview	14	322						
	313	of	of		6	preview	14	323						
	314	$	$		6	preview	14	324						
	315	36	36		6	preview	14	325						
	316	,	,		6	preview	14	326						
	317	even	even		6	preview	14	327						
	318	though	though		6	preview	14	328						
	319	the	the		6	preview	14	329						
	320	value	value		6	preview	14	330						
	321	of	of		6	preview	14	331						
	322	shares	shares		6	preview	14	332						
	323	quickly	quickly		6	preview	14	333						
	324	began	began		6	preview	14	334						
	325	to	to		6	preview	14	335						
	326	rise	rise		6	preview	14	336						
	327	.	.		6	preview	14	337						
	328	Just	Just		6	preview	14	338						
	329	28	28		6	preview	14	339						
	330	minutes	minutes		6	preview	14	340						
	331	later	later		6	preview	14	341						
141	332	,	,	was	6	preview	14	342	360	0	0	0	0	360
142	333	when	when	valued	6	preview	14	343	208	208	365	208	208	0
	334	the	the		6	preview	14	344						
	335	market	market		6	preview	14	345						
	336	closed	closed		6	preview	14	346						
	337	for	for		6	preview	14	347						
	338	the	the		6	preview	14	348						
	339	day	day		6	preview	14	349						
	340	,	,		6	preview	14	350						
	341	@entity16	Altera		6	preview	14	351						
	342	was	was		6	preview	14	352						
	343	valued	valued		6	preview	14	353						
143	344	at	at	at	6	preview	14	354	0	0	0	0	0	0
144	345	$	$	$44.39	6	preview	14	355	298	0	0	0	0	298
	346	44.39	44.39		6	preview	14	356						
145	347	per	per	per	6	preview	14	357	173	173	674	173	173	0
146	348	share	share	share.	6	preview	14	358	0	0	0	0	0	0
	349	.	.		6	preview	14	359						
147	350	That	That	That	6	preview	14	360	0	0	0	0	0	0
148	351	was	was	was	6	preview	14	361	225	225	225	225	225	0
149	352	an	an	an	6	preview	14	362	0	0	0	0	0	0
150	353	increase	increase	increase	6	preview	14	363	0	0	0	0	0	0
151	354	of	of	of	6	preview	14	364	211	211	211	211	211	0
152	355	28	28	28%,	6	preview	14	365	228	228	228	228	228	0
	356	%	%		6	preview	14	366						
	357	,	,		6	preview	14	367						
153	358	but	but	but	6	preview	14	368	208	0	0	0	0	208
154	359	because	because	because	6	preview	14	369	389	234	234	234	234	155
155	360	of	of	of	6	preview	14	370	0	0	0	0	0	0
156	361	the	the	the	6	preview	14	371	0	0	0	0	0	0
157	362	call	call	call	6	preview	14	372	543	0	0	0	0	543
158	363	option	option	option,	6	preview	14	373	543	0	0	0	0	543
	364	,	,		6	preview	14	374						
159	365	the	the	the	6	preview	14	375	140	140	396	140	140	0
160	366	trader	trader	trader	6	preview	14	376	135	0	0	0	0	135
161	367	was	was	was	6	preview	14	377	204	204	204	204	204	0
162	368	able	able	able	6	preview	14	378	0	0	0	0	0	0
163	369	to	to	to	6	preview	14	379	0	0	0	0	0	0
164	370	sell	sell	sell	6	preview	14	380	127	0	0	0	0	127
165	371	their	their	their	6	preview	14	381	258	258	258	258	258	0
166	372	stocks	stocks	stocks	6	preview	14	382	448	229	1903	229	448	219
167	373	at	at	at	6	preview	14	383	0	0	0	0	0	0
168	374	a	a	a	6	preview	14	384	0	0	0	0	0	0
169	375	far	far	far	6	preview	14	385	247	247	247	247	247	0
170	376	greater	greater	greater	6	preview	14	386	0	0	0	0	0	0
171	377	profit	profit	profit.	6	preview	14	387	264	264	264	264	264	0
	378	.	.		6	preview	14	388						
172	379	So	So	So	6	preview	14	389	235	235	235	235	235	0
173	380	instead	instead	instead	6	preview	14	390	0	0	0	0	0	0
174	381	of	of	of	6	preview	14	391	97	0	0	0	0	97
175	382	making	making	making	6	preview	14	392	269	0	0	0	0	269
176	383	a	a	a	6	preview	14	393	0	0	0	0	0	0
177	384	28	28	28%	6	preview	14	394	408	0	0	0	0	408
	385	%	%		6	preview	14	395						
178	386	profit	profit	profit,	6	preview	14	396	746	0	0	0	0	746
	387	,	,		6	preview	14	397						
179	388	the	the	the	6	preview	14	398	0	0	0	0	0	0
180	389	trader	trader	trader	6	preview	14	399	342	0	0	0	0	342
181	390	made	made	made	6	preview	14	400	242	0	0	0	0	242
182	391	a	a	a	6	preview	14	401	0	0	0	0	0	0
183	392	2,220	2,220	2,220%	6	preview	14	402	659	0	0	0	0	659
	393	%	%		6	preview	14	403						
184	394	profit	profit	profit	6	preview	14	404	0	0	0	0	0	0
185	395	of	of	of	6	preview	14	405	0	0	0	0	0	0
186	396	roughly	roughly	roughly	6	preview	14	406	301	0	0	0	0	301
187	397	$	$	$2.5million	6	preview	14	407	802	256	2688	256	802	546
	398	2.5million	2.5million		6	preview	14	408						
188	399	when	when	when	6	preview	14	409	0	0	0	0	0	0
189	400	they	they	they	6	preview	14	410	172	0	0	0	0	172
190	401	sold	sold	sold	6	preview	14	411	169	0	0	0	0	169
191	402	their	their	their	6	preview	14	412	0	0	0	0	0	0
192	403	shares	shares	shares.	6	preview	14	413	214	214	1733	214	214	0
	404	.	.		6	preview	14	414						
193	405	Even	Even	Even	6	preview	14	415	182	0	0	0	0	182
194	406	more	more	more	6	preview	14	416	189	189	371	189	189	0
195	407	impressive	impressive	impressive	6	preview	14	417	201	201	201	201	201	0
196	408	is	is	is	6	preview	14	418	0	0	0	0	0	0
197	409	that	that	that	6	preview	14	419	0	0	0	0	0	0
198	410	the	the	the	6	preview	14	420	230	230	230	230	230	0
199	411	trader	trader	trader	6	preview	14	421	0	0	0	0	0	0
200	412	managed	managed	managed	6	preview	14	422	0	0	0	0	0	0
201	413	to	to	to	6	preview	14	423	331	0	0	0	0	331
202	414	make	make	make	6	preview	14	424	0	0	0	0	0	0
203	415	the	the	the	6	preview	14	425	0	0	0	0	0	0
204	416	purchase	purchase	purchase	6	preview	14	426	118	118	449	118	118	0
205	417	just	just	just	6	preview	14	427	261	261	261	261	261	0
206	418	minutes	minutes	minutes	6	preview	14	428	251	251	251	251	251	0
207	419	before	before	before	6	preview	14	429	0	0	0	0	0	0
208	420	@entity46	Nasdaq	Nasdaq	6	preview	14	430	303	303	303	303	303	0
209	421	suspended	suspended	suspended	6	preview	14	431	385	385	385	385	385	0
210	422	trading	trading	trading	6	preview	14	432	245	245	245	245	245	0
211	423	of	of	of	6	preview	14	433	0	0	0	0	0	0
212	424	@entity16	Altera	Altera	6	preview	14	434	124	124	124	124	124	0
213	425	because	because	because	6	preview	14	435	239	0	0	0	0	239
214	426	of	of	of	6	preview	14	436	0	0	0	0	0	0
215	427	the	the	the	6	preview	14	437	149	149	388	149	149	0
216	428	tweet	tweet	tweet	6	preview	14	438	521	0	0	0	0	521
217	429	from	from	from	6	preview	14	439	0	0	0	0	0	0
218	430	@entity9	Mattioli	Mattioli.	6	preview	14	440	516	349	870	349	349	167
	431	.	.		6	preview	14	441						
219	432	What	What	What-s	6	preview	14	442	632	235	235	235	235	397
	433	-s	-s		6	preview	14	443						
220	434	more	more	more,	6	preview	14	444	0	0	0	0	0	0
	435	,	,		6	preview	14	445						
221	436	call	call	call	6	preview	14	446	347	206	206	206	206	141
222	437	options	options	options	6	preview	14	447	634	0	0	0	0	634
223	438	for	for	for	6	preview	14	448	160	160	160	160	160	0
224	439	@entity16	Altera	Altera	6	preview	14	449	299	0	0	0	0	299
225	440	had	had	had	6	preview	14	450	355	249	249	249	249	106
226	441	at	at	at	6	preview	14	451	91	91	91	91	91	0
227	442	that	that	that	6	preview	14	452	0	0	0	0	0	0
228	443	point	point	point	6	preview	14	453	151	0	0	0	0	151
229	444	reached	reached	reached	6	preview	14	454	617	0	0	0	0	617
230	445	a	a	a	6	preview	14	455	260	0	0	0	0	260
231	446	price	price	price	6	preview	14	456	124	0	0	0	0	124
232	447	of	of	of	6	preview	14	457	0	0	0	0	0	0
233	448	$	$	$8.10	6	preview	14	458	121	121	566	121	121	0
	449	8.10	8.10		6	preview	14	459						
234	450	by	by	by	6	preview	14	460	0	0	0	0	0	0
235	451	the	the	the	6	preview	14	461	158	158	158	158	158	0
236	452	end	end	end	6	preview	14	462	257	0	0	0	0	257
237	453	of	of	of	6	preview	14	463	0	0	0	0	0	0
238	454	the	the	the	6	preview	14	464	0	0	0	0	0	0
239	455	day	day	day.	6	preview	14	465	0	0	0	0	0	0
	456	.	.		6	preview	14	466						
240	457	There	There	There	6	preview	14	467	0	0	0	0	0	0
241	458	is	is	is	6	preview	14	468	578	267	267	267	267	311
242	459	also	also	also	6	preview	14	469	0	0	0	0	0	0
243	460	a	a	a	6	preview	14	470	0	0	0	0	0	0
244	461	chance	chance	chance,	6	preview	14	471	322	111	3341	111	322	211
	462	,	,		6	preview	14	472						
245	463	reports	reports	reports	6	preview	14	473	131	131	131	131	131	0
246	464	@entity90	Matt	Matt	6	preview	14	474	0	0	0	0	0	0
247			Khouw	Khouw,	6	preview	14	475	452	0	0	0	0	452
	465	,	,		6	preview	14	476						
248	466	that	that	that	6	preview	14	477	0	0	0	0	0	0
249	467	the	the	the	6	preview	14	478	0	0	0	0	0	0
250	468	trader	trader	trader	6	preview	14	479	222	222	674	222	222	0
251	469	could	could	could	6	preview	14	480	247	247	247	247	247	0
252	470	have	have	have	6	preview	14	481	282	0	0	0	0	282
253	471	been	been	been	6	preview	14	482	0	0	0	0	0	0
254	472	aware	aware	aware	6	preview	14	483	303	303	585	303	303	0
255	473	of	of	of	6	preview	14	484	0	0	0	0	0	0
256	474	@entity12	Intel	Intel-s	6	preview	14	485	0	0	0	0	0	0
	475	-s	-s		6	preview	14	486						
257	476	plan	plan	plan	6	preview	14	487	334	334	334	160	334	0
258	477	to	to	to	6	preview	14	488	0	0	0	0	0	0
259	478	buy	buy	buy	6	preview	14	489	169	169	169	169	169	0
260	479	@entity16	Altera	Altera	6	preview	14	490	0	0	0	0	0	0
261	480	early	early	early,	6	preview	14	491	0	0	0	0	0	0
	481	,	,		6	preview	14	492						
262	482	or	or	or	6	preview	14	493	293	0	0	0	0	293
263	483	that	that	that	6	preview	14	494	196	0	0	0	0	196
264	484	they	they	they	6	preview	14	495	538	144	672	144	379	394
265	485	used	used	used	6	preview	14	496	146	0	0	0	0	146
266	486	a	a	a	6	preview	14	497	0	0	0	0	0	0
267	487	bot	bot	bot	6	preview	14	498	596	0	0	0	0	596
268	488	to	to	to	6	preview	14	499	0	0	0	0	0	0
269	489	quickly	quickly	quickly	6	preview	14	500	669	242	242	242	242	427
270	490	buy	buy	buy	6	preview	14	501	0	0	0	0	0	0
271	491	the	the	the	6	preview	14	502	0	0	0	0	0	0
272	492	shares	shares	shares.	6	preview	14	503	179	179	1703	179	179	0
	493	.	.		6	preview	14	504						
273	494	-	-	-A	6	preview	14	505	0	0	0	0	0	0
	495	A	A		6	preview	14	506						
274	496	bot	bot	bot	6	preview	14	507	346	248	248	248	248	98
275	497	is	is	is	6	preview	14	508	176	0	0	0	0	176
276	498	not	not	not	6	preview	14	509	0	0	0	0	0	0
277	499	as	as	as	6	preview	14	510	0	0	0	0	0	0
278	500	outlandish	outlandish	outlandish	6	preview	14	511	149	149	423	149	149	0
279	501	as	as	as	6	preview	14	512	0	0	0	0	0	0
280	502	it	it	it	6	preview	14	513	162	0	0	0	0	162
281	503	sounds	sounds	sounds,-	6	preview	14	514	244	244	406	244	244	0
	504	,	,		6	preview	14	515						
282	505	-	-	Khouw	6	preview	14	516	0	0	0	0	0	0
	506	@entity90	Khouw		6	preview	14	517						
283	507	said	said	said.	6	preview	14	518	0	0	0	0	0	0
	508	.	.		6	preview	14	519						
284	509	-	-	-Traders	6	preview	14	520	263	263	263	263	263	0
	510	Traders	Traders		6	preview	14	521						
285	511	need	need	need	6	preview	14	522	0	0	0	0	0	0
286	512	to	to	to	6	preview	14	523	0	0	0	0	0	0
287	513	aggregate	aggregate	aggregate	6	preview	14	524	348	348	348	348	348	0
288	514	and	and	and	6	preview	14	525	0	0	0	0	0	0
289	515	filter	filter	filter	6	preview	14	526	318	318	318	318	318	0
290	516	through	through	through	6	preview	14	527	0	0	0	0	0	0
291	517	tremendous	tremendous	tremendous	6	preview	14	528	0	0	0	0	0	0
292	518	amounts	amounts	amounts	6	preview	14	529	0	0	0	0	0	0
293	519	of	of	of	6	preview	14	530	0	0	0	0	0	0
294	520	data	data	data	6	preview	14	531	0	0	0	0	0	0
295	521	quickly	quickly	quickly	6	preview	14	532	0	0	0	0	0	0
296	522	and	and	and	6	preview	14	533	0	0	0	0	0	0
297	523	will	will	will	6	preview	14	534	0	0	0	0	0	0
298	524	rely	rely	rely	6	preview	14	535	0	0	0	0	0	0
299	525	on	on	on	6	preview	14	536	0	0	0	0	0	0
300	526	technology	technology	technology	6	preview	14	537	0	0	0	0	0	0
301	527	to	to	to	6	preview	14	538	0	0	0	0	0	0
302	528	help	help	help	6	preview	14	539	0	0	0	0	0	0
303	529	if	if	if	6	preview	14	540	0	0	0	0	0	0
304	530	it	it	it	6	preview	14	541	0	0	0	0	0	0
305	531	is	is	is	6	preview	14	542	0	0	0	0	0	0
306	532	available	available	available.-	6	preview	14	543	203	203	203	203	203	0
	533	.	.		6	preview	14	544						
307	534	-	-	As	6	preview	14	545	0	0	0	0	0	0
308	535	As	As	for	6	preview	14	546	0	0	0	0	0	0
309	536	for	for	Intel-s	6	preview	14	547	141	0	0	0	0	141
	537	@entity12	Intel		6	preview	14	548						
	538	-s	-s		6	preview	14	549						
310	539	reported	reported	reported	6	preview	14	550	0	0	0	0	0	0
311	540	purchase	purchase	purchase	6	preview	14	551	162	0	0	0	0	162
312	541	of	of	of	6	preview	14	552	0	0	0	0	0	0
313	542	@entity16	Altera	Altera,	6	preview	14	553	0	0	0	0	0	0
	543	,	,		6	preview	14	554						
314	544	that	that	that	6	preview	14	555	0	0	0	0	0	0
315	545	still	still	still	6	preview	14	556	177	177	480	177	177	0
316	546	has	has	has	6	preview	14	557	0	0	0	0	0	0
317	547	yet	yet	yet	6	preview	14	558	0	0	0	0	0	0
318	548	to	to	to	6	preview	14	559	0	0	0	0	0	0
319	549	happen	happen	happen.	6	preview	14	560	0	0	0	0	0	0
	550	.	.		6	preview	14	561						
320	551	Meanwhile	Meanwhile	Meanwhile,	6	preview	14	562	248	0	0	0	0	248
	552	,	,		6	preview	14	563						
321	553	@entity12	Intel	Intel	6	preview	14	564	288	130	378	130	130	158
322	554	share	share	share	6	preview	14	565	450	0	0	0	0	450
323	555	prices	prices	prices	6	preview	14	566	230	0	0	0	0	230
324	556	fell	fell	fell	6	preview	14	567	170	0	0	0	0	170
325	557	earlier	earlier	earlier	6	preview	14	568	585	400	570	400	400	185
326	558	this	this	this	6	preview	14	569	0	0	0	0	0	0
327	559	week	week	week	6	preview	14	570	236	236	1029	236	236	0
328	560	in	in	in	6	preview	14	571	0	0	0	0	0	0
329	561	response	response	response	6	preview	14	572	0	0	0	0	0	0
330	562	to	to	to	6	preview	14	573	0	0	0	0	0	0
331	563	the	the	the	6	preview	14	574	226	226	226	226	226	0
332	564	news	news	news	6	preview	14	575	0	0	0	0	0	0
333	565	that	that	that	6	preview	14	576	0	0	0	0	0	0
334	566	they	they	they	6	preview	14	577	200	200	430	200	200	0
335	567	might	might	might	6	preview	14	578	0	0	0	0	0	0
336	568	purchase	purchase	purchase	6	preview	14	579	0	0	0	0	0	0
337	569	@entity16	Altera	Altera.	6	preview	14	580	0	0	0	0	0	0
	570	.	.		6	preview	14	581						
