HumanPosition	AnonymizedPosition	AnonymizedToken	OriginalToken	ExperimentToken	Participant	Condition	TextNo	JointPosition	tt	fp	rp	ff	rb	sp
1	0	(	(	In	6	preview	9	1	0	0	0	0	0	0
2	1	@entity0	CNN	cities	6	preview	9	2	143	0	0	0	0	143
	2	)	)		6	preview	9	3						
	3	[	[		6	preview	9	4						
	4	Breaking	Breaking		6	preview	9	5						
	5	news	news		6	preview	9	6						
	6	update	update		6	preview	9	7						
	7	,	,		6	preview	9	8						
	8	posted	posted		6	preview	9	9						
	9	at	at		6	preview	9	10						
	10	11:52	11:52		6	preview	9	11						
	11	p.m.	p.m.		6	preview	9	12						
	12	ET	ET		6	preview	9	13						
	13	]	]		6	preview	9	14						
	14	@entity3	Denver		6	preview	9	15						
	15	police	police		6	preview	9	16						
	16	report	report		6	preview	9	17						
	17	nine	nine		6	preview	9	18						
	18	arrests	arrests		6	preview	9	19						
	19	in	in		6	preview	9	20						
	20	Wednesday	Wednesday		6	preview	9	21						
	21	-s	-s		6	preview	9	22						
	22	demonstrations	demonstrations		6	preview	9	23						
	23	.	.		6	preview	9	24						
	24	The	The		6	preview	9	25						
	25	charges	charges		6	preview	9	26						
	26	include	include		6	preview	9	27						
	27	assault	assault		6	preview	9	28						
	28	of	of		6	preview	9	29						
	29	a	a		6	preview	9	30						
	30	police	police		6	preview	9	31						
	31	officer	officer		6	preview	9	32						
	32	,	,		6	preview	9	33						
	33	robbery	robbery		6	preview	9	34						
	34	,	,		6	preview	9	35						
	35	resisting	resisting		6	preview	9	36						
	36	police	police		6	preview	9	37						
	37	,	,		6	preview	9	38						
	38	disobedience	disobedience		6	preview	9	39						
	39	to	to		6	preview	9	40						
	40	lawful	lawful		6	preview	9	41						
	41	orders	orders		6	preview	9	42						
	42	,	,		6	preview	9	43						
	43	obstructing	obstructing		6	preview	9	44						
	44	roadways	roadways		6	preview	9	45						
	45	,	,		6	preview	9	46						
	46	and	and		6	preview	9	47						
	47	interference	interference		6	preview	9	48						
	48	.	.		6	preview	9	49						
	49	[	[		6	preview	9	50						
	50	Previous	Previous		6	preview	9	51						
	51	story	story		6	preview	9	52						
	52	,	,		6	preview	9	53						
	53	posted	posted		6	preview	9	54						
	54	at	at		6	preview	9	55						
	55	10:54	10:54		6	preview	9	56						
	56	p.m.	p.m.		6	preview	9	57						
	57	ET	ET		6	preview	9	58						
	58	]	]		6	preview	9	59						
	59	(	(		6	preview	9	60						
	60	@entity0	CNN		6	preview	9	61						
	61	)	)		6	preview	9	62						
	62	--	--		6	preview	9	63						
	63	In	In		6	preview	9	64						
	64	cities	cities		6	preview	9	65						
3	65	across	across	across	6	preview	9	66	191	0	0	0	0	191
4	66	the	the	the	6	preview	9	67	0	0	0	0	0	0
5	67	@entity17	United	United	6	preview	9	68	0	0	0	0	0	0
6			States	States,	6	preview	9	69	0	0	0	0	0	0
	68	,	,		6	preview	9	70						
7	69	marchers	marchers	marchers	6	preview	9	71	0	0	0	0	0	0
8	70	took	took	took	6	preview	9	72	363	0	0	0	0	363
9	71	to	to	to	6	preview	9	73	0	0	0	0	0	0
10	72	the	the	the	6	preview	9	74	0	0	0	0	0	0
11	73	streets	streets	streets	6	preview	9	75	212	0	0	0	0	212
12	74	to	to	to	6	preview	9	76	0	0	0	0	0	0
13	75	show	show	show	6	preview	9	77	0	0	0	0	0	0
14	76	support	support	support	6	preview	9	78	352	0	0	0	0	352
15	77	for	for	for	6	preview	9	79	0	0	0	0	0	0
16	78	protesters	protesters	protesters	6	preview	9	80	347	0	0	0	0	347
17	79	in	in	in	6	preview	9	81	0	0	0	0	0	0
18	80	@entity21	Baltimore	Baltimore	6	preview	9	82	341	0	0	0	0	341
19	81	and	and	and	6	preview	9	83	0	0	0	0	0	0
20	82	to	to	to	6	preview	9	84	0	0	0	0	0	0
21	83	complain	complain	complain	6	preview	9	85	0	0	0	0	0	0
22	84	about	about	about	6	preview	9	86	287	0	0	0	0	287
23	85	police	police	police	6	preview	9	87	293	0	0	0	0	293
24	86	violence	violence	violence	6	preview	9	88	340	0	0	0	0	340
25	87	in	in	in	6	preview	9	89	0	0	0	0	0	0
26	88	their	their	their	6	preview	9	90	0	0	0	0	0	0
27	89	own	own	own	6	preview	9	91	0	0	0	0	0	0
28	90	towns	towns	towns.	6	preview	9	92	299	0	0	0	0	299
	91	.	.		6	preview	9	93						
29	92	On	On	On	6	preview	9	94	0	0	0	0	0	0
30	93	Wednesday	Wednesday	Wednesday	6	preview	9	95	350	206	3374	206	206	144
31	94	night	night	night,	6	preview	9	96	174	174	318	174	174	0
	95	,	,		6	preview	9	97						
32	96	several	several	several	6	preview	9	98	266	0	0	0	0	266
33	97	hundred	hundred	hundred	6	preview	9	99	159	159	425	159	159	0
34	98	people	people	people	6	preview	9	100	0	0	0	0	0	0
35	99	streamed	streamed	streamed	6	preview	9	101	234	234	234	234	234	0
36	100	into	into	into	6	preview	9	102	0	0	0	0	0	0
37	101	@entity25	Union	Union	6	preview	9	103	0	0	0	0	0	0
38			Square	Square	6	preview	9	104	170	170	170	170	170	0
39	102	for	for	for	6	preview	9	105	0	0	0	0	0	0
40	103	an	an	an	6	preview	9	106	142	142	142	142	142	0
41	104	-	-	-NYC	6	preview	9	107	0	0	0	0	0	0
	105	@entity26	NYC		6	preview	9	108						
42			Rise	Rise	6	preview	9	109	132	132	132	132	132	0
43			Up	Up	6	preview	9	110	0	0	0	0	0	0
44	106	&	&	&	6	preview	9	111	0	0	0	0	0	0
45	107	Shut	Shut	Shut	6	preview	9	112	225	0	0	0	0	225
46	108	It	It	It	6	preview	9	113	0	0	0	0	0	0
47	109	Down	Down	Down	6	preview	9	114	238	238	463	238	238	0
48	110	With	With	With	6	preview	9	115	0	0	0	0	0	0
49	111	@entity21	Baltimore	Baltimore-	6	preview	9	116	387	387	387	387	387	0
	112	-	-		6	preview	9	117						
50	113	rally	rally	rally.	6	preview	9	118	0	0	0	0	0	0
	114	.	.		6	preview	9	119						
51	115	Protesters	Protesters	Protesters	6	preview	9	120	0	0	0	0	0	0
52	116	headed	headed	headed	6	preview	9	121	284	284	284	284	284	0
53	117	west	west	west	6	preview	9	122	0	0	0	0	0	0
54	118	on	on	on	6	preview	9	123	0	0	0	0	0	0
55	119	17th	17th	17th	6	preview	9	124	140	140	140	140	140	0
56	120	Street	Street	Street	6	preview	9	125	0	0	0	0	0	0
57	121	and	and	and	6	preview	9	126	0	0	0	0	0	0
58	122	were	were	were	6	preview	9	127	0	0	0	0	0	0
59	123	met	met	met	6	preview	9	128	0	0	0	0	0	0
60	124	by	by	by	6	preview	9	129	0	0	0	0	0	0
61	125	@entity31	New	New	6	preview	9	130	0	0	0	0	0	0
62			York	York	6	preview	9	131	137	0	0	0	0	137
63			City	City	6	preview	9	132	0	0	0	0	0	0
64			Police	Police	6	preview	9	133	0	0	0	0	0	0
65	126	officers	officers	officers	6	preview	9	134	0	0	0	0	0	0
66	127	who	who	who	6	preview	9	135	0	0	0	0	0	0
67	128	pushed	pushed	pushed	6	preview	9	136	0	0	0	0	0	0
68	129	them	them	them	6	preview	9	137	0	0	0	0	0	0
69	130	back	back	back.	6	preview	9	138	0	0	0	0	0	0
	131	.	.		6	preview	9	139						
70	132	A	A	A	6	preview	9	140	0	0	0	0	0	0
71	133	small	small	small	6	preview	9	141	157	157	157	157	157	0
72	134	scuffle	scuffle	scuffle	6	preview	9	142	0	0	0	0	0	0
73	135	broke	broke	broke	6	preview	9	143	130	130	130	130	130	0
74	136	out	out	out	6	preview	9	144	0	0	0	0	0	0
75	137	between	between	between	6	preview	9	145	210	0	0	0	0	210
76	138	the	the	the	6	preview	9	146	0	0	0	0	0	0
77	139	two	two	two	6	preview	9	147	120	120	330	120	120	0
78	140	front	front	front	6	preview	9	148	0	0	0	0	0	0
79	141	lines	lines	lines	6	preview	9	149	0	0	0	0	0	0
80	142	and	and	and	6	preview	9	150	0	0	0	0	0	0
81	143	police	police	police	6	preview	9	151	0	0	0	0	0	0
82	144	placed	placed	placed	6	preview	9	152	0	0	0	0	0	0
83	145	at	at	at	6	preview	9	153	0	0	0	0	0	0
84	146	least	least	least	6	preview	9	154	0	0	0	0	0	0
85	147	20	20	20	6	preview	9	155	0	0	0	0	0	0
86	148	people	people	people	6	preview	9	156	0	0	0	0	0	0
87	149	in	in	in	6	preview	9	157	0	0	0	0	0	0
88	150	zip	zip	zip	6	preview	9	158	0	0	0	0	0	0
89	151	ties	ties	ties	6	preview	9	159	0	0	0	0	0	0
90	152	in	in	in	6	preview	9	160	0	0	0	0	0	0
91	153	the	the	the	6	preview	9	161	0	0	0	0	0	0
92	154	street	street	street.	6	preview	9	162	0	0	0	0	0	0
	155	.	.		6	preview	9	163						
93	156	The	The	The	6	preview	9	164	0	0	0	0	0	0
94	157	@entity31	NYPD	NYPD	6	preview	9	165	0	0	0	0	0	0
95	158	also	also	also	6	preview	9	166	268	0	0	0	0	268
96	159	handed	handed	handed	6	preview	9	167	316	171	439	171	171	145
97	160	out	out	out	6	preview	9	168	0	0	0	0	0	0
98	161	fliers	fliers	fliers	6	preview	9	169	341	341	486	341	341	0
99	162	and	and	and	6	preview	9	170	0	0	0	0	0	0
100	163	used	used	used	6	preview	9	171	107	0	0	0	0	107
101	164	loudspeakers	loudspeakers	loudspeakers	6	preview	9	172	294	294	401	294	294	0
102	165	to	to	to	6	preview	9	173	0	0	0	0	0	0
103	166	tell	tell	tell	6	preview	9	174	348	348	348	348	348	0
104	167	protesters	protesters	protesters	6	preview	9	175	81	81	81	81	81	0
105	168	and	and	and	6	preview	9	176	0	0	0	0	0	0
106	169	pedestrians	pedestrians	pedestrians	6	preview	9	177	633	323	323	323	323	310
107	170	to	to	to	6	preview	9	178	0	0	0	0	0	0
108	171	stay	stay	stay	6	preview	9	179	164	164	164	164	164	0
109	172	on	on	on	6	preview	9	180	0	0	0	0	0	0
110	173	the	the	the	6	preview	9	181	0	0	0	0	0	0
111	174	sidewalk	sidewalk	sidewalk.	6	preview	9	182	303	134	613	134	303	169
	175	.	.		6	preview	9	183						
112	176	One	One	One	6	preview	9	184	0	0	0	0	0	0
113	177	person	person	person	6	preview	9	185	0	0	0	0	0	0
114	178	was	was	was	6	preview	9	186	0	0	0	0	0	0
115	179	placed	placed	placed	6	preview	9	187	0	0	0	0	0	0
116	180	in	in	in	6	preview	9	188	0	0	0	0	0	0
117	181	ambulance	ambulance	ambulance	6	preview	9	189	0	0	0	0	0	0
118	182	and	and	and	6	preview	9	190	0	0	0	0	0	0
119	183	taken	taken	taken	6	preview	9	191	0	0	0	0	0	0
120	184	away	away	away.	6	preview	9	192	0	0	0	0	0	0
	185	.	.		6	preview	9	193						
121	186	The	The	The	6	preview	9	194	0	0	0	0	0	0
122	187	crowd	crowd	crowd	6	preview	9	195	0	0	0	0	0	0
123	188	headed	headed	headed	6	preview	9	196	205	0	0	0	0	205
124	189	toward	toward	toward	6	preview	9	197	0	0	0	0	0	0
125	190	@entity47	Times	Times	6	preview	9	198	0	0	0	0	0	0
126			Square	Square.	6	preview	9	199	0	0	0	0	0	0
	191	.	.		6	preview	9	200						
127	192	A	A	A	6	preview	9	201	0	0	0	0	0	0
128	193	law	law	law	6	preview	9	202	0	0	0	0	0	0
129	194	enforcement	enforcement	enforcement	6	preview	9	203	0	0	0	0	0	0
130	195	source	source	source	6	preview	9	204	0	0	0	0	0	0
131	196	told	told	told	6	preview	9	205	0	0	0	0	0	0
132	197	@entity0	CNN	CNN	6	preview	9	206	0	0	0	0	0	0
133	198	that	that	that	6	preview	9	207	0	0	0	0	0	0
134	199	more	more	more	6	preview	9	208	0	0	0	0	0	0
135	200	than	than	than	6	preview	9	209	0	0	0	0	0	0
136	201	60	60	60	6	preview	9	210	0	0	0	0	0	0
137	202	people	people	people	6	preview	9	211	0	0	0	0	0	0
138	203	were	were	were	6	preview	9	212	0	0	0	0	0	0
139	204	arrested	arrested	arrested	6	preview	9	213	0	0	0	0	0	0
140	205	during	during	during	6	preview	9	214	0	0	0	0	0	0
141	206	the	the	the	6	preview	9	215	0	0	0	0	0	0
142	207	demonstrations	demonstrations	demonstrations.	6	preview	9	216	0	0	0	0	0	0
	208	.	.		6	preview	9	217						
143	209	The	The	The	6	preview	9	218	0	0	0	0	0	0
144	210	rally	rally	rally	6	preview	9	219	187	187	187	187	187	0
145	211	was	was	was	6	preview	9	220	0	0	0	0	0	0
146	212	organized	organized	organized	6	preview	9	221	148	148	148	148	148	0
147	213	through	through	through	6	preview	9	222	0	0	0	0	0	0
148	214	social	social	social	6	preview	9	223	400	0	0	0	0	400
149	215	media	media	media,	6	preview	9	224	0	0	0	0	0	0
	216	,	,		6	preview	9	225						
150	217	much	much	much	6	preview	9	226	216	0	0	0	0	216
151	218	like	like	like	6	preview	9	227	168	0	0	0	0	168
152	219	protests	protests	protests	6	preview	9	228	182	0	0	0	0	182
153	220	over	over	over	6	preview	9	229	0	0	0	0	0	0
154	221	the	the	the	6	preview	9	230	287	154	1253	154	287	133
155	222	killing	killing	killing	6	preview	9	231	0	0	0	0	0	0
156	223	of	of	of	6	preview	9	232	141	141	141	141	141	0
157	224	@entity55	Eric	Eric	6	preview	9	233	149	0	0	0	0	149
158			Garner	Garner,	6	preview	9	234	366	245	857	245	366	121
	225	,	,		6	preview	9	235						
159	226	who	who	who	6	preview	9	236	0	0	0	0	0	0
160	227	died	died	died	6	preview	9	237	0	0	0	0	0	0
161	228	while	while	while	6	preview	9	238	0	0	0	0	0	0
162	229	police	police	police	6	preview	9	239	633	0	0	0	0	633
163	230	held	held	held	6	preview	9	240	140	0	0	0	0	140
164	231	him	him	him	6	preview	9	241	354	0	0	0	0	354
165	232	in	in	in	6	preview	9	242	257	0	0	0	0	257
166	233	what	what	what	6	preview	9	243	0	0	0	0	0	0
167	234	appeared	appeared	appeared	6	preview	9	244	913	0	0	0	0	913
168	235	to	to	to	6	preview	9	245	0	0	0	0	0	0
169	236	be	be	be	6	preview	9	246	0	0	0	0	0	0
170	237	a	a	a	6	preview	9	247	0	0	0	0	0	0
171	238	chokehold	chokehold	chokehold.	6	preview	9	248	227	0	0	0	0	227
	239	.	.		6	preview	9	249						
172	240	The	The	The	6	preview	9	250	0	0	0	0	0	0
173	241	demonstrators	demonstrators	demonstrators	6	preview	9	251	475	0	0	0	0	475
174	242	chanted	chanted	chanted	6	preview	9	252	186	0	0	0	0	186
175	243	-	-	-Black	6	preview	9	253	0	0	0	0	0	0
	244	@entity60	Black		6	preview	9	254						
176			Lives	Lives	6	preview	9	255	0	0	0	0	0	0
177			Matter	Matter-	6	preview	9	256	0	0	0	0	0	0
	245	-	-		6	preview	9	257						
178	246	and	and	and	6	preview	9	258	148	148	3333	148	148	0
179	247	-	-	-Justice	6	preview	9	259	406	0	0	0	0	406
	248	@entity61	Justice		6	preview	9	260						
180			for	for	6	preview	9	261	174	0	0	0	0	174
181			Freddie	Freddie	6	preview	9	262	195	195	346	195	195	0
182			Gray	Gray-	6	preview	9	263	494	494	923	300	494	0
	249	-	-		6	preview	9	264						
183	250	--	--	--	6	preview	9	265	0	0	0	0	0	0
184	251	the	the	the	6	preview	9	266	0	0	0	0	0	0
185	252	@entity21	Baltimore	Baltimore	6	preview	9	267	700	391	391	182	391	309
186	253	man	man	man	6	preview	9	268	0	0	0	0	0	0
187	254	whose	whose	whose	6	preview	9	269	227	227	536	227	227	0
188	255	death	death	death	6	preview	9	270	130	130	130	130	130	0
189	256	sparked	sparked	sparked	6	preview	9	271	289	0	0	0	0	289
190	257	street	street	street	6	preview	9	272	0	0	0	0	0	0
191	258	confrontations	confrontations	confrontations	6	preview	9	273	367	132	421	132	132	235
192	259	in	in	in	6	preview	9	274	0	0	0	0	0	0
193	260	@entity21	Baltimore	Baltimore.	6	preview	9	275	255	255	490	255	255	0
	261	.	.		6	preview	9	276						
194	262	@entity0	CNN	CNN	6	preview	9	277	0	0	0	0	0	0
195	263	affiliate	affiliate	affiliate	6	preview	9	278	333	333	333	333	333	0
196	264	@entity65	WCBS	WCBS	6	preview	9	279	0	0	0	0	0	0
197	265	reported	reported	reported	6	preview	9	280	224	0	0	0	0	224
198	266	Mayor	Mayor	Mayor	6	preview	9	281	197	197	197	197	197	0
199	267	@entity66	Bill	Bill	6	preview	9	282	106	106	330	106	106	0
200			de	de	6	preview	9	283	0	0	0	0	0	0
201			Blasio	Blasio	6	preview	9	284	130	0	0	0	0	130
202	268	sent	sent	sent	6	preview	9	285	95	0	0	0	0	95
203	269	a	a	a	6	preview	9	286	0	0	0	0	0	0
204	270	message	message	message	6	preview	9	287	0	0	0	0	0	0
205	271	to	to	to	6	preview	9	288	136	136	361	136	136	0
206	272	the	the	the	6	preview	9	289	0	0	0	0	0	0
207	273	protesters	protesters	protesters:	6	preview	9	290	0	0	0	0	0	0
208	274	:	:	-I-d	6	preview	9	291	0	0	0	0	0	0
	275	-	-		6	preview	9	292						
	276	I	I		6	preview	9	293						
	277	-d	-d		6	preview	9	294						
209	278	say	say	say	6	preview	9	295	1025	293	293	293	293	732
210	279	that	that	that	6	preview	9	296	202	202	934	202	202	0
211	280	if	if	if	6	preview	9	297	0	0	0	0	0	0
212	281	you	you	you	6	preview	9	298	0	0	0	0	0	0
213	282	want	want	want	6	preview	9	299	0	0	0	0	0	0
214	283	to	to	to	6	preview	9	300	236	236	236	236	236	0
215	284	make	make	make	6	preview	9	301	0	0	0	0	0	0
216	285	change	change	change,	6	preview	9	302	198	198	198	198	198	0
	286	,	,		6	preview	9	303						
217	287	keep	keep	keep	6	preview	9	304	0	0	0	0	0	0
218	288	things	things	things	6	preview	9	305	393	0	0	0	0	393
219	289	peaceful	peaceful	peaceful.-	6	preview	9	306	198	198	591	198	198	0
	290	.	.		6	preview	9	307						
220	291	-	-	A	6	preview	9	308	0	0	0	0	0	0
221	292	A	A	smaller	6	preview	9	309	115	0	0	0	0	115
	293	smaller	smaller		6	preview	9	310						
222	294	rally	rally	rally	6	preview	9	311	147	147	262	147	147	0
223	295	was	was	was	6	preview	9	312	0	0	0	0	0	0
224	296	held	held	held	6	preview	9	313	0	0	0	0	0	0
225	297	Tuesday	Tuesday	Tuesday	6	preview	9	314	197	197	197	197	197	0
226	298	in	in	in	6	preview	9	315	0	0	0	0	0	0
227	299	@entity73	New	New	6	preview	9	316	0	0	0	0	0	0
228			York	York.	6	preview	9	317	143	143	143	143	143	0
	300	.	.		6	preview	9	318						
229	301	In	In	In	6	preview	9	319	0	0	0	0	0	0
230	302	@entity76	Washington	Washington,	6	preview	9	320	122	122	122	122	122	0
	303	,	,		6	preview	9	321						
231	304	about	about	about	6	preview	9	322	0	0	0	0	0	0
232	305	500	500	500	6	preview	9	323	240	0	0	0	0	240
233	306	protesters	protesters	protesters,	6	preview	9	324	170	170	410	170	170	0
	307	,	,		6	preview	9	325						
234	308	mostly	mostly	mostly	6	preview	9	326	109	0	0	0	0	109
235	309	in	in	in	6	preview	9	327	279	279	279	279	279	0
236	310	their	their	their	6	preview	9	328	208	0	0	0	0	208
237	311	20s	20s	20s,	6	preview	9	329	0	0	0	0	0	0
	312	,	,		6	preview	9	330						
238	313	gathered	gathered	gathered	6	preview	9	331	161	0	0	0	0	161
239	314	in	in	in	6	preview	9	332	0	0	0	0	0	0
240	315	the	the	the	6	preview	9	333	397	173	875	173	397	224
241	316	middle	middle	middle	6	preview	9	334	0	0	0	0	0	0
242	317	of	of	of	6	preview	9	335	0	0	0	0	0	0
243	318	@entity78	H	H	6	preview	9	336	0	0	0	0	0	0
244			Street	Street	6	preview	9	337	0	0	0	0	0	0
245	319	and	and	and	6	preview	9	338	0	0	0	0	0	0
246	320	7th	7th	7th	6	preview	9	339	0	0	0	0	0	0
247	321	and	and	and	6	preview	9	340	0	0	0	0	0	0
248	322	chanted	chanted	chanted,	6	preview	9	341	0	0	0	0	0	0
	323	,	,		6	preview	9	342						
249	324	-	-	-All	6	preview	9	343	0	0	0	0	0	0
	325	All	All		6	preview	9	344						
250	326	night	night	night,	6	preview	9	345	194	0	0	0	0	194
	327	,	,		6	preview	9	346						
251	328	all	all	all	6	preview	9	347	0	0	0	0	0	0
252	329	day	day	day,	6	preview	9	348	141	141	335	141	141	0
	330	,	,		6	preview	9	349						
253	331	we	we	we-re	6	preview	9	350	0	0	0	0	0	0
	332	-re	-re		6	preview	9	351						
254	333	gon	gon	gonna	6	preview	9	352	0	0	0	0	0	0
	334	na	na		6	preview	9	353						
255	335	fight	fight	fight	6	preview	9	354	0	0	0	0	0	0
256	336	for	for	for	6	preview	9	355	0	0	0	0	0	0
257	337	@entity79	Freddie	Freddie	6	preview	9	356	174	174	174	174	174	0
258			Gray	Gray.-	6	preview	9	357	264	264	264	264	264	0
	338	.	.		6	preview	9	358						
259	339	-	-	The	6	preview	9	359	0	0	0	0	0	0
260	340	The	The	mood	6	preview	9	360	332	0	0	0	0	332
	341	mood	mood		6	preview	9	361						
261	342	seemed	seemed	seemed	6	preview	9	362	0	0	0	0	0	0
262	343	more	more	more	6	preview	9	363	0	0	0	0	0	0
263	344	festive	festive	festive	6	preview	9	364	0	0	0	0	0	0
264	345	than	than	than	6	preview	9	365	0	0	0	0	0	0
265	346	confrontational	confrontational	confrontational,	6	preview	9	366	101	0	0	0	0	101
	347	,	,		6	preview	9	367						
266	348	with	with	with	6	preview	9	368	171	0	0	0	0	171
267	349	songs	songs	songs	6	preview	9	369	279	0	0	0	0	279
268	350	by	by	by	6	preview	9	370	0	0	0	0	0	0
269	351	@entity82	Public	Public	6	preview	9	371	350	137	1233	137	350	213
270			Enemy	Enemy	6	preview	9	372	0	0	0	0	0	0
271	352	like	like	like	6	preview	9	373	0	0	0	0	0	0
272	353	-	-	-Fight	6	preview	9	374	230	230	230	230	230	0
	354	@entity86	Fight		6	preview	9	375						
273			the	the	6	preview	9	376	0	0	0	0	0	0
274			Power	Power-	6	preview	9	377	569	0	0	0	0	569
	355	-	-		6	preview	9	378						
275	356	playing	playing	playing	6	preview	9	379	139	139	708	139	139	0
276	357	and	and	and	6	preview	9	380	270	270	270	270	270	0
277	358	sign	sign	sign-language	6	preview	9	381	0	0	0	0	0	0
	359	-	-		6	preview	9	382						
	360	language	language		6	preview	9	383						
278	361	interpreters	interpreters	interpreters	6	preview	9	384	302	302	302	302	302	0
279	362	translating	translating	translating	6	preview	9	385	0	0	0	0	0	0
280	363	the	the	the	6	preview	9	386	229	229	229	229	229	0
281	364	music	music	music	6	preview	9	387	0	0	0	0	0	0
282	365	and	and	and	6	preview	9	388	0	0	0	0	0	0
283	366	chants	chants	chants.	6	preview	9	389	0	0	0	0	0	0
	367	.	.		6	preview	9	390						
284	368	The	The	The	6	preview	9	391	0	0	0	0	0	0
285	369	protest	protest	protest	6	preview	9	392	0	0	0	0	0	0
286	370	moved	moved	moved	6	preview	9	393	0	0	0	0	0	0
287	371	to	to	to	6	preview	9	394	0	0	0	0	0	0
288	372	the	the	the	6	preview	9	395	0	0	0	0	0	0
289	373	@entity88	White	White	6	preview	9	396	0	0	0	0	0	0
290			House	House	6	preview	9	397	0	0	0	0	0	0
291	374	where	where	where	6	preview	9	398	0	0	0	0	0	0
292	375	most	most	most	6	preview	9	399	0	0	0	0	0	0
293	376	of	of	of	6	preview	9	400	0	0	0	0	0	0
294	377	the	the	the	6	preview	9	401	0	0	0	0	0	0
295	378	crowd	crowd	crowd	6	preview	9	402	0	0	0	0	0	0
296	379	dispersed	dispersed	dispersed.	6	preview	9	403	0	0	0	0	0	0
	380	.	.		6	preview	9	404						
297	381	It	It	It	6	preview	9	405	0	0	0	0	0	0
298	382	started	started	started	6	preview	9	406	168	168	168	168	168	0
299	383	after	after	after	6	preview	9	407	372	372	372	216	372	0
300	384	most	most	most	6	preview	9	408	0	0	0	0	0	0
301	385	office	office	office	6	preview	9	409	265	0	0	0	0	265
302	386	workers	workers	workers	6	preview	9	410	0	0	0	0	0	0
303	387	had	had	had	6	preview	9	411	214	126	391	126	126	88
304	388	headed	headed	headed	6	preview	9	412	0	0	0	0	0	0
305	389	home	home	home	6	preview	9	413	183	0	0	0	0	183
306	390	and	and	and	6	preview	9	414	217	217	488	217	217	0
307	391	did	did	didn-t	6	preview	9	415	0	0	0	0	0	0
	392	n-t	n-t		6	preview	9	416						
308	393	disrupt	disrupt	disrupt	6	preview	9	417	233	233	233	233	233	0
309	394	the	the	the	6	preview	9	418	0	0	0	0	0	0
310	395	@entity76	Washington	Washington	6	preview	9	419	0	0	0	0	0	0
311	396	workforce	workforce	workforce	6	preview	9	420	0	0	0	0	0	0
312	397	badly	badly	badly.	6	preview	9	421	0	0	0	0	0	0
	398	.	.		6	preview	9	422						
313	399	One	One	One	6	preview	9	423	0	0	0	0	0	0
314	400	of	of	of	6	preview	9	424	245	0	0	0	0	245
315	401	the	the	the	6	preview	9	425	0	0	0	0	0	0
316	402	groups	groups	groups	6	preview	9	426	183	0	0	0	0	183
317	403	involved	involved	involved	6	preview	9	427	319	0	0	0	0	319
318	404	in	in	in	6	preview	9	428	0	0	0	0	0	0
319	405	the	the	the	6	preview	9	429	159	0	0	0	0	159
320	406	protest	protest	protest	6	preview	9	430	0	0	0	0	0	0
321	407	is	is	is	6	preview	9	431	161	0	0	0	0	161
322	408	the	the	the	6	preview	9	432	151	0	0	0	0	151
323	409	@entity95	DC	DC	6	preview	9	433	0	0	0	0	0	0
324			Ferguson	Ferguson	6	preview	9	434	799	0	0	0	0	799
325			Movement	Movement.	6	preview	9	435	0	0	0	0	0	0
	410	.	.		6	preview	9	436						
326	411	Organizer	Organizer	Organizer	6	preview	9	437	501	0	0	0	0	501
327	412	@entity96	Eugene	Eugene	6	preview	9	438	1350	0	0	0	0	1350
328			Puryear	Puryear	6	preview	9	439	240	0	0	0	0	240
329	413	said	said	said	6	preview	9	440	0	0	0	0	0	0
330	414	the	the	the	6	preview	9	441	0	0	0	0	0	0
331	415	march	march	march	6	preview	9	442	160	0	0	0	0	160
332	416	was	was	was	6	preview	9	443	0	0	0	0	0	0
333	417	called	called	called	6	preview	9	444	190	0	0	0	0	190
334	418	to	to	to	6	preview	9	445	0	0	0	0	0	0
335	419	show	show	show	6	preview	9	446	0	0	0	0	0	0
336	420	solidarity	solidarity	solidarity	6	preview	9	447	342	0	0	0	0	342
337	421	with	with	with	6	preview	9	448	0	0	0	0	0	0
338	422	the	the	the	6	preview	9	449	0	0	0	0	0	0
339	423	residents	residents	residents	6	preview	9	450	603	0	0	0	0	603
340	424	in	in	in	6	preview	9	451	0	0	0	0	0	0
341	425	@entity21	Baltimore	Baltimore	6	preview	9	452	725	0	0	0	0	725
342	426	and	and	and	6	preview	9	453	0	0	0	0	0	0
343	427	to	to	to	6	preview	9	454	0	0	0	0	0	0
344	428	highlight	highlight	highlight	6	preview	9	455	279	0	0	0	0	279
345	429	that	that	that	6	preview	9	456	0	0	0	0	0	0
346	430	police	police	police	6	preview	9	457	0	0	0	0	0	0
347	431	brutality	brutality	brutality	6	preview	9	458	0	0	0	0	0	0
348	432	is	is	is	6	preview	9	459	0	0	0	0	0	0
349	433	a	a	a	6	preview	9	460	0	0	0	0	0	0
350	434	national	national	national	6	preview	9	461	0	0	0	0	0	0
351	435	issue	issue	issue.	6	preview	9	462	0	0	0	0	0	0
	436	.	.		6	preview	9	463						
352	437	Several	Several	Several	6	preview	9	464	0	0	0	0	0	0
353	438	hundred	hundred	hundred	6	preview	9	465	0	0	0	0	0	0
354	439	people	people	people	6	preview	9	466	0	0	0	0	0	0
355	440	gathered	gathered	gathered	6	preview	9	467	179	179	6586	179	179	0
356	441	in	in	in	6	preview	9	468	0	0	0	0	0	0
357	442	@entity103	Gold	Gold	6	preview	9	469	0	0	0	0	0	0
358			Medal	Medal	6	preview	9	470	154	154	154	154	154	0
359			Park	Park	6	preview	9	471	0	0	0	0	0	0
360	443	in	in	in	6	preview	9	472	0	0	0	0	0	0
361	444	@entity104	Minneapolis	Minneapolis	6	preview	9	473	0	0	0	0	0	0
362	445	for	for	for	6	preview	9	474	0	0	0	0	0	0
363	446	a	a	a	6	preview	9	475	0	0	0	0	0	0
364	447	rally	rally	rally	6	preview	9	476	0	0	0	0	0	0
365	448	organized	organized	organized	6	preview	9	477	0	0	0	0	0	0
366	449	by	by	by	6	preview	9	478	0	0	0	0	0	0
367	450	the	the	the	6	preview	9	479	0	0	0	0	0	0
368	451	group	group	group	6	preview	9	480	0	0	0	0	0	0
369	452	of	of	of	6	preview	9	481	0	0	0	0	0	0
370	453	#	#	#BlackLivesMatter.	6	preview	9	482	514	514	514	244	514	0
	454	@entity107	BlackLivesMatter		6	preview	9	483						
	455	.	.		6	preview	9	484						
371	456	The	The	The	6	preview	9	485	0	0	0	0	0	0
372	457	@entity104	Minneapolis	Minneapolis	6	preview	9	486	259	259	259	259	259	0
373	458	group	group	group	6	preview	9	487	253	0	0	0	0	253
374	459	held	held	held	6	preview	9	488	499	210	752	210	499	289
375	460	similar	similar	similar	6	preview	9	489	0	0	0	0	0	0
376	461	events	events	events	6	preview	9	490	0	0	0	0	0	0
377	462	in	in	in	6	preview	9	491	227	0	0	0	0	227
378	463	the	the	the	6	preview	9	492	0	0	0	0	0	0
379	464	past	past	past	6	preview	9	493	0	0	0	0	0	0
380	465	in	in	in	6	preview	9	494	0	0	0	0	0	0
381	466	response	response	response	6	preview	9	495	0	0	0	0	0	0
382	467	to	to	to	6	preview	9	496	114	114	341	114	114	0
383	468	alleged	alleged	alleged	6	preview	9	497	0	0	0	0	0	0
384	469	police	police	police	6	preview	9	498	0	0	0	0	0	0
385	470	brutality	brutality	brutality	6	preview	9	499	0	0	0	0	0	0
386	471	across	across	across	6	preview	9	500	0	0	0	0	0	0
387	472	the	the	the	6	preview	9	501	0	0	0	0	0	0
388	473	country	country	country.	6	preview	9	502	0	0	0	0	0	0
	474	.	.		6	preview	9	503						
389	475	Protests	Protests	Protests	6	preview	9	504	0	0	0	0	0	0
390	476	also	also	also	6	preview	9	505	0	0	0	0	0	0
391	477	were	were	were	6	preview	9	506	0	0	0	0	0	0
392	478	held	held	held	6	preview	9	507	0	0	0	0	0	0
393	479	in	in	in	6	preview	9	508	0	0	0	0	0	0
394	480	@entity115	Boston	Boston	6	preview	9	509	0	0	0	0	0	0
395	481	and	and	and	6	preview	9	510	0	0	0	0	0	0
396	482	@entity116	Houston	Houston.	6	preview	9	511	0	0	0	0	0	0
	483	.	.		6	preview	9	512						
397	484	On	On	On	6	preview	9	513	0	0	0	0	0	0
398	485	Tuesday	Tuesday	Tuesday,	6	preview	9	514	254	0	0	0	0	254
	486	,	,		6	preview	9	515						
399	487	violent	violent	violent	6	preview	9	516	285	0	0	0	0	285
400	488	protests	protests	protests	6	preview	9	517	201	0	0	0	0	201
401	489	took	took	took	6	preview	9	518	96	0	0	0	0	96
402	490	place	place	place	6	preview	9	519	156	0	0	0	0	156
403	491	in	in	in	6	preview	9	520	376	207	207	207	207	169
404	492	@entity120	Ferguson	Ferguson,	6	preview	9	521	666	0	0	0	0	666
	493	,	,		6	preview	9	522						
405	494	@entity121	Missouri	Missouri,	6	preview	9	523	704	0	0	0	0	704
	495	,	,		6	preview	9	524						
406	496	where	where	where	6	preview	9	525	177	177	681	177	177	0
407	497	three	three	three	6	preview	9	526	1050	102	2261	102	399	948
408	498	people	people	people	6	preview	9	527	0	0	0	0	0	0
409	499	were	were	were	6	preview	9	528	271	271	1087	271	271	0
410	500	shot	shot	shot,	6	preview	9	529	0	0	0	0	0	0
	501	,	,		6	preview	9	530						
411	502	the	the	the	6	preview	9	531	0	0	0	0	0	0
412	503	city	city	city	6	preview	9	532	0	0	0	0	0	0
413	504	police	police	police	6	preview	9	533	0	0	0	0	0	0
414	505	reported	reported	reported.	6	preview	9	534	0	0	0	0	0	0
	506	.	.		6	preview	9	535						
415	507	Police	Police	Police	6	preview	9	536	0	0	0	0	0	0
416	508	said	said	said	6	preview	9	537	0	0	0	0	0	0
417	509	they	they	they	6	preview	9	538	0	0	0	0	0	0
418	510	did	did	didn-t	6	preview	9	539	0	0	0	0	0	0
	511	n-t	n-t		6	preview	9	540						
419	512	do	do	do	6	preview	9	541	0	0	0	0	0	0
420	513	the	the	the	6	preview	9	542	0	0	0	0	0	0
421	514	shooting	shooting	shooting.	6	preview	9	543	0	0	0	0	0	0
	515	.	.		6	preview	9	544						
422	516	A	A	A	6	preview	9	545	0	0	0	0	0	0
423	517	20	20	20-year-old	6	preview	9	546	572	284	284	284	284	288
	518	-	-		6	preview	9	547						
	519	year	year		6	preview	9	548						
	520	-	-		6	preview	9	549						
	521	old	old		6	preview	9	550						
424	522	man	man	man	6	preview	9	551	0	0	0	0	0	0
425	523	was	was	was	6	preview	9	552	0	0	0	0	0	0
426	524	arrested	arrested	arrested	6	preview	9	553	635	320	923	320	635	315
427	525	and	and	and	6	preview	9	554	0	0	0	0	0	0
428	526	the	the	the	6	preview	9	555	0	0	0	0	0	0
429	527	three	three	three	6	preview	9	556	182	182	182	182	182	0
430	528	victims	victims	victims	6	preview	9	557	0	0	0	0	0	0
431	529	were	were	were	6	preview	9	558	0	0	0	0	0	0
432	530	in	in	in	6	preview	9	559	0	0	0	0	0	0
433	531	stable	stable	stable	6	preview	9	560	0	0	0	0	0	0
434	532	condition	condition	condition	6	preview	9	561	0	0	0	0	0	0
435	533	--	--	--	6	preview	9	562	0	0	0	0	0	0
436	534	two	two	two	6	preview	9	563	0	0	0	0	0	0
437	535	with	with	with	6	preview	9	564	0	0	0	0	0	0
438	536	wounds	wounds	wounds	6	preview	9	565	0	0	0	0	0	0
439	537	to	to	to	6	preview	9	566	0	0	0	0	0	0
440	538	the	the	the	6	preview	9	567	0	0	0	0	0	0
441	539	neck	neck	neck,	6	preview	9	568	0	0	0	0	0	0
	540	,	,		6	preview	9	569						
442	541	one	one	one	6	preview	9	570	0	0	0	0	0	0
443	542	in	in	in	6	preview	9	571	0	0	0	0	0	0
444	543	the	the	the	6	preview	9	572	0	0	0	0	0	0
445	544	leg	leg	leg,	6	preview	9	573	0	0	0	0	0	0
	545	,	,		6	preview	9	574						
446	546	police	police	police	6	preview	9	575	383	383	383	383	383	0
447	547	said	said	said.	6	preview	9	576	0	0	0	0	0	0
	548	.	.		6	preview	9	577						
448	549	Police	Police	Police	6	preview	9	578	144	0	0	0	0	144
449	550	said	said	said	6	preview	9	579	141	0	0	0	0	141
450	551	about	about	about	6	preview	9	580	349	349	349	349	349	0
451	552	300	300	300	6	preview	9	581	0	0	0	0	0	0
452	553	people	people	people	6	preview	9	582	0	0	0	0	0	0
453	554	marched	marched	marched,	6	preview	9	583	448	179	733	179	448	269
	555	,	,		6	preview	9	584						
454	556	with	with	with	6	preview	9	585	0	0	0	0	0	0
455	557	protesters	protesters	protesters	6	preview	9	586	150	150	150	150	150	0
456	558	throwing	throwing	throwing	6	preview	9	587	0	0	0	0	0	0
457	559	rocks	rocks	rocks	6	preview	9	588	0	0	0	0	0	0
458	560	at	at	at	6	preview	9	589	0	0	0	0	0	0
459	561	police	police	police,	6	preview	9	590	0	0	0	0	0	0
	562	,	,		6	preview	9	591						
460	563	damaging	damaging	damaging	6	preview	9	592	0	0	0	0	0	0
461	564	four	four	four	6	preview	9	593	0	0	0	0	0	0
462	565	police	police	police	6	preview	9	594	0	0	0	0	0	0
463	566	cars	cars	cars	6	preview	9	595	0	0	0	0	0	0
464	567	and	and	and	6	preview	9	596	0	0	0	0	0	0
465	568	setting	setting	setting	6	preview	9	597	0	0	0	0	0	0
466	569	trash	trash	trash	6	preview	9	598	0	0	0	0	0	0
467	570	and	and	and	6	preview	9	599	0	0	0	0	0	0
468	571	debris	debris	debris	6	preview	9	600	0	0	0	0	0	0
469	572	on	on	on	6	preview	9	601	0	0	0	0	0	0
470	573	fire	fire	fire	6	preview	9	602	0	0	0	0	0	0
471	574	near	near	near	6	preview	9	603	0	0	0	0	0	0
472	575	@entity139	Northwinds	Northwinds	6	preview	9	604	410	264	264	264	264	146
473			Estates	Estates	6	preview	9	605	150	0	0	0	0	150
474	576	and	and	and	6	preview	9	606	0	0	0	0	0	0
475	577	@entity140	West	West	6	preview	9	607	201	0	0	0	0	201
476			Florissant	Florissant,	6	preview	9	608	0	0	0	0	0	0
	578	,	,		6	preview	9	609						
477	579	police	police	police	6	preview	9	610	0	0	0	0	0	0
478	580	said	said	said.	6	preview	9	611	0	0	0	0	0	0
	581	.	.		6	preview	9	612						
479	582	One	One	One	6	preview	9	613	245	0	0	0	0	245
480	583	business	business	business	6	preview	9	614	565	0	0	0	0	565
481	584	in	in	in	6	preview	9	615	260	0	0	0	0	260
482	585	@entity142	Dellwood	Dellwood	6	preview	9	616	530	0	0	0	0	530
483	586	was	was	was	6	preview	9	617	0	0	0	0	0	0
484	587	damaged	damaged	damaged,	6	preview	9	618	262	262	262	262	262	0
	588	,	,		6	preview	9	619						
485	589	police	police	police	6	preview	9	620	0	0	0	0	0	0
486	590	said	said	said.	6	preview	9	621	0	0	526	0	0	0
	591	.	.		6	preview	9	622						
487	592	No	No	No	6	preview	9	623	0	0	0	0	0	0
488	593	officers	officers	officers	6	preview	9	624	0	0	0	0	0	0
489	594	were	were	were	6	preview	9	625	0	0	0	0	0	0
490	595	injured	injured	injured	6	preview	9	626	0	0	0	0	0	0
491	596	as	as	as	6	preview	9	627	0	0	0	0	0	0
492	597	police	police	police	6	preview	9	628	0	0	0	0	0	0
493	598	conducted	conducted	conducted	6	preview	9	629	0	0	0	0	0	0
494	599	anti-riot	anti-riot	anti-riot	6	preview	9	630	0	0	0	0	0	0
495	600	activities	activities	activities	6	preview	9	631	297	0	0	0	0	297
496	601	until	until	until	6	preview	9	632	0	0	0	0	0	0
497	602	3	3	3	6	preview	9	633	0	0	0	0	0	0
498	603	a.m.	a.m.	a.m.	6	preview	9	634	0	0	0	0	0	0
499	604	In	In	In	6	preview	9	635	158	0	0	0	0	158
500	605	@entity147	Los	Los	6	preview	9	636	352	352	878	352	352	0
501			Angeles	Angeles,	6	preview	9	637	659	335	335	121	335	324
	606	,	,		6	preview	9	638						
502	607	six	six	six	6	preview	9	639	119	0	0	0	0	119
503	608	people	people	people	6	preview	9	640	194	194	313	194	194	0
504	609	protesting	protesting	protesting	6	preview	9	641	696	316	316	316	316	380
505	610	against	against	against	6	preview	9	642	391	211	3647	211	391	180
506	611	police	police	police	6	preview	9	643	132	132	132	132	132	0
507	612	brutality	brutality	brutality	6	preview	9	644	192	0	0	0	0	192
508	613	were	were	were	6	preview	9	645	0	0	0	0	0	0
509	614	arrested	arrested	arrested	6	preview	9	646	675	134	867	134	675	541
510	615	Monday	Monday	Monday	6	preview	9	647	0	0	0	0	0	0
511	616	night	night	night	6	preview	9	648	0	0	0	0	0	0
512	617	when	when	when	6	preview	9	649	0	0	0	0	0	0
513	618	they	they	they	6	preview	9	650	0	0	0	0	0	0
514	619	failed	failed	failed	6	preview	9	651	278	278	278	278	278	0
515	620	to	to	to	6	preview	9	652	0	0	0	0	0	0
516	621	disperse	disperse	disperse,	6	preview	9	653	191	191	191	191	191	0
	622	,	,		6	preview	9	654						
517	623	reported	reported	reported	6	preview	9	655	0	0	0	0	0	0
518	624	@entity0	CNN	CNN	6	preview	9	656	185	185	185	185	185	0
519	625	affiliate	affiliate	affiliate	6	preview	9	657	0	0	0	0	0	0
520	626	@entity148	KABC	KABC.	6	preview	9	658	0	0	0	0	0	0
	627	.	.		6	preview	9	659						
521	628	About	About	About	6	preview	9	660	0	0	0	0	0	0
522	629	50	50	50	6	preview	9	661	0	0	0	0	0	0
523	630	people	people	people	6	preview	9	662	0	0	0	0	0	0
524	631	marched	marched	marched,	6	preview	9	663	0	0	0	0	0	0
	632	,	,		6	preview	9	664						
525	633	@entity148	KABC	KABC	6	preview	9	665	0	0	0	0	0	0
526	634	said	said	said.	6	preview	9	666	239	239	239	239	239	0
	635	.	.		6	preview	9	667						
527	636	On	On	On	6	preview	9	668	0	0	0	0	0	0
528	637	Tuesday	Tuesday	Tuesday,	6	preview	9	669	171	171	171	171	171	0
	638	,	,		6	preview	9	670						
529	639	protesters	protesters	protesters	6	preview	9	671	215	215	215	215	215	0
530	640	gathered	gathered	gathered	6	preview	9	672	0	0	0	0	0	0
531	641	outside	outside	outside	6	preview	9	673	0	0	0	0	0	0
532	642	the	the	the	6	preview	9	674	0	0	0	0	0	0
533	643	@entity152	Stapes	Stapes	6	preview	9	675	0	0	0	0	0	0
534			Center	Center,	6	preview	9	676	333	0	0	0	0	333
	644	,	,		6	preview	9	677						
535	645	where	where	where	6	preview	9	678	0	0	0	0	0	0
536	646	the	the	the	6	preview	9	679	0	0	0	0	0	0
537	647	@entity153	Los	Los	6	preview	9	680	0	0	0	0	0	0
538			Angeles	Angeles	6	preview	9	681	311	0	0	0	0	311
539			Clippers	Clippers	6	preview	9	682	165	165	656	165	165	0
540	648	and	and	and	6	preview	9	683	0	0	0	0	0	0
541	649	the	the	the	6	preview	9	684	0	0	0	0	0	0
542	650	@entity154	San	San	6	preview	9	685	0	0	0	0	0	0
543			Antonio	Antonio	6	preview	9	686	0	0	0	0	0	0
544			Spurs	Spurs	6	preview	9	687	0	0	0	0	0	0
545	651	were	were	were	6	preview	9	688	0	0	0	0	0	0
546	652	playing	playing	playing	6	preview	9	689	0	0	0	0	0	0
547	653	an	an	an	6	preview	9	690	0	0	0	0	0	0
548	654	@entity156	NBA	NBA	6	preview	9	691	0	0	0	0	0	0
549	655	playoff	playoff	playoff	6	preview	9	692	0	0	0	0	0	0
550	656	game	game	game.	6	preview	9	693	166	166	166	166	166	0
	657	.	.		6	preview	9	694						
551	658	They	They	They	6	preview	9	695	0	0	0	0	0	0
552	659	disrupted	disrupted	disrupted	6	preview	9	696	385	385	385	385	385	0
553	660	traffic	traffic	traffic	6	preview	9	697	0	0	0	0	0	0
554	661	and	and	and	6	preview	9	698	177	177	177	177	177	0
555	662	carried	carried	carried	6	preview	9	699	0	0	0	0	0	0
556	663	protest	protest	protest	6	preview	9	700	0	0	0	0	0	0
557	664	signs	signs	signs.	6	preview	9	701	0	0	0	0	0	0
	665	.	.		6	preview	9	702						
558	666	In	In	In	6	preview	9	703	0	0	0	0	0	0
559	667	@entity161	Chicago	Chicago,	6	preview	9	704	161	0	0	0	0	161
	668	,	,		6	preview	9	705						
560	669	hundreds	hundreds	hundreds	6	preview	9	706	376	0	0	0	0	376
561	670	of	of	of	6	preview	9	707	165	0	0	0	0	165
562	671	protesters	protesters	protesters	6	preview	9	708	208	0	0	0	0	208
563	672	marched	marched	marched	6	preview	9	709	176	0	0	0	0	176
564	673	Tuesday	Tuesday	Tuesday	6	preview	9	710	638	0	0	0	0	638
565	674	from	from	from	6	preview	9	711	301	0	0	0	0	301
566	675	police	police	police	6	preview	9	712	1123	0	0	0	0	1123
567	676	headquarters	headquarters	headquarters	6	preview	9	713	1043	0	0	0	0	1043
568	677	at	at	at	6	preview	9	714	0	0	0	0	0	0
569	678	35th	35th	35th	6	preview	9	715	363	0	0	0	0	363
570	679	and	and	and	6	preview	9	716	274	0	0	0	0	274
571	680	@entity163	Michigan	Michigan	6	preview	9	717	582	0	0	0	0	582
572	681	through	through	through	6	preview	9	718	411	0	0	0	0	411
573	682	the	the	the	6	preview	9	719	0	0	0	0	0	0
574	683	@entity164	Southside	Southside,	6	preview	9	720	671	0	0	0	0	671
	684	,	,		6	preview	9	721						
575	685	@entity0	CNN	CNN	6	preview	9	722	0	0	0	0	0	0
576	686	affiliate	affiliate	affiliate	6	preview	9	723	496	200	200	200	200	296
577	687	@entity159	WGN	WGN	6	preview	9	724	0	0	0	0	0	0
578	688	reported	reported	reported.	6	preview	9	725	0	0	0	0	0	0
	689	.	.		6	preview	9	726						
579	690	Police	Police	Police	6	preview	9	727	548	226	226	226	226	322
580	691	made	made	made	6	preview	9	728	102	102	7365	102	102	0
581	692	one	one	one	6	preview	9	729	0	0	0	0	0	0
582	693	arrest	arrest	arrest,	6	preview	9	730	150	0	0	0	0	150
	694	,	,		6	preview	9	731						
583	695	for	for	for	6	preview	9	732	0	0	0	0	0	0
584	696	reckless	reckless	reckless	6	preview	9	733	382	148	298	148	148	234
585	697	conduct	conduct	conduct.	6	preview	9	734	236	0	0	0	0	236
	698	.	.		6	preview	9	735						
586	699	@entity159	WGN	WGN	6	preview	9	736	175	0	0	0	0	175
587	700	said	said	said	6	preview	9	737	0	0	0	0	0	0
588	701	protesters	protesters	protesters	6	preview	9	738	709	138	906	138	436	571
589	702	spoke	spoke	spoke	6	preview	9	739	0	0	0	0	0	0
590	703	about	about	about	6	preview	9	740	292	183	183	183	183	109
591	704	police	police	police	6	preview	9	741	0	0	0	0	0	0
592	705	violence	violence	violence	6	preview	9	742	395	211	952	211	395	184
593	706	and	and	and	6	preview	9	743	0	0	0	0	0	0
594	707	the	the	the	6	preview	9	744	88	88	88	88	88	0
595	708	death	death	death	6	preview	9	745	0	0	0	0	0	0
596	709	of	of	of	6	preview	9	746	256	0	0	0	0	256
597	710	@entity171	Rekia	Rekia	6	preview	9	747	0	0	0	0	0	0
598			Boyd	Boyd,	6	preview	9	748	220	0	0	0	0	220
	711	,	,		6	preview	9	749						
599	712	who	who	who	6	preview	9	750	0	0	0	0	0	0
600	713	was	was	was	6	preview	9	751	129	0	0	0	0	129
601	714	killed	killed	killed	6	preview	9	752	438	0	0	0	0	438
602	715	by	by	by	6	preview	9	753	239	0	0	0	0	239
603	716	an	an	an	6	preview	9	754	0	0	0	0	0	0
604	717	off	off	off-duty	6	preview	9	755	541	0	0	0	0	541
	718	-	-		6	preview	9	756						
	719	duty	duty		6	preview	9	757						
605	720	officer	officer	officer	6	preview	9	758	263	0	0	0	0	263
606	721	in	in	in	6	preview	9	759	0	0	0	0	0	0
607	722	2012	2012	2012.	6	preview	9	760	399	0	0	0	0	399
	723	.	.		6	preview	9	761						
608	724	That	That	That	6	preview	9	762	0	0	0	0	0	0
609	725	officer	officer	officer	6	preview	9	763	549	0	0	0	0	549
610	726	was	was	was	6	preview	9	764	0	0	0	0	0	0
611	727	acquitted	acquitted	acquitted	6	preview	9	765	289	0	0	0	0	289
612	728	last	last	last	6	preview	9	766	125	125	3159	125	125	0
613	729	week	week	week.	6	preview	9	767	217	217	506	217	217	0
	730	.	.		6	preview	9	768						
614	731	The	The	The	6	preview	9	769	0	0	0	0	0	0
615	732	group	group	group	6	preview	9	770	323	0	0	0	0	323
616	733	plans	plans	plans	6	preview	9	771	247	151	570	151	247	96
617	734	to	to	to	6	preview	9	772	0	0	0	0	0	0
618	735	gather	gather	gather	6	preview	9	773	0	0	0	0	0	0
619	736	Wednesday	Wednesday	Wednesday	6	preview	9	774	218	0	0	0	0	218
620	737	night	night	night	6	preview	9	775	205	205	423	205	205	0
621	738	at	at	at	6	preview	9	776	0	0	0	0	0	0
622	739	the	the	the	6	preview	9	777	0	0	0	0	0	0
623	740	@entity175	DePaul	DePaul	6	preview	9	778	0	0	0	0	0	0
624			Law	Law	6	preview	9	779	0	0	0	0	0	0
625			School	School.	6	preview	9	780	0	0	0	0	0	0
	741	.	.		6	preview	9	781						
626	742	About	About	About	6	preview	9	782	0	0	0	0	0	0
627	743	100	100	100	6	preview	9	783	0	0	0	0	0	0
628	744	people	people	people	6	preview	9	784	0	0	0	0	0	0
629	745	marched	marched	marched	6	preview	9	785	0	0	0	0	0	0
630	746	Monday	Monday	Monday	6	preview	9	786	0	0	0	0	0	0
631	747	night	night	night	6	preview	9	787	0	0	0	0	0	0
632	748	in	in	in	6	preview	9	788	0	0	0	0	0	0
633	749	@entity177	Oakland	Oakland	6	preview	9	789	0	0	0	0	0	0
634	750	in	in	in	6	preview	9	790	0	0	0	0	0	0
635	751	support	support	support	6	preview	9	791	0	0	0	0	0	0
636	752	of	of	of	6	preview	9	792	0	0	0	0	0	0
637	753	@entity21	Baltimore	Baltimore	6	preview	9	793	0	0	0	0	0	0
638	754	protesters	protesters	protesters,	6	preview	9	794	0	0	0	0	0	0
	755	,	,		6	preview	9	795						
639	756	reported	reported	reported	6	preview	9	796	0	0	0	0	0	0
640	757	@entity0	CNN	CNN	6	preview	9	797	0	0	0	0	0	0
641	758	affiliate	affiliate	affiliate	6	preview	9	798	0	0	0	0	0	0
642	759	@entity148	KABC	KABC.	6	preview	9	799	0	0	0	0	0	0
	760	.	.		6	preview	9	800						
643	761	A	A	A	6	preview	9	801	0	0	0	0	0	0
644	762	protest	protest	protest	6	preview	9	802	297	0	0	0	0	297
645	763	is	is	is	6	preview	9	803	0	0	0	0	0	0
646	764	planned	planned	planned	6	preview	9	804	0	0	0	0	0	0
647	765	for	for	for	6	preview	9	805	0	0	0	0	0	0
648	766	Thursday	Thursday	Thursday	6	preview	9	806	145	0	0	0	0	145
649	767	in	in	in	6	preview	9	807	0	0	0	0	0	0
650	768	@entity181	Cincinnati	Cincinnati,	6	preview	9	808	0	0	0	0	0	0
	769	,	,		6	preview	9	809						
651	770	reported	reported	reported	6	preview	9	810	0	0	0	0	0	0
652	771	@entity0	CNN	CNN	6	preview	9	811	0	0	0	0	0	0
653	772	affiliate	affiliate	affiliate	6	preview	9	812	0	0	0	0	0	0
654	773	@entity182	WXIX	WXIX.	6	preview	9	813	0	0	0	0	0	0
	774	.	.		6	preview	9	814						
655	775	@entity183	Philly.com	Philly.com	6	preview	9	815	533	320	762	203	320	213
656	776	said	said	said	6	preview	9	816	190	0	0	0	0	190
657	777	a	a	a	6	preview	9	817	0	0	0	0	0	0
658	778	-	-	-Philly	6	preview	9	818	391	0	0	0	0	391
	779	@entity185	Philly		6	preview	9	819						
659	780	is	is	is	6	preview	9	820	330	0	0	0	0	330
660	781	@entity21	Baltimore	Baltimore-	6	preview	9	821	157	157	1281	157	157	0
	782	-	-		6	preview	9	822						
661	783	protest	protest	protest	6	preview	9	823	0	0	0	0	0	0
662	784	will	will	will	6	preview	9	824	227	0	0	0	0	227
663	785	be	be	be	6	preview	9	825	0	0	0	0	0	0
664	786	held	held	held	6	preview	9	826	0	0	0	0	0	0
665	787	Thursday	Thursday	Thursday	6	preview	9	827	197	197	424	197	197	0
666	788	at	at	at	6	preview	9	828	0	0	0	0	0	0
667	789	@entity186	Philadelphia	Philadelphia	6	preview	9	829	0	0	0	0	0	0
668			City	City	6	preview	9	830	0	0	0	0	0	0
669			Hall	Hall.	6	preview	9	831	0	0	0	0	0	0
	790	.	.		6	preview	9	832						
