HumanPosition	AnonymizedPosition	AnonymizedToken	OriginalToken	ExperimentToken	Participant	Condition	TextNo	JointPosition	tt	fp	rp	ff
1	0	Many	Many	Many	4	preview	13	1	203	203	203	203
2	1	animals	animals	animals	4	preview	13	2	0	0	203	0
3	2	mimic	mimic	mimic	4	preview	13	3	238	238	238	238
4	3	human	human	human	4	preview	13	4	234	0	0	0
5	4	traits	traits	traits	4	preview	13	5	242	154	476	154
6	5	and	and	and	4	preview	13	6	0	0	0	0
7	6	vice	vice	vice	4	preview	13	7	226	226	226	226
8	7	versa	versa	versa	4	preview	13	8	0	0	0	0
9	8	but	but	but	4	preview	13	9	0	0	0	0
10	9	this	this	this	4	preview	13	10	184	184	184	184
11	10	puppy	puppy	puppy	4	preview	13	11	0	0	0	0
12	11	takes	takes	takes	4	preview	13	12	110	110	110	110
13	12	the	the	the	4	preview	13	13	0	0	0	0
14	13	biscuit	biscuit	biscuit.	4	preview	13	14	147	147	147	147
	14	.	.		4	preview	13	15				
15	15	@entity5	Leia	Leia,	4	preview	13	16	262	262	262	262
	16	,	,		4	preview	13	17				
16	17	an	an	an	4	preview	13	18	0	0	0	0
17	18	eight	eight	eight-month-old	4	preview	13	19	168	168	168	168
	19	-	-		4	preview	13	20				
	20	month	month		4	preview	13	21				
	21	-	-		4	preview	13	22				
	22	old	old		4	preview	13	23				
18	23	@entity6	Boxer	Boxer	4	preview	13	24	184	184	184	184
19	24	from	from	from	4	preview	13	25	0	0	0	0
20	25	@entity7	Pennsylvania	Pennsylvania,	4	preview	13	26	169	169	169	169
	26	,	,		4	preview	13	27				
21	27	was	was	was	4	preview	13	28	0	0	0	0
22	28	filmed	filmed	filmed	4	preview	13	29	183	183	183	183
23	29	as	as	as	4	preview	13	30	0	0	0	0
24	30	she	she	she	4	preview	13	31	0	0	0	0
25	31	lay	lay	lay	4	preview	13	32	151	151	151	151
26	32	on	on	on	4	preview	13	33	177	177	177	177
27	33	the	the	the	4	preview	13	34	0	0	0	0
28	34	couch	couch	couch	4	preview	13	35	0	0	0	0
29	35	and	and	and	4	preview	13	36	0	0	0	0
30	36	latched	latched	latched	4	preview	13	37	260	260	260	260
31	37	on	on	on	4	preview	13	38	0	0	0	0
32	38	to	to	to	4	preview	13	39	0	0	0	0
33	39	a	a	a	4	preview	13	40	0	0	0	0
34	40	baby	baby	baby-s	4	preview	13	41	304	304	304	304
	41	-s	-s		4	preview	13	42				
35	42	pacifier	pacifier	pacifier.	4	preview	13	43	206	206	206	206
	43	.	.		4	preview	13	44				
36	44	Footage	Footage	Footage	4	preview	13	45	265	265	265	265
37	45	shows	shows	shows	4	preview	13	46	0	0	0	0
38	46	her	her	her	4	preview	13	47	160	160	160	160
39	47	then	then	then	4	preview	13	48	0	0	0	0
40	48	sucking	sucking	sucking	4	preview	13	49	137	137	137	137
41	49	on	on	on	4	preview	13	50	0	0	0	0
42	50	it	it	it	4	preview	13	51	142	142	142	142
43	51	before	before	before	4	preview	13	52	0	0	0	0
44	52	closing	closing	closing	4	preview	13	53	251	251	251	251
45	53	her	her	her	4	preview	13	54	0	0	0	0
46	54	eyes	eyes	eyes	4	preview	13	55	0	0	0	0
47	55	and	and	and	4	preview	13	56	0	0	0	0
48	56	loudly	loudly	loudly	4	preview	13	57	108	108	108	108
49	57	snoring	snoring	snoring	4	preview	13	58	0	0	0	0
50	58	in	in	in	4	preview	13	59	0	0	0	0
51	59	her	her	her	4	preview	13	60	0	0	0	0
52	60	sleep	sleep	sleep.	4	preview	13	61	189	189	189	189
	61	.	.		4	preview	13	62				
53	62	A	A	A	4	preview	13	63	0	0	0	0
54	63	soothing	soothing	soothing	4	preview	13	64	425	187	187	187
55	64	rendition	rendition	rendition	4	preview	13	65	284	284	284	284
56	65	of	of	of	4	preview	13	66	174	174	412	174
57	66	@entity16	Twinkle	Twinkle,	4	preview	13	67	0	0	0	0
			,		4	preview	13	68				
58			Twinkle	Twinkle	4	preview	13	69	183	0	0	0
59			Little	Little	4	preview	13	70	124	124	307	124
60			Star	Star	4	preview	13	71	0	0	0	0
61	67	is	is	is	4	preview	13	72	0	0	0	0
62	68	heard	heard	heard	4	preview	13	73	226	226	226	226
63	69	playing	playing	playing	4	preview	13	74	0	0	0	0
64	70	away	away	away	4	preview	13	75	0	0	0	0
65	71	in	in	in	4	preview	13	76	0	0	0	0
66	72	the	the	the	4	preview	13	77	157	157	157	157
67	73	background	background	background.	4	preview	13	78	0	0	0	0
	74	.	.		4	preview	13	79				
68	75	The	The	The	4	preview	13	80	0	0	0	0
69	76	pup	pup	pup-s	4	preview	13	81	157	157	157	157
	77	-s	-s		4	preview	13	82				
70	78	owner	owner	owner,	4	preview	13	83	175	175	175	175
	79	,	,		4	preview	13	84				
71	80	@entity18	Dave	Dave	4	preview	13	85	0	0	0	0
72			McK	McK,	4	preview	13	86	0	0	0	0
	81	,	,		4	preview	13	87				
73	82	says	says	says	4	preview	13	88	0	0	0	0
74	83	that	that	that	4	preview	13	89	101	101	101	101
75	84	apparently	apparently	apparently	4	preview	13	90	183	183	183	183
76	85	@entity5	Leia	Leia	4	preview	13	91	0	0	0	0
77	86	loves	loves	loves	4	preview	13	92	275	275	275	275
78	87	to	to	to	4	preview	13	93	0	0	0	0
79	88	suck	suck	suck	4	preview	13	94	312	312	312	312
80	89	on	on	on	4	preview	13	95	0	0	0	0
81	90	her	her	her	4	preview	13	96	0	0	0	0
82	91	pacifier	pacifier	pacifier.	4	preview	13	97	185	185	185	185
	92	.	.		4	preview	13	98				
83	93	Each	Each	Each	4	preview	13	99	0	0	0	0
84	94	time	time	time	4	preview	13	100	224	224	224	224
85	95	around	around	around,	4	preview	13	101	102	102	102	102
	96	,	,		4	preview	13	102				
86	97	she	she	she	4	preview	13	103	0	0	0	0
87	98	immediately	immediately	immediately	4	preview	13	104	295	295	295	127
88	99	falls	falls	falls	4	preview	13	105	0	0	0	0
89	100	to	to	to	4	preview	13	106	0	0	0	0
90	101	sleep	sleep	sleep.	4	preview	13	107	157	157	157	157
	102	.	.		4	preview	13	108				
91	103	To	To	To	4	preview	13	109	0	0	0	0
92	104	date	date	date	4	preview	13	110	273	273	273	273
93	105	the	the	the	4	preview	13	111	0	0	0	0
94	106	video	video	video	4	preview	13	112	0	0	0	0
95	107	of	of	of	4	preview	13	113	177	177	177	177
96	108	@entity5	Leia	Leia	4	preview	13	114	0	0	0	0
97	109	has	has	has	4	preview	13	115	0	0	0	0
98	110	garnered	garnered	garnered	4	preview	13	116	217	217	217	217
99	111	more	more	more	4	preview	13	117	0	0	0	0
100	112	than	than	than	4	preview	13	118	164	164	164	164
101	113	145,000	145,000	145,000	4	preview	13	119	0	0	0	0
102	114	likes	likes	likes	4	preview	13	120	0	0	0	0
103	115	on	on	on	4	preview	13	121	231	231	231	231
104	116	@entity23	Facebook	Facebook,	4	preview	13	122	0	0	0	0
	117	,	,		4	preview	13	123				
105	118	with	with	with	4	preview	13	124	0	0	0	0
106	119	many	many	many	4	preview	13	125	265	265	265	265
107	120	viewers	viewers	viewers	4	preview	13	126	0	0	0	0
108	121	deeming	deeming	deeming	4	preview	13	127	0	0	0	0
109	122	the	the	the	4	preview	13	128	0	0	0	0
110	123	scene	scene	scene	4	preview	13	129	0	0	0	0
111	124	-	-	-cute-	4	preview	13	130	0	0	0	0
	125	cute	cute		4	preview	13	131				
	126	-	-		4	preview	13	132				
112	127	and	and	and	4	preview	13	133	0	0	0	0
113	128	-	-	-adorable-.	4	preview	13	134	0	0	0	0
	129	adorable	adorable		4	preview	13	135				
	130	-	-		4	preview	13	136				
	131	.	.		4	preview	13	137				
114	132	-	-	-This	4	preview	13	138	0	0	0	0
	133	This	This		4	preview	13	139				
115	134	has	has	has	4	preview	13	140	0	0	0	0
116	135	made	made	made	4	preview	13	141	0	0	0	0
117	136	my	my	my	4	preview	13	142	0	0	0	0
118	137	night	night	night,-	4	preview	13	143	0	0	0	0
	138	,	,		4	preview	13	144				
119	139	-	-	one	4	preview	13	145	0	0	0	0
120	140	one	one	fan	4	preview	13	146	0	0	0	0
121	141	fan	fan	exclaimed,	4	preview	13	147	200	200	200	200
	142	exclaimed	exclaimed		4	preview	13	148				
	143	,	,		4	preview	13	149				
122	144	while	while	while	4	preview	13	150	0	0	0	0
123	145	another	another	another	4	preview	13	151	143	143	143	143
124	146	added	added	added:	4	preview	13	152	0	0	0	0
125	147	:	:	-That	4	preview	13	153	0	0	0	0
	148	-	-		4	preview	13	154				
	149	That	That		4	preview	13	155				
126	150	is	is	is	4	preview	13	156	0	0	0	0
127	151	the	the	the	4	preview	13	157	0	0	0	0
128	152	cutest	cutest	cutest	4	preview	13	158	0	0	0	0
129	153	thing	thing	thing	4	preview	13	159	0	0	0	0
130	154	I	I	I-ve	4	preview	13	160	0	0	0	0
	155	-ve	-ve		4	preview	13	161				
131	156	ever	ever	ever	4	preview	13	162	256	256	256	256
132	157	seen	seen	seen!-	4	preview	13	163	0	0	0	0
	158	!	!		4	preview	13	164				
	159	-	-		4	preview	13	165				
133	160	When	When	When	4	preview	13	166	189	189	189	189
134	161	she	she	she-s	4	preview	13	167	0	0	0	0
	162	-s	-s		4	preview	13	168				
135	163	not	not	not	4	preview	13	169	0	0	0	0
136	164	snoozing	snoozing	snoozing,	4	preview	13	170	184	184	184	184
	165	,	,		4	preview	13	171				
137	166	@entity5	Leia	Leia	4	preview	13	172	0	0	0	0
138	167	is	is	is	4	preview	13	173	218	218	218	218
139	168	usually	usually	usually	4	preview	13	174	158	158	158	158
140	169	getting	getting	getting	4	preview	13	175	0	0	0	0
141	170	up	up	up	4	preview	13	176	0	0	0	0
142	171	to	to	to	4	preview	13	177	0	0	0	0
143	172	mischief	mischief	mischief	4	preview	13	178	216	216	216	216
144	173	with	with	with	4	preview	13	179	0	0	0	0
145	174	her	her	her	4	preview	13	180	0	0	0	0
146	175	older	older	older	4	preview	13	181	94	0	0	0
147	176	brother	brother	brother	4	preview	13	182	221	221	315	221
148	177	@entity31	Luke	Luke.	4	preview	13	183	0	0	0	0
	178	.	.		4	preview	13	184				
149	179	Together	Together	Together,	4	preview	13	185	237	237	237	237
	180	,	,		4	preview	13	186				
150	181	the	the	the	4	preview	13	187	0	0	0	0
151	182	canines	canines	canines	4	preview	13	188	273	273	273	273
152	183	have	have	have	4	preview	13	189	0	0	0	0
153	184	starred	starred	starred	4	preview	13	190	192	192	192	192
154	185	in	in	in	4	preview	13	191	0	0	0	0
155	186	numerous	numerous	numerous	4	preview	13	192	0	0	0	0
156	187	videos	videos	videos	4	preview	13	193	0	0	0	0
157	188	via	via	via	4	preview	13	194	0	0	0	0
158	189	@entity23	Facebook	Facebook	4	preview	13	195	264	264	264	117
159	190	and	and	and	4	preview	13	196	0	0	0	0
160	191	@entity34	YouTube	YouTube.	4	preview	13	197	0	0	0	0
	192	.	.		4	preview	13	198				
161	193	They	They	They	4	preview	13	199	0	0	0	0
162	194	also	also	also	4	preview	13	200	197	197	197	197
163	195	have	have	have	4	preview	13	201	0	0	0	0
164	196	their	their	their	4	preview	13	202	0	0	0	0
165	197	own	own	own	4	preview	13	203	214	214	214	214
166	198	website	website	website,	4	preview	13	204	0	0	0	0
	199	,	,		4	preview	13	205				
167	200	www.luketheboxer.com	www.luketheboxer.com	www.luketheboxer.com,	4	preview	13	206	256	256	256	256
168	201	where	where	where	4	preview	13	207	0	0	0	0
169	202	fans	fans	fans	4	preview	13	208	239	0	0	0
170	203	can	can	can	4	preview	13	209	106	0	0	0
171	204	buy	buy	buy	4	preview	13	210	148	0	0	0
172	205	calendars	calendars	calendars	4	preview	13	211	373	210	316	210
173	206	with	with	with	4	preview	13	212	0	0	0	0
174	207	their	their	their	4	preview	13	213	377	217	604	217
175	208	photographs	photographs	photographs	4	preview	13	214	173	173	496	173
176	209	on	on	on.	4	preview	13	215	0	0	0	0
	210	.	.		4	preview	13	216				
