HumanPosition	AnonymizedPosition	AnonymizedToken	OriginalToken	ExperimentToken	Participant	Condition	TextNo	JointPosition	tt	fp	rp	ff
1	0	One	One	One	4	preview	14	1	0	0	0	0
2	1	@entity1	Wall	Wall	4	preview	14	2	197	0	0	0
3			Street	Street	4	preview	14	3	104	104	301	104
4	2	trader	trader	trader	4	preview	14	4	262	262	262	262
5	3	closed	closed	closed	4	preview	14	5	226	226	226	226
6	4	out	out	out	4	preview	14	6	0	0	0	0
7	5	his	his	his	4	preview	14	7	0	0	0	0
8	6	week	week	week	4	preview	14	8	0	0	0	0
9	7	a	a	a	4	preview	14	9	214	214	214	214
10	8	few	few	few	4	preview	14	10	0	0	0	0
11	9	million	million	million	4	preview	14	11	182	182	182	182
12	10	dollars	dollars	dollars	4	preview	14	12	170	170	170	170
13	11	richer	richer	richer	4	preview	14	13	102	0	0	0
14	12	last	last	last	4	preview	14	14	117	117	219	117
15	13	Friday	Friday	Friday	4	preview	14	15	0	0	0	0
16	14	-	-	-	4	preview	14	16	0	0	0	0
17	15	and	and	and	4	preview	14	17	0	0	0	0
18	16	it	it	it	4	preview	14	18	0	0	0	0
19	17	was	was	was	4	preview	14	19	283	283	283	283
20	18	all	all	all	4	preview	14	20	0	0	0	0
21	19	thanks	thanks	thanks	4	preview	14	21	178	178	178	178
22	20	to	to	to	4	preview	14	22	0	0	2035	0
23	21	social	social	social	4	preview	14	23	234	234	234	234
24	22	media	media	media.	4	preview	14	24	0	0	0	0
	23	.	.		4	preview	14	25				
25	24	The	The	The	4	preview	14	26	0	0	0	0
26	25	unnamed	unnamed	unnamed	4	preview	14	27	304	304	304	304
27	26	trader	trader	trader	4	preview	14	28	167	167	167	167
28	27	used	used	used	4	preview	14	29	0	0	0	0
29	28	perfect	perfect	perfect	4	preview	14	30	141	141	141	141
30	29	timing	timing	timing	4	preview	14	31	134	134	134	134
31	30	to	to	to	4	preview	14	32	0	0	0	0
32	31	capitalize	capitalize	capitalize	4	preview	14	33	251	251	251	251
33	32	on	on	on	4	preview	14	34	0	0	0	0
34	33	one	one	one	4	preview	14	35	0	0	0	0
35	34	of	of	of	4	preview	14	36	158	158	158	158
36	35	the	the	the	4	preview	14	37	0	0	0	0
37	36	biggest	biggest	biggest	4	preview	14	38	138	138	138	138
38	37	deals	deals	deals	4	preview	14	39	0	0	0	0
39	38	of	of	of	4	preview	14	40	131	131	131	131
40	39	the	the	the	4	preview	14	41	0	0	0	0
41	40	year	year	year	4	preview	14	42	0	0	0	0
42	41	when	when	when	4	preview	14	43	144	144	144	144
43	42	@entity10	Wall	Wall	4	preview	14	44	0	0	0	0
44			Street	Street	4	preview	14	45	162	162	162	162
45			Journal	Journal	4	preview	14	46	140	140	140	140
46	43	mergers	mergers	mergers	4	preview	14	47	0	0	0	0
47	44	and	and	and	4	preview	14	48	0	0	0	0
48	45	acquisitions	acquisitions	acquisitions	4	preview	14	49	200	200	200	200
49	46	reporter	reporter	reporter	4	preview	14	50	253	253	253	253
50	47	@entity9	Dana	Dana	4	preview	14	51	0	0	0	0
51			Mattioli	Mattioli	4	preview	14	52	165	165	165	165
52	48	took	took	took	4	preview	14	53	0	0	0	0
53	49	to	to	to	4	preview	14	54	301	301	301	301
54	50	@entity11	Twitter	Twitter	4	preview	14	55	0	0	0	0
55	51	to	to	to	4	preview	14	56	0	0	0	0
56	52	announce	announce	announce	4	preview	14	57	230	230	230	230
57	53	that	that	that	4	preview	14	58	0	0	0	0
58	54	@entity12	Intel	Intel	4	preview	14	59	173	173	173	173
59	55	was	was	was	4	preview	14	60	111	111	111	111
60	56	in	in	in	4	preview	14	61	0	0	0	0
61	57	talks	talks	talks	4	preview	14	62	0	0	0	0
62	58	to	to	to	4	preview	14	63	309	309	309	162
63	59	buy	buy	buy	4	preview	14	64	0	0	0	0
64	60	one	one	one	4	preview	14	65	0	0	0	0
65	61	of	of	of	4	preview	14	66	0	0	0	0
66	62	its	its	its	4	preview	14	67	0	0	0	0
67	63	competitors	competitors	competitors,	4	preview	14	68	217	217	217	217
	64	,	,		4	preview	14	69				
68	65	chipmaker	chipmaker	chipmaker	4	preview	14	70	234	234	234	234
69	66	@entity16	Altera	Altera.	4	preview	14	71	0	0	0	0
	67	.	.		4	preview	14	72				
70	68	Seconds	Seconds	Seconds	4	preview	14	73	423	423	423	270
71	69	later	later	later,	4	preview	14	74	0	0	0	0
	70	,	,		4	preview	14	75				
72	71	the	the	the	4	preview	14	76	0	0	0	0
73	72	trader	trader	trader	4	preview	14	77	214	214	214	214
74	73	had	had	had	4	preview	14	78	0	0	0	0
75	74	snapped	snapped	snapped	4	preview	14	79	113	0	0	0
76	75	up	up	up	4	preview	14	80	190	190	303	190
77	76	3,158	3,158	3,158	4	preview	14	81	0	0	0	0
78	77	contracts	contracts	contracts	4	preview	14	82	121	121	121	121
79	78	of	of	of	4	preview	14	83	0	0	0	0
80	79	@entity16	Altera	Altera,	4	preview	14	84	390	261	261	261
	80	,	,		4	preview	14	85				
81	81	with	with	with	4	preview	14	86	0	0	0	0
82	82	each	each	each	4	preview	14	87	670	195	195	195
83	83	option	option	option	4	preview	14	88	488	166	166	166
84	84	contract	contract	contract	4	preview	14	89	759	249	249	249
85	85	giving	giving	giving	4	preview	14	90	356	0	0	0
86	86	them	them	them	4	preview	14	91	90	90	810	90
87	87	the	the	the	4	preview	14	92	0	0	0	0
88	88	right	right	right	4	preview	14	93	0	0	0	0
89	89	to	to	to	4	preview	14	94	0	0	0	0
90	90	purchase	purchase	purchase	4	preview	14	95	223	223	223	223
91	91	100	100	100	4	preview	14	96	0	0	0	0
92	92	shares	shares	shares.	4	preview	14	97	246	246	246	246
	93	.	.		4	preview	14	98				
93	94	Scroll	Scroll	CNBC	4	preview	14	99	0	0	0	0
	95	down	down		4	preview	14	100				
	96	for	for		4	preview	14	101				
	97	video	video		4	preview	14	102				
	98	An	An		4	preview	14	103				
	99	unnamed	unnamed		4	preview	14	104				
	100	@entity1	Wall		4	preview	14	105				
			Street		4	preview	14	106				
	101	trader	trader		4	preview	14	107				
	102	made	made		4	preview	14	108				
	103	a	a		4	preview	14	109				
	104	profit	profit		4	preview	14	110				
	105	of	of		4	preview	14	111				
	106	approximately	approximately		4	preview	14	112				
	107	$	$		4	preview	14	113				
	108	2.5million	2.5million		4	preview	14	114				
	109	on	on		4	preview	14	115				
	110	Friday	Friday		4	preview	14	116				
	111	thanks	thanks		4	preview	14	117				
	112	to	to		4	preview	14	118				
	113	a	a		4	preview	14	119				
	114	tweet	tweet		4	preview	14	120				
	115	from	from		4	preview	14	121				
	116	the	the		4	preview	14	122				
	117	@entity10	Wall		4	preview	14	123				
			Street		4	preview	14	124				
			Journal		4	preview	14	125				
	118	The	The		4	preview	14	126				
	119	trader	trader		4	preview	14	127				
	120	purchased	purchased		4	preview	14	128				
	121	315,800	315,800		4	preview	14	129				
	122	shares	shares		4	preview	14	130				
	123	of	of		4	preview	14	131				
	124	chipmaker	chipmaker		4	preview	14	132				
	125	@entity16	Altera		4	preview	14	133				
	126	one	one		4	preview	14	134				
	127	minute	minute		4	preview	14	135				
	128	after	after		4	preview	14	136				
	129	the	the		4	preview	14	137				
	130	@entity10	Journal		4	preview	14	138				
	131	reported	reported		4	preview	14	139				
	132	@entity12	Intel		4	preview	14	140				
	133	was	was		4	preview	14	141				
	134	in	in		4	preview	14	142				
	135	talks	talks		4	preview	14	143				
	136	to	to		4	preview	14	144				
	137	purchase	purchase		4	preview	14	145				
	138	them	them		4	preview	14	146				
	139	@entity32	CNBC		4	preview	14	147				
94	140	reports	reports	reports	4	preview	14	148	568	321	1640	321
95	141	that	that	that	4	preview	14	149	0	0	0	0
96	142	the	the	the	4	preview	14	150	0	0	0	0
97	143	trader	trader	trader	4	preview	14	151	0	0	0	0
98	144	paid	paid	paid	4	preview	14	152	210	210	210	210
99	145	$	$	$36	4	preview	14	153	0	0	0	0
	146	36	36		4	preview	14	154				
100	147	a	a	a	4	preview	14	155	187	187	187	187
101	148	share	share	share,	4	preview	14	156	133	133	133	133
	149	,	,		4	preview	14	157				
102	150	and	and	and	4	preview	14	158	0	0	0	0
103	151	the	the	the	4	preview	14	159	150	150	150	150
104	152	call	call	call	4	preview	14	160	0	0	0	0
105	153	option	option	option	4	preview	14	161	0	0	0	0
106	154	was	was	was	4	preview	14	162	367	367	367	192
107	155	a	a	a	4	preview	14	163	0	0	0	0
108	156	mere	mere	mere	4	preview	14	164	244	244	244	244
109	157	35	35	35	4	preview	14	165	0	0	0	0
110	158	cents	cents	cents	4	preview	14	166	0	0	0	0
111	159	as	as	as	4	preview	14	167	284	0	0	0
112	160	options	options	options	4	preview	14	168	84	84	84	84
113	161	on	on	on	4	preview	14	169	0	0	0	0
114	162	the	the	the	4	preview	14	170	189	0	0	0
115	163	stock	stock	stock,	4	preview	14	171	182	182	655	182
	164	,	,		4	preview	14	172				
116	165	at	at	at	4	preview	14	173	0	0	0	0
117	166	that	that	that	4	preview	14	174	0	0	0	0
118	167	point	point	point	4	preview	14	175	230	230	230	230
119	168	valued	valued	valued	4	preview	14	176	139	0	0	0
120	169	at	at	at	4	preview	14	177	155	155	155	155
121	170	$	$	$34.76	4	preview	14	178	188	188	188	188
	171	34.76	34.76		4	preview	14	179				
122	172	a	a	a	4	preview	14	180	0	0	0	0
123	173	share	share	share,	4	preview	14	181	251	251	251	251
	174	,	,		4	preview	14	182				
124	175	were	were	were	4	preview	14	183	0	0	0	0
125	176	set	set	set	4	preview	14	184	188	188	188	188
126	177	to	to	to	4	preview	14	185	0	0	0	0
127	178	expire	expire	expire	4	preview	14	186	170	170	170	170
128	179	in	in	in	4	preview	14	187	0	0	0	0
129	180	just	just	just	4	preview	14	188	0	0	0	0
130	181	a	a	a	4	preview	14	189	0	0	0	0
131	182	few	few	few	4	preview	14	190	251	251	251	251
132	183	weeks	weeks	weeks.	4	preview	14	191	0	0	0	0
	184	.	.		4	preview	14	192				
133	185	3:32pm	3:32pm	When	4	preview	14	193	244	0	0	0
	186	:	:		4	preview	14	194				
	187	The	The		4	preview	14	195				
134	188	@entity10	Wall	the	4	preview	14	196	90	90	229	90
			Street		4	preview	14	197				
			Journal		4	preview	14	198				
	189	reports	reports		4	preview	14	199				
	190	that	that		4	preview	14	200				
135	191	@entity12	Intel	market	4	preview	14	201	144	0	0	0
	192	is	is		4	preview	14	202				
	193	in	in		4	preview	14	203				
	194	talks	talks		4	preview	14	204				
	195	to	to		4	preview	14	205				
	196	buy	buy		4	preview	14	206				
	197	@entity16	Altera		4	preview	14	207				
	198	.	.		4	preview	14	208				
	199	3:33pm	3:33pm		4	preview	14	209				
	200	:	:		4	preview	14	210				
	201	Trader	Trader		4	preview	14	211				
	202	purchases	purchases		4	preview	14	212				
	203	315,800	315,800		4	preview	14	213				
	204	shares	shares		4	preview	14	214				
	205	of	of		4	preview	14	215				
	206	@entity16	Altera		4	preview	14	216				
	207	at	at		4	preview	14	217				
	208	$	$		4	preview	14	218				
	209	36	36		4	preview	14	219				
	210	a	a		4	preview	14	220				
	211	share	share		4	preview	14	221				
	212	for	for		4	preview	14	222				
	213	a	a		4	preview	14	223				
	214	total	total		4	preview	14	224				
	215	cost	cost		4	preview	14	225				
	216	of	of		4	preview	14	226				
	217	$	$		4	preview	14	227				
	218	11,368,000	11,368,000		4	preview	14	228				
	219	plus	plus		4	preview	14	229				
	220	$	$		4	preview	14	230				
	221	110,530	110,530		4	preview	14	231				
	222	for	for		4	preview	14	232				
	223	a	a		4	preview	14	233				
	224	$	$		4	preview	14	234				
	225	0.35	0.35		4	preview	14	235				
	226	call	call		4	preview	14	236				
	227	option	option		4	preview	14	237				
	228	.	.		4	preview	14	238				
	229	3:35pm	3:35pm		4	preview	14	239				
	230	:	:		4	preview	14	240				
	231	@entity46	Nasdaq		4	preview	14	241				
	232	suspends	suspends		4	preview	14	242				
	233	trading	trading		4	preview	14	243				
	234	of	of		4	preview	14	244				
	235	@entity16	Altera		4	preview	14	245				
	236	in	in		4	preview	14	246				
	237	the	the		4	preview	14	247				
	238	wake	wake		4	preview	14	248				
136	239	of	of	closed	4	preview	14	249	157	0	0	0
	240	the	the		4	preview	14	250				
	241	@entity10	Journal		4	preview	14	251				
	242	-s	-s		4	preview	14	252				
	243	tweet	tweet		4	preview	14	253				
	244	.	.		4	preview	14	254				
	245	4:00pm	4:00pm		4	preview	14	255				
	246	:	:		4	preview	14	256				
	247	Trader	Trader		4	preview	14	257				
	248	sells	sells		4	preview	14	258				
	249	@entity16	Altera		4	preview	14	259				
	250	at	at		4	preview	14	260				
	251	the	the		4	preview	14	261				
	252	new	new		4	preview	14	262				
	253	share	share		4	preview	14	263				
	254	price	price		4	preview	14	264				
	255	of	of		4	preview	14	265				
	256	$	$		4	preview	14	266				
	257	44.39	44.39		4	preview	14	267				
	258	for	for		4	preview	14	268				
	259	a	a		4	preview	14	269				
	260	total	total		4	preview	14	270				
	261	of	of		4	preview	14	271				
	262	$	$		4	preview	14	272				
	263	14,018,362	14,018,362		4	preview	14	273				
	264	.	.		4	preview	14	274				
	265	This	This		4	preview	14	275				
	266	,	,		4	preview	14	276				
	267	after	after		4	preview	14	277				
	268	factoring	factoring		4	preview	14	278				
	269	in	in		4	preview	14	279				
	270	the	the		4	preview	14	280				
	271	intital	intital		4	preview	14	281				
	272	share	share		4	preview	14	282				
	273	price	price		4	preview	14	283				
	274	and	and		4	preview	14	284				
	275	call	call		4	preview	14	285				
	276	option	option		4	preview	14	286				
	277	,	,		4	preview	14	287				
	278	leaves	leaves		4	preview	14	288				
	279	them	them		4	preview	14	289				
	280	with	with		4	preview	14	290				
	281	a	a		4	preview	14	291				
	282	profit	profit		4	preview	14	292				
	283	of	of		4	preview	14	293				
	284	approximately	approximately		4	preview	14	294				
	285	$	$		4	preview	14	295				
	286	2,539.832	2,539.832		4	preview	14	296				
	287	.	.		4	preview	14	297				
	288	This	This		4	preview	14	298				
	289	call	call		4	preview	14	299				
	290	option	option		4	preview	14	300				
	291	allowed	allowed		4	preview	14	301				
137	292	the	the	for	4	preview	14	302	0	0	0	0
138	293	trader	trader	the	4	preview	14	303	0	0	0	0
	294	the	the		4	preview	14	304				
139	295	right	right	day,	4	preview	14	305	0	0	0	0
	296	to	to		4	preview	14	306				
	297	purchase	purchase		4	preview	14	307				
	298	more	more		4	preview	14	308				
	299	shares	shares		4	preview	14	309				
	300	in	in		4	preview	14	310				
140	301	the	the	Altera	4	preview	14	311	0	0	0	0
	302	company	company		4	preview	14	312				
	303	,	,		4	preview	14	313				
	304	in	in		4	preview	14	314				
	305	this	this		4	preview	14	315				
	306	case	case		4	preview	14	316				
	307	315,800	315,800		4	preview	14	317				
	308	shares	shares		4	preview	14	318				
	309	,	,		4	preview	14	319				
	310	at	at		4	preview	14	320				
	311	the	the		4	preview	14	321				
	312	cost	cost		4	preview	14	322				
	313	of	of		4	preview	14	323				
	314	$	$		4	preview	14	324				
	315	36	36		4	preview	14	325				
	316	,	,		4	preview	14	326				
	317	even	even		4	preview	14	327				
	318	though	though		4	preview	14	328				
	319	the	the		4	preview	14	329				
	320	value	value		4	preview	14	330				
	321	of	of		4	preview	14	331				
	322	shares	shares		4	preview	14	332				
	323	quickly	quickly		4	preview	14	333				
	324	began	began		4	preview	14	334				
	325	to	to		4	preview	14	335				
	326	rise	rise		4	preview	14	336				
	327	.	.		4	preview	14	337				
	328	Just	Just		4	preview	14	338				
	329	28	28		4	preview	14	339				
	330	minutes	minutes		4	preview	14	340				
	331	later	later		4	preview	14	341				
141	332	,	,	was	4	preview	14	342	129	0	0	0
142	333	when	when	valued	4	preview	14	343	193	193	322	193
	334	the	the		4	preview	14	344				
	335	market	market		4	preview	14	345				
	336	closed	closed		4	preview	14	346				
	337	for	for		4	preview	14	347				
	338	the	the		4	preview	14	348				
	339	day	day		4	preview	14	349				
	340	,	,		4	preview	14	350				
	341	@entity16	Altera		4	preview	14	351				
	342	was	was		4	preview	14	352				
	343	valued	valued		4	preview	14	353				
143	344	at	at	at	4	preview	14	354	0	0	0	0
144	345	$	$	$44.39	4	preview	14	355	161	0	0	0
	346	44.39	44.39		4	preview	14	356				
145	347	per	per	per	4	preview	14	357	236	236	942	236
146	348	share	share	share.	4	preview	14	358	0	0	0	0
	349	.	.		4	preview	14	359				
147	350	That	That	That	4	preview	14	360	0	0	0	0
148	351	was	was	was	4	preview	14	361	0	0	0	0
149	352	an	an	an	4	preview	14	362	232	0	0	0
150	353	increase	increase	increase	4	preview	14	363	0	0	0	0
151	354	of	of	of	4	preview	14	364	0	0	0	0
152	355	28	28	28%,	4	preview	14	365	203	0	0	0
	356	%	%		4	preview	14	366				
	357	,	,		4	preview	14	367				
153	358	but	but	but	4	preview	14	368	223	0	0	0
154	359	because	because	because	4	preview	14	369	0	0	0	0
155	360	of	of	of	4	preview	14	370	103	0	0	0
156	361	the	the	the	4	preview	14	371	0	0	0	0
157	362	call	call	call	4	preview	14	372	348	348	348	348
158	363	option	option	option,	4	preview	14	373	0	0	0	0
	364	,	,		4	preview	14	374				
159	365	the	the	the	4	preview	14	375	0	0	0	0
160	366	trader	trader	trader	4	preview	14	376	425	425	425	155
161	367	was	was	was	4	preview	14	377	0	0	0	0
162	368	able	able	able	4	preview	14	378	172	172	933	172
163	369	to	to	to	4	preview	14	379	0	0	0	0
164	370	sell	sell	sell	4	preview	14	380	0	0	0	0
165	371	their	their	their	4	preview	14	381	0	0	0	0
166	372	stocks	stocks	stocks	4	preview	14	382	0	0	0	0
167	373	at	at	at	4	preview	14	383	0	0	0	0
168	374	a	a	a	4	preview	14	384	0	0	0	0
169	375	far	far	far	4	preview	14	385	0	0	0	0
170	376	greater	greater	greater	4	preview	14	386	0	0	0	0
171	377	profit	profit	profit.	4	preview	14	387	0	0	0	0
	378	.	.		4	preview	14	388				
172	379	So	So	So	4	preview	14	389	0	0	0	0
173	380	instead	instead	instead	4	preview	14	390	0	0	0	0
174	381	of	of	of	4	preview	14	391	112	112	112	112
175	382	making	making	making	4	preview	14	392	146	0	0	0
176	383	a	a	a	4	preview	14	393	223	223	369	223
177	384	28	28	28%	4	preview	14	394	0	0	0	0
	385	%	%		4	preview	14	395				
178	386	profit	profit	profit,	4	preview	14	396	165	0	0	0
	387	,	,		4	preview	14	397				
179	388	the	the	the	4	preview	14	398	0	0	0	0
180	389	trader	trader	trader	4	preview	14	399	428	282	282	282
181	390	made	made	made	4	preview	14	400	0	0	0	0
182	391	a	a	a	4	preview	14	401	0	0	0	0
183	392	2,220	2,220	2,220%	4	preview	14	402	298	166	166	166
	393	%	%		4	preview	14	403				
184	394	profit	profit	profit	4	preview	14	404	253	253	385	253
185	395	of	of	of	4	preview	14	405	121	121	121	121
186	396	roughly	roughly	roughly	4	preview	14	406	0	0	0	0
187	397	$	$	$2.5million	4	preview	14	407	240	240	240	240
	398	2.5million	2.5million		4	preview	14	408				
188	399	when	when	when	4	preview	14	409	282	0	0	0
189	400	they	they	they	4	preview	14	410	213	213	213	213
190	401	sold	sold	sold	4	preview	14	411	0	0	0	0
191	402	their	their	their	4	preview	14	412	229	229	511	229
192	403	shares	shares	shares.	4	preview	14	413	0	0	282	0
	404	.	.		4	preview	14	414				
193	405	Even	Even	Even	4	preview	14	415	128	0	0	0
194	406	more	more	more	4	preview	14	416	228	228	667	228
195	407	impressive	impressive	impressive	4	preview	14	417	219	219	219	219
196	408	is	is	is	4	preview	14	418	173	173	173	173
197	409	that	that	that	4	preview	14	419	0	0	0	0
198	410	the	the	the	4	preview	14	420	100	100	100	100
199	411	trader	trader	trader	4	preview	14	421	0	0	0	0
200	412	managed	managed	managed	4	preview	14	422	82	82	82	82
201	413	to	to	to	4	preview	14	423	0	0	0	0
202	414	make	make	make	4	preview	14	424	181	181	181	181
203	415	the	the	the	4	preview	14	425	0	0	0	0
204	416	purchase	purchase	purchase	4	preview	14	426	209	209	209	209
205	417	just	just	just	4	preview	14	427	0	0	0	0
206	418	minutes	minutes	minutes	4	preview	14	428	241	241	241	241
207	419	before	before	before	4	preview	14	429	216	216	216	216
208	420	@entity46	Nasdaq	Nasdaq	4	preview	14	430	0	0	0	0
209	421	suspended	suspended	suspended	4	preview	14	431	433	433	433	433
210	422	trading	trading	trading	4	preview	14	432	311	311	311	210
211	423	of	of	of	4	preview	14	433	0	0	0	0
212	424	@entity16	Altera	Altera	4	preview	14	434	0	0	0	0
213	425	because	because	because	4	preview	14	435	449	0	0	0
214	426	of	of	of	4	preview	14	436	0	0	0	0
215	427	the	the	the	4	preview	14	437	249	110	348	110
216	428	tweet	tweet	tweet	4	preview	14	438	198	198	198	198
217	429	from	from	from	4	preview	14	439	140	0	0	0
218	430	@entity9	Mattioli	Mattioli.	4	preview	14	440	387	171	877	171
	431	.	.		4	preview	14	441				
219	432	What	What	What-s	4	preview	14	442	0	0	0	0
	433	-s	-s		4	preview	14	443				
220	434	more	more	more,	4	preview	14	444	152	152	152	152
	435	,	,		4	preview	14	445				
221	436	call	call	call	4	preview	14	446	0	0	0	0
222	437	options	options	options	4	preview	14	447	0	0	0	0
223	438	for	for	for	4	preview	14	448	0	0	0	0
224	439	@entity16	Altera	Altera	4	preview	14	449	275	275	275	275
225	440	had	had	had	4	preview	14	450	355	355	355	355
226	441	at	at	at	4	preview	14	451	0	0	0	0
227	442	that	that	that	4	preview	14	452	0	0	0	0
228	443	point	point	point	4	preview	14	453	361	361	361	361
229	444	reached	reached	reached	4	preview	14	454	0	0	0	0
230	445	a	a	a	4	preview	14	455	169	169	169	169
231	446	price	price	price	4	preview	14	456	0	0	0	0
232	447	of	of	of	4	preview	14	457	148	148	148	148
233	448	$	$	$8.10	4	preview	14	458	0	0	0	0
	449	8.10	8.10		4	preview	14	459				
234	450	by	by	by	4	preview	14	460	199	199	199	199
235	451	the	the	the	4	preview	14	461	161	161	161	161
236	452	end	end	end	4	preview	14	462	0	0	0	0
237	453	of	of	of	4	preview	14	463	0	0	0	0
238	454	the	the	the	4	preview	14	464	0	0	0	0
239	455	day	day	day.	4	preview	14	465	125	125	125	125
	456	.	.		4	preview	14	466				
240	457	There	There	There	4	preview	14	467	0	0	0	0
241	458	is	is	is	4	preview	14	468	183	183	183	183
242	459	also	also	also	4	preview	14	469	0	0	0	0
243	460	a	a	a	4	preview	14	470	0	0	0	0
244	461	chance	chance	chance,	4	preview	14	471	313	313	313	191
	462	,	,		4	preview	14	472				
245	463	reports	reports	reports	4	preview	14	473	0	0	0	0
246	464	@entity90	Matt	Matt	4	preview	14	474	0	0	0	0
247			Khouw	Khouw,	4	preview	14	475	259	259	259	138
	465	,	,		4	preview	14	476				
248	466	that	that	that	4	preview	14	477	0	0	0	0
249	467	the	the	the	4	preview	14	478	214	214	214	214
250	468	trader	trader	trader	4	preview	14	479	0	0	0	0
251	469	could	could	could	4	preview	14	480	0	0	0	0
252	470	have	have	have	4	preview	14	481	183	183	183	183
253	471	been	been	been	4	preview	14	482	0	0	0	0
254	472	aware	aware	aware	4	preview	14	483	239	239	239	239
255	473	of	of	of	4	preview	14	484	0	0	0	0
256	474	@entity12	Intel	Intel-s	4	preview	14	485	159	159	159	159
	475	-s	-s		4	preview	14	486				
257	476	plan	plan	plan	4	preview	14	487	0	0	0	0
258	477	to	to	to	4	preview	14	488	0	0	0	0
259	478	buy	buy	buy	4	preview	14	489	136	136	136	136
260	479	@entity16	Altera	Altera	4	preview	14	490	0	0	0	0
261	480	early	early	early,	4	preview	14	491	181	0	0	0
	481	,	,		4	preview	14	492				
262	482	or	or	or	4	preview	14	493	91	91	272	91
263	483	that	that	that	4	preview	14	494	0	0	0	0
264	484	they	they	they	4	preview	14	495	201	201	201	201
265	485	used	used	used	4	preview	14	496	0	0	0	0
266	486	a	a	a	4	preview	14	497	0	0	0	0
267	487	bot	bot	bot	4	preview	14	498	158	158	158	158
268	488	to	to	to	4	preview	14	499	0	0	0	0
269	489	quickly	quickly	quickly	4	preview	14	500	178	178	178	178
270	490	buy	buy	buy	4	preview	14	501	0	0	0	0
271	491	the	the	the	4	preview	14	502	269	269	269	269
272	492	shares	shares	shares.	4	preview	14	503	0	0	0	0
	493	.	.		4	preview	14	504				
273	494	-	-	-A	4	preview	14	505	0	0	0	0
	495	A	A		4	preview	14	506				
274	496	bot	bot	bot	4	preview	14	507	160	0	0	0
275	497	is	is	is	4	preview	14	508	166	0	0	0
276	498	not	not	not	4	preview	14	509	640	211	377	211
277	499	as	as	as	4	preview	14	510	189	189	778	189
278	500	outlandish	outlandish	outlandish	4	preview	14	511	0	0	0	0
279	501	as	as	as	4	preview	14	512	0	0	0	0
280	502	it	it	it	4	preview	14	513	0	0	0	0
281	503	sounds	sounds	sounds,-	4	preview	14	514	289	289	289	132
	504	,	,		4	preview	14	515				
282	505	-	-	Khouw	4	preview	14	516	0	0	0	0
	506	@entity90	Khouw		4	preview	14	517				
283	507	said	said	said.	4	preview	14	518	0	0	0	0
	508	.	.		4	preview	14	519				
284	509	-	-	-Traders	4	preview	14	520	300	300	300	300
	510	Traders	Traders		4	preview	14	521				
285	511	need	need	need	4	preview	14	522	0	0	0	0
286	512	to	to	to	4	preview	14	523	0	0	0	0
287	513	aggregate	aggregate	aggregate	4	preview	14	524	189	189	189	189
288	514	and	and	and	4	preview	14	525	0	0	0	0
289	515	filter	filter	filter	4	preview	14	526	134	134	134	134
290	516	through	through	through	4	preview	14	527	0	0	0	0
291	517	tremendous	tremendous	tremendous	4	preview	14	528	231	231	231	231
292	518	amounts	amounts	amounts	4	preview	14	529	0	0	0	0
293	519	of	of	of	4	preview	14	530	245	245	245	245
294	520	data	data	data	4	preview	14	531	0	0	0	0
295	521	quickly	quickly	quickly	4	preview	14	532	183	183	183	183
296	522	and	and	and	4	preview	14	533	0	0	0	0
297	523	will	will	will	4	preview	14	534	0	0	0	0
298	524	rely	rely	rely	4	preview	14	535	333	333	333	333
299	525	on	on	on	4	preview	14	536	0	0	0	0
300	526	technology	technology	technology	4	preview	14	537	0	0	0	0
301	527	to	to	to	4	preview	14	538	0	0	0	0
302	528	help	help	help	4	preview	14	539	0	0	0	0
303	529	if	if	if	4	preview	14	540	0	0	0	0
304	530	it	it	it	4	preview	14	541	198	198	198	198
305	531	is	is	is	4	preview	14	542	0	0	0	0
306	532	available	available	available.-	4	preview	14	543	111	111	111	111
	533	.	.		4	preview	14	544				
307	534	-	-	As	4	preview	14	545	0	0	0	0
308	535	As	As	for	4	preview	14	546	0	0	0	0
309	536	for	for	Intel-s	4	preview	14	547	0	0	0	0
	537	@entity12	Intel		4	preview	14	548				
	538	-s	-s		4	preview	14	549				
310	539	reported	reported	reported	4	preview	14	550	300	300	300	300
311	540	purchase	purchase	purchase	4	preview	14	551	190	190	190	190
312	541	of	of	of	4	preview	14	552	0	0	0	0
313	542	@entity16	Altera	Altera,	4	preview	14	553	0	0	0	0
	543	,	,		4	preview	14	554				
314	544	that	that	that	4	preview	14	555	149	149	149	149
315	545	still	still	still	4	preview	14	556	0	0	0	0
316	546	has	has	has	4	preview	14	557	0	0	0	0
317	547	yet	yet	yet	4	preview	14	558	0	0	0	0
318	548	to	to	to	4	preview	14	559	255	255	255	255
319	549	happen	happen	happen.	4	preview	14	560	0	0	0	0
	550	.	.		4	preview	14	561				
320	551	Meanwhile	Meanwhile	Meanwhile,	4	preview	14	562	223	223	223	223
	552	,	,		4	preview	14	563				
321	553	@entity12	Intel	Intel	4	preview	14	564	0	0	0	0
322	554	share	share	share	4	preview	14	565	248	248	248	248
323	555	prices	prices	prices	4	preview	14	566	141	141	141	141
324	556	fell	fell	fell	4	preview	14	567	0	0	0	0
325	557	earlier	earlier	earlier	4	preview	14	568	203	203	203	203
326	558	this	this	this	4	preview	14	569	0	0	0	0
327	559	week	week	week	4	preview	14	570	0	0	0	0
328	560	in	in	in	4	preview	14	571	266	266	266	266
329	561	response	response	response	4	preview	14	572	0	0	0	0
330	562	to	to	to	4	preview	14	573	0	0	0	0
331	563	the	the	the	4	preview	14	574	0	0	0	0
332	564	news	news	news	4	preview	14	575	0	0	0	0
333	565	that	that	that	4	preview	14	576	132	132	132	132
334	566	they	they	they	4	preview	14	577	0	0	0	0
335	567	might	might	might	4	preview	14	578	91	91	91	91
336	568	purchase	purchase	purchase	4	preview	14	579	0	0	0	0
337	569	@entity16	Altera	Altera.	4	preview	14	580	0	0	0	0
	570	.	.		4	preview	14	581				
