HumanPosition	AnonymizedPosition	AnonymizedToken	OriginalToken	ExperimentToken	Participant	Condition	TextNo	JointPosition	tt	fp	rp	ff
1	0	Per	Per	Per	4	preview	15	1	0	0	0	0
2	1	@entity0	Mertesacker	Mertesacker	4	preview	15	2	732	0	0	0
3	2	looks	looks	looks	4	preview	15	3	191	0	0	0
4	3	set	set	set	4	preview	15	4	342	0	0	0
5	4	to	to	to	4	preview	15	5	0	0	0	0
6	5	be	be	be	4	preview	15	6	230	0	0	0
7	6	ruled	ruled	ruled	4	preview	15	7	576	0	0	0
8	7	out	out	out	4	preview	15	8	0	0	0	0
9	8	of	of	of	4	preview	15	9	0	0	0	0
10	9	@entity2	Arsenal	Arsenal-s	4	preview	15	10	793	0	0	0
	10	’s	’s		4	preview	15	11				
11	11	derby	derby	derby	4	preview	15	12	464	0	0	0
12	12	against	against	against	4	preview	15	13	496	0	0	0
13	13	@entity3	Chelsea	Chelsea	4	preview	15	14	237	0	0	0
14	14	although	although	although	4	preview	15	15	446	0	0	0
15	15	the	the	the	4	preview	15	16	0	0	0	0
16	16	defender	defender	defender	4	preview	15	17	0	0	0	0
17	17	has	has	has	4	preview	15	18	253	0	0	0
18	18	escaped	escaped	escaped	4	preview	15	19	0	0	0	0
19	19	any	any	any	4	preview	15	20	0	0	0	0
20	20	serious	serious	serious	4	preview	15	21	256	0	0	0
21	21	ankle	ankle	ankle	4	preview	15	22	238	0	0	0
22	22	ligament	ligament	ligament	4	preview	15	23	233	0	0	0
23	23	damage	damage	damage.	4	preview	15	24	261	0	0	0
	24	.	.		4	preview	15	25				
24	25	@entity0	Mertesacker	Mertesacker,	4	preview	15	26	171	0	0	0
	26	,	,		4	preview	15	27				
25	27	captain	captain	captain	4	preview	15	28	829	0	0	0
26	28	during	during	during	4	preview	15	29	309	0	0	0
27	29	the	the	the	4	preview	15	30	468	0	0	0
28	30	long	long	long	4	preview	15	31	0	0	0	0
29	31	absence	absence	absence	4	preview	15	32	323	0	0	0
30	32	of	of	of	4	preview	15	33	0	0	0	0
31	33	@entity8	Mikel	Mikel	4	preview	15	34	0	0	0	0
32			Arteta	Arteta,	4	preview	15	35	434	0	0	0
	34	,	,		4	preview	15	36				
33	35	limped	limped	limped	4	preview	15	37	384	0	0	0
34	36	off	off	off	4	preview	15	38	179	0	0	0
35	37	during	during	during	4	preview	15	39	390	0	0	0
36	38	the	the	the	4	preview	15	40	0	0	0	0
37	39	second	second	second	4	preview	15	41	210	0	0	0
38	40	half	half	half	4	preview	15	42	0	0	0	0
39	41	of	of	of	4	preview	15	43	0	0	0	0
40	42	the	the	the	4	preview	15	44	0	0	0	0
41	43	@entity10	FA	FA	4	preview	15	45	201	0	0	0
42			Cup	Cup	4	preview	15	46	138	0	0	0
43	44	semi-final	semi-final	semi-final	4	preview	15	47	0	0	0	0
44	45	against	against	against	4	preview	15	48	518	173	8924	173
45	46	@entity12	Reading	Reading	4	preview	15	49	0	0	0	0
46	47	at	at	at	4	preview	15	50	0	0	0	0
47	48	@entity13	Wembley	Wembley	4	preview	15	51	194	194	194	194
48	49	on	on	on	4	preview	15	52	0	0	0	0
49	50	Saturday	Saturday	Saturday.	4	preview	15	53	138	138	138	138
	51	.	.		4	preview	15	54				
50	52	There	There	There	4	preview	15	55	0	0	0	0
51	53	were	were	were	4	preview	15	56	382	382	382	245
52	54	fears	fears	fears	4	preview	15	57	0	0	0	0
53	55	of	of	of	4	preview	15	58	0	0	0	0
54	56	a	a	a	4	preview	15	59	0	0	0	0
55	57	serious	serious	serious	4	preview	15	60	298	298	298	144
56	58	injury	injury	injury	4	preview	15	61	0	0	0	0
57	59	for	for	for	4	preview	15	62	131	0	0	0
58	60	the	the	the	4	preview	15	63	0	0	0	0
59	61	6ft	6ft	6ft	4	preview	15	64	192	192	192	192
60	62	6in	6in	6in	4	preview	15	65	173	0	0	0
61	63	@entity17	German	German	4	preview	15	66	379	379	683	379
62	64	after	after	after	4	preview	15	67	0	0	0	0
63	65	he	he	he	4	preview	15	68	0	0	0	0
64	66	twisted	twisted	twisted	4	preview	15	69	167	167	167	167
65	67	the	the	the	4	preview	15	70	0	0	0	0
66	68	joint	joint	joint	4	preview	15	71	100	100	100	100
67	69	but	but	but	4	preview	15	72	0	0	0	0
68	70	subsequent	subsequent	subsequent	4	preview	15	73	291	291	291	163
69	71	scans	scans	scans	4	preview	15	74	0	0	0	0
70	72	have	have	have	4	preview	15	75	273	273	273	273
71	73	shown	shown	shown	4	preview	15	76	0	0	0	0
72	74	it	it	it	4	preview	15	77	0	0	0	0
73	75	is	is	is	4	preview	15	78	0	0	0	0
74	76	a	a	a	4	preview	15	79	0	0	0	0
75	77	minor	minor	minor	4	preview	15	80	175	175	175	175
76	78	sprain	sprain	sprain.	4	preview	15	81	212	212	212	212
	79	.	.		4	preview	15	82				
77	80	Per	Per	He	4	preview	15	83	0	0	0	0
78	81	@entity0	Mertesacker	is	4	preview	15	84	0	0	0	0
	82	will	will		4	preview	15	85				
79	83	miss	miss	not	4	preview	15	86	242	242	242	242
	84	@entity2	Arsenal		4	preview	15	87				
	85	-s	-s		4	preview	15	88				
80	86	visit	visit	expected	4	preview	15	89	180	0	0	0
	87	by	by		4	preview	15	90				
	88	@entity3	Chelsea		4	preview	15	91				
	89	on	on		4	preview	15	92				
	90	Sunday	Sunday		4	preview	15	93				
	91	due	due		4	preview	15	94				
	92	to	to		4	preview	15	95				
	93	an	an		4	preview	15	96				
	94	ankle	ankle		4	preview	15	97				
	95	injury	injury		4	preview	15	98				
	96	The	The		4	preview	15	99				
	97	stand	stand		4	preview	15	100				
	98	-	-		4	preview	15	101				
	99	in	in		4	preview	15	102				
	100	Gunners	Gunners		4	preview	15	103				
	101	captain	captain		4	preview	15	104				
	102	went	went		4	preview	15	105				
	103	down	down		4	preview	15	106				
	104	in	in		4	preview	15	107				
	105	@entity2	Arsenal		4	preview	15	108				
	106	-s	-s		4	preview	15	109				
	107	@entity10	FA		4	preview	15	110				
			Cup		4	preview	15	111				
	108	semi-final	semi-final		4	preview	15	112				
	109	win	win		4	preview	15	113				
	110	over	over		4	preview	15	114				
	111	@entity12	Reading		4	preview	15	115				
	112	on	on		4	preview	15	116				
	113	Saturday	Saturday		4	preview	15	117				
	114	He	He		4	preview	15	118				
	115	is	is		4	preview	15	119				
	116	not	not		4	preview	15	120				
	117	expected	expected		4	preview	15	121				
81	118	to	to	to	4	preview	15	122	0	0	0	0
82	119	be	be	be	4	preview	15	123	0	0	0	0
83	120	fit	fit	fit	4	preview	15	124	422	422	602	422
84	121	in	in	in	4	preview	15	125	0	0	0	0
85	122	time	time	time	4	preview	15	126	0	0	0	0
86	123	for	for	for	4	preview	15	127	183	183	183	183
87	124	Sunday	Sunday	Sunday,	4	preview	15	128	0	0	0	0
	125	,	,		4	preview	15	129				
88	126	however	however	however,	4	preview	15	130	163	0	0	0
	127	,	,		4	preview	15	131				
89	128	and	and	and	4	preview	15	132	147	147	310	147
90	129	likely	likely	likely	4	preview	15	133	91	91	91	91
91	130	to	to	to	4	preview	15	134	0	0	0	0
92	131	be	be	be	4	preview	15	135	0	0	0	0
93	132	replaced	replaced	replaced	4	preview	15	136	251	251	251	251
94	133	at	at	at	4	preview	15	137	0	0	0	0
95	134	centre	centre	centre-half	4	preview	15	138	368	368	368	368
	135	-	-		4	preview	15	139				
	136	half	half		4	preview	15	140				
96	137	by	by	by	4	preview	15	141	0	0	0	0
97	138	@entity26	Gabriel	Gabriel	4	preview	15	142	1014	1014	1014	286
98			Paulista	Paulista,	4	preview	15	143	461	221	221	221
	139	,	,		4	preview	15	144				
99	140	who	who	who	4	preview	15	145	633	391	873	391
100	141	has	has	has	4	preview	15	146	0	0	0	0
101	142	started	started	started	4	preview	15	147	771	771	771	236
102	143	three	three	three	4	preview	15	148	189	189	189	189
103	144	times	times	times	4	preview	15	149	0	0	0	0
104	145	in	in	in	4	preview	15	150	0	0	0	0
105	146	the	the	the	4	preview	15	151	0	0	0	0
106	147	@entity28	Barclays	Barclays	4	preview	15	152	216	216	216	216
107			Premier	Premier	4	preview	15	153	242	242	242	242
108			League	League	4	preview	15	154	147	0	0	0
109	148	since	since	since	4	preview	15	155	219	219	219	219
110	149	he	he	he	4	preview	15	156	240	0	0	0
111	150	was	was	was	4	preview	15	157	0	0	0	0
112	151	signed	signed	signed	4	preview	15	158	164	164	164	164
113	152	in	in	in	4	preview	15	159	0	0	0	0
114	153	January	January	January	4	preview	15	160	0	0	0	0
115	154	from	from	from	4	preview	15	161	0	0	0	0
116	155	@entity29	Villarreal	Villarreal.	4	preview	15	162	432	265	265	265
	156	.	.		4	preview	15	163				
117	157	@entity3	Chelsea	Chelsea	4	preview	15	164	234	234	621	234
118	158	come	come	come	4	preview	15	165	0	0	0	0
119	159	into	into	into	4	preview	15	166	0	0	0	0
120	160	the	the	the	4	preview	15	167	0	0	0	0
121	161	match	match	match	4	preview	15	168	0	0	0	0
122	162	with	with	with	4	preview	15	169	0	0	0	0
123	163	a	a	a	4	preview	15	170	0	0	0	0
124	164	10	10	10-point	4	preview	15	171	0	0	0	0
	165	-	-		4	preview	15	172				
	166	point	point		4	preview	15	173				
125	167	lead	lead	lead	4	preview	15	174	0	0	0	0
126	168	over	over	over	4	preview	15	175	0	0	0	0
127	169	their	their	their	4	preview	15	176	0	0	0	0
128	170	@entity33	London	London	4	preview	15	177	0	0	0	0
129	171	rivals	rivals	rivals	4	preview	15	178	208	0	0	0
130	172	and	and	and	4	preview	15	179	0	0	0	0
131	173	will	will	will	4	preview	15	180	122	122	330	122
132	174	need	need	need	4	preview	15	181	0	0	0	0
133	175	to	to	to	4	preview	15	182	166	166	166	166
134	176	capitulate	capitulate	capitulate	4	preview	15	183	0	0	0	0
135	177	in	in	in	4	preview	15	184	0	0	0	0
136	178	spectacular	spectacular	spectacular	4	preview	15	185	436	160	160	160
137	179	fashion	fashion	fashion	4	preview	15	186	0	0	0	0
138	180	to	to	to	4	preview	15	187	384	206	206	206
139	181	not	not	not	4	preview	15	188	0	0	0	0
140	182	take	take	take	4	preview	15	189	0	0	0	0
141	183	the	the	the	4	preview	15	190	245	245	699	245
142	184	@entity28	Premier	Premier	4	preview	15	191	331	331	331	331
143			League	League	4	preview	15	192	0	0	0	0
144	185	title	title	title.	4	preview	15	193	0	0	0	0
	186	.	.		4	preview	15	194				
145	187	Second	Second	Second-placed	4	preview	15	195	491	491	2036	301
	188	-	-		4	preview	15	196				
	189	placed	placed		4	preview	15	197				
146	190	@entity2	Arsenal	Arsenal,	4	preview	15	198	0	0	0	0
	191	,	,		4	preview	15	199				
147	192	on	on	on	4	preview	15	200	0	0	0	0
148	193	66	66	66	4	preview	15	201	0	0	0	0
149	194	points	points	points,	4	preview	15	202	0	0	0	0
	195	,	,		4	preview	15	203				
150	196	lead	lead	lead	4	preview	15	204	0	0	0	0
151	197	@entity38	Manchester	Manchester	4	preview	15	205	0	0	0	0
152			United	United	4	preview	15	206	0	0	0	0
153	198	on	on	on	4	preview	15	207	0	0	0	0
154	199	65	65	65	4	preview	15	208	0	0	0	0
155	200	and	and	and	4	preview	15	209	0	0	0	0
156	201	@entity39	Manchester	Manchester	4	preview	15	210	0	0	0	0
157			City	City	4	preview	15	211	0	0	0	0
158	202	on	on	on	4	preview	15	212	0	0	0	0
159	203	64	64	64.	4	preview	15	213	0	0	0	0
	204	.	.		4	preview	15	214				
