HumanPosition	AnonymizedPosition	AnonymizedToken	OriginalToken	ExperimentToken	Participant	Condition	TextNo	JointPosition	tt	fp	rp	ff
1	0	Fighting	Fighting	Fighting	4	preview	19	1	239	0	0	0
2	1	between	between	between	4	preview	19	2	179	0	0	0
3	2	rival	rival	rival	4	preview	19	3	128	0	0	0
4	3	fans	fans	fans	4	preview	19	4	192	0	0	0
5	4	forced	forced	forced	4	preview	19	5	0	0	0	0
6	5	a	a	a	4	preview	19	6	0	0	0	0
7	6	@entity2	Russian	Russian	4	preview	19	7	235	0	0	0
8			Premier	Premier	4	preview	19	8	234	0	0	0
9			League	League	4	preview	19	9	152	0	0	0
10	7	match	match	match	4	preview	19	10	390	0	0	0
11	8	between	between	between	4	preview	19	11	319	0	0	0
12	9	@entity3	Arsenal	Arsenal	4	preview	19	12	100	0	0	0
13			Tula	Tula	4	preview	19	13	0	0	0	0
14	10	and	and	and	4	preview	19	14	525	0	0	0
15	11	@entity4	Torpedo	Torpedo	4	preview	19	15	593	169	1518	169
16			Moscow	Moscow	4	preview	19	16	0	0	0	0
17	12	to	to	to	4	preview	19	17	0	0	0	0
18	13	be	be	be	4	preview	19	18	0	0	0	0
19	14	stopped	stopped	stopped	4	preview	19	19	182	182	182	182
20	15	for	for	for	4	preview	19	20	250	0	0	0
21	16	seven	seven	seven	4	preview	19	21	130	130	380	130
22	17	minutes	minutes	minutes	4	preview	19	22	92	92	92	92
23	18	on	on	on	4	preview	19	23	0	0	0	0
24	19	Sunday	Sunday	Sunday.	4	preview	19	24	136	136	136	136
	20	.	.		4	preview	19	25				
25	21	A	A	A	4	preview	19	26	0	0	0	0
26	22	statement	statement	statement	4	preview	19	27	197	197	197	197
27	23	on	on	on	4	preview	19	28	0	0	0	0
28	24	@entity3	Arsenal	Arsenal-s	4	preview	19	29	348	0	0	0
	25	-s	-s		4	preview	19	30				
29	26	official	official	official	4	preview	19	31	0	0	0	0
30	27	site	site	site	4	preview	19	32	209	209	209	209
31	28	read	read	read:	4	preview	19	33	165	0	0	0
32	29	:	:	-In	4	preview	19	34	0	0	0	0
	30	-	-		4	preview	19	35				
33	31	In	In	the	4	preview	19	36	0	0	0	0
34	32	the	the	31st	4	preview	19	37	114	114	114	114
	33	31st	31st		4	preview	19	38				
35	34	minute	minute	minute,	4	preview	19	39	0	0	0	0
	35	,	,		4	preview	19	40				
36	36	fans	fans	fans	4	preview	19	41	0	0	0	0
37	37	from	from	from	4	preview	19	42	0	0	0	0
38	38	the	the	the	4	preview	19	43	214	0	0	0
39	39	visiting	visiting	visiting	4	preview	19	44	229	229	229	229
40	40	@entity9	Moscow	Moscow	4	preview	19	45	143	143	705	143
41	41	club	club	club	4	preview	19	46	0	0	0	0
42	42	broke	broke	broke	4	preview	19	47	159	0	0	0
43	43	down	down	down	4	preview	19	48	119	0	0	0
44	44	barriers	barriers	barriers	4	preview	19	49	0	0	0	0
45	45	in	in	in	4	preview	19	50	0	0	0	0
46	46	front	front	front	4	preview	19	51	127	127	127	127
47	47	of	of	of	4	preview	19	52	0	0	0	0
48	48	the	the	the	4	preview	19	53	0	0	0	0
49	49	visitors	visitors	visitors	4	preview	19	54	133	133	133	133
50	50	sector	sector	sector	4	preview	19	55	243	0	0	0
51	51	and	and	and	4	preview	19	56	201	201	444	201
52	52	tried	tried	tried	4	preview	19	57	262	262	262	262
53	53	to	to	to	4	preview	19	58	0	0	0	0
54	54	get	get	get	4	preview	19	59	0	0	0	0
55	55	to	to	to	4	preview	19	60	200	200	478	200
56	56	the	the	the	4	preview	19	61	0	0	0	0
57	57	@entity13	East	East	4	preview	19	62	0	0	0	0
58			Stand	Stand,	4	preview	19	63	0	0	0	0
	58	,	,		4	preview	19	64				
59	59	where	where	where	4	preview	19	65	0	0	0	0
60	60	a	a	a	4	preview	19	66	0	0	0	0
61	61	number	number	number	4	preview	19	67	139	139	139	139
62	62	of	of	of	4	preview	19	68	0	0	0	0
63	63	women	women	women	4	preview	19	69	130	130	130	130
64	64	and	and	and	4	preview	19	70	0	0	0	0
65	65	children	children	children	4	preview	19	71	145	145	145	145
66	66	were	were	were	4	preview	19	72	0	0	0	0
67	67	sitting	sitting	sitting.	4	preview	19	73	133	133	2066	133
	68	.	.		4	preview	19	74				
68	69	-	-	-The	4	preview	19	75	0	0	0	0
	70	The	The		4	preview	19	76				
69	71	@entity4	Torpedo	Torpedo	4	preview	19	77	493	493	493	367
70	72	fans	fans	fans	4	preview	19	78	0	0	0	0
71	73	began	began	began	4	preview	19	79	0	0	0	0
72	74	breaking	breaking	breaking	4	preview	19	80	720	720	720	213
73	75	seats	seats	seats	4	preview	19	81	0	0	0	0
74	76	and	and	and	4	preview	19	82	0	0	0	0
75	77	throwing	throwing	throwing	4	preview	19	83	195	195	195	195
76	78	them	them	them	4	preview	19	84	0	0	0	0
77	79	towards	towards	towards	4	preview	19	85	162	162	162	162
78	80	law	law	law	4	preview	19	86	0	0	0	0
79	81	enforcement	enforcement	enforcement	4	preview	19	87	174	174	174	174
80	82	officers	officers	officers	4	preview	19	88	133	133	133	133
81	83	and	and	and	4	preview	19	89	0	0	0	0
82	84	stewards	stewards	stewards.-	4	preview	19	90	144	144	144	144
	85	.	.		4	preview	19	91				
83	86	-	-	Referee	4	preview	19	92	0	0	0	0
	87	Scroll	Scroll		4	preview	19	93				
	88	down	down		4	preview	19	94				
	89	to	to		4	preview	19	95				
	90	watch	watch		4	preview	19	96				
	91	video	video		4	preview	19	97				
	92	footage	footage		4	preview	19	98				
	93	of	of		4	preview	19	99				
	94	the	the		4	preview	19	100				
	95	incident	incident		4	preview	19	101				
	96	Fans	Fans		4	preview	19	102				
	97	fight	fight		4	preview	19	103				
	98	leading	leading		4	preview	19	104				
	99	to	to		4	preview	19	105				
	100	@entity3	Arsenal		4	preview	19	106				
			Tula		4	preview	19	107				
	101	vs	vs		4	preview	19	108				
	102	@entity4	Torpedo		4	preview	19	109				
			Moscow		4	preview	19	110				
	103	to	to		4	preview	19	111				
	104	be	be		4	preview	19	112				
	105	suspended	suspended		4	preview	19	113				
	106	for	for		4	preview	19	114				
	107	seven	seven		4	preview	19	115				
	108	minutes	minutes		4	preview	19	116				
	109	on	on		4	preview	19	117				
	110	Sunday	Sunday		4	preview	19	118				
	111	@entity4	Torpedo		4	preview	19	119				
			Moscow		4	preview	19	120				
	112	fans	fans		4	preview	19	121				
	113	broke	broke		4	preview	19	122				
	114	down	down		4	preview	19	123				
	115	barriers	barriers		4	preview	19	124				
	116	and	and		4	preview	19	125				
	117	threw	threw		4	preview	19	126				
	118	chairs	chairs		4	preview	19	127				
	119	,	,		4	preview	19	128				
	120	according	according		4	preview	19	129				
	121	to	to		4	preview	19	130				
	122	@entity3	Arsenal		4	preview	19	131				
			Tula		4	preview	19	132				
	123	-s	-s		4	preview	19	133				
	124	website	website		4	preview	19	134				
	125	Referee	Referee		4	preview	19	135				
84	126	@entity28	Alexander	Alexander	4	preview	19	136	676	295	295	295
85			Yegorov	Yegorov	4	preview	19	137	166	0	0	0
86	127	stopped	stopped	stopped	4	preview	19	138	392	129	129	129
87	128	the	the	the	4	preview	19	139	0	0	0	0
88	129	match	match	match	4	preview	19	140	168	168	168	168
89	130	and	and	and	4	preview	19	141	0	0	0	0
90	131	told	told	told	4	preview	19	142	214	0	0	0
91	132	the	the	the	4	preview	19	143	397	208	1421	208
92	133	players	players	players	4	preview	19	144	0	0	0	0
93	134	to	to	to	4	preview	19	145	0	0	0	0
94	135	leave	leave	leave	4	preview	19	146	142	142	142	142
95	136	the	the	the	4	preview	19	147	0	0	0	0
96	137	pitch	pitch	pitch	4	preview	19	148	94	94	94	94
97	138	and	and	and	4	preview	19	149	0	0	0	0
98	139	head	head	head	4	preview	19	150	0	0	0	0
99	140	for	for	for	4	preview	19	151	219	219	219	219
100	141	the	the	the	4	preview	19	152	0	0	0	0
101	142	dressing	dressing	dressing	4	preview	19	153	82	82	82	82
102	143	rooms	rooms	rooms,	4	preview	19	154	0	0	0	0
	144	,	,		4	preview	19	155				
103	145	while	while	while	4	preview	19	156	0	0	0	0
104	146	fights	fights	fights	4	preview	19	157	194	194	194	194
105	147	broke	broke	broke	4	preview	19	158	275	275	275	275
106	148	out	out	out	4	preview	19	159	0	0	0	0
107	149	between	between	between	4	preview	19	160	0	0	0	0
108	150	fans	fans	fans	4	preview	19	161	178	178	178	178
109	151	on	on	on	4	preview	19	162	0	0	0	0
110	152	the	the	the	4	preview	19	163	93	93	93	93
111	153	running	running	running	4	preview	19	164	0	0	0	0
112	154	track	track	track	4	preview	19	165	0	0	0	0
113	155	after	after	after	4	preview	19	166	0	0	0	0
114	156	they	they	they	4	preview	19	167	316	316	316	316
115	157	managed	managed	managed	4	preview	19	168	0	0	0	0
116	158	to	to	to	4	preview	19	169	183	183	183	183
117	159	climb	climb	climb	4	preview	19	170	0	0	0	0
118	160	over	over	over	4	preview	19	171	120	120	120	120
119	161	barriers	barriers	barriers.	4	preview	19	172	0	0	0	0
	162	.	.		4	preview	19	173				
120	163	After	After	After	4	preview	19	174	0	0	0	0
121	164	order	order	order	4	preview	19	175	193	193	193	193
122	165	was	was	was	4	preview	19	176	0	0	0	0
123	166	restored	restored	restored	4	preview	19	177	196	196	196	196
124	167	play	play	play	4	preview	19	178	0	0	0	0
125	168	resumed	resumed	resumed	4	preview	19	179	0	0	0	0
126	169	and	and	and	4	preview	19	180	0	0	0	0
127	170	@entity4	Torpedo	Torpedo	4	preview	19	181	180	180	180	180
128	171	ran	ran	ran	4	preview	19	182	0	0	0	0
129	172	out	out	out	4	preview	19	183	0	0	0	0
130	173	3	3	3-1	4	preview	19	184	288	288	288	288
	174	-	-		4	preview	19	185				
	175	1	1		4	preview	19	186				
131	176	winners	winners	winners.	4	preview	19	187	0	0	0	0
	177	.	.		4	preview	19	188				
132	178	@entity41	Sergei	Sergei	4	preview	19	189	374	374	374	374
133			Cheban	Cheban,	4	preview	19	190	0	0	0	0
	179	,	,		4	preview	19	191				
134	180	executive	executive	executive	4	preview	19	192	333	333	333	333
135	181	director	director	director	4	preview	19	193	119	119	119	119
136	182	of	of	of	4	preview	19	194	0	0	0	0
137	183	the	the	the	4	preview	19	195	0	0	0	0
138	184	@entity2	Russian	Russian	4	preview	19	196	153	0	0	0
139			Football	Football	4	preview	19	197	145	145	298	145
140			Premier	Premier	4	preview	19	198	0	0	0	0
141			League	League,	4	preview	19	199	149	149	149	149
	185	,	,		4	preview	19	200				
142	186	said	said	said	4	preview	19	201	0	0	0	0
143	187	@entity4	Torpedo	Torpedo	4	preview	19	202	221	221	221	221
144	188	could	could	could	4	preview	19	203	0	0	0	0
145	189	expected	expected	expected	4	preview	19	204	244	244	244	244
146	190	to	to	to	4	preview	19	205	0	0	0	0
147	191	be	be	be	4	preview	19	206	0	0	0	0
148	192	heavily	heavily	heavily	4	preview	19	207	257	257	257	257
149	193	punished	punished	punished	4	preview	19	208	161	161	161	161
150	194	for	for	for	4	preview	19	209	0	0	0	0
151	195	this	this	this	4	preview	19	210	0	0	0	0
152	196	latest	latest	latest	4	preview	19	211	184	184	184	184
153	197	outbreak	outbreak	outbreak	4	preview	19	212	0	0	0	0
154	198	of	of	of	4	preview	19	213	0	0	0	0
155	199	violence	violence	violence	4	preview	19	214	174	174	174	174
156	200	by	by	by	4	preview	19	215	0	0	0	0
157	201	their	their	their	4	preview	19	216	0	0	0	0
158	202	fans	fans	fans.	4	preview	19	217	158	158	158	158
	203	.	.		4	preview	19	218				
159	204	-	-	-Those	4	preview	19	219	0	0	0	0
	205	Those	Those		4	preview	19	220				
160	206	people	people	people	4	preview	19	221	161	161	161	161
161	207	who	who	who	4	preview	19	222	0	0	0	0
162	208	organised	organised	organised	4	preview	19	223	121	121	121	121
163	209	the	the	the	4	preview	19	224	0	0	0	0
164	210	trouble	trouble	trouble	4	preview	19	225	0	0	0	0
165	211	have	have	have	4	preview	19	226	189	189	189	189
166	212	already	already	already	4	preview	19	227	175	175	175	175
167	213	been	been	been	4	preview	19	228	0	0	0	0
168	214	detained	detained	detained.	4	preview	19	229	176	176	176	176
	215	.	.		4	preview	19	230				
169	216	The	The	The	4	preview	19	231	0	0	0	0
170	217	security	security	security	4	preview	19	232	288	288	288	288
171	218	forces	forces	forces	4	preview	19	233	0	0	0	0
172	219	on	on	on	4	preview	19	234	0	0	0	0
173	220	duty	duty	duty	4	preview	19	235	220	220	220	220
174	221	were	were	were	4	preview	19	236	0	0	0	0
175	222	very	very	very	4	preview	19	237	0	0	0	0
176	223	professional	professional	professional	4	preview	19	238	0	0	0	0
177	224	in	in	in	4	preview	19	239	0	0	0	0
178	225	their	their	their	4	preview	19	240	0	0	0	0
179	226	work	work	work,-	4	preview	19	241	0	0	0	0
	227	,	,		4	preview	19	242				
180	228	-	-	said	4	preview	19	243	0	0	0	0
	229	said	said		4	preview	19	244				
181	230	@entity41	Cheban	Cheban	4	preview	19	245	392	392	392	166
182	231	in	in	in	4	preview	19	246	0	0	0	0
183	232	an	an	an	4	preview	19	247	0	0	0	0
184	233	interview	interview	interview	4	preview	19	248	0	0	0	0
185	234	with	with	with	4	preview	19	249	0	0	0	0
186	235	@entity52	Championat.com	Championat.com.	4	preview	19	250	0	0	0	0
	236	.	.		4	preview	19	251				
187	237	-	-	-Torpedo	4	preview	19	252	265	0	0	0
	238	@entity4	Torpedo		4	preview	19	253				
188	239	can	can	can	4	preview	19	254	0	0	0	0
189	240	expect	expect	expect	4	preview	19	255	174	0	0	0
190	241	to	to	to	4	preview	19	256	157	0	0	0
191	242	receive	receive	receive	4	preview	19	257	0	0	0	0
192	243	serious	serious	serious	4	preview	19	258	168	0	0	0
193	244	punishment	punishment	punishment.	4	preview	19	259	142	0	0	0
	245	.	.		4	preview	19	260				
194	246	This	This	This	4	preview	19	261	0	0	0	0
195	247	is	is	is	4	preview	19	262	0	0	0	0
196	248	hooliganism	hooliganism	hooliganism	4	preview	19	263	321	154	1227	154
197	249	and	and	and	4	preview	19	264	0	0	0	0
198	250	it	it	it	4	preview	19	265	174	174	174	174
199	251	not	not	not	4	preview	19	266	0	0	0	0
200	252	the	the	the	4	preview	19	267	0	0	0	0
201	253	first	first	first	4	preview	19	268	0	0	0	0
202	254	time	time	time	4	preview	19	269	108	108	108	108
203	255	they	they	they	4	preview	19	270	0	0	0	0
204	256	have	have	have	4	preview	19	271	0	0	0	0
205	257	stopped	stopped	stopped	4	preview	19	272	128	128	128	128
206	258	a	a	a	4	preview	19	273	0	0	0	0
207	259	match	match	match.	4	preview	19	274	199	199	199	199
	260	.	.		4	preview	19	275				
208	261	The	The	The	4	preview	19	276	0	0	0	0
209	262	punishment	punishment	punishment	4	preview	19	277	221	221	221	221
210	263	will	will	will	4	preview	19	278	0	0	0	0
211	264	be	be	be	4	preview	19	279	199	199	199	199
212	265	harsh	harsh	harsh.-	4	preview	19	280	0	0	0	0
	266	.	.		4	preview	19	281				
213	267	-	-	Torpedo-s	4	preview	19	282	171	171	171	171
	268	@entity4	Torpedo		4	preview	19	283				
	269	-s	-s		4	preview	19	284				
214	270	fans	fans	fans	4	preview	19	285	0	0	0	0
215	271	have	have	have	4	preview	19	286	0	0	0	0
216	272	caused	caused	caused	4	preview	19	287	0	0	0	0
217	273	trouble	trouble	trouble	4	preview	19	288	301	301	301	301
218	274	on	on	on	4	preview	19	289	0	0	0	0
219	275	a	a	a	4	preview	19	290	0	0	0	0
220	276	number	number	number	4	preview	19	291	228	228	228	228
221	277	of	of	of	4	preview	19	292	0	0	0	0
222	278	occasions	occasions	occasions	4	preview	19	293	119	119	119	119
223	279	and	and	and	4	preview	19	294	0	0	0	0
224	280	the	the	the	4	preview	19	295	0	0	0	0
225	281	club	club	club	4	preview	19	296	150	150	150	150
226	282	have	have	have	4	preview	19	297	0	0	0	0
227	283	already	already	already	4	preview	19	298	148	148	148	148
228	284	been	been	been	4	preview	19	299	0	0	0	0
229	285	punished	punished	punished	4	preview	19	300	132	132	132	132
230	286	three	three	three	4	preview	19	301	0	0	0	0
231	287	times	times	times	4	preview	19	302	288	288	288	138
232	288	this	this	this	4	preview	19	303	0	0	0	0
233	289	season	season	season	4	preview	19	304	173	173	173	173
234	290	for	for	for	4	preview	19	305	0	0	0	0
235	291	racist	racist	racist	4	preview	19	306	204	204	204	204
236	292	behaviour	behaviour	behaviour	4	preview	19	307	0	0	0	0
237	293	of	of	of	4	preview	19	308	0	0	0	0
238	294	their	their	their	4	preview	19	309	0	0	0	0
239	295	supporters	supporters	supporters.	4	preview	19	310	219	219	219	219
	296	.	.		4	preview	19	311				
240	297	The	The	The	4	preview	19	312	0	0	0	0
241	298	last	last	last	4	preview	19	313	228	228	228	228
242	299	incident	incident	incident	4	preview	19	314	0	0	0	0
243	300	occurred	occurred	occurred	4	preview	19	315	0	0	0	0
244	301	on	on	on	4	preview	19	316	297	297	297	297
245	302	March	March	March	4	preview	19	317	0	0	0	0
246	303	15	15	15	4	preview	19	318	0	0	0	0
247	304	when	when	when	4	preview	19	319	0	0	0	0
248	305	@entity4	Torpedo	Torpedo	4	preview	19	320	0	0	0	0
249	306	fans	fans	fans	4	preview	19	321	0	0	0	0
250	307	abused	abused	abused	4	preview	19	322	177	177	177	177
251	308	@entity73	Zenit	Zenit	4	preview	19	323	0	0	0	0
252			St	St	4	preview	19	324	240	240	240	240
253			Petersburg	Petersburg-s	4	preview	19	325	148	148	148	148
	309	-s	-s		4	preview	19	326				
254	310	@entity72	Brazilian	Brazilian	4	preview	19	327	484	212	212	212
255	311	forward	forward	forward	4	preview	19	328	94	94	94	94
256	312	@entity71	Hulk	Hulk.	4	preview	19	329	171	0	0	0
	313	.	.		4	preview	19	330				
257	314	The	The	The	4	preview	19	331	115	115	286	115
258	315	side	side	side	4	preview	19	332	722	722	722	542
259	316	were	were	were	4	preview	19	333	0	0	0	0
260	317	sanctioned	sanctioned	sanctioned	4	preview	19	334	196	196	196	196
261	318	by	by	by	4	preview	19	335	0	0	0	0
262	319	having	having	having	4	preview	19	336	310	0	0	0
263	320	to	to	to	4	preview	19	337	94	94	366	94
264	321	play	play	play	4	preview	19	338	150	0	0	0
265	322	two	two	two	4	preview	19	339	170	0	0	0
266	323	matches	matches	matches	4	preview	19	340	0	0	0	0
267	324	behind	behind	behind	4	preview	19	341	0	0	0	0
268	325	closed	closed	closed	4	preview	19	342	0	0	0	0
269	326	doors	doors	doors.	4	preview	19	343	0	0	0	0
	327	.	.		4	preview	19	344				
270	328	@entity4	Torpedo	Torpedo	4	preview	19	345	0	0	0	0
271	329	are	are	are	4	preview	19	346	283	0	0	0
272	330	currently	currently	currently	4	preview	19	347	135	0	0	0
273	331	in	in	in	4	preview	19	348	0	0	0	0
274	332	12th	12th	12th	4	preview	19	349	176	176	1224	176
275	333	place	place	place	4	preview	19	350	0	0	0	0
276	334	in	in	in	4	preview	19	351	0	0	0	0
277	335	the	the	the	4	preview	19	352	0	0	0	0
278	336	@entity2	Russian	Russian	4	preview	19	353	123	123	123	123
279			Premier	Premier	4	preview	19	354	0	0	0	0
280			League	League	4	preview	19	355	131	131	131	131
281	337	table	table	table	4	preview	19	356	200	200	200	200
282	338	with	with	with	4	preview	19	357	0	0	0	0
283	339	19	19	19	4	preview	19	358	0	0	0	0
284	340	points	points	points,	4	preview	19	359	0	0	0	0
	341	,	,		4	preview	19	360				
285	342	while	while	while	4	preview	19	361	0	0	0	0
286	343	@entity3	Arsenal	Arsenal	4	preview	19	362	0	0	0	0
287			Tula	Tula	4	preview	19	363	0	0	0	0
288	344	are	are	are	4	preview	19	364	0	0	0	0
289	345	one	one	one	4	preview	19	365	0	0	0	0
290	346	place	place	place	4	preview	19	366	0	0	0	0
291	347	off	off	off	4	preview	19	367	0	0	0	0
292	348	the	the	the	4	preview	19	368	0	0	0	0
293	349	bottom	bottom	bottom	4	preview	19	369	0	0	0	0
294	350	with	with	with	4	preview	19	370	0	0	0	0
295	351	14	14	14	4	preview	19	371	0	0	0	0
296	352	points	points	points.	4	preview	19	372	0	0	0	0
	353	.	.		4	preview	19	373				
