myID	LAMBDA	feedPreview	learning_rate	learning_rate_attention	lengthUntil	previewLength	Tradeoff	Condition	Accuracy	Fixations	NumEpochs
11365677	1.0	0	0.02	0.005	0	4	1.7941383141734635	NoPreview	0.5807849133537207	0.3971273670624277	13
11365677	1.0	0	0.02	0.005	0	4	1.7941383141734635	Preview	0.6279306829765545	0.3502354134599489	13
2898373	1.0	0	0.3	0.002	0	4	1.6890816617068272	NoPreview	0.5973496432212029	0.4455066334824557	15
2898373	1.0	0	0.3	0.002	0	4	1.6890816617068272	Preview	0.6195208970438328	0.4246331328159686	15
71469174	1.0	0	0.3	0.002	0	4	1.8498669452186693	NoPreview	0.5912334352701325	0.4361237142914783	6
71469174	1.0	0	0.3	0.002	0	4	1.8498669452186693	Preview	0.6174821610601428	0.4399170180465589	6
54527998	1.0	0	0.01	0.01	0	4	1.808734063860126	NoPreview	0.5782364933741081	0.4078106889909439	10
54527998	1.0	0	0.01	0.01	0	4	1.808734063860126	Preview	0.6353211009174312	0.35584985359242444	10
43066217	1.0	0	0.3	0.01	0	4	1.6588924858129208	NoPreview	0.5996432212028542	0.43778693785361195	12
43066217	1.0	0	0.3	0.01	0	4	1.6588924858129208	Preview	0.6424566768603466	0.3802608200534039	12
8181134	1.0	0	0.2	0.001	0	4	1.8868297727180325	NoPreview	0.5970948012232415	0.4978181538110358	7
8181134	1.0	0	0.2	0.001	0	4	1.8868297727180325	Preview	0.6057594291539246	0.48977497034724216	7
70221941	1.0	0	0.3	0.005	0	4	1.6963155664733742	NoPreview	0.5958205912334352	0.4361979810712777	11
70221941	1.0	0	0.3	0.005	0	4	1.6963155664733742	Preview	0.6286952089704383	0.38442891477687885	11
3430618	1.0	0	0.3	0.01	0	4	1.6640592136626042	NoPreview	0.6136595310907238	0.4583522726636414	10
3430618	1.0	0	0.3	0.01	0	4	1.6640592136626042	Preview	0.6529051987767585	0.40050579648499096	10
77575385	1.0	0	0.04	0.005	0	4	1.757049689427244	NoPreview	0.5983690112130479	0.4509959415315245	15
77575385	1.0	0	0.04	0.005	0	4	1.757049689427244	Preview	0.6493374108053007	0.38334470956940414	15
15133646	1.0	0	0.1	0.005	0	4	1.7758130139132544	NoPreview	0.6006625891946993	0.43117956867276347	8
15133646	1.0	0	0.1	0.005	0	4	1.7758130139132544	Preview	0.6271661569826708	0.40013510979157585	8
31913326	1.0	0	0.04	0.01	0	4	1.8942893547347817	NoPreview	0.5756880733944955	0.4668552970302943	3
31913326	1.0	0	0.04	0.01	0	4	1.8942893547347817	Preview	0.6284403669724771	0.46353738631191116	3
53111439	1.0	0	0.3	0.02	0	4	1.5251820053424334	NoPreview	0.5965851172273191	0.40775336487699115	18
53111439	1.0	0	0.3	0.02	0	4	1.5251820053424334	Preview	0.6564729867482161	0.29043800823549976	18
88369720	1.0	0	0.3	0.01	0	4	1.6373527502516143	NoPreview	0.5996432212028542	0.4381919859867699	11
88369720	1.0	0	0.3	0.01	0	4	1.6373527502516143	Preview	0.6559633027522935	0.352777547671039	11
38818864	1.0	0	0.3	0.005	0	4	1.6437424498680422	NoPreview	0.5909785932721713	0.41324279286445825	14
38818864	1.0	0	0.3	0.005	0	4	1.6437424498680422	Preview	0.6462793068297655	0.36548183550042357	14
53938355	1.0	0	0.3	0.02	0	4	1.5818794589949259	NoPreview	0.6167176350662589	0.4520891692174198	13
53938355	1.0	0	0.3	0.02	0	4	1.5818794589949259	Preview	0.6590214067278287	0.33148019369710596	13
53216187	1.0	0	0.04	0.01	0	4	1.7466217395245849	NoPreview	0.6077981651376146	0.4568838176377323	13
53216187	1.0	0	0.04	0.01	0	4	1.7466217395245849	Preview	0.6559633027522935	0.38901426619589025	13
25291418	1.0	0	0.02	0.02	0	4	1.7451399655253654	NoPreview	0.5960754332313966	0.4260564586802725	11
25291418	1.0	0	0.02	0.02	0	4	1.7451399655253654	Preview	0.6531600407747197	0.31046511213106237	11
