HumanPosition	AnonymizedPosition	AnonymizedToken	OriginalToken	ExperimentToken	Participant	Condition	TextNo	JointPosition	tt	fp	rp	ff	rb	sp
	0	@entity2	Seoul		8	preview	4	1						
	1	(	(		8	preview	4	2						
	2	@entity3	CNN		8	preview	4	3						
	3	)	)		8	preview	4	4						
0	4	@entity1	South	South	8	preview	4	5	0	0	0	0	0	0
2			Korea	Korea	8	preview	4	6	222	0	0	0	0	222
	5	-s	-s		8	preview	4	7						
3	6	Prime	Prime	Prime	8	preview	4	8	0	0	0	0	0	0
4	7	Minister	Minister	Minister	8	preview	4	9	316	100	538	100	316	216
5	8	@entity0	Lee	Lee	8	preview	4	10	0	0	0	0	0	0
6			Wan	Wan-koo	8	preview	4	11	0	0	0	0	0	0
			-		8	preview	4	12						
			koo		8	preview	4	13						
7	9	offered	offered	offered	8	preview	4	14	0	0	0	0	0	0
8	10	to	to	to	8	preview	4	15	0	0	0	0	0	0
9	11	resign	resign	resign	8	preview	4	16	0	0	0	0	0	0
10	12	on	on	on	8	preview	4	17	0	0	0	0	0	0
11	13	Monday	Monday	Monday	8	preview	4	18	0	0	0	0	0	0
12	14	amid	amid	amid	8	preview	4	19	0	0	0	0	0	0
13	15	a	a	a	8	preview	4	20	0	0	0	0	0	0
14	16	growing	growing	growing	8	preview	4	21	0	0	0	0	0	0
15	17	political	political	political	8	preview	4	22	0	0	0	0	0	0
16	18	scandal	scandal	scandal.	8	preview	4	23	381	0	0	0	0	381
	19	.	.		8	preview	4	24						
17	20	@entity0	Lee	Lee	8	preview	4	25	334	0	0	0	0	334
18	21	will	will	will	8	preview	4	26	0	0	0	0	0	0
19	22	stay	stay	stay	8	preview	4	27	199	0	0	0	0	199
20	23	in	in	in	8	preview	4	28	0	0	0	0	0	0
21	24	his	his	his	8	preview	4	29	224	0	0	0	0	224
22	25	official	official	official	8	preview	4	30	471	0	0	0	0	471
23	26	role	role	role	8	preview	4	31	411	182	182	182	182	229
24	27	until	until	until	8	preview	4	32	299	131	131	131	131	168
25	28	@entity1	South	South	8	preview	4	33	0	0	0	0	0	0
26			Korean	Korean	8	preview	4	34	371	156	1747	156	371	215
27	29	President	President	President	8	preview	4	35	0	0	1591	0	0	0
28	30	@entity6	Park	Park	8	preview	4	36	0	0	0	0	0	0
29			Geun	Geun-hye	8	preview	4	37	517	0	0	0	0	517
			-		8	preview	4	38						
			hye		8	preview	4	39						
30	31	accepts	accepts	accepts	8	preview	4	40	115	0	0	0	0	115
31	32	his	his	his	8	preview	4	41	0	0	0	0	0	0
32	33	resignation	resignation	resignation.	8	preview	4	42	210	210	2808	210	210	0
	34	.	.		8	preview	4	43						
33	35	He	He	He	8	preview	4	44	0	0	0	0	0	0
34	36	has	has	has	8	preview	4	45	267	267	267	267	267	0
35	37	transferred	transferred	transferred	8	preview	4	46	175	0	0	0	0	175
36	38	his	his	his	8	preview	4	47	196	196	196	196	196	0
37	39	role	role	role	8	preview	4	48	137	137	137	137	137	0
38	40	of	of	of	8	preview	4	49	0	0	0	0	0	0
39	41	chairing	chairing	chairing	8	preview	4	50	187	187	1240	187	187	0
40	42	Cabinet	Cabinet	Cabinet	8	preview	4	51	0	0	0	0	0	0
41	43	meetings	meetings	meetings	8	preview	4	52	0	0	0	0	0	0
42	44	to	to	to	8	preview	4	53	87	0	0	0	0	87
43	45	the	the	the	8	preview	4	54	117	117	588	117	117	0
44	46	deputy	deputy	deputy	8	preview	4	55	0	0	0	0	0	0
45	47	prime	prime	prime	8	preview	4	56	0	0	0	0	0	0
46	48	minister	minister	minister	8	preview	4	57	0	0	0	0	0	0
47	49	for	for	for	8	preview	4	58	0	0	0	0	0	0
48	50	the	the	the	8	preview	4	59	0	0	0	0	0	0
49	51	time	time	time	8	preview	4	60	468	267	267	267	267	201
50	52	being	being	being,	8	preview	4	61	0	0	0	0	0	0
	53	,	,		8	preview	4	62						
51	54	according	according	according	8	preview	4	63	604	442	442	261	442	162
52	55	to	to	to	8	preview	4	64	0	0	0	0	0	0
53	56	his	his	his	8	preview	4	65	0	0	0	0	0	0
54	57	office	office	office.	8	preview	4	66	177	0	0	0	0	177
	58	.	.		8	preview	4	67						
55	59	@entity13	Park	Park	8	preview	4	68	139	0	0	0	0	139
56	60	heard	heard	heard	8	preview	4	69	472	0	0	0	0	472
57	61	about	about	about	8	preview	4	70	0	0	0	0	0	0
58	62	the	the	the	8	preview	4	71	160	0	0	0	0	160
59	63	resignation	resignation	resignation	8	preview	4	72	562	0	0	0	0	562
60	64	and	and	and	8	preview	4	73	0	0	0	0	0	0
61	65	called	called	called	8	preview	4	74	519	0	0	0	0	519
62	66	it	it	it	8	preview	4	75	0	0	0	0	0	0
63	67	-	-	-regrettable,-	8	preview	4	76	240	119	2632	119	240	121
	68	regrettable	regrettable		8	preview	4	77						
	69	,	,		8	preview	4	78						
	70	-	-		8	preview	4	79						
64	71	according	according	according	8	preview	4	80	164	164	164	164	164	0
65	72	to	to	to	8	preview	4	81	0	0	0	0	0	0
66	73	the	the	the	8	preview	4	82	0	0	0	0	0	0
67	74	@entity1	South	South	8	preview	4	83	0	0	0	0	0	0
68			Korean	Korean	8	preview	4	84	186	0	0	0	0	186
69	75	presidential	presidential	presidential	8	preview	4	85	111	111	297	111	111	0
70	76	office	office	office.	8	preview	4	86	131	131	131	131	131	0
	77	.	.		8	preview	4	87						
71	78	Calls	Calls	Calls	8	preview	4	88	154	0	0	0	0	154
72	79	for	for	for	8	preview	4	89	170	170	170	170	170	0
73	80	@entity0	Lee	Lee	8	preview	4	90	288	0	0	0	0	288
74	81	to	to	to	8	preview	4	91	343	190	190	190	190	153
75	82	resign	resign	resign	8	preview	4	92	0	0	0	0	0	0
76	83	began	began	began	8	preview	4	93	1123	146	146	146	146	977
77	84	after	after	after	8	preview	4	94	323	188	448	188	188	135
78	85	@entity1	South	South	8	preview	4	95	0	0	0	0	0	0
79			Korean	Korean	8	preview	4	96	0	0	0	0	0	0
80	86	tycoon	tycoon	tycoon	8	preview	4	97	767	0	0	0	0	767
81	87	@entity18	Sung	Sung	8	preview	4	98	734	110	283	110	110	624
82			Woan	Woan-jong	8	preview	4	99	2591	0	0	0	0	2591
			-		8	preview	4	100						
			jong		8	preview	4	101						
83	88	was	was	was	8	preview	4	102	0	0	0	0	0	0
84	89	found	found	found	8	preview	4	103	253	125	125	125	125	128
85	90	hanging	hanging	hanging	8	preview	4	104	277	164	4695	164	277	113
86	91	from	from	from	8	preview	4	105	185	185	185	185	185	0
87	92	a	a	a	8	preview	4	106	0	0	0	0	0	0
88	93	tree	tree	tree	8	preview	4	107	0	0	0	0	0	0
89	94	in	in	in	8	preview	4	108	225	225	225	225	225	0
90	95	@entity2	Seoul	Seoul	8	preview	4	109	143	143	143	143	143	0
91	96	in	in	in	8	preview	4	110	0	0	0	0	0	0
92	97	an	an	an	8	preview	4	111	0	0	0	0	0	0
93	98	apparent	apparent	apparent	8	preview	4	112	203	203	203	203	203	0
94	99	suicide	suicide	suicide	8	preview	4	113	0	0	0	0	0	0
95	100	on	on	on	8	preview	4	114	0	0	0	0	0	0
96	101	April	April	April	8	preview	4	115	0	0	0	0	0	0
97	102	9	9	9.	8	preview	4	116	242	0	0	0	0	242
	103	.	.		8	preview	4	117						
98	104	@entity18	Sung	Sung,	8	preview	4	118	0	0	0	0	0	0
	105	,	,		8	preview	4	119						
99	106	who	who	who	8	preview	4	120	259	0	0	0	0	259
100	107	was	was	was	8	preview	4	121	0	0	0	0	0	0
101	108	under	under	under	8	preview	4	122	0	0	0	0	0	0
102	109	investigation	investigation	investigation	8	preview	4	123	307	101	808	101	307	206
103	110	for	for	for	8	preview	4	124	0	0	0	0	0	0
104	111	fraud	fraud	fraud	8	preview	4	125	254	254	254	254	254	0
105	112	and	and	and	8	preview	4	126	270	0	0	0	0	270
106	113	bribery	bribery	bribery,	8	preview	4	127	353	159	1125	159	159	194
	114	,	,		8	preview	4	128						
107	115	left	left	left	8	preview	4	129	161	0	0	0	0	161
108	116	a	a	a	8	preview	4	130	0	0	0	0	0	0
109	117	note	note	note	8	preview	4	131	0	0	0	0	0	0
110	118	listing	listing	listing	8	preview	4	132	142	0	0	0	0	142
111	119	names	names	names	8	preview	4	133	117	0	0	0	0	117
112	120	and	and	and	8	preview	4	134	0	0	0	0	0	0
113	121	amounts	amounts	amounts	8	preview	4	135	0	0	0	0	0	0
114	122	of	of	of	8	preview	4	136	0	0	0	0	0	0
115	123	cash	cash	cash	8	preview	4	137	108	0	0	0	0	108
116	124	given	given	given	8	preview	4	138	0	0	0	0	0	0
117	125	to	to	to	8	preview	4	139	0	0	0	0	0	0
118	126	top	top	top	8	preview	4	140	0	0	0	0	0	0
119	127	officials	officials	officials,	8	preview	4	141	159	159	159	159	159	0
	128	,	,		8	preview	4	142						
120	129	including	including	including	8	preview	4	143	430	214	214	214	214	216
121	130	those	those	those	8	preview	4	144	0	0	0	0	0	0
122	131	who	who	who	8	preview	4	145	0	0	0	0	0	0
123	132	work	work	work	8	preview	4	146	0	0	0	0	0	0
124	133	for	for	for	8	preview	4	147	0	0	0	0	0	0
125	134	the	the	the	8	preview	4	148	0	0	0	0	0	0
126	135	President	President	President.	8	preview	4	149	0	0	0	0	0	0
	136	.	.		8	preview	4	150						
127	137	@entity0	Lee	Lee	8	preview	4	151	0	0	0	0	0	0
128	138	and	and	and	8	preview	4	152	0	0	0	0	0	0
129	139	seven	seven	seven	8	preview	4	153	0	0	0	0	0	0
130	140	other	other	other	8	preview	4	154	0	0	0	0	0	0
131	141	politicians	politicians	politicians	8	preview	4	155	603	0	0	0	0	603
132	142	with	with	with	8	preview	4	156	0	0	0	0	0	0
133	143	links	links	links	8	preview	4	157	276	171	2087	171	276	105
134	144	to	to	to	8	preview	4	158	0	0	0	0	0	0
135	145	the	the	the	8	preview	4	159	0	0	0	0	0	0
136	146	@entity1	South	South	8	preview	4	160	0	0	0	0	0	0
137			Korean	Korean	8	preview	4	161	0	0	0	0	0	0
138	147	President	President	President	8	preview	4	162	0	0	0	0	0	0
139	148	are	are	are	8	preview	4	163	0	0	0	0	0	0
140	149	under	under	under	8	preview	4	164	0	0	0	0	0	0
141	150	investigation	investigation	investigation.	8	preview	4	165	0	0	0	0	0	0
	151	.	.		8	preview	4	166						
142	152	A	A	A	8	preview	4	167	0	0	0	0	0	0
143	153	special	special	special	8	preview	4	168	0	0	0	0	0	0
144	154	prosecutor	prosecutor	prosecutor-s	8	preview	4	169	153	153	153	153	153	0
	155	-s	-s		8	preview	4	170						
145	156	team	team	team	8	preview	4	171	0	0	0	0	0	0
146	157	has	has	has	8	preview	4	172	180	180	180	180	180	0
147	158	been	been	been	8	preview	4	173	0	0	0	0	0	0
148	159	established	established	established	8	preview	4	174	0	0	0	0	0	0
149	160	to	to	to	8	preview	4	175	0	0	0	0	0	0
150	161	investigate	investigate	investigate	8	preview	4	176	0	0	0	0	0	0
151	162	the	the	the	8	preview	4	177	0	0	0	0	0	0
152	163	case	case	case.	8	preview	4	178	0	0	0	0	0	0
	164	.	.		8	preview	4	179						
153	165	@entity0	Lee	Lee	8	preview	4	180	0	0	0	0	0	0
154	166	had	had	had	8	preview	4	181	0	0	0	0	0	0
155	167	adamantly	adamantly	adamantly	8	preview	4	182	0	0	0	0	0	0
156	168	denied	denied	denied	8	preview	4	183	0	0	0	0	0	0
157	169	the	the	the	8	preview	4	184	0	0	0	0	0	0
158	170	allegations	allegations	allegations	8	preview	4	185	0	0	0	0	0	0
159	171	as	as	as	8	preview	4	186	0	0	0	0	0	0
160	172	the	the	the	8	preview	4	187	0	0	0	0	0	0
161	173	scandal	scandal	scandal	8	preview	4	188	0	0	0	0	0	0
162	174	escalated	escalated	escalated:	8	preview	4	189	0	0	0	0	0	0
163	175	:	:	-If	8	preview	4	190	0	0	0	0	0	0
	176	-	-		8	preview	4	191						
164	177	If	If	there	8	preview	4	192	0	0	0	0	0	0
	178	there	there		8	preview	4	193						
165	179	are	are	are	8	preview	4	194	0	0	0	0	0	0
166	180	any	any	any	8	preview	4	195	0	0	0	0	0	0
167	181	evidence	evidence	evidence,	8	preview	4	196	263	263	263	263	263	0
	182	,	,		8	preview	4	197						
168	183	I	I	I	8	preview	4	198	0	0	0	0	0	0
169	184	will	will	will	8	preview	4	199	0	0	0	0	0	0
170	185	give	give	give	8	preview	4	200	0	0	0	0	0	0
171	186	out	out	out	8	preview	4	201	0	0	0	0	0	0
172	187	my	my	my	8	preview	4	202	0	0	0	0	0	0
173	188	life	life	life.	8	preview	4	203	185	185	185	185	185	0
	189	.	.		8	preview	4	204						
174	190	As	As	As	8	preview	4	205	0	0	0	0	0	0
175	191	a	a	a	8	preview	4	206	228	0	0	0	0	228
176	192	Prime	Prime	Prime	8	preview	4	207	0	0	0	0	0	0
177	193	Minister	Minister	Minister,	8	preview	4	208	0	0	0	0	0	0
	194	,	,		8	preview	4	209						
178	195	I	I	I	8	preview	4	210	0	0	0	0	0	0
179	196	will	will	will	8	preview	4	211	0	0	0	0	0	0
180	197	accept	accept	accept	8	preview	4	212	0	0	0	0	0	0
181	198	Prosecutor	Prosecutor	Prosecutor	8	preview	4	213	0	0	0	0	0	0
182	199	@entity44	Office	Office-s	8	preview	4	214	0	0	0	0	0	0
	200	-s	-s		8	preview	4	215						
183	201	investigation	investigation	investigation	8	preview	4	216	0	0	0	0	0	0
184	202	first	first	first.-	8	preview	4	217	172	0	0	0	0	172
	203	.	.		8	preview	4	218						
185	204	-	-	Park	8	preview	4	219	339	128	356	128	128	211
	205	@entity46	Park		8	preview	4	220						
186	206	has	has	has	8	preview	4	221	0	0	0	0	0	0
187	207	said	said	said	8	preview	4	222	90	0	0	0	0	90
188	208	that	that	that	8	preview	4	223	0	0	0	0	0	0
189	209	she	she	she	8	preview	4	224	0	0	0	0	0	0
190	210	is	is	is	8	preview	4	225	0	0	0	0	0	0
191	211	taking	taking	taking	8	preview	4	226	177	0	0	0	0	177
192	212	the	the	the	8	preview	4	227	0	0	0	0	0	0
193	213	accusations	accusations	accusations	8	preview	4	228	260	0	0	0	0	260
194	214	very	very	very	8	preview	4	229	208	0	0	0	0	208
195	215	seriously	seriously	seriously.	8	preview	4	230	129	0	0	0	0	129
	216	.	.		8	preview	4	231						
196	217	Before	Before	Before	8	preview	4	232	255	120	537	120	255	135
197	218	departing	departing	departing	8	preview	4	233	370	203	203	203	203	167
198	219	on	on	on	8	preview	4	234	111	0	0	0	0	111
199	220	her	her	her	8	preview	4	235	175	0	0	0	0	175
200	221	trip	trip	trip	8	preview	4	236	0	0	0	0	0	0
201	222	to	to	to	8	preview	4	237	177	0	0	0	0	177
202	223	@entity50	Central	Central	8	preview	4	238	0	0	0	0	0	0
203			and	and	8	preview	4	239	0	0	0	0	0	0
204			South	South	8	preview	4	240	0	0	0	0	0	0
205			America	America,	8	preview	4	241	142	0	0	0	0	142
	224	,	,		8	preview	4	242						
206	225	she	she	she	8	preview	4	243	0	0	0	0	0	0
207	226	condemned	condemned	condemned	8	preview	4	244	329	0	0	0	0	329
208	227	political	political	political	8	preview	4	245	0	0	0	0	0	0
209	228	corruption	corruption	corruption	8	preview	4	246	378	0	0	0	0	378
210	229	in	in	in	8	preview	4	247	0	0	0	0	0	0
211	230	her	her	her	8	preview	4	248	0	0	0	0	0	0
212	231	country	country	country.	8	preview	4	249	131	131	131	131	131	0
	232	.	.		8	preview	4	250						
213	233	-	-	-Corruption	8	preview	4	251	235	235	2679	235	235	0
	234	Corruption	Corruption		8	preview	4	252						
214	235	and	and	and	8	preview	4	253	0	0	0	0	0	0
215	236	deep	deep	deep-rooted	8	preview	4	254	0	0	0	0	0	0
	237	-	-		8	preview	4	255						
	238	rooted	rooted		8	preview	4	256						
216	239	evil	evil	evil	8	preview	4	257	0	0	0	0	0	0
217	240	are	are	are	8	preview	4	258	0	0	0	0	0	0
218	241	issues	issues	issues	8	preview	4	259	0	0	0	0	0	0
219	242	that	that	that	8	preview	4	260	0	0	0	0	0	0
220	243	can	can	can	8	preview	4	261	0	0	0	0	0	0
221	244	lead	lead	lead	8	preview	4	262	231	0	0	0	0	231
222	245	to	to	to	8	preview	4	263	0	0	0	0	0	0
223	246	taking	taking	taking	8	preview	4	264	0	0	0	0	0	0
224	247	away	away	away	8	preview	4	265	0	0	0	0	0	0
225	248	people	people	people-s	8	preview	4	266	0	0	0	0	0	0
	249	-s	-s		8	preview	4	267						
226	250	lives	lives	lives.	8	preview	4	268	0	0	0	0	0	0
	251	.	.		8	preview	4	269						
227	252	We	We	We	8	preview	4	270	0	0	0	0	0	0
228	253	take	take	take	8	preview	4	271	0	0	0	0	0	0
229	254	this	this	this	8	preview	4	272	0	0	0	0	0	0
230	255	very	very	very	8	preview	4	273	0	0	0	0	0	0
231	256	seriously	seriously	seriously.-	8	preview	4	274	0	0	0	0	0	0
	257	.	.		8	preview	4	275						
232	258	-	-	-We	8	preview	4	276	0	0	0	0	0	0
	259	-	-		8	preview	4	277						
233	260	We	We	must	8	preview	4	278	0	0	0	0	0	0
	261	must	must		8	preview	4	279						
234	262	make	make	make	8	preview	4	280	390	0	0	0	0	390
235	263	sure	sure	sure	8	preview	4	281	141	0	0	0	0	141
236	264	to	to	to	8	preview	4	282	0	0	0	0	0	0
237	265	set	set	set	8	preview	4	283	157	157	389	157	157	0
238	266	straight	straight	straight	8	preview	4	284	0	0	0	0	0	0
239	267	this	this	this	8	preview	4	285	0	0	0	0	0	0
240	268	issue	issue	issue	8	preview	4	286	0	0	0	0	0	0
241	269	as	as	as	8	preview	4	287	0	0	0	0	0	0
242	270	a	a	a	8	preview	4	288	0	0	0	0	0	0
243	271	matter	matter	matter	8	preview	4	289	0	0	0	0	0	0
244	272	of	of	of	8	preview	4	290	0	0	0	0	0	0
245	273	political	political	political	8	preview	4	291	232	0	0	0	0	232
246	274	reform	reform	reform.	8	preview	4	292	121	0	0	0	0	121
	275	.	.		8	preview	4	293						
247	276	I	I	I	8	preview	4	294	0	0	0	0	0	0
248	277	will	will	will	8	preview	4	295	0	0	0	0	0	0
249	278	not	not	not	8	preview	4	296	109	0	0	0	0	109
250	279	forgive	forgive	forgive	8	preview	4	297	152	152	261	152	152	0
251	280	anyone	anyone	anyone	8	preview	4	298	0	0	0	0	0	0
252	281	who	who	who	8	preview	4	299	0	0	0	0	0	0
253	282	is	is	is	8	preview	4	300	0	0	0	0	0	0
254	283	responsible	responsible	responsible	8	preview	4	301	0	0	0	0	0	0
255	284	for	for	for	8	preview	4	302	0	0	0	0	0	0
256	285	corruption	corruption	corruption	8	preview	4	303	0	0	0	0	0	0
257	286	or	or	or	8	preview	4	304	0	0	0	0	0	0
258	287	wrongdoing	wrongdoing	wrongdoing.-	8	preview	4	305	0	0	0	0	0	0
	288	.	.		8	preview	4	306						
259	289	-	-	Park	8	preview	4	307	0	0	0	0	0	0
	290	@entity13	Park		8	preview	4	308						
260	291	is	is	is	8	preview	4	309	247	247	247	247	247	0
261	292	in	in	in	8	preview	4	310	0	0	0	0	0	0
262	293	@entity66	Peru	Peru	8	preview	4	311	148	148	148	148	148	0
263	294	and	and	and	8	preview	4	312	0	0	0	0	0	0
264	295	is	is	is	8	preview	4	313	0	0	0	0	0	0
265	296	expected	expected	expected	8	preview	4	314	197	197	197	197	197	0
266	297	to	to	to	8	preview	4	315	0	0	0	0	0	0
267	298	arrive	arrive	arrive	8	preview	4	316	0	0	0	0	0	0
268	299	back	back	back	8	preview	4	317	0	0	0	0	0	0
269	300	to	to	to	8	preview	4	318	151	151	151	151	151	0
270	301	@entity1	South	South	8	preview	4	319	0	0	0	0	0	0
271			Korea	Korea	8	preview	4	320	422	422	1305	220	422	0
272	302	on	on	on	8	preview	4	321	0	0	0	0	0	0
273	303	April	April	April	8	preview	4	322	0	0	883	0	0	0
274	304	27	27	27.	8	preview	4	323	0	0	0	0	0	0
	305	.	.		8	preview	4	324						
