HumanPosition	AnonymizedPosition	AnonymizedToken	OriginalToken	ExperimentToken	Participant	Condition	TextNo	JointPosition	tt	fp	rp	ff	rb	sp
	0	@entity0	Paris		8	preview	7	1						
	1	(	(		8	preview	7	2						
	2	@entity1	CNN		8	preview	7	3						
	3	)	)		8	preview	7	4						
0	4	Six	Six	Six	8	preview	7	5	0	0	0	0	0	0
2	5	survivors	survivors	survivors	8	preview	7	6	362	0	0	0	0	362
3	6	of	of	of	8	preview	7	7	0	0	0	0	0	0
4	7	the	the	the	8	preview	7	8	0	0	0	0	0	0
5	8	@entity0	Paris	Paris	8	preview	7	9	0	0	0	0	0	0
6	9	kosher	kosher	kosher	8	preview	7	10	133	0	0	0	0	133
7	10	supermarket	supermarket	supermarket	8	preview	7	11	406	0	0	0	0	406
8	11	siege	siege	siege	8	preview	7	12	417	0	0	0	0	417
9	12	in	in	in	8	preview	7	13	0	0	0	0	0	0
10	13	January	January	January	8	preview	7	14	154	0	0	0	0	154
11	14	are	are	are	8	preview	7	15	0	0	0	0	0	0
12	15	suing	suing	suing	8	preview	7	16	267	0	0	0	0	267
13	16	a	a	a	8	preview	7	17	0	0	0	0	0	0
14	17	@entity5	French	French	8	preview	7	18	0	0	0	0	0	0
15	18	media	media	media	8	preview	7	19	152	0	0	0	0	152
16	19	outlet	outlet	outlet	8	preview	7	20	429	0	0	0	0	429
17	20	for	for	for	8	preview	7	21	118	0	0	0	0	118
18	21	what	what	what	8	preview	7	22	0	0	0	0	0	0
19	22	they	they	they	8	preview	7	23	0	0	0	0	0	0
20	23	call	call	call	8	preview	7	24	108	0	0	0	0	108
21	24	dangerous	dangerous	dangerous	8	preview	7	25	0	0	0	0	0	0
22	25	live	live	live	8	preview	7	26	410	0	0	0	0	410
23	26	broadcasting	broadcasting	broadcasting	8	preview	7	27	592	0	0	0	0	592
24	27	during	during	during	8	preview	7	28	325	0	0	0	0	325
25	28	the	the	the	8	preview	7	29	0	0	0	0	0	0
26	29	hostage	hostage	hostage-taking.	8	preview	7	30	0	0	0	0	0	0
	30	-	-		8	preview	7	31						
	31	taking	taking		8	preview	7	32						
	32	.	.		8	preview	7	33						
27	33	According	According	According	8	preview	7	34	410	0	0	0	0	410
28	34	to	to	to	8	preview	7	35	0	0	0	0	0	0
29	35	@entity0	Paris	Paris	8	preview	7	36	0	0	0	0	0	0
30	36	prosecutor	prosecutor	prosecutor-s	8	preview	7	37	243	0	0	0	0	243
	37	-s	-s		8	preview	7	38						
31	38	spokeswoman	spokeswoman	spokeswoman	8	preview	7	39	220	0	0	0	0	220
32	39	@entity10	Agnes	Agnes	8	preview	7	40	141	0	0	0	0	141
33			Thibault	Thibault-Lecuivre,	8	preview	7	41	288	0	0	0	0	288
			-		8	preview	7	42						
			Lecuivre		8	preview	7	43						
	40	,	,		8	preview	7	44						
34	41	the	the	the	8	preview	7	45	0	0	0	0	0	0
35	42	lawsuit	lawsuit	lawsuit	8	preview	7	46	247	0	0	0	0	247
36	43	was	was	was	8	preview	7	47	0	0	0	0	0	0
37	44	filed	filed	filed	8	preview	7	48	116	0	0	0	0	116
38	45	March	March	March	8	preview	7	49	187	0	0	0	0	187
39	46	27	27	27	8	preview	7	50	0	0	0	0	0	0
40	47	and	and	and	8	preview	7	51	0	0	0	0	0	0
41	48	a	a	a	8	preview	7	52	0	0	0	0	0	0
42	49	preliminary	preliminary	preliminary	8	preview	7	53	343	107	6068	107	343	236
43	50	investigation	investigation	investigation	8	preview	7	54	195	195	195	195	195	0
44	51	was	was	was	8	preview	7	55	205	205	205	205	205	0
45	52	opened	opened	opened	8	preview	7	56	0	0	0	0	0	0
46	53	by	by	by	8	preview	7	57	0	0	0	0	0	0
47	54	the	the	the	8	preview	7	58	0	0	0	0	0	0
48	55	prosecutor	prosecutor	prosecutor-s	8	preview	7	59	241	0	0	0	0	241
	56	-s	-s		8	preview	7	60						
49	57	office	office	office	8	preview	7	61	124	0	0	0	0	124
50	58	Wednesday	Wednesday	Wednesday.	8	preview	7	62	259	131	372	131	131	128
	59	.	.		8	preview	7	63						
51	60	The	The	The	8	preview	7	64	0	0	0	0	0	0
52	61	media	media	media	8	preview	7	65	239	239	239	239	239	0
53	62	outlet	outlet	outlet,	8	preview	7	66	712	268	268	268	268	444
	63	,	,		8	preview	7	67						
54	64	@entity1	CNN	CNN	8	preview	7	68	0	0	0	0	0	0
55	65	affiliate	affiliate	affiliate	8	preview	7	69	299	299	299	169	299	0
56	66	@entity16	BFMTV	BFMTV,	8	preview	7	70	292	292	292	292	292	0
	67	,	,		8	preview	7	71						
57	68	is	is	is	8	preview	7	72	0	0	0	0	0	0
58	69	accused	accused	accused	8	preview	7	73	312	312	436	312	312	0
59	70	of	of	of	8	preview	7	74	0	0	0	0	0	0
60	71	endangering	endangering	endangering	8	preview	7	75	349	0	0	0	0	349
61	72	the	the	the	8	preview	7	76	0	0	0	0	0	0
62	73	lives	lives	lives	8	preview	7	77	247	0	0	0	0	247
63	74	of	of	of	8	preview	7	78	227	0	0	0	0	227
64	75	the	the	the	8	preview	7	79	339	0	0	0	0	339
65	76	hostages	hostages	hostages,	8	preview	7	80	575	270	544	270	270	305
	77	,	,		8	preview	7	81						
66	78	who	who	who	8	preview	7	82	135	0	0	0	0	135
67	79	were	were	were	8	preview	7	83	477	0	0	0	0	477
68	80	hiding	hiding	hiding	8	preview	7	84	559	0	0	0	0	559
69	81	in	in	in	8	preview	7	85	439	0	0	0	0	439
70	82	a	a	a	8	preview	7	86	0	0	0	0	0	0
71	83	cold	cold	cold	8	preview	7	87	459	158	804	158	303	301
72	84	room	room	room	8	preview	7	88	0	0	0	0	0	0
73	85	during	during	during	8	preview	7	89	312	120	3342	120	312	192
74	86	the	the	the	8	preview	7	90	0	0	0	0	0	0
75	87	attack	attack	attack,	8	preview	7	91	0	0	0	0	0	0
	88	,	,		8	preview	7	92						
76	89	by	by	by	8	preview	7	93	0	0	0	0	0	0
77	90	broadcasting	broadcasting	broadcasting	8	preview	7	94	0	0	0	0	0	0
78	91	their	their	their	8	preview	7	95	159	159	159	159	159	0
79	92	location	location	location	8	preview	7	96	274	0	0	0	0	274
80	93	live	live	live	8	preview	7	97	411	0	0	0	0	411
81	94	during	during	during	8	preview	7	98	609	0	0	0	0	609
82	95	the	the	the	8	preview	7	99	121	0	0	0	0	121
83	96	siege	siege	siege.	8	preview	7	100	252	0	0	0	0	252
	97	.	.		8	preview	7	101						
84	98	@entity23	BFM	BFM	8	preview	7	102	207	207	207	207	207	0
85	99	in	in	in	8	preview	7	103	0	0	0	0	0	0
86	100	a	a	a	8	preview	7	104	169	169	1836	169	169	0
87	101	statement	statement	statement	8	preview	7	105	0	0	0	0	0	0
88	102	Friday	Friday	Friday	8	preview	7	106	0	0	0	0	0	0
89	103	said	said	said	8	preview	7	107	143	0	0	0	0	143
90	104	one	one	one	8	preview	7	108	0	0	0	0	0	0
91	105	of	of	of	8	preview	7	109	0	0	0	0	0	0
92	106	its	its	its	8	preview	7	110	129	129	272	129	129	0
93	107	journalists	journalists	journalists	8	preview	7	111	294	0	0	0	0	294
94	108	-	-	-mentioned	8	preview	7	112	152	0	0	0	0	152
	109	mentioned	mentioned		8	preview	7	113						
95	110	only	only	only	8	preview	7	114	0	0	0	0	0	0
96	111	once	once	once	8	preview	7	115	139	0	0	0	0	139
97	112	the	the	the	8	preview	7	116	0	0	0	0	0	0
98	113	presence	presence	presence	8	preview	7	117	497	193	1082	193	497	304
99	114	of	of	of	8	preview	7	118	0	0	0	0	0	0
100	115	a	a	a	8	preview	7	119	0	0	0	0	0	0
101	116	woman	woman	woman	8	preview	7	120	0	0	0	0	0	0
102	117	hidden	hidden	hidden	8	preview	7	121	0	0	0	0	0	0
103	118	inside	inside	inside	8	preview	7	122	207	0	0	0	0	207
104	119	the	the	the	8	preview	7	123	0	0	0	0	0	0
105	120	@entity27	Hyper	Hyper	8	preview	7	124	431	111	318	111	111	320
106			Cacher	Cacher,	8	preview	7	125	161	161	161	161	161	0
	121	,	,		8	preview	7	126						
107	122	on	on	on	8	preview	7	127	133	0	0	0	0	133
108	123	the	the	the	8	preview	7	128	0	0	0	0	0	0
109	124	basis	basis	basis	8	preview	7	129	135	0	0	0	0	135
110	125	of	of	of	8	preview	7	130	0	0	0	0	0	0
111	126	police	police	police	8	preview	7	131	0	0	0	0	0	0
112	127	sources	sources	sources	8	preview	7	132	267	267	855	148	267	0
113	128	on	on	on	8	preview	7	133	0	0	0	0	0	0
114	129	the	the	the	8	preview	7	134	0	0	0	0	0	0
115	130	ground	ground	ground.-	8	preview	7	135	0	0	0	0	0	0
	131	.	.		8	preview	7	136						
116	132	-	-	-Immediately,	8	preview	7	137	345	0	0	0	0	345
	133	-	-		8	preview	7	138						
	134	Immediately	Immediately		8	preview	7	139						
	135	,	,		8	preview	7	140						
117	136	the	the	the	8	preview	7	141	102	0	0	0	0	102
118	137	chief	chief	chief	8	preview	7	142	192	192	387	192	192	0
119	138	editor	editor	editor	8	preview	7	143	115	0	0	0	0	115
120	139	felt	felt	felt	8	preview	7	144	0	0	0	0	0	0
121	140	that	that	that	8	preview	7	145	161	0	0	0	0	161
122	141	this	this	this	8	preview	7	146	0	0	0	0	0	0
123	142	information	information	information	8	preview	7	147	395	297	297	163	297	98
124	143	should	should	should	8	preview	7	148	153	0	0	0	0	153
125	144	not	not	not	8	preview	7	149	190	190	190	190	190	0
126	145	be	be	be	8	preview	7	150	0	0	0	0	0	0
127	146	released	released	released.	8	preview	7	151	553	0	0	0	0	553
	147	.	.		8	preview	7	152						
128	148	It	It	It	8	preview	7	153	134	134	1466	134	134	0
129	149	therefore	therefore	therefore	8	preview	7	154	0	0	0	0	0	0
130	150	has	has	has	8	preview	7	155	0	0	0	0	0	0
131	151	subsequently	subsequently	subsequently	8	preview	7	156	0	0	0	0	0	0
132	152	never	never	never	8	preview	7	157	0	0	0	0	0	0
133	153	been	been	been	8	preview	7	158	0	0	0	0	0	0
134	154	repeated	repeated	repeated	8	preview	7	159	0	0	0	0	0	0
135	155	on	on	on	8	preview	7	160	0	0	0	0	0	0
136	156	air	air	air	8	preview	7	161	0	0	0	0	0	0
137	157	or	or	or	8	preview	7	162	0	0	0	0	0	0
138	158	posted	posted	posted	8	preview	7	163	0	0	0	0	0	0
139	159	on	on	on-screen.	8	preview	7	164	0	0	0	0	0	0
	160	-	-		8	preview	7	165						
	161	screen	screen		8	preview	7	166						
	162	.	.		8	preview	7	167						
140	163	@entity16	BFMTV	BFMTV	8	preview	7	168	0	0	0	0	0	0
141	164	regrets	regrets	regrets	8	preview	7	169	613	0	0	0	0	613
142	165	that	that	that	8	preview	7	170	477	0	0	0	0	477
143	166	the	the	the	8	preview	7	171	0	0	0	0	0	0
144	167	mention	mention	mention	8	preview	7	172	390	0	0	0	0	390
145	168	of	of	of	8	preview	7	173	198	0	0	0	0	198
146	169	this	this	this	8	preview	7	174	164	0	0	0	0	164
147	170	information	information	information	8	preview	7	175	188	0	0	0	0	188
148	171	could	could	could	8	preview	7	176	0	0	0	0	0	0
149	172	cause	cause	cause	8	preview	7	177	0	0	0	0	0	0
150	173	concern	concern	concern	8	preview	7	178	147	0	0	0	0	147
151	174	to	to	to	8	preview	7	179	0	0	0	0	0	0
152	175	the	the	the	8	preview	7	180	0	0	0	0	0	0
153	176	hostages	hostages	hostages,	8	preview	7	181	368	0	0	0	0	368
	177	,	,		8	preview	7	182						
154	178	as	as	as	8	preview	7	183	0	0	0	0	0	0
155	179	well	well	well	8	preview	7	184	604	0	0	0	0	604
156	180	as	as	as	8	preview	7	185	195	0	0	0	0	195
157	181	their	their	their	8	preview	7	186	0	0	0	0	0	0
158	182	relatives	relatives	relatives,	8	preview	7	187	314	198	2743	198	198	116
	183	,	,		8	preview	7	188						
159	184	that	that	that	8	preview	7	189	87	0	0	0	0	87
160	185	their	their	their	8	preview	7	190	131	0	0	0	0	131
161	186	lives	lives	lives	8	preview	7	191	208	208	426	208	208	0
162	187	were	were	were	8	preview	7	192	0	0	0	0	0	0
163	188	in	in	in	8	preview	7	193	0	0	0	0	0	0
164	189	danger	danger	danger,-	8	preview	7	194	0	0	0	0	0	0
	190	,	,		8	preview	7	195						
	191	-	-		8	preview	7	196						
165	192	the	the	the	8	preview	7	197	0	0	0	0	0	0
166	193	statement	statement	statement	8	preview	7	198	158	158	158	158	158	0
167	194	said	said	said.	8	preview	7	199	0	0	0	0	0	0
	195	.	.		8	preview	7	200						
168	196	Gunman	Gunman	Gunman	8	preview	7	201	257	257	1172	257	257	0
169	197	@entity47	Amedy	Amedy	8	preview	7	202	332	0	0	0	0	332
170			Coulibaly	Coulibaly,	8	preview	7	203	2477	1118	1118	612	1118	1359
	198	,	,		8	preview	7	204						
171	199	also	also	also	8	preview	7	205	393	0	0	0	0	393
172	200	suspected	suspected	suspected	8	preview	7	206	371	0	0	0	0	371
173	201	in	in	in	8	preview	7	207	0	0	0	0	0	0
174	202	the	the	the	8	preview	7	208	113	0	0	0	0	113
175	203	slaying	slaying	slaying	8	preview	7	209	274	0	0	0	0	274
176	204	of	of	of	8	preview	7	210	0	0	0	0	0	0
177	205	a	a	a	8	preview	7	211	134	0	0	0	0	134
178	206	police	police	police	8	preview	7	212	239	0	0	0	0	239
179	207	officer	officer	officer,	8	preview	7	213	190	0	0	0	0	190
	208	,	,		8	preview	7	214						
180	209	stormed	stormed	stormed	8	preview	7	215	680	173	3629	173	680	507
181	210	the	the	the	8	preview	7	216	0	0	0	0	0	0
182	211	@entity27	Hyper	Hyper	8	preview	7	217	195	195	504	195	195	0
183	212	@entity51	Cacher	Cacher	8	preview	7	218	0	0	0	0	0	0
184			Jewish	Jewish	8	preview	7	219	177	177	177	177	177	0
185	213	supermarket	supermarket	supermarket	8	preview	7	220	0	0	0	0	0	0
186	214	on	on	on	8	preview	7	221	143	143	143	143	143	0
187	215	January	January	January	8	preview	7	222	132	132	279	132	132	0
188	216	9	9	9,	8	preview	7	223	0	0	0	0	0	0
	217	,	,		8	preview	7	224						
189	218	killing	killing	killing	8	preview	7	225	0	0	0	0	0	0
190	219	four	four	four	8	preview	7	226	156	0	0	0	0	156
191	220	people	people	people	8	preview	7	227	0	0	0	0	0	0
192	221	and	and	and	8	preview	7	228	0	0	0	0	0	0
193	222	taking	taking	taking	8	preview	7	229	0	0	0	0	0	0
194	223	others	others	others	8	preview	7	230	0	0	0	0	0	0
195	224	hostage	hostage	hostage.	8	preview	7	231	0	0	0	0	0	0
	225	.	.		8	preview	7	232						
196	226	He	He	He	8	preview	7	233	0	0	0	0	0	0
197	227	was	was	was	8	preview	7	234	0	0	0	0	0	0
198	228	killed	killed	killed	8	preview	7	235	228	0	0	0	0	228
199	229	in	in	in	8	preview	7	236	0	0	0	0	0	0
200	230	the	the	the	8	preview	7	237	0	0	0	0	0	0
201	231	police	police	police	8	preview	7	238	0	0	0	0	0	0
202	232	operation	operation	operation	8	preview	7	239	0	0	0	0	0	0
203	233	to	to	to	8	preview	7	240	107	107	263	107	107	0
204	234	end	end	end	8	preview	7	241	0	0	0	0	0	0
205	235	the	the	the	8	preview	7	242	0	0	0	0	0	0
206	236	siege	siege	siege.	8	preview	7	243	137	137	137	137	137	0
	237	.	.		8	preview	7	244						
207	238	A	A	A	8	preview	7	245	0	0	0	0	0	0
208	239	24	24	24-year-old	8	preview	7	246	197	197	425	197	197	0
	240	-	-		8	preview	7	247						
	241	year	year		8	preview	7	248						
	242	-	-		8	preview	7	249						
	243	old	old		8	preview	7	250						
209	244	supermarket	supermarket	supermarket	8	preview	7	251	242	0	0	0	0	242
210	245	employee	employee	employee,	8	preview	7	252	0	0	0	0	0	0
	246	,	,		8	preview	7	253						
211	247	@entity57	Malian	Malian-born	8	preview	7	254	436	189	189	189	189	247
	248	-	-		8	preview	7	255						
	249	born	born		8	preview	7	256						
212	250	@entity56	Lassana	Lassana	8	preview	7	257	181	0	0	0	0	181
213			Bathily	Bathily,	8	preview	7	258	254	254	254	254	254	0
	251	,	,		8	preview	7	259						
214	252	was	was	was	8	preview	7	260	0	0	0	0	0	0
215	253	hailed	hailed	hailed	8	preview	7	261	265	265	265	265	265	0
216	254	as	as	as	8	preview	7	262	0	0	0	0	0	0
217	255	a	a	a	8	preview	7	263	115	115	115	115	115	0
218	256	hero	hero	hero	8	preview	7	264	0	0	0	0	0	0
219	257	afterward	afterward	afterward	8	preview	7	265	133	133	803	133	133	0
220	258	when	when	when	8	preview	7	266	0	0	0	0	0	0
221	259	it	it	it	8	preview	7	267	0	0	0	0	0	0
222	260	emerged	emerged	emerged	8	preview	7	268	268	0	0	0	0	268
223	261	that	that	that	8	preview	7	269	101	0	0	0	0	101
224	262	he	he	he	8	preview	7	270	369	0	0	0	0	369
225	263	had	had	had	8	preview	7	271	162	0	0	0	0	162
226	264	risked	risked	risked	8	preview	7	272	257	0	0	0	0	257
227	265	his	his	his	8	preview	7	273	421	0	0	0	0	421
228	266	life	life	life	8	preview	7	274	0	0	0	0	0	0
229	267	to	to	to	8	preview	7	275	0	0	0	0	0	0
230	268	hide	hide	hide	8	preview	7	276	132	0	0	0	0	132
231	269	15	15	15	8	preview	7	277	155	155	155	155	155	0
232	270	customers	customers	customers	8	preview	7	278	155	155	287	155	155	0
233	271	from	from	from	8	preview	7	279	113	0	0	0	0	113
234	272	@entity47	Coulibaly	Coulibaly	8	preview	7	280	1483	187	3174	187	1483	1296
235	273	in	in	in	8	preview	7	281	0	0	0	0	0	0
236	274	the	the	the	8	preview	7	282	0	0	0	0	0	0
237	275	cold	cold	cold	8	preview	7	283	140	0	0	0	0	140
238	276	room	room	room.	8	preview	7	284	118	0	0	0	0	118
	277	.	.		8	preview	7	285						
239	278	The	The	The	8	preview	7	286	0	0	0	0	0	0
240	279	hostage	hostage	hostage-taking	8	preview	7	287	329	0	0	0	0	329
	280	-	-		8	preview	7	288						
	281	taking	taking		8	preview	7	289						
241	282	was	was	was	8	preview	7	290	0	0	0	0	0	0
242	283	the	the	the	8	preview	7	291	0	0	0	0	0	0
243	284	culmination	culmination	culmination	8	preview	7	292	147	0	0	0	0	147
244	285	of	of	of	8	preview	7	293	420	257	404	257	257	163
245	286	three	three	three	8	preview	7	294	180	180	180	180	180	0
246	287	days	days	days	8	preview	7	295	0	0	0	0	0	0
247	288	of	of	of	8	preview	7	296	254	254	1004	254	254	0
248	289	terror	terror	terror	8	preview	7	297	0	0	750	0	0	0
249	290	in	in	in	8	preview	7	298	0	0	0	0	0	0
250	291	@entity0	Paris	Paris	8	preview	7	299	0	0	0	0	0	0
251	292	that	that	that	8	preview	7	300	234	0	0	0	0	234
252	293	began	began	began	8	preview	7	301	159	0	0	0	0	159
253	294	with	with	with	8	preview	7	302	0	0	0	0	0	0
254	295	the	the	the	8	preview	7	303	328	0	0	0	0	328
255	296	January	January	January	8	preview	7	304	0	0	0	0	0	0
256	297	7	7	7	8	preview	7	305	0	0	0	0	0	0
257	298	shooting	shooting	shooting	8	preview	7	306	0	0	0	0	0	0
258	299	of	of	of	8	preview	7	307	188	0	0	0	0	188
259	300	12	12	12	8	preview	7	308	0	0	0	0	0	0
260	301	people	people	people	8	preview	7	309	0	0	0	0	0	0
261	302	at	at	at	8	preview	7	310	121	0	0	0	0	121
262	303	the	the	the	8	preview	7	311	0	0	0	0	0	0
263	304	offices	offices	offices	8	preview	7	312	189	189	1219	189	189	0
264	305	of	of	of	8	preview	7	313	0	0	1030	0	0	0
265	306	@entity5	French	French	8	preview	7	314	0	0	0	0	0	0
266	307	satirical	satirical	satirical	8	preview	7	315	193	0	0	0	0	193
267	308	magazine	magazine	magazine	8	preview	7	316	221	0	0	0	0	221
268	309	@entity69	Charlie	Charlie	8	preview	7	317	223	0	0	0	0	223
269			Hebdo	Hebdo.	8	preview	7	318	0	0	0	0	0	0
	310	.	.		8	preview	7	319						
270	311	The	The	The	8	preview	7	320	0	0	0	0	0	0
271	312	two	two	two	8	preview	7	321	148	0	0	0	0	148
272	313	brothers	brothers	brothers	8	preview	7	322	0	0	0	0	0	0
273	314	blamed	blamed	blamed	8	preview	7	323	0	0	0	0	0	0
274	315	for	for	for	8	preview	7	324	174	0	0	0	0	174
275	316	that	that	that	8	preview	7	325	0	0	0	0	0	0
276	317	attack	attack	attack,	8	preview	7	326	0	0	0	0	0	0
	318	,	,		8	preview	7	327						
277	319	@entity72	Cherif	Cherif	8	preview	7	328	162	162	1121	162	162	0
278	320	and	and	and	8	preview	7	329	0	0	0	0	0	0
279	321	@entity73	Said	Said	8	preview	7	330	0	0	0	0	0	0
280			Kouachi	Kouachi,	8	preview	7	331	0	0	0	0	0	0
	322	,	,		8	preview	7	332						
281	323	were	were	were	8	preview	7	333	0	0	0	0	0	0
282	324	killed	killed	killed	8	preview	7	334	0	0	0	0	0	0
283	325	on	on	on	8	preview	7	335	0	0	0	0	0	0
284	326	January	January	January	8	preview	7	336	0	0	0	0	0	0
285	327	9	9	9	8	preview	7	337	0	0	0	0	0	0
286	328	after	after	after	8	preview	7	338	0	0	0	0	0	0
287	329	a	a	a	8	preview	7	339	0	0	0	0	0	0
288	330	violent	violent	violent	8	preview	7	340	0	0	0	0	0	0
289	331	standoff	standoff	standoff	8	preview	7	341	0	0	0	0	0	0
290	332	at	at	at	8	preview	7	342	0	0	0	0	0	0
291	333	an	an	an	8	preview	7	343	0	0	0	0	0	0
292	334	industrial	industrial	industrial	8	preview	7	344	315	315	315	232	315	0
293	335	site	site	site.	8	preview	7	345	0	0	0	0	0	0
	336	.	.		8	preview	7	346						
294	337	The	The	The	8	preview	7	347	170	0	0	0	0	170
295	338	terror	terror	terror	8	preview	7	348	0	0	0	0	0	0
296	339	attacks	attacks	attacks	8	preview	7	349	94	94	264	94	94	0
297	340	claimed	claimed	claimed	8	preview	7	350	0	0	0	0	0	0
298	341	the	the	the	8	preview	7	351	0	0	0	0	0	0
299	342	lives	lives	lives	8	preview	7	352	82	0	0	0	0	82
300	343	of	of	of	8	preview	7	353	260	260	342	260	260	0
301	344	17	17	17	8	preview	7	354	0	0	0	0	0	0
302	345	people	people	people	8	preview	7	355	0	0	0	0	0	0
303	346	and	and	and	8	preview	7	356	101	101	101	101	101	0
304	347	put	put	put	8	preview	7	357	0	0	0	0	0	0
305	348	@entity5	France	France	8	preview	7	358	206	206	206	206	206	0
306	349	on	on	on	8	preview	7	359	0	0	0	0	0	0
307	350	a	a	a	8	preview	7	360	0	0	0	0	0	0
308	351	heightened	heightened	heightened	8	preview	7	361	224	0	0	0	0	224
309	352	state	state	state	8	preview	7	362	223	0	0	0	0	223
310	353	of	of	of	8	preview	7	363	115	115	562	115	115	0
311	354	alert	alert	alert.	8	preview	7	364	192	192	192	192	192	0
	355	.	.		8	preview	7	365						
