HumanPosition	AnonymizedPosition	AnonymizedToken	OriginalToken	ExperimentToken	Participant	Condition	TextNo	JointPosition	tt	fp	rp	ff	rb	sp
1	0	One	One	One	12	preview	14	1	312	0	0	0	0	312
2	1	@entity1	Wall	Wall	12	preview	14	2	613	467	779	138	467	146
3			Street	Street	12	preview	14	3	540	303	303	114	303	237
4	2	trader	trader	trader	12	preview	14	4	286	286	286	286	286	0
5	3	closed	closed	closed	12	preview	14	5	224	224	224	224	224	0
6	4	out	out	out	12	preview	14	6	263	263	263	263	263	0
7	5	his	his	his	12	preview	14	7	104	104	104	104	104	0
8	6	week	week	week	12	preview	14	8	402	255	255	255	255	147
9	7	a	a	a	12	preview	14	9	175	175	175	175	175	0
10	8	few	few	few	12	preview	14	10	369	157	516	157	369	212
11	9	million	million	million	12	preview	14	11	194	194	194	194	194	0
12	10	dollars	dollars	dollars	12	preview	14	12	439	439	439	250	439	0
13	11	richer	richer	richer	12	preview	14	13	462	462	462	462	462	0
14	12	last	last	last	12	preview	14	14	161	161	161	161	161	0
15	13	Friday	Friday	Friday	12	preview	14	15	545	545	545	545	545	0
16	14	-	-	-	12	preview	14	16	0	0	0	0	0	0
17	15	and	and	and	12	preview	14	17	145	0	0	0	0	145
18	16	it	it	it	12	preview	14	18	0	0	0	0	0	0
19	17	was	was	was	12	preview	14	19	368	134	513	134	368	234
20	18	all	all	all	12	preview	14	20	0	0	0	0	0	0
21	19	thanks	thanks	thanks	12	preview	14	21	128	128	128	128	128	0
22	20	to	to	to	12	preview	14	22	0	0	0	0	0	0
23	21	social	social	social	12	preview	14	23	319	319	319	319	319	0
24	22	media	media	media.	12	preview	14	24	228	228	611	228	228	0
	23	.	.		12	preview	14	25						
25	24	The	The	The	12	preview	14	26	0	0	0	0	0	0
26	25	unnamed	unnamed	unnamed	12	preview	14	27	520	520	520	202	520	0
27	26	trader	trader	trader	12	preview	14	28	273	273	273	273	273	0
28	27	used	used	used	12	preview	14	29	190	190	190	190	190	0
29	28	perfect	perfect	perfect	12	preview	14	30	618	618	618	158	618	0
30	29	timing	timing	timing	12	preview	14	31	444	444	444	331	444	0
31	30	to	to	to	12	preview	14	32	0	0	0	0	0	0
32	31	capitalize	capitalize	capitalize	12	preview	14	33	497	163	163	163	163	334
33	32	on	on	on	12	preview	14	34	342	155	155	155	155	187
34	33	one	one	one	12	preview	14	35	789	177	1310	177	789	612
35	34	of	of	of	12	preview	14	36	0	0	0	0	0	0
36	35	the	the	the	12	preview	14	37	177	177	177	177	177	0
37	36	biggest	biggest	biggest	12	preview	14	38	169	169	169	169	169	0
38	37	deals	deals	deals	12	preview	14	39	251	251	251	251	251	0
39	38	of	of	of	12	preview	14	40	169	0	0	0	0	169
40	39	the	the	the	12	preview	14	41	217	217	386	217	217	0
41	40	year	year	year	12	preview	14	42	228	228	228	228	228	0
42	41	when	when	when	12	preview	14	43	450	0	0	0	0	450
43	42	@entity10	Wall	Wall	12	preview	14	44	139	139	386	139	139	0
44			Street	Street	12	preview	14	45	300	100	503	100	300	200
45			Journal	Journal	12	preview	14	46	276	276	276	276	276	0
46	43	mergers	mergers	mergers	12	preview	14	47	146	146	146	146	146	0
47	44	and	and	and	12	preview	14	48	0	0	0	0	0	0
48	45	acquisitions	acquisitions	acquisitions	12	preview	14	49	338	338	338	113	338	0
49	46	reporter	reporter	reporter	12	preview	14	50	621	621	621	264	621	0
50	47	@entity9	Dana	Dana	12	preview	14	51	161	0	0	0	0	161
51			Mattioli	Mattioli	12	preview	14	52	157	157	318	157	157	0
52	48	took	took	took	12	preview	14	53	357	357	357	357	357	0
53	49	to	to	to	12	preview	14	54	0	0	0	0	0	0
54	50	@entity11	Twitter	Twitter	12	preview	14	55	268	268	268	268	268	0
55	51	to	to	to	12	preview	14	56	0	0	0	0	0	0
56	52	announce	announce	announce	12	preview	14	57	363	363	363	254	363	0
57	53	that	that	that	12	preview	14	58	222	222	222	222	222	0
58	54	@entity12	Intel	Intel	12	preview	14	59	327	327	327	327	327	0
59	55	was	was	was	12	preview	14	60	322	322	322	155	322	0
60	56	in	in	in	12	preview	14	61	0	0	0	0	0	0
61	57	talks	talks	talks	12	preview	14	62	484	366	366	366	366	118
62	58	to	to	to	12	preview	14	63	0	0	0	0	0	0
63	59	buy	buy	buy	12	preview	14	64	115	115	233	115	115	0
64	60	one	one	one	12	preview	14	65	257	257	257	257	257	0
65	61	of	of	of	12	preview	14	66	0	0	0	0	0	0
66	62	its	its	its	12	preview	14	67	208	208	208	208	208	0
67	63	competitors	competitors	competitors,	12	preview	14	68	402	402	402	215	402	0
	64	,	,		12	preview	14	69						
68	65	chipmaker	chipmaker	chipmaker	12	preview	14	70	995	995	995	189	995	0
69	66	@entity16	Altera	Altera.	12	preview	14	71	817	817	817	207	817	0
	67	.	.		12	preview	14	72						
70	68	Seconds	Seconds	Seconds	12	preview	14	73	88	88	88	88	88	0
71	69	later	later	later,	12	preview	14	74	167	167	167	167	167	0
	70	,	,		12	preview	14	75						
72	71	the	the	the	12	preview	14	76	0	0	0	0	0	0
73	72	trader	trader	trader	12	preview	14	77	515	515	515	222	515	0
74	73	had	had	had	12	preview	14	78	0	0	0	0	0	0
75	74	snapped	snapped	snapped	12	preview	14	79	0	0	0	0	0	0
76	75	up	up	up	12	preview	14	80	210	210	210	210	210	0
77	76	3,158	3,158	3,158	12	preview	14	81	117	117	117	117	117	0
78	77	contracts	contracts	contracts	12	preview	14	82	410	410	410	269	410	0
79	78	of	of	of	12	preview	14	83	0	0	0	0	0	0
80	79	@entity16	Altera	Altera,	12	preview	14	84	264	264	264	264	264	0
	80	,	,		12	preview	14	85						
81	81	with	with	with	12	preview	14	86	249	249	249	249	249	0
82	82	each	each	each	12	preview	14	87	495	495	495	311	495	0
83	83	option	option	option	12	preview	14	88	185	185	185	185	185	0
84	84	contract	contract	contract	12	preview	14	89	453	181	181	181	181	272
85	85	giving	giving	giving	12	preview	14	90	384	125	656	125	384	259
86	86	them	them	them	12	preview	14	91	0	0	0	0	0	0
87	87	the	the	the	12	preview	14	92	244	244	244	244	244	0
88	88	right	right	right	12	preview	14	93	242	242	242	242	242	0
89	89	to	to	to	12	preview	14	94	0	0	0	0	0	0
90	90	purchase	purchase	purchase	12	preview	14	95	293	293	293	293	293	0
91	91	100	100	100	12	preview	14	96	255	136	136	136	136	119
92	92	shares	shares	shares.	12	preview	14	97	177	177	177	177	177	0
	93	.	.		12	preview	14	98						
93	94	Scroll	Scroll	CNBC	12	preview	14	99	291	291	291	291	291	0
	95	down	down		12	preview	14	100						
	96	for	for		12	preview	14	101						
	97	video	video		12	preview	14	102						
	98	An	An		12	preview	14	103						
	99	unnamed	unnamed		12	preview	14	104						
	100	@entity1	Wall		12	preview	14	105						
			Street		12	preview	14	106						
	101	trader	trader		12	preview	14	107						
	102	made	made		12	preview	14	108						
	103	a	a		12	preview	14	109						
	104	profit	profit		12	preview	14	110						
	105	of	of		12	preview	14	111						
	106	approximately	approximately		12	preview	14	112						
	107	$	$		12	preview	14	113						
	108	2.5million	2.5million		12	preview	14	114						
	109	on	on		12	preview	14	115						
	110	Friday	Friday		12	preview	14	116						
	111	thanks	thanks		12	preview	14	117						
	112	to	to		12	preview	14	118						
	113	a	a		12	preview	14	119						
	114	tweet	tweet		12	preview	14	120						
	115	from	from		12	preview	14	121						
	116	the	the		12	preview	14	122						
	117	@entity10	Wall		12	preview	14	123						
			Street		12	preview	14	124						
			Journal		12	preview	14	125						
	118	The	The		12	preview	14	126						
	119	trader	trader		12	preview	14	127						
	120	purchased	purchased		12	preview	14	128						
	121	315,800	315,800		12	preview	14	129						
	122	shares	shares		12	preview	14	130						
	123	of	of		12	preview	14	131						
	124	chipmaker	chipmaker		12	preview	14	132						
	125	@entity16	Altera		12	preview	14	133						
	126	one	one		12	preview	14	134						
	127	minute	minute		12	preview	14	135						
	128	after	after		12	preview	14	136						
	129	the	the		12	preview	14	137						
	130	@entity10	Journal		12	preview	14	138						
	131	reported	reported		12	preview	14	139						
	132	@entity12	Intel		12	preview	14	140						
	133	was	was		12	preview	14	141						
	134	in	in		12	preview	14	142						
	135	talks	talks		12	preview	14	143						
	136	to	to		12	preview	14	144						
	137	purchase	purchase		12	preview	14	145						
	138	them	them		12	preview	14	146						
	139	@entity32	CNBC		12	preview	14	147						
94	140	reports	reports	reports	12	preview	14	148	769	506	506	192	506	263
95	141	that	that	that	12	preview	14	149	881	694	957	218	694	187
96	142	the	the	the	12	preview	14	150	156	156	343	156	156	0
97	143	trader	trader	trader	12	preview	14	151	228	228	980	228	228	0
98	144	paid	paid	paid	12	preview	14	152	171	0	0	0	0	171
99	145	$	$	$36	12	preview	14	153	82	82	253	82	82	0
	146	36	36		12	preview	14	154						
100	147	a	a	a	12	preview	14	155	207	0	0	0	0	207
101	148	share	share	share,	12	preview	14	156	369	247	576	247	369	122
	149	,	,		12	preview	14	157						
102	150	and	and	and	12	preview	14	158	104	0	0	0	0	104
103	151	the	the	the	12	preview	14	159	167	167	271	167	167	0
104	152	call	call	call	12	preview	14	160	149	149	268	149	149	0
105	153	option	option	option	12	preview	14	161	89	89	89	89	89	0
106	154	was	was	was	12	preview	14	162	265	95	95	95	95	170
107	155	a	a	a	12	preview	14	163	0	0	0	0	0	0
108	156	mere	mere	mere	12	preview	14	164	260	260	430	260	260	0
109	157	35	35	35	12	preview	14	165	85	85	85	85	85	0
110	158	cents	cents	cents	12	preview	14	166	170	170	170	170	170	0
111	159	as	as	as	12	preview	14	167	201	201	201	201	201	0
112	160	options	options	options	12	preview	14	168	1055	410	410	239	410	645
113	161	on	on	on	12	preview	14	169	0	0	0	0	0	0
114	162	the	the	the	12	preview	14	170	99	99	744	99	99	0
115	163	stock	stock	stock,	12	preview	14	171	0	0	0	0	0	0
	164	,	,		12	preview	14	172						
116	165	at	at	at	12	preview	14	173	0	0	0	0	0	0
117	166	that	that	that	12	preview	14	174	667	322	322	322	322	345
118	167	point	point	point	12	preview	14	175	347	146	692	146	347	201
119	168	valued	valued	valued	12	preview	14	176	121	121	121	121	121	0
120	169	at	at	at	12	preview	14	177	166	166	166	166	166	0
121	170	$	$	$34.76	12	preview	14	178	347	347	347	347	347	0
	171	34.76	34.76		12	preview	14	179						
122	172	a	a	a	12	preview	14	180	0	0	0	0	0	0
123	173	share	share	share,	12	preview	14	181	195	0	0	0	0	195
	174	,	,		12	preview	14	182						
124	175	were	were	were	12	preview	14	183	282	134	477	134	282	148
125	176	set	set	set	12	preview	14	184	279	279	427	279	279	0
126	177	to	to	to	12	preview	14	185	0	0	0	0	0	0
127	178	expire	expire	expire	12	preview	14	186	208	208	208	208	208	0
128	179	in	in	in	12	preview	14	187	163	163	163	163	163	0
129	180	just	just	just	12	preview	14	188	235	235	235	235	235	0
130	181	a	a	a	12	preview	14	189	0	0	0	0	0	0
131	182	few	few	few	12	preview	14	190	234	234	234	234	234	0
132	183	weeks	weeks	weeks.	12	preview	14	191	0	0	0	0	0	0
	184	.	.		12	preview	14	192						
133	185	3:32pm	3:32pm	When	12	preview	14	193	0	0	0	0	0	0
	186	:	:		12	preview	14	194						
	187	The	The		12	preview	14	195						
134	188	@entity10	Wall	the	12	preview	14	196	194	194	194	194	194	0
			Street		12	preview	14	197						
			Journal		12	preview	14	198						
	189	reports	reports		12	preview	14	199						
	190	that	that		12	preview	14	200						
135	191	@entity12	Intel	market	12	preview	14	201	177	177	177	177	177	0
	192	is	is		12	preview	14	202						
	193	in	in		12	preview	14	203						
	194	talks	talks		12	preview	14	204						
	195	to	to		12	preview	14	205						
	196	buy	buy		12	preview	14	206						
	197	@entity16	Altera		12	preview	14	207						
	198	.	.		12	preview	14	208						
	199	3:33pm	3:33pm		12	preview	14	209						
	200	:	:		12	preview	14	210						
	201	Trader	Trader		12	preview	14	211						
	202	purchases	purchases		12	preview	14	212						
	203	315,800	315,800		12	preview	14	213						
	204	shares	shares		12	preview	14	214						
	205	of	of		12	preview	14	215						
	206	@entity16	Altera		12	preview	14	216						
	207	at	at		12	preview	14	217						
	208	$	$		12	preview	14	218						
	209	36	36		12	preview	14	219						
	210	a	a		12	preview	14	220						
	211	share	share		12	preview	14	221						
	212	for	for		12	preview	14	222						
	213	a	a		12	preview	14	223						
	214	total	total		12	preview	14	224						
	215	cost	cost		12	preview	14	225						
	216	of	of		12	preview	14	226						
	217	$	$		12	preview	14	227						
	218	11,368,000	11,368,000		12	preview	14	228						
	219	plus	plus		12	preview	14	229						
	220	$	$		12	preview	14	230						
	221	110,530	110,530		12	preview	14	231						
	222	for	for		12	preview	14	232						
	223	a	a		12	preview	14	233						
	224	$	$		12	preview	14	234						
	225	0.35	0.35		12	preview	14	235						
	226	call	call		12	preview	14	236						
	227	option	option		12	preview	14	237						
	228	.	.		12	preview	14	238						
	229	3:35pm	3:35pm		12	preview	14	239						
	230	:	:		12	preview	14	240						
	231	@entity46	Nasdaq		12	preview	14	241						
	232	suspends	suspends		12	preview	14	242						
	233	trading	trading		12	preview	14	243						
	234	of	of		12	preview	14	244						
	235	@entity16	Altera		12	preview	14	245						
	236	in	in		12	preview	14	246						
	237	the	the		12	preview	14	247						
	238	wake	wake		12	preview	14	248						
136	239	of	of	closed	12	preview	14	249	197	197	197	197	197	0
	240	the	the		12	preview	14	250						
	241	@entity10	Journal		12	preview	14	251						
	242	-s	-s		12	preview	14	252						
	243	tweet	tweet		12	preview	14	253						
	244	.	.		12	preview	14	254						
	245	4:00pm	4:00pm		12	preview	14	255						
	246	:	:		12	preview	14	256						
	247	Trader	Trader		12	preview	14	257						
	248	sells	sells		12	preview	14	258						
	249	@entity16	Altera		12	preview	14	259						
	250	at	at		12	preview	14	260						
	251	the	the		12	preview	14	261						
	252	new	new		12	preview	14	262						
	253	share	share		12	preview	14	263						
	254	price	price		12	preview	14	264						
	255	of	of		12	preview	14	265						
	256	$	$		12	preview	14	266						
	257	44.39	44.39		12	preview	14	267						
	258	for	for		12	preview	14	268						
	259	a	a		12	preview	14	269						
	260	total	total		12	preview	14	270						
	261	of	of		12	preview	14	271						
	262	$	$		12	preview	14	272						
	263	14,018,362	14,018,362		12	preview	14	273						
	264	.	.		12	preview	14	274						
	265	This	This		12	preview	14	275						
	266	,	,		12	preview	14	276						
	267	after	after		12	preview	14	277						
	268	factoring	factoring		12	preview	14	278						
	269	in	in		12	preview	14	279						
	270	the	the		12	preview	14	280						
	271	intital	intital		12	preview	14	281						
	272	share	share		12	preview	14	282						
	273	price	price		12	preview	14	283						
	274	and	and		12	preview	14	284						
	275	call	call		12	preview	14	285						
	276	option	option		12	preview	14	286						
	277	,	,		12	preview	14	287						
	278	leaves	leaves		12	preview	14	288						
	279	them	them		12	preview	14	289						
	280	with	with		12	preview	14	290						
	281	a	a		12	preview	14	291						
	282	profit	profit		12	preview	14	292						
	283	of	of		12	preview	14	293						
	284	approximately	approximately		12	preview	14	294						
	285	$	$		12	preview	14	295						
	286	2,539.832	2,539.832		12	preview	14	296						
	287	.	.		12	preview	14	297						
	288	This	This		12	preview	14	298						
	289	call	call		12	preview	14	299						
	290	option	option		12	preview	14	300						
	291	allowed	allowed		12	preview	14	301						
137	292	the	the	for	12	preview	14	302	275	275	275	275	275	0
138	293	trader	trader	the	12	preview	14	303	0	0	0	0	0	0
	294	the	the		12	preview	14	304						
139	295	right	right	day,	12	preview	14	305	156	156	156	156	156	0
	296	to	to		12	preview	14	306						
	297	purchase	purchase		12	preview	14	307						
	298	more	more		12	preview	14	308						
	299	shares	shares		12	preview	14	309						
	300	in	in		12	preview	14	310						
140	301	the	the	Altera	12	preview	14	311	581	0	0	0	0	581
	302	company	company		12	preview	14	312						
	303	,	,		12	preview	14	313						
	304	in	in		12	preview	14	314						
	305	this	this		12	preview	14	315						
	306	case	case		12	preview	14	316						
	307	315,800	315,800		12	preview	14	317						
	308	shares	shares		12	preview	14	318						
	309	,	,		12	preview	14	319						
	310	at	at		12	preview	14	320						
	311	the	the		12	preview	14	321						
	312	cost	cost		12	preview	14	322						
	313	of	of		12	preview	14	323						
	314	$	$		12	preview	14	324						
	315	36	36		12	preview	14	325						
	316	,	,		12	preview	14	326						
	317	even	even		12	preview	14	327						
	318	though	though		12	preview	14	328						
	319	the	the		12	preview	14	329						
	320	value	value		12	preview	14	330						
	321	of	of		12	preview	14	331						
	322	shares	shares		12	preview	14	332						
	323	quickly	quickly		12	preview	14	333						
	324	began	began		12	preview	14	334						
	325	to	to		12	preview	14	335						
	326	rise	rise		12	preview	14	336						
	327	.	.		12	preview	14	337						
	328	Just	Just		12	preview	14	338						
	329	28	28		12	preview	14	339						
	330	minutes	minutes		12	preview	14	340						
	331	later	later		12	preview	14	341						
141	332	,	,	was	12	preview	14	342	450	450	450	148	450	0
142	333	when	when	valued	12	preview	14	343	0	0	0	0	0	0
	334	the	the		12	preview	14	344						
	335	market	market		12	preview	14	345						
	336	closed	closed		12	preview	14	346						
	337	for	for		12	preview	14	347						
	338	the	the		12	preview	14	348						
	339	day	day		12	preview	14	349						
	340	,	,		12	preview	14	350						
	341	@entity16	Altera		12	preview	14	351						
	342	was	was		12	preview	14	352						
	343	valued	valued		12	preview	14	353						
143	344	at	at	at	12	preview	14	354	182	182	182	182	182	0
144	345	$	$	$44.39	12	preview	14	355	210	210	210	210	210	0
	346	44.39	44.39		12	preview	14	356						
145	347	per	per	per	12	preview	14	357	396	396	396	159	396	0
146	348	share	share	share.	12	preview	14	358	0	0	0	0	0	0
	349	.	.		12	preview	14	359						
147	350	That	That	That	12	preview	14	360	257	257	257	257	257	0
148	351	was	was	was	12	preview	14	361	236	236	236	236	236	0
149	352	an	an	an	12	preview	14	362	0	0	0	0	0	0
150	353	increase	increase	increase	12	preview	14	363	341	341	341	109	341	0
151	354	of	of	of	12	preview	14	364	0	0	0	0	0	0
152	355	28	28	28%,	12	preview	14	365	480	266	266	266	266	214
	356	%	%		12	preview	14	366						
	357	,	,		12	preview	14	367						
153	358	but	but	but	12	preview	14	368	290	290	504	290	290	0
154	359	because	because	because	12	preview	14	369	469	469	469	135	469	0
155	360	of	of	of	12	preview	14	370	0	0	0	0	0	0
156	361	the	the	the	12	preview	14	371	0	0	0	0	0	0
157	362	call	call	call	12	preview	14	372	375	375	375	175	375	0
158	363	option	option	option,	12	preview	14	373	99	99	99	99	99	0
	364	,	,		12	preview	14	374						
159	365	the	the	the	12	preview	14	375	0	0	0	0	0	0
160	366	trader	trader	trader	12	preview	14	376	316	316	316	316	316	0
161	367	was	was	was	12	preview	14	377	366	366	366	366	366	0
162	368	able	able	able	12	preview	14	378	234	234	234	234	234	0
163	369	to	to	to	12	preview	14	379	0	0	0	0	0	0
164	370	sell	sell	sell	12	preview	14	380	287	287	287	287	287	0
165	371	their	their	their	12	preview	14	381	267	267	267	267	267	0
166	372	stocks	stocks	stocks	12	preview	14	382	133	133	133	133	133	0
167	373	at	at	at	12	preview	14	383	0	0	0	0	0	0
168	374	a	a	a	12	preview	14	384	323	0	0	0	0	323
169	375	far	far	far	12	preview	14	385	160	160	483	160	160	0
170	376	greater	greater	greater	12	preview	14	386	537	537	537	276	537	0
171	377	profit	profit	profit.	12	preview	14	387	379	379	960	250	379	0
	378	.	.		12	preview	14	388						
172	379	So	So	So	12	preview	14	389	0	0	0	0	0	0
173	380	instead	instead	instead	12	preview	14	390	294	0	0	0	0	294
174	381	of	of	of	12	preview	14	391	0	0	0	0	0	0
175	382	making	making	making	12	preview	14	392	290	0	0	0	0	290
176	383	a	a	a	12	preview	14	393	213	0	0	0	0	213
177	384	28	28	28%	12	preview	14	394	336	0	0	0	0	336
	385	%	%		12	preview	14	395						
178	386	profit	profit	profit,	12	preview	14	396	0	0	0	0	0	0
	387	,	,		12	preview	14	397						
179	388	the	the	the	12	preview	14	398	133	0	0	0	0	133
180	389	trader	trader	trader	12	preview	14	399	118	0	0	0	0	118
181	390	made	made	made	12	preview	14	400	188	0	0	0	0	188
182	391	a	a	a	12	preview	14	401	0	0	0	0	0	0
183	392	2,220	2,220	2,220%	12	preview	14	402	453	0	0	0	0	453
	393	%	%		12	preview	14	403						
184	394	profit	profit	profit	12	preview	14	404	253	0	0	0	0	253
185	395	of	of	of	12	preview	14	405	172	0	0	0	0	172
186	396	roughly	roughly	roughly	12	preview	14	406	286	0	0	0	0	286
187	397	$	$	$2.5million	12	preview	14	407	394	0	0	0	0	394
	398	2.5million	2.5million		12	preview	14	408						
188	399	when	when	when	12	preview	14	409	108	0	0	0	0	108
189	400	they	they	they	12	preview	14	410	400	106	3638	106	400	294
190	401	sold	sold	sold	12	preview	14	411	184	184	184	184	184	0
191	402	their	their	their	12	preview	14	412	237	237	237	237	237	0
192	403	shares	shares	shares.	12	preview	14	413	144	144	144	144	144	0
	404	.	.		12	preview	14	414						
193	405	Even	Even	Even	12	preview	14	415	0	0	0	0	0	0
194	406	more	more	more	12	preview	14	416	227	227	227	96	227	0
195	407	impressive	impressive	impressive	12	preview	14	417	495	495	495	241	495	0
196	408	is	is	is	12	preview	14	418	290	290	290	290	290	0
197	409	that	that	that	12	preview	14	419	225	225	225	225	225	0
198	410	the	the	the	12	preview	14	420	132	132	132	132	132	0
199	411	trader	trader	trader	12	preview	14	421	143	143	143	143	143	0
200	412	managed	managed	managed	12	preview	14	422	251	251	251	132	251	0
201	413	to	to	to	12	preview	14	423	0	0	0	0	0	0
202	414	make	make	make	12	preview	14	424	275	275	275	275	275	0
203	415	the	the	the	12	preview	14	425	0	0	0	0	0	0
204	416	purchase	purchase	purchase	12	preview	14	426	159	159	159	159	159	0
205	417	just	just	just	12	preview	14	427	274	274	274	274	274	0
206	418	minutes	minutes	minutes	12	preview	14	428	250	250	250	250	250	0
207	419	before	before	before	12	preview	14	429	435	253	253	253	253	182
208	420	@entity46	Nasdaq	Nasdaq	12	preview	14	430	374	374	556	374	374	0
209	421	suspended	suspended	suspended	12	preview	14	431	490	490	490	351	490	0
210	422	trading	trading	trading	12	preview	14	432	501	501	501	303	501	0
211	423	of	of	of	12	preview	14	433	429	207	207	207	207	222
212	424	@entity16	Altera	Altera	12	preview	14	434	266	126	488	126	266	140
213	425	because	because	because	12	preview	14	435	206	206	206	206	206	0
214	426	of	of	of	12	preview	14	436	161	161	161	161	161	0
215	427	the	the	the	12	preview	14	437	0	0	0	0	0	0
216	428	tweet	tweet	tweet	12	preview	14	438	510	510	510	205	510	0
217	429	from	from	from	12	preview	14	439	97	0	0	0	0	97
218	430	@entity9	Mattioli	Mattioli.	12	preview	14	440	432	203	529	203	432	229
	431	.	.		12	preview	14	441						
219	432	What	What	What-s	12	preview	14	442	256	256	256	256	256	0
	433	-s	-s		12	preview	14	443						
220	434	more	more	more,	12	preview	14	444	150	150	150	150	150	0
	435	,	,		12	preview	14	445						
221	436	call	call	call	12	preview	14	446	150	150	150	150	150	0
222	437	options	options	options	12	preview	14	447	229	229	229	229	229	0
223	438	for	for	for	12	preview	14	448	185	185	185	185	185	0
224	439	@entity16	Altera	Altera	12	preview	14	449	0	0	0	0	0	0
225	440	had	had	had	12	preview	14	450	626	188	188	188	188	438
226	441	at	at	at	12	preview	14	451	465	0	0	0	0	465
227	442	that	that	that	12	preview	14	452	270	133	1173	133	270	137
228	443	point	point	point	12	preview	14	453	253	0	0	0	0	253
229	444	reached	reached	reached	12	preview	14	454	581	128	478	128	225	453
230	445	a	a	a	12	preview	14	455	155	0	0	0	0	155
231	446	price	price	price	12	preview	14	456	298	104	809	104	298	194
232	447	of	of	of	12	preview	14	457	158	158	158	158	158	0
233	448	$	$	$8.10	12	preview	14	458	105	105	105	105	105	0
	449	8.10	8.10		12	preview	14	459						
234	450	by	by	by	12	preview	14	460	0	0	0	0	0	0
235	451	the	the	the	12	preview	14	461	471	471	471	206	471	0
236	452	end	end	end	12	preview	14	462	0	0	0	0	0	0
237	453	of	of	of	12	preview	14	463	167	167	167	167	167	0
238	454	the	the	the	12	preview	14	464	0	0	0	0	0	0
239	455	day	day	day.	12	preview	14	465	159	159	159	159	159	0
	456	.	.		12	preview	14	466						
240	457	There	There	There	12	preview	14	467	0	0	0	0	0	0
241	458	is	is	is	12	preview	14	468	300	300	300	300	300	0
242	459	also	also	also	12	preview	14	469	175	175	175	175	175	0
243	460	a	a	a	12	preview	14	470	0	0	0	0	0	0
244	461	chance	chance	chance,	12	preview	14	471	386	386	386	244	386	0
	462	,	,		12	preview	14	472						
245	463	reports	reports	reports	12	preview	14	473	179	179	179	179	179	0
246	464	@entity90	Matt	Matt	12	preview	14	474	267	0	0	0	0	267
247			Khouw	Khouw,	12	preview	14	475	297	141	564	141	297	156
	465	,	,		12	preview	14	476						
248	466	that	that	that	12	preview	14	477	231	0	0	0	0	231
249	467	the	the	the	12	preview	14	478	142	142	373	142	142	0
250	468	trader	trader	trader	12	preview	14	479	158	158	158	158	158	0
251	469	could	could	could	12	preview	14	480	242	134	134	134	134	108
252	470	have	have	have	12	preview	14	481	293	98	401	98	293	195
253	471	been	been	been	12	preview	14	482	96	0	0	0	0	96
254	472	aware	aware	aware	12	preview	14	483	290	290	386	167	290	0
255	473	of	of	of	12	preview	14	484	253	253	253	253	253	0
256	474	@entity12	Intel	Intel-s	12	preview	14	485	277	277	277	277	277	0
	475	-s	-s		12	preview	14	486						
257	476	plan	plan	plan	12	preview	14	487	250	250	250	250	250	0
258	477	to	to	to	12	preview	14	488	226	226	226	226	226	0
259	478	buy	buy	buy	12	preview	14	489	0	0	0	0	0	0
260	479	@entity16	Altera	Altera	12	preview	14	490	698	698	698	326	698	0
261	480	early	early	early,	12	preview	14	491	162	162	162	162	162	0
	481	,	,		12	preview	14	492						
262	482	or	or	or	12	preview	14	493	0	0	0	0	0	0
263	483	that	that	that	12	preview	14	494	336	336	336	336	336	0
264	484	they	they	they	12	preview	14	495	181	181	181	181	181	0
265	485	used	used	used	12	preview	14	496	485	485	485	167	485	0
266	486	a	a	a	12	preview	14	497	0	0	0	0	0	0
267	487	bot	bot	bot	12	preview	14	498	352	352	352	258	352	0
268	488	to	to	to	12	preview	14	499	0	0	0	0	0	0
269	489	quickly	quickly	quickly	12	preview	14	500	147	147	147	147	147	0
270	490	buy	buy	buy	12	preview	14	501	0	0	0	0	0	0
271	491	the	the	the	12	preview	14	502	198	198	198	198	198	0
272	492	shares	shares	shares.	12	preview	14	503	153	153	153	153	153	0
	493	.	.		12	preview	14	504						
273	494	-	-	-A	12	preview	14	505	0	0	0	0	0	0
	495	A	A		12	preview	14	506						
274	496	bot	bot	bot	12	preview	14	507	255	255	255	255	255	0
275	497	is	is	is	12	preview	14	508	0	0	0	0	0	0
276	498	not	not	not	12	preview	14	509	383	198	198	198	198	185
277	499	as	as	as	12	preview	14	510	101	101	101	101	101	0
278	500	outlandish	outlandish	outlandish	12	preview	14	511	660	290	845	189	660	370
279	501	as	as	as	12	preview	14	512	101	0	0	0	0	101
280	502	it	it	it	12	preview	14	513	0	0	0	0	0	0
281	503	sounds	sounds	sounds,-	12	preview	14	514	312	176	413	176	312	136
	504	,	,		12	preview	14	515						
282	505	-	-	Khouw	12	preview	14	516	576	576	576	576	576	0
	506	@entity90	Khouw		12	preview	14	517						
283	507	said	said	said.	12	preview	14	518	176	176	176	176	176	0
	508	.	.		12	preview	14	519						
284	509	-	-	-Traders	12	preview	14	520	251	251	251	251	251	0
	510	Traders	Traders		12	preview	14	521						
285	511	need	need	need	12	preview	14	522	289	289	289	289	289	0
286	512	to	to	to	12	preview	14	523	115	115	115	115	115	0
287	513	aggregate	aggregate	aggregate	12	preview	14	524	292	292	292	124	292	0
288	514	and	and	and	12	preview	14	525	130	0	0	0	0	130
289	515	filter	filter	filter	12	preview	14	526	411	411	541	285	411	0
290	516	through	through	through	12	preview	14	527	604	604	604	604	604	0
291	517	tremendous	tremendous	tremendous	12	preview	14	528	390	390	390	202	390	0
292	518	amounts	amounts	amounts	12	preview	14	529	273	273	273	153	273	0
293	519	of	of	of	12	preview	14	530	0	0	0	0	0	0
294	520	data	data	data	12	preview	14	531	398	398	398	137	398	0
295	521	quickly	quickly	quickly	12	preview	14	532	320	320	320	320	320	0
296	522	and	and	and	12	preview	14	533	204	204	204	204	204	0
297	523	will	will	will	12	preview	14	534	211	211	211	211	211	0
298	524	rely	rely	rely	12	preview	14	535	262	262	262	90	262	0
299	525	on	on	on	12	preview	14	536	353	353	353	353	353	0
300	526	technology	technology	technology	12	preview	14	537	481	481	481	211	481	0
301	527	to	to	to	12	preview	14	538	142	0	0	0	0	142
302	528	help	help	help	12	preview	14	539	408	408	408	408	408	0
303	529	if	if	if	12	preview	14	540	323	178	465	178	323	145
304	530	it	it	it	12	preview	14	541	546	546	546	546	546	0
305	531	is	is	is	12	preview	14	542	419	419	419	419	419	0
306	532	available	available	available.-	12	preview	14	543	375	375	375	213	375	0
	533	.	.		12	preview	14	544						
307	534	-	-	As	12	preview	14	545	0	0	0	0	0	0
308	535	As	As	for	12	preview	14	546	195	195	195	195	195	0
309	536	for	for	Intel-s	12	preview	14	547	609	0	0	0	0	609
	537	@entity12	Intel		12	preview	14	548						
	538	-s	-s		12	preview	14	549						
310	539	reported	reported	reported	12	preview	14	550	1779	258	1619	258	1010	1521
311	540	purchase	purchase	purchase	12	preview	14	551	323	114	1092	114	323	209
312	541	of	of	of	12	preview	14	552	235	235	235	235	235	0
313	542	@entity16	Altera	Altera,	12	preview	14	553	191	191	191	191	191	0
	543	,	,		12	preview	14	554						
314	544	that	that	that	12	preview	14	555	451	451	451	334	451	0
315	545	still	still	still	12	preview	14	556	0	0	0	0	0	0
316	546	has	has	has	12	preview	14	557	697	176	176	176	176	521
317	547	yet	yet	yet	12	preview	14	558	335	157	856	157	335	178
318	548	to	to	to	12	preview	14	559	84	84	84	84	84	0
319	549	happen	happen	happen.	12	preview	14	560	0	0	0	0	0	0
	550	.	.		12	preview	14	561						
320	551	Meanwhile	Meanwhile	Meanwhile,	12	preview	14	562	385	385	385	385	385	0
	552	,	,		12	preview	14	563						
321	553	@entity12	Intel	Intel	12	preview	14	564	1060	0	0	0	0	1060
322	554	share	share	share	12	preview	14	565	1152	138	686	138	434	1014
323	555	prices	prices	prices	12	preview	14	566	1448	230	230	230	230	1218
324	556	fell	fell	fell	12	preview	14	567	230	230	230	230	230	0
325	557	earlier	earlier	earlier	12	preview	14	568	314	314	314	314	314	0
326	558	this	this	this	12	preview	14	569	400	400	400	400	400	0
327	559	week	week	week	12	preview	14	570	0	0	0	0	0	0
328	560	in	in	in	12	preview	14	571	158	158	158	158	158	0
329	561	response	response	response	12	preview	14	572	164	164	164	164	164	0
330	562	to	to	to	12	preview	14	573	0	0	0	0	0	0
331	563	the	the	the	12	preview	14	574	278	278	278	278	278	0
332	564	news	news	news	12	preview	14	575	278	278	278	278	278	0
333	565	that	that	that	12	preview	14	576	0	0	0	0	0	0
334	566	they	they	they	12	preview	14	577	282	282	3026	282	282	0
335	567	might	might	might	12	preview	14	578	0	0	0	0	0	0
336	568	purchase	purchase	purchase	12	preview	14	579	0	0	0	0	0	0
337	569	@entity16	Altera	Altera.	12	preview	14	580	0	0	0	0	0	0
	570	.	.		12	preview	14	581						
