HumanPosition	AnonymizedPosition	AnonymizedToken	OriginalToken	ExperimentToken	Participant	Condition	TextNo	JointPosition	tt	fp	rp	ff	rb	sp
1	0	(	(	Two	3	nopreview	1	1	392	392	392	392	392	0
2	1	@entity1	CNN	passengers	3	nopreview	1	2	0	0	0	0	0	0
	2	)	)		3	nopreview	1	3						
	3	Two	Two		3	nopreview	1	4						
	4	passengers	passengers		3	nopreview	1	5						
3	5	found	found	found	3	nopreview	1	6	323	323	323	323	323	0
4	6	dead	dead	dead	3	nopreview	1	7	157	157	157	157	157	0
5	7	on	on	on	3	nopreview	1	8	182	182	182	182	182	0
6	8	a	a	a	3	nopreview	1	9	0	0	0	0	0	0
7	9	cruise	cruise	cruise	3	nopreview	1	10	277	277	277	277	277	0
8	10	ship	ship	ship	3	nopreview	1	11	237	237	237	237	237	0
9	11	in	in	in	3	nopreview	1	12	0	0	0	0	0	0
10	12	@entity4	Puerto	Puerto	3	nopreview	1	13	414	414	414	235	414	0
11			Rico	Rico	3	nopreview	1	14	0	0	0	0	0	0
12	13	appear	appear	appear	3	nopreview	1	15	241	241	241	241	241	0
13	14	to	to	to	3	nopreview	1	16	253	253	253	253	253	0
14	15	have	have	have	3	nopreview	1	17	250	250	250	250	250	0
15	16	died	died	died	3	nopreview	1	18	137	137	137	137	137	0
16	17	in	in	in	3	nopreview	1	19	0	0	0	0	0	0
17	18	a	a	a	3	nopreview	1	20	0	0	0	0	0	0
18	19	murder	murder	murder-suicide,	3	nopreview	1	21	734	734	734	148	734	0
	20	-	-		3	nopreview	1	22						
	21	suicide	suicide		3	nopreview	1	23						
	22	,	,		3	nopreview	1	24						
19	23	the	the	the	3	nopreview	1	25	0	0	0	0	0	0
20	24	cruise	cruise	cruise	3	nopreview	1	26	589	497	497	311	497	92
21	25	line	line	line	3	nopreview	1	27	657	338	338	338	338	319
22	26	said	said	said.	3	nopreview	1	28	393	154	154	154	154	239
	27	.	.		3	nopreview	1	29						
23	28	@entity6	Holland	Holland	3	nopreview	1	30	820	410	410	410	410	410
24			America	America	3	nopreview	1	31	663	413	529	413	413	250
25			Line	Line	3	nopreview	1	32	571	420	420	247	420	151
26	29	said	said	said	3	nopreview	1	33	228	228	228	228	228	0
27	30	two	two	two	3	nopreview	1	34	0	0	0	0	0	0
28	31	guests	guests	guests	3	nopreview	1	35	528	528	528	334	528	0
29	32	were	were	were	3	nopreview	1	36	637	272	272	272	272	365
30	33	found	found	found	3	nopreview	1	37	125	125	125	125	125	0
31	34	dead	dead	dead	3	nopreview	1	38	542	0	0	0	0	542
32	35	inside	inside	inside	3	nopreview	1	39	440	141	2692	141	440	299
33	36	their	their	their	3	nopreview	1	40	0	0	0	0	0	0
34	37	stateroom	stateroom	stateroom	3	nopreview	1	41	1123	263	263	263	263	860
35	38	on	on	on	3	nopreview	1	42	243	243	1103	243	243	0
36	39	the	the	the	3	nopreview	1	43	675	192	192	192	192	483
37	40	@entity9	ms	ms	3	nopreview	1	44	833	0	0	0	0	833
38			Ryndam	Ryndam	3	nopreview	1	45	2969	232	2534	232	1443	2737
39	41	at	at	at	3	nopreview	1	46	326	0	0	0	0	326
40	42	11:30	11:30	11:30	3	nopreview	1	47	486	267	812	267	486	219
41	43	a.m.	a.m.	a.m.	3	nopreview	1	48	493	493	2244	228	493	0
42	44	Thursday	Thursday	Thursday.	3	nopreview	1	49	0	0	0	0	0	0
	45	.	.		3	nopreview	1	50						
43	46	-	-	-The	3	nopreview	1	51	218	218	218	218	218	0
	47	The	The		3	nopreview	1	52						
44	48	cabin	cabin	cabin	3	nopreview	1	53	336	336	336	228	336	0
45	49	was	was	was	3	nopreview	1	54	0	0	0	0	0	0
46	50	immediately	immediately	immediately	3	nopreview	1	55	368	368	368	81	368	0
47	51	secured	secured	secured,	3	nopreview	1	56	304	304	304	304	304	0
	52	,	,		3	nopreview	1	57						
48	53	and	and	and	3	nopreview	1	58	0	0	0	0	0	0
49	54	the	the	the	3	nopreview	1	59	220	220	220	220	220	0
50	55	authorities	authorities	authorities	3	nopreview	1	60	243	243	243	243	243	0
51	56	were	were	were	3	nopreview	1	61	0	0	0	0	0	0
52	57	notified	notified	notified,	3	nopreview	1	62	407	407	407	281	407	0
	58	,	,		3	nopreview	1	63						
53	59	including	including	including	3	nopreview	1	64	1096	1096	1096	781	1096	0
54	60	the	the	the	3	nopreview	1	65	0	0	0	0	0	0
55	61	@entity12	FBI	FBI,-	3	nopreview	1	66	174	174	174	174	174	0
	62	,	,		3	nopreview	1	67						
	63	-	-		3	nopreview	1	68						
56	64	@entity6	Holland	Holland	3	nopreview	1	69	201	201	201	201	201	0
57			America	America	3	nopreview	1	70	1333	456	456	145	456	877
58	65	said	said	said.	3	nopreview	1	71	801	172	1099	172	382	629
	66	.	.		3	nopreview	1	72						
59	67	-	-	-We	3	nopreview	1	73	307	0	0	0	0	307
	68	We	We		3	nopreview	1	74						
60	69	are	are	are	3	nopreview	1	75	0	0	0	0	0	0
61	70	cooperating	cooperating	cooperating	3	nopreview	1	76	642	0	0	0	0	642
62	71	fully	fully	fully	3	nopreview	1	77	730	0	0	0	0	730
63	72	with	with	with	3	nopreview	1	78	0	0	0	0	0	0
64	73	the	the	the	3	nopreview	1	79	157	0	0	0	0	157
65	74	investigation	investigation	investigation,	3	nopreview	1	80	255	0	0	0	0	255
	75	,	,		3	nopreview	1	81						
66	76	and	and	and	3	nopreview	1	82	154	0	0	0	0	154
67	77	the	the	the	3	nopreview	1	83	0	0	0	0	0	0
68	78	authorities	authorities	authorities	3	nopreview	1	84	1266	120	4090	120	1266	1146
69	79	will	will	will	3	nopreview	1	85	339	197	197	197	197	142
70	80	make	make	make	3	nopreview	1	86	292	292	292	292	292	0
71	81	the	the	the	3	nopreview	1	87	0	0	0	0	0	0
72	82	official	official	official	3	nopreview	1	88	358	212	212	212	212	146
73	83	determination	determination	determination	3	nopreview	1	89	535	384	681	265	535	151
74	84	on	on	on	3	nopreview	1	90	0	0	0	0	0	0
75	85	what	what	what	3	nopreview	1	91	777	243	243	243	243	534
76	86	occurred	occurred	occurred.-	3	nopreview	1	92	322	148	856	148	322	174
	87	.	.		3	nopreview	1	93						
77	88	-	-	FBI	3	nopreview	1	94	0	0	0	0	0	0
78	89	@entity12	FBI	spokesman	3	nopreview	1	95	781	781	781	293	781	0
	90	spokesman	spokesman		3	nopreview	1	96						
79	91	@entity17	Moises	Moises	3	nopreview	1	97	966	282	282	282	282	684
80			Quiñones	Quinones	3	nopreview	1	98	1150	840	1976	168	1150	310
81	92	said	said	said	3	nopreview	1	99	0	0	0	0	0	0
82	93	authorities	authorities	authorities	3	nopreview	1	100	229	229	229	229	229	0
83	94	were	were	were	3	nopreview	1	101	241	241	241	241	241	0
84	95	on	on	on	3	nopreview	1	102	0	0	0	0	0	0
85	96	scene	scene	scene	3	nopreview	1	103	262	262	262	262	262	0
86	97	investigating	investigating	investigating.	3	nopreview	1	104	277	277	277	277	277	0
	98	.	.		3	nopreview	1	105						
87	99	The	The	The	3	nopreview	1	106	0	0	0	0	0	0
88	100	ship	ship	ship	3	nopreview	1	107	374	257	257	257	257	117
89	101	left	left	left	3	nopreview	1	108	1154	892	892	136	892	262
90	102	@entity21	Tampa	Tampa,	3	nopreview	1	109	584	298	963	298	584	286
	103	,	,		3	nopreview	1	110						
91	104	@entity22	Florida	Florida,	3	nopreview	1	111	443	443	443	255	443	0
	105	,	,		3	nopreview	1	112						
92	106	on	on	on	3	nopreview	1	113	278	278	278	278	278	0
93	107	March	March	March	3	nopreview	1	114	125	125	125	125	125	0
94	108	29	29	29	3	nopreview	1	115	0	0	0	0	0	0
95	109	on	on	on	3	nopreview	1	116	445	445	445	146	445	0
96	110	a	a	a	3	nopreview	1	117	0	0	0	0	0	0
97	111	14	14	14-day	3	nopreview	1	118	625	625	625	469	625	0
	112	-	-		3	nopreview	1	119						
	113	day	day		3	nopreview	1	120						
98	114	@entity24	Southern	Southern	3	nopreview	1	121	265	265	265	265	265	0
99			Caribbean	Caribbean	3	nopreview	1	122	426	426	426	426	426	0
100	115	cruise	cruise	cruise.	3	nopreview	1	123	0	0	0	0	0	0
	116	.	.		3	nopreview	1	124						
101	117	It	It	It-s	3	nopreview	1	125	215	215	215	215	215	0
	118	-s	-s		3	nopreview	1	126						
102	119	currently	currently	currently	3	nopreview	1	127	174	174	174	174	174	0
103	120	in	in	in	3	nopreview	1	128	157	157	157	157	157	0
104	121	@entity26	San	San	3	nopreview	1	129	0	0	0	0	0	0
105			Juan	Juan,	3	nopreview	1	130	1642	641	641	114	641	1001
	122	,	,		3	nopreview	1	131						
106	123	@entity4	Puerto	Puerto	3	nopreview	1	132	550	149	692	149	149	401
107			Rico	Rico.	3	nopreview	1	133	744	383	841	383	383	361
	124	.	.		3	nopreview	1	134						
108	125	@entity28	Puerto	Puerto	3	nopreview	1	135	980	442	442	201	442	538
109			Rico	Rico	3	nopreview	1	136	628	403	1928	403	628	225
110			Port	Port	3	nopreview	1	137	351	351	351	351	351	0
111			Authority	Authority	3	nopreview	1	138	390	390	390	390	390	0
112	126	spokesman	spokesman	spokesman	3	nopreview	1	139	370	370	370	277	370	0
113	127	@entity27	Efraín	Efrain	3	nopreview	1	140	795	795	795	117	795	0
114			Santiago	Santiago	3	nopreview	1	141	577	577	577	185	577	0
115	128	told	told	told	3	nopreview	1	142	254	254	254	254	254	0
116	129	@entity30	El	El	3	nopreview	1	143	307	307	307	307	307	0
117			Nuevo	Nuevo	3	nopreview	1	144	631	269	269	269	269	362
118			Dia	Dia	3	nopreview	1	145	124	124	486	124	124	0
119	130	newspaper	newspaper	newspaper	3	nopreview	1	146	785	785	785	358	785	0
120	131	that	that	that	3	nopreview	1	147	0	0	0	0	0	0
121	132	the	the	the	3	nopreview	1	148	576	576	576	576	576	0
122	133	cleaning	cleaning	cleaning	3	nopreview	1	149	310	310	310	310	310	0
123	134	staff	staff	staff	3	nopreview	1	150	359	220	220	220	220	139
124	135	on	on	on	3	nopreview	1	151	0	0	0	0	0	0
125	136	the	the	the	3	nopreview	1	152	257	257	257	257	257	0
126	137	ship	ship	ship	3	nopreview	1	153	192	192	192	192	192	0
127	138	had	had	had	3	nopreview	1	154	0	0	0	0	0	0
128	139	discovered	discovered	discovered	3	nopreview	1	155	332	332	332	180	332	0
129	140	the	the	the	3	nopreview	1	156	0	0	0	0	0	0
130	141	deceased	deceased	deceased	3	nopreview	1	157	216	216	216	216	216	0
131	142	passengers	passengers	passengers	3	nopreview	1	158	392	392	392	260	392	0
132	143	after	after	after	3	nopreview	1	159	522	522	522	237	522	0
133	144	knocking	knocking	knocking	3	nopreview	1	160	398	398	398	228	398	0
134	145	on	on	on	3	nopreview	1	161	0	0	0	0	0	0
135	146	the	the	the	3	nopreview	1	162	0	0	0	0	0	0
136	147	cabin	cabin	cabin-s	3	nopreview	1	163	258	258	397	258	258	0
	148	-s	-s		3	nopreview	1	164						
137	149	door	door	door.	3	nopreview	1	165	0	0	0	0	0	0
	150	.	.		3	nopreview	1	166						
