HumanPosition	AnonymizedPosition	AnonymizedToken	OriginalToken	ExperimentToken	Participant	Condition	TextNo	JointPosition	tt	fp	rp	ff	rb	sp
0	0	@entity0	Raheem	Raheem	3	nopreview	10	1	1166	0	0	0	0	1166
2			Sterling	Sterling	3	nopreview	10	2	1980	0	0	0	0	1980
3	1	has	has	has	3	nopreview	10	3	147	0	0	0	0	147
4	2	admitted	admitted	admitted	3	nopreview	10	4	686	0	0	0	0	686
5	3	he	he	he	3	nopreview	10	5	175	0	0	0	0	175
6	4	is	is	is	3	nopreview	10	6	324	0	0	0	0	324
7	5	not	not	not	3	nopreview	10	7	0	0	0	0	0	0
8	6	ready	ready	ready	3	nopreview	10	8	272	0	0	0	0	272
9	7	to	to	to	3	nopreview	10	9	233	0	0	0	0	233
10	8	sign	sign	sign	3	nopreview	10	10	210	0	0	0	0	210
11	9	a	a	a	3	nopreview	10	11	0	0	0	0	0	0
12	10	new	new	new	3	nopreview	10	12	139	0	0	0	0	139
13	11	contract	contract	contract	3	nopreview	10	13	0	0	0	0	0	0
14	12	at	at	at	3	nopreview	10	14	141	0	0	0	0	141
15	13	@entity3	Liverpool	Liverpool	3	nopreview	10	15	0	0	0	0	0	0
16	14	deal	deal	deal	3	nopreview	10	16	352	0	0	0	0	352
17	15	despite	despite	despite	3	nopreview	10	17	105	0	0	0	0	105
18	16	being	being	being	3	nopreview	10	18	215	0	0	0	0	215
19	17	offered	offered	offered	3	nopreview	10	19	234	0	0	0	0	234
20	18	a	a	a	3	nopreview	10	20	120	0	0	0	0	120
21	19	£	£	£100,000-a-week	3	nopreview	10	21	433	0	0	0	0	433
	20	100,000	100,000		3	nopreview	10	22						
	21	-	-		3	nopreview	10	23						
	22	a	a		3	nopreview	10	24						
	23	-	-		3	nopreview	10	25						
	24	week	week		3	nopreview	10	26						
22	25	deal	deal	deal	3	nopreview	10	27	0	0	0	0	0	0
23	26	to	to	to	3	nopreview	10	28	201	0	0	0	0	201
24	27	stay	stay	stay	3	nopreview	10	29	251	0	0	0	0	251
25	28	with	with	with	3	nopreview	10	30	0	0	0	0	0	0
26	29	the	the	the	3	nopreview	10	31	153	0	0	0	0	153
27	30	@entity6	Merseyside	Merseyside	3	nopreview	10	32	246	0	0	0	0	246
28	31	club	club	club.	3	nopreview	10	33	0	0	0	0	0	0
	32	.	.		3	nopreview	10	34						
29	33	The	The	The	3	nopreview	10	35	0	0	0	0	0	0
30	34	20	20	20-year-old	3	nopreview	10	36	352	0	0	0	0	352
	35	-	-		3	nopreview	10	37						
	36	year	year		3	nopreview	10	38						
	37	-	-		3	nopreview	10	39						
	38	old	old		3	nopreview	10	40						
31	39	wideman	wideman	wideman	3	nopreview	10	41	606	91	5468	91	606	515
32	40	edged	edged	edged	3	nopreview	10	42	508	508	508	226	508	0
33	41	closer	closer	closer	3	nopreview	10	43	169	169	169	169	169	0
34	42	towards	towards	towards	3	nopreview	10	44	233	233	233	128	233	0
35	43	an	an	an	3	nopreview	10	45	0	0	0	0	0	0
36	44	@entity9	Anfield	Anfield	3	nopreview	10	46	386	386	386	386	386	0
37	45	exit	exit	exit	3	nopreview	10	47	256	256	256	256	256	0
38	46	after	after	after	3	nopreview	10	48	245	245	245	245	245	0
39	47	revealing	revealing	revealing	3	nopreview	10	49	535	535	535	368	535	0
40	48	in	in	in	3	nopreview	10	50	0	0	0	0	0	0
41	49	an	an	an	3	nopreview	10	51	0	0	0	0	0	0
42	50	interview	interview	interview	3	nopreview	10	52	332	332	332	117	332	0
43	51	with	with	with	3	nopreview	10	53	0	0	0	0	0	0
44	52	the	the	the	3	nopreview	10	54	187	187	187	187	187	0
45	53	@entity11	BBC	BBC	3	nopreview	10	55	0	0	0	0	0	0
46	54	on	on	on	3	nopreview	10	56	0	0	0	0	0	0
47	55	Wednesday	Wednesday	Wednesday	3	nopreview	10	57	518	340	340	169	340	178
48	56	that	that	that	3	nopreview	10	58	765	0	0	0	0	765
49	57	he	he	he	3	nopreview	10	59	185	185	185	185	185	0
50	58	would	would	would	3	nopreview	10	60	358	226	226	226	226	132
51	59	have	have	have	3	nopreview	10	61	520	266	266	266	266	254
52	60	signed	signed	signed	3	nopreview	10	62	489	178	178	178	178	311
53	61	for	for	for	3	nopreview	10	63	286	0	0	0	0	286
54	62	a	a	a	3	nopreview	10	64	0	0	0	0	0	0
55	63	lot	lot	lot	3	nopreview	10	65	468	185	185	185	185	283
56	64	less	less	less	3	nopreview	10	66	682	491	491	491	491	191
57	65	a	a	a	3	nopreview	10	67	176	176	176	176	176	0
58	66	year	year	year	3	nopreview	10	68	120	0	0	0	0	120
59	67	ago	ago	ago.	3	nopreview	10	69	258	0	0	0	0	258
	68	.	.		3	nopreview	10	70						
60	69	However	However	However,	3	nopreview	10	71	1232	150	4010	150	1232	1082
	70	,	,		3	nopreview	10	72						
61	71	despite	despite	despite	3	nopreview	10	73	285	285	285	285	285	0
62	72	being	being	being	3	nopreview	10	74	226	226	226	226	226	0
63	73	one	one	one	3	nopreview	10	75	0	0	0	0	0	0
64	74	of	of	of	3	nopreview	10	76	167	167	167	167	167	0
65	75	@entity3	Liverpool	Liverpool-s	3	nopreview	10	77	151	151	151	151	151	0
	76	-s	-s		3	nopreview	10	78						
66	77	star	star	star	3	nopreview	10	79	342	342	342	342	342	0
67	78	men	men	men,	3	nopreview	10	80	0	0	0	0	0	0
	79	,	,		3	nopreview	10	81						
68	80	@entity0	Sterling	Sterling	3	nopreview	10	82	216	216	216	216	216	0
69	81	has	has	has	3	nopreview	10	83	0	0	0	0	0	0
70	82	struggled	struggled	struggled	3	nopreview	10	84	357	357	357	189	357	0
71	83	to	to	to	3	nopreview	10	85	0	0	0	0	0	0
72	84	repeat	repeat	repeat	3	nopreview	10	86	202	0	0	0	0	202
73	85	the	the	the	3	nopreview	10	87	151	151	353	151	151	0
74	86	impressive	impressive	impressive	3	nopreview	10	88	1147	226	226	226	226	921
75	87	form	form	form	3	nopreview	10	89	0	0	0	0	0	0
76	88	he	he	he	3	nopreview	10	90	1217	323	922	323	493	894
77	89	showed	showed	showed	3	nopreview	10	91	899	163	163	163	163	736
78	90	for	for	for	3	nopreview	10	92	195	0	0	0	0	195
79	91	the	the	the	3	nopreview	10	93	0	0	0	0	0	0
80	92	@entity18	Reds	Reds	3	nopreview	10	94	405	220	220	220	220	185
81	93	last	last	last	3	nopreview	10	95	516	250	250	250	250	266
82	94	season	season	season.	3	nopreview	10	96	474	283	4504	283	283	191
	95	.	.		3	nopreview	10	97						
83	96	The	The	The	3	nopreview	10	98	0	0	0	0	0	0
84	97	@entity19	England	England	3	nopreview	10	99	246	0	0	0	0	246
85	98	international	international	international	3	nopreview	10	100	293	0	0	0	0	293
86	99	has	has	has	3	nopreview	10	101	430	219	2810	219	430	211
87	100	managed	managed	managed	3	nopreview	10	102	381	381	381	381	381	0
88	101	just	just	just	3	nopreview	10	103	456	456	456	456	456	0
89	102	six	six	six	3	nopreview	10	104	0	0	0	0	0	0
90	103	goals	goals	goals	3	nopreview	10	105	0	0	0	0	0	0
91	104	this	this	this	3	nopreview	10	106	178	178	178	178	178	0
92	105	season	season	season	3	nopreview	10	107	466	225	225	225	225	241
93	106	-	-	-	3	nopreview	10	108	0	0	0	0	0	0
94	107	one	one	one	3	nopreview	10	109	432	202	673	202	432	230
95	108	less	less	less	3	nopreview	10	110	0	0	0	0	0	0
96	109	than	than	than	3	nopreview	10	111	319	319	319	319	319	0
97	110	@entity23	Stoke	Stoke	3	nopreview	10	112	154	154	154	154	154	0
98	111	frontman	frontman	frontman	3	nopreview	10	113	262	262	262	177	262	0
99	112	@entity22	Jon	Jon	3	nopreview	10	114	0	0	0	0	0	0
100			Walters	Walters	3	nopreview	10	115	1326	606	606	159	606	720
101	113	-	-	-	3	nopreview	10	116	0	0	0	0	0	0
102	114	while	while	while	3	nopreview	10	117	306	306	306	306	306	0
103	115	his	his	his	3	nopreview	10	118	0	0	0	0	0	0
104	116	conversion	conversion	conversion	3	nopreview	10	119	1261	1060	1060	374	1060	201
105	117	rate	rate	rate	3	nopreview	10	120	312	312	513	312	312	0
106	118	and	and	and	3	nopreview	10	121	112	112	112	112	112	0
107	119	minutes	minutes	minutes	3	nopreview	10	122	252	252	252	252	252	0
108	120	per	per	per	3	nopreview	10	123	508	508	508	508	508	0
109	121	goal	goal	goal	3	nopreview	10	124	0	0	0	0	0	0
110	122	ratio	ratio	ratio	3	nopreview	10	125	169	169	169	169	169	0
111	123	have	have	have	3	nopreview	10	126	145	145	145	145	145	0
112	124	worsened	worsened	worsened.	3	nopreview	10	127	202	202	202	202	202	0
	125	as	as		3	nopreview	10	128						
113	126	the	the	Raheem	3	nopreview	10	129	885	670	670	670	670	215
	127	graphic	graphic		3	nopreview	10	130						
	128	below	below		3	nopreview	10	131						
	129	shows	shows		3	nopreview	10	132						
	130	.	.		3	nopreview	10	133						
	131	@entity0	Raheem		3	nopreview	10	134						
114			Sterling	Sterling	3	nopreview	10	135	936	430	430	430	430	506
115	132	has	has	has	3	nopreview	10	136	260	260	260	260	260	0
116	133	managed	managed	managed	3	nopreview	10	137	188	188	188	188	188	0
117	134	just	just	just	3	nopreview	10	138	225	225	225	225	225	0
118	135	six	six	six	3	nopreview	10	139	0	0	0	0	0	0
119	136	goals	goals	goals	3	nopreview	10	140	224	224	224	224	224	0
120	137	this	this	this	3	nopreview	10	141	263	263	263	263	263	0
121	138	season	season	season	3	nopreview	10	142	329	174	926	174	329	155
122	139	-	-	-	3	nopreview	10	143	0	0	0	0	0	0
123	140	one	one	one	3	nopreview	10	144	0	0	0	0	0	0
124	141	less	less	less	3	nopreview	10	145	302	302	302	302	302	0
125	142	than	than	than	3	nopreview	10	146	185	185	185	185	185	0
126	143	@entity23	Stoke	Stoke	3	nopreview	10	147	211	211	211	211	211	0
127	144	forward	forward	forward	3	nopreview	10	148	151	151	151	151	151	0
128	145	@entity22	Jon	Jon	3	nopreview	10	149	0	0	0	0	0	0
129			Walters	Walters.	3	nopreview	10	150	1013	1013	1857	133	1013	0
	146	(	(		3	nopreview	10	151						
