HumanPosition	AnonymizedPosition	AnonymizedToken	OriginalToken	ExperimentToken	Participant	Condition	TextNo	JointPosition	tt	fp	rp	ff	rb	sp
0	0	@entity0	Chelsea	Chelsea	3	nopreview	11	1	370	0	0	0	0	370
2	1	are	are	are	3	nopreview	11	2	0	0	0	0	0	0
3	2	looking	looking	looking	3	nopreview	11	3	280	0	0	0	0	280
4	3	to	to	to	3	nopreview	11	4	133	0	0	0	0	133
5	4	beat	beat	beat	3	nopreview	11	5	0	0	0	0	0	0
6	5	@entity1	Manchester	Manchester	3	nopreview	11	6	279	0	0	0	0	279
7			City	City	3	nopreview	11	7	149	0	0	0	0	149
8	6	to	to	to	3	nopreview	11	8	0	0	0	0	0	0
9	7	sign	sign	sign	3	nopreview	11	9	216	0	0	0	0	216
10	8	@entity3	Brazilian	Brazilian	3	nopreview	11	10	380	0	0	0	0	380
11	9	prospect	prospect	prospect	3	nopreview	11	11	666	0	0	0	0	666
12	10	@entity2	Nathan	Nathan.	3	nopreview	11	12	428	0	0	0	0	428
	11	.	.		3	nopreview	11	13						
13	12	The	The	The	3	nopreview	11	14	0	0	0	0	0	0
14	13	attacking	attacking	attacking	3	nopreview	11	15	399	0	0	0	0	399
15	14	midfielder	midfielder	midfielder	3	nopreview	11	16	216	0	0	0	0	216
16	15	turned	turned	turned	3	nopreview	11	17	388	0	0	0	0	388
17	16	19	19	19	3	nopreview	11	18	0	0	0	0	0	0
18	17	last	last	last	3	nopreview	11	19	186	0	0	0	0	186
19	18	month	month	month	3	nopreview	11	20	225	0	0	0	0	225
20	19	but	but	but	3	nopreview	11	21	249	0	0	0	0	249
21	20	has	has	has	3	nopreview	11	22	185	0	0	0	0	185
22	21	been	been	been	3	nopreview	11	23	0	0	0	0	0	0
23	22	in	in	in	3	nopreview	11	24	180	0	0	0	0	180
24	23	contract	contract	contract	3	nopreview	11	25	457	0	0	0	0	457
25	24	dispute	dispute	dispute	3	nopreview	11	26	509	0	0	0	0	509
26	25	with	with	with	3	nopreview	11	27	155	0	0	0	0	155
27	26	his	his	his	3	nopreview	11	28	0	0	0	0	0	0
28	27	club	club	club	3	nopreview	11	29	301	0	0	0	0	301
29	28	@entity6	Atletico	Atletico	3	nopreview	11	30	579	0	0	0	0	579
30			Paranaense	Paranaense.	3	nopreview	11	31	3708	0	0	0	0	3708
	29	.	.		3	nopreview	11	32						
31	30	He	He	He	3	nopreview	11	33	0	0	0	0	0	0
32	31	is	is	is	3	nopreview	11	34	221	0	0	0	0	221
33	32	due	due	due	3	nopreview	11	35	0	0	0	0	0	0
34	33	to	to	to	3	nopreview	11	36	183	0	0	0	0	183
35	34	speak	speak	speak	3	nopreview	11	37	505	0	0	0	0	505
36	35	to	to	to	3	nopreview	11	38	0	0	0	0	0	0
37	36	@entity0	Chelsea	Chelsea	3	nopreview	11	39	389	0	0	0	0	389
38	37	next	next	next	3	nopreview	11	40	220	0	0	0	0	220
39	38	week	week	week	3	nopreview	11	41	279	0	0	0	0	279
40	39	ahead	ahead	ahead	3	nopreview	11	42	230	0	0	0	0	230
41	40	of	of	of	3	nopreview	11	43	0	0	0	0	0	0
42	41	a	a	a	3	nopreview	11	44	97	0	0	0	0	97
43	42	proposed	proposed	proposed	3	nopreview	11	45	91	0	0	0	0	91
44	43	move	move	move	3	nopreview	11	46	265	0	0	0	0	265
45	44	to	to	to	3	nopreview	11	47	147	0	0	0	0	147
46	45	@entity8	Stamford	Stamford	3	nopreview	11	48	182	0	0	0	0	182
47			Bridge	Bridge	3	nopreview	11	49	0	0	0	0	0	0
48	46	which	which	which	3	nopreview	11	50	295	0	0	0	0	295
49	47	would	would	would	3	nopreview	11	51	291	0	0	0	0	291
50	48	likely	likely	likely	3	nopreview	11	52	246	0	0	0	0	246
51	49	see	see	see	3	nopreview	11	53	0	0	0	0	0	0
52	50	him	him	him	3	nopreview	11	54	227	0	0	0	0	227
53	51	loaned	loaned	loaned	3	nopreview	11	55	407	0	0	0	0	407
54	52	out	out	out.	3	nopreview	11	56	300	0	0	0	0	300
	53	.	.		3	nopreview	11	57						
55	54	@entity6	Atletico	Manchester	3	nopreview	11	58	668	0	0	0	0	668
			Paranaense		3	nopreview	11	59						
	55	attacking	attacking		3	nopreview	11	60						
	56	midfielder	midfielder		3	nopreview	11	61						
	57	@entity2	Nathan		3	nopreview	11	62						
	58	is	is		3	nopreview	11	63						
	59	attracting	attracting		3	nopreview	11	64						
	60	interest	interest		3	nopreview	11	65						
	61	from	from		3	nopreview	11	66						
	62	@entity0	Chelsea		3	nopreview	11	67						
	63	and	and		3	nopreview	11	68						
	64	@entity1	Manchester		3	nopreview	11	69						
56	65	@entity11	City	City	3	nopreview	11	70	273	0	0	0	0	273
57			Jose	have	3	nopreview	11	71	0	0	0	0	0	0
58			Mourinho	been	3	nopreview	11	72	260	0	0	0	0	260
	66	and	and		3	nopreview	11	73						
	67	@entity12	Manuel		3	nopreview	11	74						
			Pellegrini		3	nopreview	11	75						
	68	will	will		3	nopreview	11	76						
	69	go	go		3	nopreview	11	77						
	70	head	head		3	nopreview	11	78						
59	71	-	-	keen	3	nopreview	11	79	282	0	0	0	0	282
	72	to	to		3	nopreview	11	80						
	73	-	-		3	nopreview	11	81						
	74	head	head		3	nopreview	11	82						
60	75	to	to	on	3	nopreview	11	83	225	0	0	0	0	225
61	76	sign	sign	Nathan	3	nopreview	11	84	234	0	0	0	0	234
	77	@entity3	Brazilian		3	nopreview	11	85						
	78	starlet	starlet		3	nopreview	11	86						
	79	@entity2	Nathan		3	nopreview	11	87						
62	80	@entity1	Manchester	following	3	nopreview	11	88	189	0	0	0	0	189
			City		3	nopreview	11	89						
	81	have	have		3	nopreview	11	90						
	82	been	been		3	nopreview	11	91						
	83	keen	keen		3	nopreview	11	92						
	84	on	on		3	nopreview	11	93						
	85	@entity2	Nathan		3	nopreview	11	94						
	86	following	following		3	nopreview	11	95						
63	87	his	his	his	3	nopreview	11	96	0	0	0	0	0	0
64	88	performances	performances	performances	3	nopreview	11	97	256	0	0	0	0	256
65	89	in	in	in	3	nopreview	11	98	213	0	0	0	0	213
66	90	the	the	the	3	nopreview	11	99	0	0	0	0	0	0
67	91	@entity16	World	World	3	nopreview	11	100	227	0	0	0	0	227
68			U17	U17	3	nopreview	11	101	376	0	0	0	0	376
69			Championships	Championships	3	nopreview	11	102	152	0	0	0	0	152
70	92	two	two	two	3	nopreview	11	103	122	0	0	0	0	122
71	93	years	years	years	3	nopreview	11	104	452	0	0	0	0	452
72	94	ago	ago	ago	3	nopreview	11	105	0	0	0	0	0	0
73	95	and	and	and	3	nopreview	11	106	325	0	0	0	0	325
74	96	he	he	he	3	nopreview	11	107	0	0	0	0	0	0
75	97	has	has	has	3	nopreview	11	108	246	0	0	0	0	246
76	98	since	since	since	3	nopreview	11	109	327	0	0	0	0	327
77	99	broken	broken	broken	3	nopreview	11	110	234	0	0	0	0	234
78	100	into	into	into	3	nopreview	11	111	0	0	0	0	0	0
79	101	@entity6	Paranaense	Paranaense-s	3	nopreview	11	112	2078	182	21173	182	899	1896
	102	-s	-s		3	nopreview	11	113						
80	103	first	first	first	3	nopreview	11	114	347	190	190	190	190	157
81	104	team	team	team.	3	nopreview	11	115	317	317	1653	317	317	0
	105	.	.		3	nopreview	11	116						
82	106	@entity0	Chelsea	Chelsea	3	nopreview	11	117	246	246	246	246	246	0
83	107	have	have	have	3	nopreview	11	118	170	170	170	170	170	0
84	108	a	a	a	3	nopreview	11	119	0	0	0	0	0	0
85	109	strong	strong	strong	3	nopreview	11	120	148	148	148	148	148	0
86	110	@entity3	Brazilian	Brazilian	3	nopreview	11	121	238	238	238	238	238	0
87	111	contingency	contingency	contingency	3	nopreview	11	122	510	510	510	166	510	0
88	112	with	with	with	3	nopreview	11	123	230	230	230	230	230	0
89	113	the	the	the	3	nopreview	11	124	0	0	0	0	0	0
90	114	likes	likes	likes	3	nopreview	11	125	206	206	206	206	206	0
91	115	of	of	of	3	nopreview	11	126	0	0	0	0	0	0
92	116	@entity20	Willian	Willian,	3	nopreview	11	127	421	421	421	251	421	0
	117	,	,		3	nopreview	11	128						
93	118	@entity21	Ramires	Ramires,	3	nopreview	11	129	236	236	236	236	236	0
	119	,	,		3	nopreview	11	130						
94	120	@entity22	Filipe	Filipe	3	nopreview	11	131	242	242	242	242	242	0
95			Luis	Luis	3	nopreview	11	132	364	364	364	180	364	0
96	121	and	and	and	3	nopreview	11	133	0	0	0	0	0	0
97	122	@entity23	Oscar	Oscar	3	nopreview	11	134	437	248	248	248	248	189
98	123	while	while	while	3	nopreview	11	135	250	250	439	250	250	0
99	124	21	21	21-year-old	3	nopreview	11	136	796	486	486	301	486	310
	125	-	-		3	nopreview	11	137						
	126	year	year		3	nopreview	11	138						
	127	-	-		3	nopreview	11	139						
	128	old	old		3	nopreview	11	140						
100	129	@entity24	Lucas	Lucas	3	nopreview	11	141	433	433	433	433	433	0
101			Piazon	Piazon	3	nopreview	11	142	2130	407	407	407	407	1723
102	130	is	is	is	3	nopreview	11	143	269	269	269	269	269	0
103	131	on	on	on	3	nopreview	11	144	117	0	0	0	0	117
104	132	loan	loan	loan	3	nopreview	11	145	307	160	160	160	160	147
105	133	at	at	at	3	nopreview	11	146	0	0	0	0	0	0
106	134	@entity26	Eintracht	Eintracht	3	nopreview	11	147	1046	1046	3343	269	1046	0
107			Frankfurt	Frankfurt.	3	nopreview	11	148	191	191	191	191	191	0
	135	.	.		3	nopreview	11	149						
