HumanPosition	AnonymizedPosition	AnonymizedToken	OriginalToken	ExperimentToken	Participant	Condition	TextNo	JointPosition	tt	fp	rp	ff	rb	sp
0	0	@entity0	Alejandro	Alejandro	3	nopreview	12	1	3268	0	0	0	0	3268
2			Valverde	Valverde	3	nopreview	12	2	1616	0	0	0	0	1616
3	1	successfully	successfully	successfully	3	nopreview	12	3	1131	0	0	0	0	1131
4	2	defended	defended	defended	3	nopreview	12	4	1821	0	0	0	0	1821
5	3	his	his	his	3	nopreview	12	5	1352	0	0	0	0	1352
6	4	@entity2	Fleche	Fleche	3	nopreview	12	6	3543	0	0	0	0	3543
7			Wallonne	Wallonne	3	nopreview	12	7	4239	0	0	0	0	4239
8	5	title	title	title	3	nopreview	12	8	1214	0	0	0	0	1214
9	6	on	on	on	3	nopreview	12	9	277	0	0	0	0	277
10	7	Wednesday	Wednesday	Wednesday	3	nopreview	12	10	2380	0	0	0	0	2380
11	8	as	as	as	3	nopreview	12	11	164	0	0	0	0	164
12	9	@entity3	Chris	Chris	3	nopreview	12	12	1656	0	0	0	0	1656
13			Froome	Froome	3	nopreview	12	13	2970	0	0	0	0	2970
14	10	finished	finished	finished	3	nopreview	12	14	2271	0	0	0	0	2271
15	11	back	back	back	3	nopreview	12	15	1712	0	0	0	0	1712
16	12	in	in	in	3	nopreview	12	16	299	0	0	0	0	299
17	13	123rd	123rd	123rd	3	nopreview	12	17	1322	0	0	0	0	1322
18	14	after	after	after	3	nopreview	12	18	1763	0	0	0	0	1763
19	15	a	a	a	3	nopreview	12	19	326	0	0	0	0	326
20	16	fall	fall	fall.	3	nopreview	12	20	952	0	0	0	0	952
	17	.	.		3	nopreview	12	21						
21	18	@entity4	Movistar	Movistar	3	nopreview	12	22	2029	0	0	0	0	2029
22	19	rider	rider	rider	3	nopreview	12	23	1298	0	0	0	0	1298
23	20	@entity0	Valverde	Valverde	3	nopreview	12	24	698	0	0	0	0	698
24	21	sprinted	sprinted	sprinted	3	nopreview	12	25	855	0	0	0	0	855
25	22	to	to	to	3	nopreview	12	26	0	0	0	0	0	0
26	23	victory	victory	victory	3	nopreview	12	27	653	0	0	0	0	653
27	24	ahead	ahead	ahead	3	nopreview	12	28	1494	0	0	0	0	1494
28	25	of	of	of	3	nopreview	12	29	185	0	0	0	0	185
29	26	@entity6	Julian	Julian	3	nopreview	12	30	875	0	0	0	0	875
30			Alaphilippe	Alaphilippe	3	nopreview	12	31	1723	0	0	0	0	1723
31	27	and	and	and	3	nopreview	12	32	0	0	0	0	0	0
32	28	@entity7	Michael	Michael	3	nopreview	12	33	1019	0	0	0	0	1019
33			Albasini	Albasini	3	nopreview	12	34	1207	0	0	0	0	1207
34	29	in	in	in	3	nopreview	12	35	210	0	0	0	0	210
35	30	a	a	a	3	nopreview	12	36	0	0	0	0	0	0
36	31	race	race	race	3	nopreview	12	37	465	0	0	0	0	465
37	32	which	which	which	3	nopreview	12	38	1002	0	0	0	0	1002
38	33	saw	saw	saw	3	nopreview	12	39	354	0	0	0	0	354
39	34	former	former	former	3	nopreview	12	40	111	0	0	0	0	111
40	35	winner	winner	winner	3	nopreview	12	41	691	0	0	0	0	691
41	36	@entity9	Philippe	Philippe	3	nopreview	12	42	1182	0	0	0	0	1182
42			Gilbert	Gilbert	3	nopreview	12	43	2153	0	0	0	0	2153
43	37	pull	pull	pull	3	nopreview	12	44	1182	160	25515	160	502	1022
44	38	out	out	out	3	nopreview	12	45	198	0	0	0	0	198
45	39	after	after	after	3	nopreview	12	46	1098	715	715	249	715	383
46	40	a	a	a	3	nopreview	12	47	434	0	0	0	0	434
47	41	bad	bad	bad	3	nopreview	12	48	290	0	0	0	0	290
48	42	crash	crash	crash	3	nopreview	12	49	415	245	245	245	245	170
49	43	some	some	some	3	nopreview	12	50	437	297	297	297	297	140
50	44	50	50	50	3	nopreview	12	51	0	0	0	0	0	0
51	45	kilometres	kilometres	kilometres	3	nopreview	12	52	293	195	195	195	195	98
52	46	from	from	from	3	nopreview	12	53	568	243	243	243	243	325
53	47	the	the	the	3	nopreview	12	54	199	0	0	0	0	199
54	48	end	end	end.	3	nopreview	12	55	509	134	134	134	134	375
	49	.	.		3	nopreview	12	56						
55	50	@entity3	Froome	Froome	3	nopreview	12	57	2021	0	0	0	0	2021
56	51	was	was	was	3	nopreview	12	58	671	103	424	103	103	568
57	52	involved	involved	involved	3	nopreview	12	59	2738	825	825	277	825	1913
58	53	in	in	in	3	nopreview	12	60	0	0	0	0	0	0
59	54	a	a	a	3	nopreview	12	61	0	0	0	0	0	0
60	55	crash	crash	crash	3	nopreview	12	62	768	180	180	180	180	588
61	56	in	in	in	3	nopreview	12	63	490	278	278	278	278	212
62	57	the	the	the	3	nopreview	12	64	156	156	156	156	156	0
63	58	final	final	final	3	nopreview	12	65	704	120	120	120	120	584
64	59	12	12	12	3	nopreview	12	66	0	0	0	0	0	0
65	60	kilometres	kilometres	kilometres	3	nopreview	12	67	378	173	173	173	173	205
66	61	but	but	but	3	nopreview	12	68	0	0	0	0	0	0
67	62	was	was	was	3	nopreview	12	69	672	311	311	311	311	361
68	63	able	able	able	3	nopreview	12	70	543	271	271	271	271	272
69	64	to	to	to	3	nopreview	12	71	565	410	410	410	410	155
70	65	get	get	get	3	nopreview	12	72	386	386	386	301	386	0
71	66	back	back	back	3	nopreview	12	73	295	0	0	0	0	295
72	67	on	on	on	3	nopreview	12	74	0	0	0	0	0	0
73	68	his	his	his	3	nopreview	12	75	0	0	0	0	0	0
74	69	bike	bike	bike	3	nopreview	12	76	802	385	385	175	385	417
75	70	and	and	and	3	nopreview	12	77	0	0	0	0	0	0
76	71	finish	finish	finish.	3	nopreview	12	78	1262	269	269	269	269	993
	72	.	.		3	nopreview	12	79						
77	73	@entity14	Spain	Team	3	nopreview	12	80	319	0	0	0	0	319
	74	-s	-s		3	nopreview	12	81						
	75	@entity0	Alejandro		3	nopreview	12	82						
			Valverde		3	nopreview	12	83						
	76	(	(		3	nopreview	12	84						
	77	centre	centre		3	nopreview	12	85						
	78	)	)		3	nopreview	12	86						
	79	realises	realises		3	nopreview	12	87						
	80	he	he		3	nopreview	12	88						
78	81	-s	-s	Sky-s	3	nopreview	12	89	447	447	447	329	447	0
	82	done	done		3	nopreview	12	90						
	83	enough	enough		3	nopreview	12	91						
	84	to	to		3	nopreview	12	92						
79	85	claim	claim	sports	3	nopreview	12	93	1113	381	381	381	381	732
	86	victory	victory		3	nopreview	12	94						
	87	in	in		3	nopreview	12	95						
	88	@entity17	Belgium		3	nopreview	12	96						
	89	-s	-s		3	nopreview	12	97						
	90	@entity2	Fleche		3	nopreview	12	98						
	91	@entity0	Wallonne		3	nopreview	12	99						
			Valverde		3	nopreview	12	100						
	92	(	(		3	nopreview	12	101						
	93	centre	centre		3	nopreview	12	102						
	94	)	)		3	nopreview	12	103						
	95	finished	finished		3	nopreview	12	104						
	96	ahead	ahead		3	nopreview	12	105						
	97	of	of		3	nopreview	12	106						
	98	@entity6	Julian		3	nopreview	12	107						
			Alaphilippe		3	nopreview	12	108						
	99	(	(		3	nopreview	12	109						
	100	left	left		3	nopreview	12	110						
	101	)	)		3	nopreview	12	111						
	102	and	and		3	nopreview	12	112						
	103	@entity7	Michael		3	nopreview	12	113						
			Albasini		3	nopreview	12	114						
	104	(	(		3	nopreview	12	115						
	105	right	right		3	nopreview	12	116						
	106	)	)		3	nopreview	12	117						
	107	on	on		3	nopreview	12	118						
	108	Wednesday	Wednesday		3	nopreview	12	119						
	109	@entity20	Team		3	nopreview	12	120						
			Sky		3	nopreview	12	121						
	110	-s	-s		3	nopreview	12	122						
	111	sports	sports		3	nopreview	12	123						
80	112	director	director	director	3	nopreview	12	124	1133	444	1138	181	753	689
81	113	@entity19	Gabriel	Gabriel	3	nopreview	12	125	455	263	263	263	263	192
82			Rasch	Rasch	3	nopreview	12	126	174	174	174	174	174	0
83	114	praised	praised	praised	3	nopreview	12	127	1015	351	351	351	351	664
84	115	@entity3	Froome	Froome	3	nopreview	12	128	448	290	290	168	290	158
85	116	for	for	for	3	nopreview	12	129	0	0	0	0	0	0
86	117	finishing	finishing	finishing	3	nopreview	12	130	1127	761	761	365	761	366
87	118	the	the	the	3	nopreview	12	131	107	107	107	107	107	0
88	119	race	race	race	3	nopreview	12	132	588	272	272	272	272	316
89	120	and	and	and	3	nopreview	12	133	0	0	0	0	0	0
90	121	said	said	said	3	nopreview	12	134	884	278	278	278	278	606
91	122	he	he	he	3	nopreview	12	135	436	183	183	183	183	253
92	123	expects	expects	expects	3	nopreview	12	136	450	339	339	339	339	111
93	124	the	the	the	3	nopreview	12	137	305	0	0	0	0	305
94	125	former	former	former	3	nopreview	12	138	392	227	227	227	227	165
95	126	@entity23	Tour	Tour	3	nopreview	12	139	262	262	262	262	262	0
96			de	de	3	nopreview	12	140	261	261	261	261	261	0
97			France	France	3	nopreview	12	141	390	105	105	105	105	285
98	127	winner	winner	winner	3	nopreview	12	142	260	260	260	260	260	0
99	128	will	will	will	3	nopreview	12	143	435	223	223	223	223	212
100	129	be	be	be	3	nopreview	12	144	0	0	0	0	0	0
101	130	fine	fine	fine	3	nopreview	12	145	135	135	135	135	135	0
102	131	to	to	to	3	nopreview	12	146	199	0	0	0	0	199
103	132	take	take	take	3	nopreview	12	147	584	584	783	147	584	0
104	133	part	part	part	3	nopreview	12	148	249	249	249	249	249	0
105	134	in	in	in	3	nopreview	12	149	0	0	0	0	0	0
106	135	the	the	the	3	nopreview	12	150	0	0	0	0	0	0
107	136	@entity25	Tour	Tour	3	nopreview	12	151	260	260	260	260	260	0
108			de	de	3	nopreview	12	152	0	0	0	0	0	0
109			Romandie	Romandie	3	nopreview	12	153	285	285	285	161	285	0
110	137	next	next	next	3	nopreview	12	154	143	143	143	143	143	0
111	138	week	week	week.	3	nopreview	12	155	323	93	93	93	93	230
	139	.	.		3	nopreview	12	156						
112	140	@entity19	Rasch	Rasch	3	nopreview	12	157	587	297	297	297	297	290
113	141	told	told	told	3	nopreview	12	158	483	259	259	259	259	224
114	142	@entity26	TeamSky.com	TeamSky.com:	3	nopreview	12	159	1207	408	1402	258	888	799
115	143	:	:	-Chris	3	nopreview	12	160	713	242	242	91	242	471
	144	-	-		3	nopreview	12	161						
	145	@entity3	Chris		3	nopreview	12	162						
116	146	was	was	was	3	nopreview	12	163	0	0	0	0	0	0
117	147	pretty	pretty	pretty	3	nopreview	12	164	682	0	0	0	0	682
118	148	banged	banged	banged	3	nopreview	12	165	405	115	587	115	282	290
119	149	up	up	up	3	nopreview	12	166	231	231	231	231	231	0
120	150	but	but	but	3	nopreview	12	167	606	341	341	341	341	265
121	151	showed	showed	showed	3	nopreview	12	168	441	441	441	441	441	0
122	152	real	real	real	3	nopreview	12	169	556	214	214	214	214	342
123	153	courage	courage	courage	3	nopreview	12	170	337	337	337	206	337	0
124	154	to	to	to	3	nopreview	12	171	167	0	0	0	0	167
125	155	finish	finish	finish	3	nopreview	12	172	363	186	530	87	363	177
126	156	the	the	the	3	nopreview	12	173	0	0	0	0	0	0
127	157	race	race	race	3	nopreview	12	174	220	220	220	220	220	0
128	158	and	and	and	3	nopreview	12	175	0	0	0	0	0	0
129	159	we	we	we-ll	3	nopreview	12	176	579	244	244	244	244	335
	160	-ll	-ll		3	nopreview	12	177						
130	161	assess	assess	assess	3	nopreview	12	178	117	117	117	117	117	0
131	162	his	his	his	3	nopreview	12	179	0	0	0	0	0	0
132	163	injuries	injuries	injuries	3	nopreview	12	180	285	285	285	285	285	0
133	164	overnight	overnight	overnight.	3	nopreview	12	181	275	275	275	275	275	0
	165	.	.		3	nopreview	12	182						
134	166	-	-	-He	3	nopreview	12	183	154	154	154	154	154	0
	167	He	He		3	nopreview	12	184						
135	168	has	has	hasn-t	3	nopreview	12	185	462	462	462	291	462	0
	169	n-t	n-t		3	nopreview	12	186						
136	170	needed	needed	needed	3	nopreview	12	187	696	696	696	298	696	0
137	171	to	to	to	3	nopreview	12	188	0	0	0	0	0	0
138	172	go	go	go	3	nopreview	12	189	228	228	228	228	228	0
139	173	to	to	to	3	nopreview	12	190	0	0	0	0	0	0
140	174	hospital	hospital	hospital	3	nopreview	12	191	260	260	260	260	260	0
141	175	and	and	and	3	nopreview	12	192	0	0	0	0	0	0
142	176	right	right	right	3	nopreview	12	193	328	328	328	328	328	0
143	177	now	now	now,	3	nopreview	12	194	275	275	275	118	275	0
	178	,	,		3	nopreview	12	195						
144	179	as	as	as	3	nopreview	12	196	278	278	278	278	278	0
145	180	things	things	things	3	nopreview	12	197	102	102	102	102	102	0
146	181	stand	stand	stand,	3	nopreview	12	198	362	362	362	362	362	0
	182	,	,		3	nopreview	12	199						
147	183	we	we	we-re	3	nopreview	12	200	259	259	259	259	259	0
	184	-re	-re		3	nopreview	12	201						
148	185	still	still	still	3	nopreview	12	202	0	0	0	0	0	0
149	186	expecting	expecting	expecting	3	nopreview	12	203	424	424	424	261	424	0
150	187	him	him	him	3	nopreview	12	204	0	0	0	0	0	0
151	188	to	to	to	3	nopreview	12	205	373	210	210	210	210	163
152	189	line	line	line	3	nopreview	12	206	0	0	0	0	0	0
153	190	up	up	up	3	nopreview	12	207	0	0	0	0	0	0
154	191	at	at	at	3	nopreview	12	208	179	179	179	179	179	0
155	192	the	the	the	3	nopreview	12	209	0	0	0	0	0	0
156	193	@entity25	Tour	Tour	3	nopreview	12	210	242	0	0	0	0	242
157			de	de	3	nopreview	12	211	0	0	0	0	0	0
158			Romandie	Romandie	3	nopreview	12	212	526	304	768	304	526	222
159	194	next	next	next	3	nopreview	12	213	0	0	0	0	0	0
160	195	Tuesday	Tuesday	Tuesday.-	3	nopreview	12	214	250	250	46576	250	250	0
	196	.	.		3	nopreview	12	215						
161	197	-	-	Team	3	nopreview	12	216	219	0	0	0	0	219
	198	@entity20	Team		3	nopreview	12	217						
162			Sky	Sky-s	3	nopreview	12	218	1074	189	408	189	189	885
	199	-s	-s		3	nopreview	12	219						
163	200	@entity3	Chris	Chris	3	nopreview	12	220	255	255	255	255	255	0
164			Froome	Froome	3	nopreview	12	221	489	489	489	364	489	0
165	201	fell	fell	fell	3	nopreview	12	222	416	224	224	224	224	192
166	202	in	in	in	3	nopreview	12	223	0	0	0	0	0	0
167	203	the	the	the	3	nopreview	12	224	0	0	0	0	0	0
168	204	closing	closing	closing	3	nopreview	12	225	261	261	261	261	261	0
169	205	12km	12km	12km	3	nopreview	12	226	0	0	0	0	0	0
170	206	but	but	but	3	nopreview	12	227	224	224	224	224	224	0
171	207	fought	fought	fought	3	nopreview	12	228	493	493	493	264	493	0
172	208	on	on	on	3	nopreview	12	229	0	0	0	0	0	0
173	209	to	to	to	3	nopreview	12	230	0	0	0	0	0	0
174	210	finish	finish	finish	3	nopreview	12	231	383	383	383	165	383	0
175	211	the	the	the	3	nopreview	12	232	0	0	0	0	0	0
176	212	race	race	race	3	nopreview	12	233	100	100	100	100	100	0
177	213	despite	despite	despite	3	nopreview	12	234	356	356	356	149	356	0
178	214	being	being	being	3	nopreview	12	235	709	232	232	232	232	477
179	215	-	-	-banged	3	nopreview	12	236	809	273	273	273	273	536
	216	banged	banged		3	nopreview	12	237						
180	217	up	up	up-.	3	nopreview	12	238	1914	1341	4004	163	1914	573
	218	-	-		3	nopreview	12	239						
