HumanPosition	AnonymizedPosition	AnonymizedToken	OriginalToken	ExperimentToken	Participant	Condition	TextNo	JointPosition	tt	fp	rp	ff	rb	sp
1	0	This	This	This	3	nopreview	16	1	232	0	0	0	0	232
2	1	is	is	is	3	nopreview	16	2	141	141	373	141	141	0
3	2	the	the	the	3	nopreview	16	3	330	0	0	0	0	330
4	3	shocking	shocking	shocking	3	nopreview	16	4	286	286	286	286	286	0
5	4	moment	moment	moment	3	nopreview	16	5	557	228	228	228	228	329
6	5	a	a	a	3	nopreview	16	6	0	0	0	0	0	0
7	6	pit	pit	pit	3	nopreview	16	7	841	229	872	229	543	612
8	7	crew	crew	crew	3	nopreview	16	8	550	155	155	155	155	395
9	8	member	member	member	3	nopreview	16	9	403	167	167	167	167	236
10	9	was	was	was	3	nopreview	16	10	285	285	285	285	285	0
11	10	hit	hit	hit	3	nopreview	16	11	539	216	216	216	216	323
12	11	by	by	by	3	nopreview	16	12	320	0	0	0	0	320
13	12	a	a	a	3	nopreview	16	13	0	0	0	0	0	0
14	13	car	car	car	3	nopreview	16	14	480	292	2052	292	480	188
15	14	on	on	on	3	nopreview	16	15	246	246	246	246	246	0
16	15	Sunday	Sunday	Sunday	3	nopreview	16	16	239	239	239	239	239	0
17	16	during	during	during	3	nopreview	16	17	297	297	627	155	297	0
18	17	the	the	the	3	nopreview	16	18	0	0	0	0	0	0
19	18	inaugural	inaugural	inaugural	3	nopreview	16	19	0	0	0	0	0	0
20	19	@entity4	IndyCar	IndyCar	3	nopreview	16	20	919	762	762	350	762	157
21	20	@entity3	Grand	Grand	3	nopreview	16	21	607	182	182	182	182	425
22			Prix	Prix	3	nopreview	16	22	474	142	142	142	142	332
23	21	of	of	of	3	nopreview	16	23	0	0	0	0	0	0
24	22	@entity5	Louisiana	Louisiana.	3	nopreview	16	24	774	372	1106	372	774	402
	23	.	.		3	nopreview	16	25						
25	24	@entity6	Todd	Todd	3	nopreview	16	26	961	195	777	195	195	766
26			Phillips	Phillips,	3	nopreview	16	27	683	137	777	137	281	546
	25	,	,		3	nopreview	16	28						
27	26	a	a	a	3	nopreview	16	29	0	0	0	0	0	0
28	27	front	front	front-outside	3	nopreview	16	30	1735	1735	1735	258	1735	0
	28	-	-		3	nopreview	16	31						
	29	outside	outside		3	nopreview	16	32						
29	30	tire	tire	tire	3	nopreview	16	33	228	228	228	228	228	0
30	31	changer	changer	changer	3	nopreview	16	34	629	629	629	121	629	0
31	32	for	for	for	3	nopreview	16	35	274	274	274	274	274	0
32	33	@entity8	Dayle	Dayle	3	nopreview	16	36	1238	440	440	267	440	798
33			Coyne	Coyne	3	nopreview	16	37	789	342	342	342	342	447
34			Racing	Racing,	3	nopreview	16	38	550	305	15607	223	550	245
	34	,	,		3	nopreview	16	39						
35	35	was	was	was	3	nopreview	16	40	247	247	247	247	247	0
36	36	injured	injured	injured	3	nopreview	16	41	222	222	222	222	222	0
37	37	when	when	when	3	nopreview	16	42	217	217	217	217	217	0
38	38	he	he	he	3	nopreview	16	43	0	0	0	0	0	0
39	39	was	was	was	3	nopreview	16	44	179	179	179	179	179	0
40	40	struck	struck	struck	3	nopreview	16	45	260	260	260	260	260	0
41	41	by	by	by	3	nopreview	16	46	160	0	0	0	0	160
42	42	the	the	the	3	nopreview	16	47	219	219	219	219	219	0
43	43	car	car	car	3	nopreview	16	48	165	0	0	0	0	165
44	44	of	of	of	3	nopreview	16	49	0	0	0	0	0	0
45	45	@entity10	Francesco	Francesco	3	nopreview	16	50	925	331	331	157	331	594
46			Dracone	Dracone,	3	nopreview	16	51	1154	361	2073	361	1154	793
	46	,	,		3	nopreview	16	52						
47	47	who	who	who	3	nopreview	16	53	447	447	447	447	447	0
48	48	had	had	had	3	nopreview	16	54	175	175	175	175	175	0
49	49	come	come	come	3	nopreview	16	55	171	171	171	171	171	0
50	50	in	in	in	3	nopreview	16	56	0	0	0	0	0	0
51	51	on	on	on	3	nopreview	16	57	0	0	0	0	0	0
52	52	Lap	Lap	Lap	3	nopreview	16	58	336	336	336	336	336	0
53	53	25	25	25	3	nopreview	16	59	442	0	0	0	0	442
54	54	for	for	for	3	nopreview	16	60	447	447	447	447	447	0
55	55	tyres	tyres	tyres	3	nopreview	16	61	706	338	338	338	338	368
56	56	and	and	and	3	nopreview	16	62	0	0	0	0	0	0
57	57	fuel	fuel	fuel.	3	nopreview	16	63	579	377	377	180	377	202
	58	.	.		3	nopreview	16	64						
58	59	@entity10	Dracone	Dracone	3	nopreview	16	65	1780	173	661	173	459	1607
59	60	spun	spun	spun	3	nopreview	16	66	597	346	1228	346	597	251
60	61	while	while	while	3	nopreview	16	67	216	216	216	216	216	0
61	62	exiting	exiting	exiting	3	nopreview	16	68	1008	0	0	0	0	1008
62	63	his	his	his	3	nopreview	16	69	1601	0	0	0	0	1601
63	64	put	put	put	3	nopreview	16	70	591	0	0	0	0	591
64	65	box	box	box,	3	nopreview	16	71	129	129	3329	129	129	0
	66	,	,		3	nopreview	16	72						
65	67	clipping	clipping	clipping	3	nopreview	16	73	1007	769	769	769	769	238
66	68	@entity15	Phillips	Phillips-	3	nopreview	16	74	1885	157	157	157	157	1728
	69	-	-		3	nopreview	16	75						
67	70	leg	leg	leg.	3	nopreview	16	76	135	135	3601	135	135	0
	71	.	.		3	nopreview	16	77						
68	72	@entity6	Todd	Phillips	3	nopreview	16	78	616	616	616	489	616	0
			Phillips		3	nopreview	16	79						
69	73	waits	waits	was	3	nopreview	16	80	235	235	235	235	235	0
70	74	in	in	taken	3	nopreview	16	81	802	347	347	347	347	455
	75	the	the		3	nopreview	16	82						
71	76	pit	pit	to	3	nopreview	16	83	0	0	0	0	0	0
72	77	lane	lane	the	3	nopreview	16	84	0	0	0	0	0	0
73	78	as	as	infield	3	nopreview	16	85	393	393	848	202	393	0
	79	the	the		3	nopreview	16	86						
	80	car	car		3	nopreview	16	87						
	81	makes	makes		3	nopreview	16	88						
	82	a	a		3	nopreview	16	89						
	83	stop	stop		3	nopreview	16	90						
	84	during	during		3	nopreview	16	91						
	85	the	the		3	nopreview	16	92						
	86	race	race		3	nopreview	16	93						
	87	in	in		3	nopreview	16	94						
	88	@entity5	Louisiana		3	nopreview	16	95						
	89	The	The		3	nopreview	16	96						
	90	car	car		3	nopreview	16	97						
	91	of	of		3	nopreview	16	98						
	92	@entity10	Francesco		3	nopreview	16	99						
			Dracone		3	nopreview	16	100						
	93	spun	spun		3	nopreview	16	101						
	94	out	out		3	nopreview	16	102						
	95	of	of		3	nopreview	16	103						
	96	control	control		3	nopreview	16	104						
	97	in	in		3	nopreview	16	105						
	98	the	the		3	nopreview	16	106						
	99	wet	wet		3	nopreview	16	107						
	100	conditions	conditions		3	nopreview	16	108						
	101	as	as		3	nopreview	16	109						
	102	@entity6	Phillips		3	nopreview	16	110						
	103	tried	tried		3	nopreview	16	111						
	104	to	to		3	nopreview	16	112						
	105	get	get		3	nopreview	16	113						
	106	out	out		3	nopreview	16	114						
	107	the	the		3	nopreview	16	115						
	108	way	way		3	nopreview	16	116						
	109	The	The		3	nopreview	16	117						
	110	rear	rear		3	nopreview	16	118						
	111	end	end		3	nopreview	16	119						
	112	of	of		3	nopreview	16	120						
	113	the	the		3	nopreview	16	121						
	114	car	car		3	nopreview	16	122						
	115	made	made		3	nopreview	16	123						
	116	contact	contact		3	nopreview	16	124						
	117	with	with		3	nopreview	16	125						
	118	the	the		3	nopreview	16	126						
	119	pit	pit		3	nopreview	16	127						
	120	crew	crew		3	nopreview	16	128						
	121	worker	worker		3	nopreview	16	129						
	122	sweeping	sweeping		3	nopreview	16	130						
	123	his	his		3	nopreview	16	131						
	124	legs	legs		3	nopreview	16	132						
	125	from	from		3	nopreview	16	133						
	126	underneath	underneath		3	nopreview	16	134						
	127	him	him		3	nopreview	16	135						
	128	@entity6	Phillips		3	nopreview	16	136						
	129	was	was		3	nopreview	16	137						
	130	flipped	flipped		3	nopreview	16	138						
	131	upside	upside		3	nopreview	16	139						
	132	down	down		3	nopreview	16	140						
	133	by	by		3	nopreview	16	141						
	134	the	the		3	nopreview	16	142						
	135	force	force		3	nopreview	16	143						
	136	of	of		3	nopreview	16	144						
	137	the	the		3	nopreview	16	145						
	138	car	car		3	nopreview	16	146						
	139	but	but		3	nopreview	16	147						
	140	escaped	escaped		3	nopreview	16	148						
	141	only	only		3	nopreview	16	149						
	142	with	with		3	nopreview	16	150						
	143	minor	minor		3	nopreview	16	151						
	144	injuries	injuries		3	nopreview	16	152						
	145	@entity6	Phillips		3	nopreview	16	153						
	146	was	was		3	nopreview	16	154						
	147	taken	taken		3	nopreview	16	155						
	148	to	to		3	nopreview	16	156						
	149	the	the		3	nopreview	16	157						
	150	infield	infield		3	nopreview	16	158						
74	151	care	care	care	3	nopreview	16	159	181	181	181	181	181	0
75	152	center	center	center	3	nopreview	16	160	351	351	351	119	351	0
76	153	for	for	for	3	nopreview	16	161	93	93	93	93	93	0
77	154	treatment	treatment	treatment	3	nopreview	16	162	244	244	244	244	244	0
78	155	where	where	where	3	nopreview	16	163	203	203	203	203	203	0
79	156	he	he	he	3	nopreview	16	164	0	0	0	0	0	0
80	157	has	has	has	3	nopreview	16	165	180	180	180	180	180	0
81	158	received	received	received	3	nopreview	16	166	362	362	362	362	362	0
82	159	stitches	stitches	stitches	3	nopreview	16	167	247	247	247	247	247	0
83	160	for	for	for	3	nopreview	16	168	0	0	0	0	0	0
84	161	a	a	a	3	nopreview	16	169	311	209	209	209	209	102
85	162	cut	cut	cut	3	nopreview	16	170	276	276	378	276	276	0
86	163	on	on	on	3	nopreview	16	171	0	0	0	0	0	0
87	164	his	his	his	3	nopreview	16	172	0	0	0	0	0	0
88	165	leg	leg	leg	3	nopreview	16	173	218	218	218	218	218	0
89	166	and	and	and	3	nopreview	16	174	0	0	0	0	0	0
90	167	has	has	has	3	nopreview	16	175	211	211	211	211	211	0
91	168	been	been	been	3	nopreview	16	176	0	0	0	0	0	0
92	169	released	released	released.	3	nopreview	16	177	335	335	335	147	335	0
	170	.	.		3	nopreview	16	178						
93	171	Many	Many	Many	3	nopreview	16	179	302	302	302	302	302	0
94	172	cars	cars	cars	3	nopreview	16	180	721	258	258	258	258	463
95	173	struggled	struggled	struggled	3	nopreview	16	181	597	201	1060	201	597	396
96	174	with	with	with	3	nopreview	16	182	252	252	252	252	252	0
97	175	traction	traction	traction	3	nopreview	16	183	242	242	242	242	242	0
98	176	during	during	during	3	nopreview	16	184	303	303	303	303	303	0
99	177	the	the	the	3	nopreview	16	185	0	0	0	0	0	0
100	178	race	race	race	3	nopreview	16	186	143	143	143	143	143	0
101	179	after	after	after	3	nopreview	16	187	467	467	467	264	467	0
102	180	rain	rain	rain	3	nopreview	16	188	545	545	545	361	545	0
103	181	had	had	had	3	nopreview	16	189	275	118	118	118	118	157
104	182	fallen	fallen	fallen	3	nopreview	16	190	292	134	449	134	292	158
105	183	for	for	for	3	nopreview	16	191	0	0	0	0	0	0
106	184	hours	hours	hours	3	nopreview	16	192	992	872	872	786	872	120
107	185	leading	leading	leading	3	nopreview	16	193	281	281	281	281	281	0
108	186	up	up	up	3	nopreview	16	194	165	0	0	0	0	165
109	187	to	to	to	3	nopreview	16	195	194	0	0	0	0	194
110	188	the	the	the	3	nopreview	16	196	170	170	170	170	170	0
111	189	green	green	green	3	nopreview	16	197	444	294	294	294	294	150
112	190	flag	flag	flag.	3	nopreview	16	198	237	0	0	0	0	237
	191	.	.		3	nopreview	16	199						
113	192	@entity10	Dracone	Dracone	3	nopreview	16	200	898	228	1426	228	680	670
114	193	did	did	did	3	nopreview	16	201	247	247	247	247	247	0
115	194	not	not	not	3	nopreview	16	202	0	0	0	0	0	0
116	195	finish	finish	finish	3	nopreview	16	203	247	247	247	247	247	0
117	196	the	the	the	3	nopreview	16	204	0	0	0	0	0	0
118	197	race	race	race	3	nopreview	16	205	184	184	184	184	184	0
119	198	and	and	and	3	nopreview	16	206	149	149	149	149	149	0
120	199	wound	wound	wound	3	nopreview	16	207	1044	1044	1164	450	1044	0
121	200	up	up	up	3	nopreview	16	208	0	0	0	0	0	0
122	201	23rd	23rd	23rd.	3	nopreview	16	209	1410	1410	1628	669	1410	0
	202	.	.		3	nopreview	16	210						
