HumanPosition	AnonymizedPosition	AnonymizedToken	OriginalToken	ExperimentToken	Participant	Condition	TextNo	JointPosition	tt	fp	rp	ff	rb	sp
1	0	(	(	Blues	3	nopreview	5	1	351	0	0	0	0	351
	1	@entity2	CNN		3	nopreview	5	2						
	2	)	)		3	nopreview	5	3						
	3	@entity1	Blues		3	nopreview	5	4						
2	4	legend	legend	legend	3	nopreview	5	5	391	0	0	0	0	391
3	5	@entity0	B.B.	B.B.	3	nopreview	5	6	377	0	0	0	0	377
4			King	King	3	nopreview	5	7	223	0	0	0	0	223
5	6	was	was	was	3	nopreview	5	8	0	0	0	0	0	0
6	7	hospitalized	hospitalized	hospitalized	3	nopreview	5	9	425	0	0	0	0	425
7	8	for	for	for	3	nopreview	5	10	0	0	0	0	0	0
8	9	dehydration	dehydration	dehydration,	3	nopreview	5	11	517	0	0	0	0	517
	10	,	,		3	nopreview	5	12						
9	11	though	though	though	3	nopreview	5	13	1119	0	0	0	0	1119
10	12	the	the	the	3	nopreview	5	14	0	0	0	0	0	0
11	13	ailment	ailment	ailment	3	nopreview	5	15	933	0	0	0	0	933
12	14	did	did	didn-t	3	nopreview	5	16	194	0	0	0	0	194
	15	n-t	n-t		3	nopreview	5	17						
13	16	keep	keep	keep	3	nopreview	5	18	352	0	0	0	0	352
14	17	him	him	him	3	nopreview	5	19	247	0	0	0	0	247
15	18	out	out	out	3	nopreview	5	20	353	0	0	0	0	353
16	19	for	for	for	3	nopreview	5	21	0	0	0	0	0	0
17	20	long	long	long.	3	nopreview	5	22	312	0	0	0	0	312
	21	.	.		3	nopreview	5	23						
18	22	@entity0	King	King-s	3	nopreview	5	24	501	0	0	0	0	501
	23	-s	-s		3	nopreview	5	25						
19	24	dehydration	dehydration	dehydration	3	nopreview	5	26	270	0	0	0	0	270
20	25	was	was	was	3	nopreview	5	27	0	0	0	0	0	0
21	26	caused	caused	caused	3	nopreview	5	28	439	0	0	0	0	439
22	27	by	by	by	3	nopreview	5	29	0	0	0	0	0	0
23	28	his	his	his	3	nopreview	5	30	119	0	0	0	0	119
24	29	Type	Type	Type	3	nopreview	5	31	470	0	0	0	0	470
25	30	II	II	II	3	nopreview	5	32	374	0	0	0	0	374
26	31	diabetes	diabetes	diabetes,	3	nopreview	5	33	598	0	0	0	0	598
	32	,	,		3	nopreview	5	34						
27	33	but	but	but	3	nopreview	5	35	288	0	0	0	0	288
28	34	he	he	he	3	nopreview	5	36	0	0	0	0	0	0
29	35	-	-	-is	3	nopreview	5	37	258	0	0	0	0	258
	36	is	is		3	nopreview	5	38						
30	37	much	much	much	3	nopreview	5	39	145	0	0	0	0	145
31	38	better	better	better,-	3	nopreview	5	40	0	0	0	0	0	0
	39	,	,		3	nopreview	5	41						
	40	-	-		3	nopreview	5	42						
32	41	his	his	his	3	nopreview	5	43	256	0	0	0	0	256
33	42	daughter	daughter	daughter,	3	nopreview	5	44	308	0	0	0	0	308
	43	,	,		3	nopreview	5	45						
34	44	@entity6	Claudette	Claudette	3	nopreview	5	46	1342	0	0	0	0	1342
35			King	King,	3	nopreview	5	47	797	0	0	0	0	797
	45	,	,		3	nopreview	5	48						
36	46	told	told	told	3	nopreview	5	49	757	0	0	0	0	757
37	47	the	the	the	3	nopreview	5	50	0	0	0	0	0	0
38	48	@entity9	Los	Los	3	nopreview	5	51	260	0	0	0	0	260
39			Angeles	Angeles	3	nopreview	5	52	385	0	0	0	0	385
40			Times	Times.	3	nopreview	5	53	261	0	0	0	0	261
	49	.	.		3	nopreview	5	54						
41	50	The	The	The	3	nopreview	5	55	192	0	0	0	0	192
42	51	legendary	legendary	legendary	3	nopreview	5	56	355	0	0	0	0	355
43	52	guitarist	guitarist	guitarist	3	nopreview	5	57	387	0	0	0	0	387
44	53	and	and	and	3	nopreview	5	58	0	0	0	0	0	0
45	54	vocalist	vocalist	vocalist	3	nopreview	5	59	244	0	0	0	0	244
46	55	released	released	released	3	nopreview	5	60	307	0	0	0	0	307
47	56	a	a	a	3	nopreview	5	61	186	0	0	0	0	186
48	57	statement	statement	statement	3	nopreview	5	62	260	0	0	0	0	260
49	58	thanking	thanking	thanking	3	nopreview	5	63	308	0	0	0	0	308
50	59	those	those	those	3	nopreview	5	64	282	0	0	0	0	282
51	60	who	who	who	3	nopreview	5	65	143	0	0	0	0	143
52	61	have	have	have	3	nopreview	5	66	0	0	0	0	0	0
53	62	expressed	expressed	expressed	3	nopreview	5	67	511	0	0	0	0	511
54	63	their	their	their	3	nopreview	5	68	262	0	0	0	0	262
55	64	concerns	concerns	concerns.	3	nopreview	5	69	400	0	0	0	0	400
	65	.	.		3	nopreview	5	70						
56	66	-	-	-I-m	3	nopreview	5	71	241	0	0	0	0	241
	67	I	I		3	nopreview	5	72						
	68	-m	-m		3	nopreview	5	73						
57	69	feeling	feeling	feeling	3	nopreview	5	74	149	0	0	0	0	149
58	70	much	much	much	3	nopreview	5	75	0	0	0	0	0	0
59	71	better	better	better	3	nopreview	5	76	516	0	0	0	0	516
60	72	and	and	and	3	nopreview	5	77	0	0	0	0	0	0
61	73	am	am	am	3	nopreview	5	78	160	0	0	0	0	160
62	74	leaving	leaving	leaving	3	nopreview	5	79	953	0	0	0	0	953
63	75	the	the	the	3	nopreview	5	80	0	0	0	0	0	0
64	76	hospital	hospital	hospital	3	nopreview	5	81	127	0	0	0	0	127
65	77	today	today	today,-	3	nopreview	5	82	298	0	0	0	0	298
	78	,	,		3	nopreview	5	83						
	79	-	-		3	nopreview	5	84						
66	80	@entity0	King	King	3	nopreview	5	85	360	0	0	0	0	360
67	81	said	said	said	3	nopreview	5	86	324	0	0	0	0	324
68	82	in	in	in	3	nopreview	5	87	0	0	0	0	0	0
69	83	a	a	a	3	nopreview	5	88	0	0	0	0	0	0
70	84	message	message	message	3	nopreview	5	89	693	0	0	0	0	693
71	85	Tuesday	Tuesday	Tuesday.	3	nopreview	5	90	662	0	0	0	0	662
	86	.	.		3	nopreview	5	91						
72	87	@entity17	Angela	Angela	3	nopreview	5	92	2460	108	20308	108	774	2352
73			Moore	Moore,	3	nopreview	5	93	1372	388	1424	388	876	984
	88	,	,		3	nopreview	5	94						
74	89	a	a	a	3	nopreview	5	95	173	173	342	173	173	0
75	90	publicist	publicist	publicist	3	nopreview	5	96	933	239	239	239	239	694
76	91	for	for	for	3	nopreview	5	97	192	192	192	192	192	0
77	92	@entity6	Claudette	Claudette	3	nopreview	5	98	1626	272	272	272	272	1354
78			King	King,	3	nopreview	5	99	597	266	2417	266	597	331
	93	,	,		3	nopreview	5	100						
79	94	said	said	said	3	nopreview	5	101	544	0	0	0	0	544
80	95	later	later	later	3	nopreview	5	102	625	0	0	0	0	625
81	96	in	in	in	3	nopreview	5	103	267	0	0	0	0	267
82	97	the	the	the	3	nopreview	5	104	519	107	906	107	292	412
83	98	day	day	day	3	nopreview	5	105	0	0	0	0	0	0
84	99	that	that	that	3	nopreview	5	106	463	211	211	211	211	252
85	100	he	he	he	3	nopreview	5	107	0	0	0	0	0	0
86	101	was	was	was	3	nopreview	5	108	585	317	317	317	317	268
87	102	back	back	back	3	nopreview	5	109	1378	677	2183	430	677	701
88	103	home	home	home	3	nopreview	5	110	231	0	0	0	0	231
89	104	resting	resting	resting	3	nopreview	5	111	345	136	5441	136	345	209
90	105	and	and	and	3	nopreview	5	112	0	0	0	0	0	0
91	106	enjoying	enjoying	enjoying	3	nopreview	5	113	136	136	136	136	136	0
92	107	time	time	time	3	nopreview	5	114	295	295	295	295	295	0
93	108	with	with	with	3	nopreview	5	115	198	198	198	198	198	0
94	109	his	his	his	3	nopreview	5	116	0	0	0	0	0	0
95	110	grandchildren	grandchildren	grandchildren.	3	nopreview	5	117	318	318	318	152	318	0
	111	.	.		3	nopreview	5	118						
96	112	-	-	-He	3	nopreview	5	119	0	0	0	0	0	0
	113	He	He		3	nopreview	5	120						
97	114	was	was	was	3	nopreview	5	121	321	321	321	321	321	0
98	115	struggling	struggling	struggling	3	nopreview	5	122	351	351	351	193	351	0
99	116	before	before	before,	3	nopreview	5	123	260	260	260	260	260	0
	117	,	,		3	nopreview	5	124						
100	118	and	and	and	3	nopreview	5	125	0	0	0	0	0	0
101	119	he	he	he	3	nopreview	5	126	237	237	237	237	237	0
102	120	is	is	is	3	nopreview	5	127	225	0	0	0	0	225
103	121	a	a	a	3	nopreview	5	128	248	0	0	0	0	248
104	122	trouper	trouper	trouper,-	3	nopreview	5	129	768	768	1241	81	768	0
	123	,	,		3	nopreview	5	130						
	124	-	-		3	nopreview	5	131						
105	125	@entity17	Moore	Moore	3	nopreview	5	132	404	404	404	186	404	0
106	126	said	said	said.	3	nopreview	5	133	267	267	267	267	267	0
	127	.	.		3	nopreview	5	134						
107	128	-	-	-He	3	nopreview	5	135	0	0	0	0	0	0
	129	He	He		3	nopreview	5	136						
108	130	was	was	wasn-t	3	nopreview	5	137	266	0	0	0	0	266
	131	n-t	n-t		3	nopreview	5	138						
109	132	going	going	going	3	nopreview	5	139	333	120	599	120	333	213
110	133	to	to	to	3	nopreview	5	140	0	0	0	0	0	0
111	134	let	let	let	3	nopreview	5	141	220	220	220	220	220	0
112	135	his	his	his	3	nopreview	5	142	214	214	214	214	214	0
113	136	fans	fans	fans	3	nopreview	5	143	194	194	194	194	194	0
114	137	down	down	down.-	3	nopreview	5	144	195	195	195	195	195	0
	138	.	.		3	nopreview	5	145						
115	139	-	-	No	3	nopreview	5	146	0	0	0	0	0	0
116	140	No	No	more	3	nopreview	5	147	249	249	249	249	249	0
117	141	more	more	information	3	nopreview	5	148	459	459	459	289	459	0
	142	information	information		3	nopreview	5	149						
118	143	on	on	on	3	nopreview	5	150	0	0	0	0	0	0
119	144	@entity0	King	King-s	3	nopreview	5	151	181	181	181	181	181	0
	145	-s	-s		3	nopreview	5	152						
120	146	condition	condition	condition	3	nopreview	5	153	268	268	268	268	268	0
121	147	or	or	or	3	nopreview	5	154	435	276	276	276	276	159
122	148	where	where	where	3	nopreview	5	155	201	0	0	0	0	201
123	149	he	he	he	3	nopreview	5	156	0	0	0	0	0	0
124	150	was	was	was	3	nopreview	5	157	646	364	364	215	364	282
125	151	hospitalized	hospitalized	hospitalized	3	nopreview	5	158	682	182	182	182	182	500
126	152	was	was	was	3	nopreview	5	159	0	0	0	0	0	0
127	153	immediately	immediately	immediately	3	nopreview	5	160	425	215	215	215	215	210
128	154	available	available	available.	3	nopreview	5	161	527	527	1879	276	527	0
	155	.	.		3	nopreview	5	162						
129	156	@entity0	B.B.	B.B.	3	nopreview	5	163	380	211	211	211	211	169
130	157	is	is	is	3	nopreview	5	164	337	157	157	157	157	180
131	158	short	short	short	3	nopreview	5	165	127	127	127	127	127	0
132	159	for	for	for	3	nopreview	5	166	385	385	385	385	385	0
133	160	@entity24	Blues	Blues	3	nopreview	5	167	414	206	206	206	206	208
134			Boy	Boy,	3	nopreview	5	168	1426	682	1983	125	1426	744
	161	,	,		3	nopreview	5	169						
135	162	part	part	part	3	nopreview	5	170	475	475	475	475	475	0
136	163	of	of	of	3	nopreview	5	171	0	0	0	0	0	0
137	164	the	the	the	3	nopreview	5	172	154	0	0	0	0	154
138	165	name	name	name	3	nopreview	5	173	246	100	254	100	100	146
139	166	he	he	he	3	nopreview	5	174	0	0	0	0	0	0
140	167	used	used	used	3	nopreview	5	175	373	192	519	192	373	181
141	168	as	as	as	3	nopreview	5	176	0	0	0	0	0	0
142	169	a	a	a	3	nopreview	5	177	156	156	156	156	156	0
143	170	@entity27	Memphis	Memphis	3	nopreview	5	178	717	268	268	136	268	449
144	171	disc	disc	disc	3	nopreview	5	179	600	379	707	379	379	221
145	172	jockey	jockey	jockey,	3	nopreview	5	180	357	357	357	191	357	0
	173	,	,		3	nopreview	5	181						
146	174	the	the	the	3	nopreview	5	182	184	0	0	0	0	184
147	175	@entity0	Beale	Beale	3	nopreview	5	183	1733	553	553	275	553	1180
148			Street	Street	3	nopreview	5	184	1578	616	1536	318	1181	962
149			Blues	Blues	3	nopreview	5	185	872	514	2620	514	872	358
150			Boy	Boy.	3	nopreview	5	186	418	218	218	218	218	200
	176	.	.		3	nopreview	5	187						
151	177	He	He	He	3	nopreview	5	188	0	0	0	0	0	0
152	178	was	was	was	3	nopreview	5	189	419	419	619	180	419	0
153	179	inducted	inducted	inducted	3	nopreview	5	190	748	0	0	0	0	748
154	180	into	into	into	3	nopreview	5	191	687	117	1435	117	687	570
155	181	the	the	the	3	nopreview	5	192	0	0	0	0	0	0
156	182	@entity28	Rock	Rock	3	nopreview	5	193	0	0	0	0	0	0
157			and	and	3	nopreview	5	194	379	206	206	206	206	173
158			Roll	Roll	3	nopreview	5	195	145	145	145	145	145	0
159			Hall	Hall	3	nopreview	5	196	145	0	0	0	0	145
160			of	of	3	nopreview	5	197	0	0	0	0	0	0
161			Fame	Fame	3	nopreview	5	198	177	177	177	177	177	0
162	183	in	in	in	3	nopreview	5	199	190	0	0	0	0	190
163	184	1987	1987	1987,	3	nopreview	5	200	670	358	358	262	358	312
	185	,	,		3	nopreview	5	201						
164	186	and	and	and	3	nopreview	5	202	0	0	0	0	0	0
165	187	has	has	has	3	nopreview	5	203	216	216	216	101	216	0
166	188	30	30	30	3	nopreview	5	204	643	0	0	0	0	643
167	189	@entity30	Grammy	Grammy	3	nopreview	5	205	847	496	986	496	642	351
168	190	nominations	nominations	nominations.	3	nopreview	5	206	737	262	1641	262	635	475
	191	.	.		3	nopreview	5	207						
169	192	@entity0	King	King,	3	nopreview	5	208	668	0	0	0	0	668
	193	,	,		3	nopreview	5	209						
170	194	89	89	89,	3	nopreview	5	210	323	131	901	131	131	192
	195	,	,		3	nopreview	5	211						
171	196	has	has	has	3	nopreview	5	212	836	0	0	0	0	836
172	197	used	used	used	3	nopreview	5	213	659	173	610	173	426	486
173	198	various	various	various	3	nopreview	5	214	1127	447	447	447	447	680
174	199	models	models	models	3	nopreview	5	215	427	246	246	246	246	181
175	200	of	of	of	3	nopreview	5	216	0	0	0	0	0	0
176	201	@entity33	Gibson	Gibson	3	nopreview	5	217	784	444	444	165	444	340
177	202	guitars	guitars	guitars	3	nopreview	5	218	549	294	294	294	294	255
178	203	over	over	over	3	nopreview	5	219	129	129	129	129	129	0
179	204	the	the	the	3	nopreview	5	220	377	377	377	377	377	0
180	205	years	years	years,	3	nopreview	5	221	0	0	0	0	0	0
	206	,	,		3	nopreview	5	222						
181	207	and	and	and	3	nopreview	5	223	408	187	2362	187	408	221
182	208	named	named	named	3	nopreview	5	224	176	176	176	176	176	0
183	209	each	each	each	3	nopreview	5	225	0	0	0	0	0	0
184	210	one	one	one	3	nopreview	5	226	625	0	0	0	0	625
185	211	of	of	of	3	nopreview	5	227	184	0	0	0	0	184
186	212	them	them	them	3	nopreview	5	228	276	0	0	0	0	276
187	213	@entity35	Lucille	Lucille.	3	nopreview	5	229	855	118	1782	118	697	737
	214	.	.		3	nopreview	5	230						
188	215	In	In	In	3	nopreview	5	231	0	0	0	0	0	0
189	216	the	the	the	3	nopreview	5	232	376	117	534	117	376	259
190	217	1980s	1980s	1980s,	3	nopreview	5	233	1084	425	425	239	425	659
	218	,	,		3	nopreview	5	234						
191	219	@entity33	Gibson	Gibson	3	nopreview	5	235	958	216	216	216	216	742
192	220	officially	officially	officially	3	nopreview	5	236	793	376	2056	376	639	417
193	221	dropped	dropped	dropped	3	nopreview	5	237	258	258	258	258	258	0
194	222	the	the	the	3	nopreview	5	238	0	0	0	0	0	0
195	223	model	model	model	3	nopreview	5	239	244	244	244	244	244	0
196	224	number	number	number	3	nopreview	5	240	1101	1101	1101	173	1101	0
197	225	on	on	on	3	nopreview	5	241	0	0	0	0	0	0
198	226	the	the	the	3	nopreview	5	242	0	0	0	0	0	0
199	227	guitar	guitar	guitar	3	nopreview	5	243	330	0	0	0	0	330
200	228	he	he	he	3	nopreview	5	244	0	0	0	0	0	0
201	229	used	used	used	3	nopreview	5	245	730	89	788	89	458	641
202	230	last	last	last	3	nopreview	5	246	424	249	249	249	249	175
203	231	and	and	and	3	nopreview	5	247	345	167	167	167	167	178
204	232	most	most	most.	3	nopreview	5	248	416	416	1075	187	416	0
	233	.	.		3	nopreview	5	249						
205	234	It	It	It	3	nopreview	5	250	0	0	0	0	0	0
206	235	became	became	became	3	nopreview	5	251	344	344	344	189	344	0
207	236	a	a	a	3	nopreview	5	252	213	0	0	0	0	213
208	237	custom	custom	custom-made	3	nopreview	5	253	790	526	526	257	526	264
	238	-	-		3	nopreview	5	254						
	239	made	made		3	nopreview	5	255						
209	240	signature	signature	signature	3	nopreview	5	256	355	355	355	355	355	0
210	241	model	model	model	3	nopreview	5	257	480	480	480	256	480	0
211	242	named	named	named	3	nopreview	5	258	1998	509	509	341	509	1489
212	243	@entity35	Lucille	Lucille,	3	nopreview	5	259	968	153	3935	153	968	815
	244	,	,		3	nopreview	5	260						
213	245	manufactured	manufactured	manufactured	3	nopreview	5	261	258	258	258	258	258	0
214	246	exclusively	exclusively	exclusively	3	nopreview	5	262	273	273	273	273	273	0
215	247	for	for	for	3	nopreview	5	263	200	200	200	200	200	0
216	248	the	the	the	3	nopreview	5	264	0	0	0	0	0	0
217	249	-	-	-King	3	nopreview	5	265	211	0	0	0	0	211
	250	@entity40	King		3	nopreview	5	266						
218			of	of	3	nopreview	5	267	446	266	266	266	266	180
219			the	the	3	nopreview	5	268	0	0	0	0	0	0
220			Blues	Blues.-	3	nopreview	5	269	532	262	712	262	532	270
	251	.	.		3	nopreview	5	270						
221	252	-	-	Some	3	nopreview	5	271	126	126	126	126	126	0
	253	Some	Some		3	nopreview	5	272						
222	254	of	of	of	3	nopreview	5	273	0	0	0	0	0	0
223	255	his	his	his	3	nopreview	5	274	138	138	138	138	138	0
224	256	hits	hits	hits	3	nopreview	5	275	439	439	439	439	439	0
225	257	include	include	include	3	nopreview	5	276	246	246	246	246	246	0
226	258	-	-	-The	3	nopreview	5	277	0	0	0	0	0	0
	259	The	The		3	nopreview	5	278						
227	260	Thrill	Thrill	Thrill	3	nopreview	5	279	338	0	0	0	0	338
228	261	Is	Is	Is	3	nopreview	5	280	0	0	0	0	0	0
229	262	Gone	Gone	Gone,-	3	nopreview	5	281	394	113	732	113	394	281
	263	,	,		3	nopreview	5	282						
	264	-	-		3	nopreview	5	283						
230	265	which	which	which	3	nopreview	5	284	466	466	466	466	466	0
231	266	won	won	won	3	nopreview	5	285	365	365	365	365	365	0
232	267	him	him	him	3	nopreview	5	286	0	0	0	0	0	0
233	268	his	his	his	3	nopreview	5	287	281	281	281	281	281	0
234	269	first	first	first	3	nopreview	5	288	293	293	293	293	293	0
235	270	Grammy	Grammy	Grammy	3	nopreview	5	289	507	507	507	251	507	0
236	271	in	in	in	3	nopreview	5	290	337	0	0	0	0	337
237	272	1970	1970	1970,	3	nopreview	5	291	485	270	822	153	485	215
	273	,	,		3	nopreview	5	292						
238	274	-	-	-There	3	nopreview	5	293	930	287	287	287	287	643
	275	@entity44	There		3	nopreview	5	294						
239			Must	Must	3	nopreview	5	295	1199	410	410	410	410	789
240			be	be	3	nopreview	5	296	463	231	680	231	231	232
241			a	a	3	nopreview	5	297	681	263	1896	263	681	418
242			Better	Better	3	nopreview	5	298	102	102	102	102	102	0
243			World	World	3	nopreview	5	299	344	0	0	0	0	344
244			Somewhere	Somewhere-	3	nopreview	5	300	366	113	710	113	366	253
	276	-	-		3	nopreview	5	301						
245	277	and	and	and	3	nopreview	5	302	0	0	0	0	0	0
246	278	-	-	-When	3	nopreview	5	303	251	251	251	251	251	0
	279	@entity45	When		3	nopreview	5	304						
247			Love	Love	3	nopreview	5	305	297	297	297	297	297	0
248			Comes	Comes	3	nopreview	5	306	472	472	472	323	472	0
249			to	to	3	nopreview	5	307	0	0	0	0	0	0
250			Town	Town,-	3	nopreview	5	308	350	350	350	199	350	0
	280	,	,		3	nopreview	5	309						
	281	-	-		3	nopreview	5	310						
251	282	a	a	a	3	nopreview	5	311	0	0	0	0	0	0
252	283	collaboration	collaboration	collaboration	3	nopreview	5	312	420	420	420	254	420	0
253	284	with	with	with	3	nopreview	5	313	344	344	344	344	344	0
254	285	@entity47	U2	U2.	3	nopreview	5	314	406	406	406	406	406	0
	286	.	.		3	nopreview	5	315						
255	287	Last	Last	Last	3	nopreview	5	316	270	270	270	270	270	0
256	288	year	year	year,	3	nopreview	5	317	174	174	174	174	174	0
	289	,	,		3	nopreview	5	318						
257	290	the	the	the	3	nopreview	5	319	177	0	0	0	0	177
258	291	bluesman	bluesman	bluesman	3	nopreview	5	320	173	0	0	0	0	173
259	292	suffered	suffered	suffered	3	nopreview	5	321	614	155	964	155	614	459
260	293	from	from	from	3	nopreview	5	322	0	0	0	0	0	0
261	294	dehydration	dehydration	dehydration	3	nopreview	5	323	324	324	324	237	324	0
262	295	and	and	and	3	nopreview	5	324	0	0	0	0	0	0
263	296	exhaustion	exhaustion	exhaustion	3	nopreview	5	325	329	329	329	247	329	0
264	297	after	after	after	3	nopreview	5	326	453	216	216	216	216	237
265	298	a	a	a	3	nopreview	5	327	294	0	0	0	0	294
266	299	show	show	show	3	nopreview	5	328	439	196	196	196	196	243
267	300	in	in	in	3	nopreview	5	329	109	0	0	0	0	109
268	301	@entity52	Chicago	Chicago,	3	nopreview	5	330	754	175	1637	175	754	579
	302	,	,		3	nopreview	5	331						
269	303	forcing	forcing	forcing	3	nopreview	5	332	250	250	250	250	250	0
270	304	him	him	him	3	nopreview	5	333	0	0	250	0	0	0
271	305	to	to	to	3	nopreview	5	334	165	165	165	165	165	0
272	306	cancel	cancel	cancel	3	nopreview	5	335	259	259	259	259	259	0
273	307	the	the	the	3	nopreview	5	336	0	0	0	0	0	0
274	308	remainder	remainder	remainder	3	nopreview	5	337	278	278	278	278	278	0
275	309	of	of	of	3	nopreview	5	338	0	0	0	0	0	0
276	310	his	his	his	3	nopreview	5	339	563	563	774	106	563	0
277	311	tour	tour	tour.	3	nopreview	5	340	0	0	0	0	0	0
	312	.	.		3	nopreview	5	341						
