HumanPosition	AnonymizedPosition	AnonymizedToken	OriginalToken	ExperimentToken	Participant	Condition	TextNo	JointPosition	tt	fp	rp	ff	rb	sp
	0	@entity0	Paris		3	nopreview	7	1						
	1	(	(		3	nopreview	7	2						
	2	@entity1	CNN		3	nopreview	7	3						
	3	)	)		3	nopreview	7	4						
0	4	Six	Six	Six	3	nopreview	7	5	0	0	0	0	0	0
2	5	survivors	survivors	survivors	3	nopreview	7	6	625	625	625	147	625	0
3	6	of	of	of	3	nopreview	7	7	0	0	0	0	0	0
4	7	the	the	the	3	nopreview	7	8	0	0	0	0	0	0
5	8	@entity0	Paris	Paris	3	nopreview	7	9	317	317	317	317	317	0
6	9	kosher	kosher	kosher	3	nopreview	7	10	330	330	330	330	330	0
7	10	supermarket	supermarket	supermarket	3	nopreview	7	11	226	226	226	226	226	0
8	11	siege	siege	siege	3	nopreview	7	12	263	263	263	96	263	0
9	12	in	in	in	3	nopreview	7	13	0	0	0	0	0	0
10	13	January	January	January	3	nopreview	7	14	449	449	449	449	449	0
11	14	are	are	are	3	nopreview	7	15	237	237	237	237	237	0
12	15	suing	suing	suing	3	nopreview	7	16	857	857	857	291	857	0
13	16	a	a	a	3	nopreview	7	17	0	0	0	0	0	0
14	17	@entity5	French	French	3	nopreview	7	18	269	269	269	269	269	0
15	18	media	media	media	3	nopreview	7	19	278	0	0	0	0	278
16	19	outlet	outlet	outlet	3	nopreview	7	20	359	96	637	96	359	263
17	20	for	for	for	3	nopreview	7	21	224	224	224	224	224	0
18	21	what	what	what	3	nopreview	7	22	251	251	251	251	251	0
19	22	they	they	they	3	nopreview	7	23	0	0	0	0	0	0
20	23	call	call	call	3	nopreview	7	24	198	198	198	198	198	0
21	24	dangerous	dangerous	dangerous	3	nopreview	7	25	576	576	576	127	576	0
22	25	live	live	live	3	nopreview	7	26	409	409	409	409	409	0
23	26	broadcasting	broadcasting	broadcasting	3	nopreview	7	27	429	429	429	242	429	0
24	27	during	during	during	3	nopreview	7	28	282	282	282	282	282	0
25	28	the	the	the	3	nopreview	7	29	0	0	0	0	0	0
26	29	hostage	hostage	hostage-taking.	3	nopreview	7	30	861	861	861	184	861	0
	30	-	-		3	nopreview	7	31						
	31	taking	taking		3	nopreview	7	32						
	32	.	.		3	nopreview	7	33						
27	33	According	According	According	3	nopreview	7	34	378	378	378	378	378	0
28	34	to	to	to	3	nopreview	7	35	0	0	7818	0	0	0
29	35	@entity0	Paris	Paris	3	nopreview	7	36	234	234	234	234	234	0
30	36	prosecutor	prosecutor	prosecutor-s	3	nopreview	7	37	412	412	412	256	412	0
	37	-s	-s		3	nopreview	7	38						
31	38	spokeswoman	spokeswoman	spokeswoman	3	nopreview	7	39	738	93	93	93	93	645
32	39	@entity10	Agnes	Agnes	3	nopreview	7	40	836	255	1183	255	538	581
33			Thibault	Thibault-Lecuivre,	3	nopreview	7	41	1740	1596	2038	348	1740	144
			-		3	nopreview	7	42						
			Lecuivre		3	nopreview	7	43						
	40	,	,		3	nopreview	7	44						
34	41	the	the	the	3	nopreview	7	45	227	0	0	0	0	227
35	42	lawsuit	lawsuit	lawsuit	3	nopreview	7	46	170	170	397	170	170	0
36	43	was	was	was	3	nopreview	7	47	287	287	684	287	287	0
37	44	filed	filed	filed	3	nopreview	7	48	163	163	163	163	163	0
38	45	March	March	March	3	nopreview	7	49	359	359	359	359	359	0
39	46	27	27	27	3	nopreview	7	50	203	0	0	0	0	203
40	47	and	and	and	3	nopreview	7	51	469	469	672	469	469	0
41	48	a	a	a	3	nopreview	7	52	0	0	0	0	0	0
42	49	preliminary	preliminary	preliminary	3	nopreview	7	53	514	514	514	111	514	0
43	50	investigation	investigation	investigation	3	nopreview	7	54	254	254	254	254	254	0
44	51	was	was	was	3	nopreview	7	55	188	188	188	188	188	0
45	52	opened	opened	opened	3	nopreview	7	56	352	352	352	222	352	0
46	53	by	by	by	3	nopreview	7	57	0	0	0	0	0	0
47	54	the	the	the	3	nopreview	7	58	0	0	0	0	0	0
48	55	prosecutor	prosecutor	prosecutor-s	3	nopreview	7	59	378	378	378	126	378	0
	56	-s	-s		3	nopreview	7	60						
49	57	office	office	office	3	nopreview	7	61	257	257	257	257	257	0
50	58	Wednesday	Wednesday	Wednesday.	3	nopreview	7	62	2127	2127	2127	595	2127	0
	59	.	.		3	nopreview	7	63						
51	60	The	The	The	3	nopreview	7	64	0	0	0	0	0	0
52	61	media	media	media	3	nopreview	7	65	227	227	1586	227	227	0
53	62	outlet	outlet	outlet,	3	nopreview	7	66	393	393	393	233	393	0
	63	,	,		3	nopreview	7	67						
54	64	@entity1	CNN	CNN	3	nopreview	7	68	257	257	257	257	257	0
55	65	affiliate	affiliate	affiliate	3	nopreview	7	69	261	261	261	261	261	0
56	66	@entity16	BFMTV	BFMTV,	3	nopreview	7	70	971	971	971	419	971	0
	67	,	,		3	nopreview	7	71						
57	68	is	is	is	3	nopreview	7	72	252	252	252	252	252	0
58	69	accused	accused	accused	3	nopreview	7	73	194	194	194	194	194	0
59	70	of	of	of	3	nopreview	7	74	0	0	0	0	0	0
60	71	endangering	endangering	endangering	3	nopreview	7	75	694	694	694	124	694	0
61	72	the	the	the	3	nopreview	7	76	0	0	0	0	0	0
62	73	lives	lives	lives	3	nopreview	7	77	240	240	240	240	240	0
63	74	of	of	of	3	nopreview	7	78	0	0	0	0	0	0
64	75	the	the	the	3	nopreview	7	79	0	0	0	0	0	0
65	76	hostages	hostages	hostages,	3	nopreview	7	80	443	443	443	287	443	0
	77	,	,		3	nopreview	7	81						
66	78	who	who	who	3	nopreview	7	82	0	0	0	0	0	0
67	79	were	were	were	3	nopreview	7	83	154	154	154	154	154	0
68	80	hiding	hiding	hiding	3	nopreview	7	84	362	362	362	135	362	0
69	81	in	in	in	3	nopreview	7	85	486	0	0	0	0	486
70	82	a	a	a	3	nopreview	7	86	0	0	0	0	0	0
71	83	cold	cold	cold	3	nopreview	7	87	517	517	517	306	517	0
72	84	room	room	room	3	nopreview	7	88	485	485	485	485	485	0
73	85	during	during	during	3	nopreview	7	89	193	193	193	193	193	0
74	86	the	the	the	3	nopreview	7	90	0	0	0	0	0	0
75	87	attack	attack	attack,	3	nopreview	7	91	432	0	0	0	0	432
	88	,	,		3	nopreview	7	92						
76	89	by	by	by	3	nopreview	7	93	121	121	553	121	121	0
77	90	broadcasting	broadcasting	broadcasting	3	nopreview	7	94	141	141	141	141	141	0
78	91	their	their	their	3	nopreview	7	95	238	238	238	238	238	0
79	92	location	location	location	3	nopreview	7	96	240	240	240	240	240	0
80	93	live	live	live	3	nopreview	7	97	488	299	299	299	299	189
81	94	during	during	during	3	nopreview	7	98	365	199	554	199	365	166
82	95	the	the	the	3	nopreview	7	99	0	0	0	0	0	0
83	96	siege	siege	siege.	3	nopreview	7	100	1046	551	1532	249	1046	495
	97	.	.		3	nopreview	7	101						
84	98	@entity23	BFM	BFM	3	nopreview	7	102	264	264	264	117	264	0
85	99	in	in	in	3	nopreview	7	103	1118	802	802	802	802	316
86	100	a	a	a	3	nopreview	7	104	279	279	595	279	279	0
87	101	statement	statement	statement	3	nopreview	7	105	223	223	223	223	223	0
88	102	Friday	Friday	Friday	3	nopreview	7	106	1072	0	0	0	0	1072
89	103	said	said	said	3	nopreview	7	107	386	119	1458	119	386	267
90	104	one	one	one	3	nopreview	7	108	253	253	253	253	253	0
91	105	of	of	of	3	nopreview	7	109	0	0	0	0	0	0
92	106	its	its	its	3	nopreview	7	110	271	271	271	271	271	0
93	107	journalists	journalists	journalists	3	nopreview	7	111	175	175	175	175	175	0
94	108	-	-	-mentioned	3	nopreview	7	112	909	504	504	279	504	405
	109	mentioned	mentioned		3	nopreview	7	113						
95	110	only	only	only	3	nopreview	7	114	316	316	316	316	316	0
96	111	once	once	once	3	nopreview	7	115	449	252	252	252	252	197
97	112	the	the	the	3	nopreview	7	116	0	0	0	0	0	0
98	113	presence	presence	presence	3	nopreview	7	117	400	400	400	231	400	0
99	114	of	of	of	3	nopreview	7	118	0	0	0	0	0	0
100	115	a	a	a	3	nopreview	7	119	0	0	0	0	0	0
101	116	woman	woman	woman	3	nopreview	7	120	110	110	110	110	110	0
102	117	hidden	hidden	hidden	3	nopreview	7	121	413	413	413	165	413	0
103	118	inside	inside	inside	3	nopreview	7	122	453	295	295	295	295	158
104	119	the	the	the	3	nopreview	7	123	0	0	0	0	0	0
105	120	@entity27	Hyper	Hyper	3	nopreview	7	124	329	329	329	329	329	0
106			Cacher	Cacher,	3	nopreview	7	125	474	474	474	295	474	0
	121	,	,		3	nopreview	7	126						
107	122	on	on	on	3	nopreview	7	127	0	0	0	0	0	0
108	123	the	the	the	3	nopreview	7	128	102	102	102	102	102	0
109	124	basis	basis	basis	3	nopreview	7	129	269	269	269	269	269	0
110	125	of	of	of	3	nopreview	7	130	0	0	0	0	0	0
111	126	police	police	police	3	nopreview	7	131	250	250	250	250	250	0
112	127	sources	sources	sources	3	nopreview	7	132	234	234	234	234	234	0
113	128	on	on	on	3	nopreview	7	133	210	0	0	0	0	210
114	129	the	the	the	3	nopreview	7	134	455	244	244	244	244	211
115	130	ground	ground	ground.-	3	nopreview	7	135	256	256	1437	256	256	0
	131	.	.		3	nopreview	7	136						
116	132	-	-	-Immediately,	3	nopreview	7	137	693	325	325	212	325	368
	133	-	-		3	nopreview	7	138						
	134	Immediately	Immediately		3	nopreview	7	139						
	135	,	,		3	nopreview	7	140						
117	136	the	the	the	3	nopreview	7	141	196	196	196	196	196	0
118	137	chief	chief	chief	3	nopreview	7	142	463	179	179	179	179	284
119	138	editor	editor	editor	3	nopreview	7	143	581	397	397	397	397	184
120	139	felt	felt	felt	3	nopreview	7	144	250	250	250	250	250	0
121	140	that	that	that	3	nopreview	7	145	266	266	266	266	266	0
122	141	this	this	this	3	nopreview	7	146	330	330	330	330	330	0
123	142	information	information	information	3	nopreview	7	147	145	145	145	145	145	0
124	143	should	should	should	3	nopreview	7	148	200	200	200	200	200	0
125	144	not	not	not	3	nopreview	7	149	0	0	0	0	0	0
126	145	be	be	be	3	nopreview	7	150	224	224	224	224	224	0
127	146	released	released	released.	3	nopreview	7	151	761	525	1597	329	761	236
	147	.	.		3	nopreview	7	152						
128	148	It	It	It	3	nopreview	7	153	0	0	0	0	0	0
129	149	therefore	therefore	therefore	3	nopreview	7	154	334	334	334	105	334	0
130	150	has	has	has	3	nopreview	7	155	0	0	0	0	0	0
131	151	subsequently	subsequently	subsequently	3	nopreview	7	156	691	691	691	265	691	0
132	152	never	never	never	3	nopreview	7	157	273	273	273	273	273	0
133	153	been	been	been	3	nopreview	7	158	234	234	234	234	234	0
134	154	repeated	repeated	repeated	3	nopreview	7	159	346	346	346	188	346	0
135	155	on	on	on	3	nopreview	7	160	0	0	0	0	0	0
136	156	air	air	air	3	nopreview	7	161	281	281	281	281	281	0
137	157	or	or	or	3	nopreview	7	162	181	181	181	181	181	0
138	158	posted	posted	posted	3	nopreview	7	163	576	576	576	423	576	0
139	159	on	on	on-screen.	3	nopreview	7	164	1976	328	328	328	328	1648
	160	-	-		3	nopreview	7	165						
	161	screen	screen		3	nopreview	7	166						
	162	.	.		3	nopreview	7	167						
140	163	@entity16	BFMTV	BFMTV	3	nopreview	7	168	811	363	2459	363	811	448
141	164	regrets	regrets	regrets	3	nopreview	7	169	188	188	188	188	188	0
142	165	that	that	that	3	nopreview	7	170	0	0	0	0	0	0
143	166	the	the	the	3	nopreview	7	171	170	170	170	170	170	0
144	167	mention	mention	mention	3	nopreview	7	172	153	153	153	153	153	0
145	168	of	of	of	3	nopreview	7	173	0	0	0	0	0	0
146	169	this	this	this	3	nopreview	7	174	0	0	0	0	0	0
147	170	information	information	information	3	nopreview	7	175	277	277	277	277	277	0
148	171	could	could	could	3	nopreview	7	176	175	175	175	175	175	0
149	172	cause	cause	cause	3	nopreview	7	177	408	408	408	189	408	0
150	173	concern	concern	concern	3	nopreview	7	178	286	286	286	286	286	0
151	174	to	to	to	3	nopreview	7	179	152	0	0	0	0	152
152	175	the	the	the	3	nopreview	7	180	0	0	0	0	0	0
153	176	hostages	hostages	hostages,	3	nopreview	7	181	543	426	695	226	543	117
	177	,	,		3	nopreview	7	182						
154	178	as	as	as	3	nopreview	7	183	0	0	0	0	0	0
155	179	well	well	well	3	nopreview	7	184	360	360	360	151	360	0
156	180	as	as	as	3	nopreview	7	185	0	0	0	0	0	0
157	181	their	their	their	3	nopreview	7	186	221	221	221	221	221	0
158	182	relatives	relatives	relatives,	3	nopreview	7	187	195	195	195	195	195	0
	183	,	,		3	nopreview	7	188						
159	184	that	that	that	3	nopreview	7	189	289	289	289	289	289	0
160	185	their	their	their	3	nopreview	7	190	523	317	317	317	317	206
161	186	lives	lives	lives	3	nopreview	7	191	0	0	0	0	0	0
162	187	were	were	were	3	nopreview	7	192	180	180	180	180	180	0
163	188	in	in	in	3	nopreview	7	193	0	0	0	0	0	0
164	189	danger	danger	danger,-	3	nopreview	7	194	370	370	370	222	370	0
	190	,	,		3	nopreview	7	195						
	191	-	-		3	nopreview	7	196						
165	192	the	the	the	3	nopreview	7	197	0	0	0	0	0	0
166	193	statement	statement	statement	3	nopreview	7	198	385	385	385	203	385	0
167	194	said	said	said.	3	nopreview	7	199	263	263	263	263	263	0
	195	.	.		3	nopreview	7	200						
168	196	Gunman	Gunman	Gunman	3	nopreview	7	201	99	99	99	99	99	0
169	197	@entity47	Amedy	Amedy	3	nopreview	7	202	585	0	0	0	0	585
170			Coulibaly	Coulibaly,	3	nopreview	7	203	682	129	759	129	464	553
	198	,	,		3	nopreview	7	204						
171	199	also	also	also	3	nopreview	7	205	388	0	0	0	0	388
172	200	suspected	suspected	suspected	3	nopreview	7	206	1045	677	677	269	677	368
173	201	in	in	in	3	nopreview	7	207	183	183	183	183	183	0
174	202	the	the	the	3	nopreview	7	208	0	0	0	0	0	0
175	203	slaying	slaying	slaying	3	nopreview	7	209	251	251	251	251	251	0
176	204	of	of	of	3	nopreview	7	210	0	0	0	0	0	0
177	205	a	a	a	3	nopreview	7	211	0	0	0	0	0	0
178	206	police	police	police	3	nopreview	7	212	157	157	157	157	157	0
179	207	officer	officer	officer,	3	nopreview	7	213	256	256	256	256	256	0
	208	,	,		3	nopreview	7	214						
180	209	stormed	stormed	stormed	3	nopreview	7	215	339	339	339	339	339	0
181	210	the	the	the	3	nopreview	7	216	251	251	251	251	251	0
182	211	@entity27	Hyper	Hyper	3	nopreview	7	217	97	97	97	97	97	0
183	212	@entity51	Cacher	Cacher	3	nopreview	7	218	395	395	395	395	395	0
184			Jewish	Jewish	3	nopreview	7	219	288	288	288	288	288	0
185	213	supermarket	supermarket	supermarket	3	nopreview	7	220	571	571	571	298	571	0
186	214	on	on	on	3	nopreview	7	221	203	203	203	203	203	0
187	215	January	January	January	3	nopreview	7	222	1333	1069	1069	390	1069	264
188	216	9	9	9,	3	nopreview	7	223	352	352	616	352	352	0
	217	,	,		3	nopreview	7	224						
189	218	killing	killing	killing	3	nopreview	7	225	252	252	252	252	252	0
190	219	four	four	four	3	nopreview	7	226	224	224	224	224	224	0
191	220	people	people	people	3	nopreview	7	227	240	240	240	240	240	0
192	221	and	and	and	3	nopreview	7	228	0	0	0	0	0	0
193	222	taking	taking	taking	3	nopreview	7	229	265	265	265	265	265	0
194	223	others	others	others	3	nopreview	7	230	163	163	163	163	163	0
195	224	hostage	hostage	hostage.	3	nopreview	7	231	213	0	0	0	0	213
	225	.	.		3	nopreview	7	232						
196	226	He	He	He	3	nopreview	7	233	140	140	353	140	140	0
197	227	was	was	was	3	nopreview	7	234	229	229	229	229	229	0
198	228	killed	killed	killed	3	nopreview	7	235	346	178	178	178	178	168
199	229	in	in	in	3	nopreview	7	236	0	0	0	0	0	0
200	230	the	the	the	3	nopreview	7	237	0	0	0	0	0	0
201	231	police	police	police	3	nopreview	7	238	296	104	464	104	296	192
202	232	operation	operation	operation	3	nopreview	7	239	529	529	529	529	529	0
203	233	to	to	to	3	nopreview	7	240	0	0	0	0	0	0
204	234	end	end	end	3	nopreview	7	241	241	241	241	241	241	0
205	235	the	the	the	3	nopreview	7	242	0	0	0	0	0	0
206	236	siege	siege	siege.	3	nopreview	7	243	368	368	368	180	368	0
	237	.	.		3	nopreview	7	244						
207	238	A	A	A	3	nopreview	7	245	0	0	0	0	0	0
208	239	24	24	24-year-old	3	nopreview	7	246	650	650	650	446	650	0
	240	-	-		3	nopreview	7	247						
	241	year	year		3	nopreview	7	248						
	242	-	-		3	nopreview	7	249						
	243	old	old		3	nopreview	7	250						
209	244	supermarket	supermarket	supermarket	3	nopreview	7	251	348	0	0	0	0	348
210	245	employee	employee	employee,	3	nopreview	7	252	357	100	705	100	357	257
	246	,	,		3	nopreview	7	253						
211	247	@entity57	Malian	Malian-born	3	nopreview	7	254	1864	1864	1864	258	1864	0
	248	-	-		3	nopreview	7	255						
	249	born	born		3	nopreview	7	256						
212	250	@entity56	Lassana	Lassana	3	nopreview	7	257	460	460	460	282	460	0
213			Bathily	Bathily,	3	nopreview	7	258	352	352	352	352	352	0
	251	,	,		3	nopreview	7	259						
214	252	was	was	was	3	nopreview	7	260	636	492	492	492	492	144
215	253	hailed	hailed	hailed	3	nopreview	7	261	473	473	617	473	473	0
216	254	as	as	as	3	nopreview	7	262	0	0	0	0	0	0
217	255	a	a	a	3	nopreview	7	263	197	197	197	197	197	0
218	256	hero	hero	hero	3	nopreview	7	264	113	113	113	113	113	0
219	257	afterward	afterward	afterward	3	nopreview	7	265	103	103	103	103	103	0
220	258	when	when	when	3	nopreview	7	266	265	0	0	0	0	265
221	259	it	it	it	3	nopreview	7	267	0	0	0	0	0	0
222	260	emerged	emerged	emerged	3	nopreview	7	268	384	108	520	108	255	276
223	261	that	that	that	3	nopreview	7	269	229	229	229	229	229	0
224	262	he	he	he	3	nopreview	7	270	0	0	0	0	0	0
225	263	had	had	had	3	nopreview	7	271	331	174	174	174	174	157
226	264	risked	risked	risked	3	nopreview	7	272	324	324	481	324	324	0
227	265	his	his	his	3	nopreview	7	273	0	0	0	0	0	0
228	266	life	life	life	3	nopreview	7	274	0	0	0	0	0	0
229	267	to	to	to	3	nopreview	7	275	444	258	258	258	258	186
230	268	hide	hide	hide	3	nopreview	7	276	232	232	232	232	232	0
231	269	15	15	15	3	nopreview	7	277	0	0	0	0	0	0
232	270	customers	customers	customers	3	nopreview	7	278	546	546	546	312	546	0
233	271	from	from	from	3	nopreview	7	279	903	479	479	479	479	424
234	272	@entity47	Coulibaly	Coulibaly	3	nopreview	7	280	1420	899	899	299	899	521
235	273	in	in	in	3	nopreview	7	281	106	106	2836	106	106	0
236	274	the	the	the	3	nopreview	7	282	0	0	0	0	0	0
237	275	cold	cold	cold	3	nopreview	7	283	0	0	0	0	0	0
238	276	room	room	room.	3	nopreview	7	284	173	0	0	0	0	173
	277	.	.		3	nopreview	7	285						
239	278	The	The	The	3	nopreview	7	286	169	169	342	169	169	0
240	279	hostage	hostage	hostage-taking	3	nopreview	7	287	817	817	817	338	817	0
	280	-	-		3	nopreview	7	288						
	281	taking	taking		3	nopreview	7	289						
241	282	was	was	was	3	nopreview	7	290	358	358	358	358	358	0
242	283	the	the	the	3	nopreview	7	291	0	0	0	0	0	0
243	284	culmination	culmination	culmination	3	nopreview	7	292	227	227	227	227	227	0
244	285	of	of	of	3	nopreview	7	293	0	0	0	0	0	0
245	286	three	three	three	3	nopreview	7	294	335	335	335	335	335	0
246	287	days	days	days	3	nopreview	7	295	237	237	237	237	237	0
247	288	of	of	of	3	nopreview	7	296	257	257	257	257	257	0
248	289	terror	terror	terror	3	nopreview	7	297	810	810	810	677	810	0
249	290	in	in	in	3	nopreview	7	298	0	0	0	0	0	0
250	291	@entity0	Paris	Paris	3	nopreview	7	299	413	413	413	146	413	0
251	292	that	that	that	3	nopreview	7	300	185	0	0	0	0	185
252	293	began	began	began	3	nopreview	7	301	574	445	445	310	445	129
253	294	with	with	with	3	nopreview	7	302	0	0	0	0	0	0
254	295	the	the	the	3	nopreview	7	303	654	286	286	286	286	368
255	296	January	January	January	3	nopreview	7	304	709	381	1077	381	709	328
256	297	7	7	7	3	nopreview	7	305	244	244	244	244	244	0
257	298	shooting	shooting	shooting	3	nopreview	7	306	195	195	195	195	195	0
258	299	of	of	of	3	nopreview	7	307	0	0	0	0	0	0
259	300	12	12	12	3	nopreview	7	308	239	239	239	239	239	0
260	301	people	people	people	3	nopreview	7	309	0	0	0	0	0	0
261	302	at	at	at	3	nopreview	7	310	153	153	153	153	153	0
262	303	the	the	the	3	nopreview	7	311	0	0	0	0	0	0
263	304	offices	offices	offices	3	nopreview	7	312	223	223	223	223	223	0
264	305	of	of	of	3	nopreview	7	313	0	0	0	0	0	0
265	306	@entity5	French	French	3	nopreview	7	314	162	162	162	162	162	0
266	307	satirical	satirical	satirical	3	nopreview	7	315	1213	624	624	624	624	589
267	308	magazine	magazine	magazine	3	nopreview	7	316	1017	459	459	251	459	558
268	309	@entity69	Charlie	Charlie	3	nopreview	7	317	1064	349	2211	230	1064	715
269			Hebdo	Hebdo.	3	nopreview	7	318	255	255	255	255	255	0
	310	.	.		3	nopreview	7	319						
270	311	The	The	The	3	nopreview	7	320	0	0	0	0	0	0
271	312	two	two	two	3	nopreview	7	321	287	287	287	287	287	0
272	313	brothers	brothers	brothers	3	nopreview	7	322	177	177	177	177	177	0
273	314	blamed	blamed	blamed	3	nopreview	7	323	645	233	233	233	233	412
274	315	for	for	for	3	nopreview	7	324	239	0	0	0	0	239
275	316	that	that	that	3	nopreview	7	325	489	268	507	268	268	221
276	317	attack	attack	attack,	3	nopreview	7	326	601	283	283	165	283	318
	318	,	,		3	nopreview	7	327						
277	319	@entity72	Cherif	Cherif	3	nopreview	7	328	861	410	410	269	410	451
278	320	and	and	and	3	nopreview	7	329	123	0	0	0	0	123
279	321	@entity73	Said	Said	3	nopreview	7	330	1531	358	358	358	358	1173
280			Kouachi	Kouachi,	3	nopreview	7	331	1137	197	3835	197	1137	940
	322	,	,		3	nopreview	7	332						
281	323	were	were	were	3	nopreview	7	333	215	215	215	215	215	0
282	324	killed	killed	killed	3	nopreview	7	334	0	0	0	0	0	0
283	325	on	on	on	3	nopreview	7	335	151	151	151	151	151	0
284	326	January	January	January	3	nopreview	7	336	238	238	238	238	238	0
285	327	9	9	9	3	nopreview	7	337	0	0	0	0	0	0
286	328	after	after	after	3	nopreview	7	338	258	258	258	258	258	0
287	329	a	a	a	3	nopreview	7	339	182	182	182	182	182	0
288	330	violent	violent	violent	3	nopreview	7	340	306	306	306	306	306	0
289	331	standoff	standoff	standoff	3	nopreview	7	341	0	0	0	0	0	0
290	332	at	at	at	3	nopreview	7	342	0	0	0	0	0	0
291	333	an	an	an	3	nopreview	7	343	134	134	134	134	134	0
292	334	industrial	industrial	industrial	3	nopreview	7	344	812	393	1126	223	812	419
293	335	site	site	site.	3	nopreview	7	345	413	0	0	0	0	413
	336	.	.		3	nopreview	7	346						
294	337	The	The	The	3	nopreview	7	347	99	99	512	99	99	0
295	338	terror	terror	terror	3	nopreview	7	348	283	283	283	283	283	0
296	339	attacks	attacks	attacks	3	nopreview	7	349	1130	917	917	917	917	213
297	340	claimed	claimed	claimed	3	nopreview	7	350	843	290	1056	290	843	553
298	341	the	the	the	3	nopreview	7	351	0	0	0	0	0	0
299	342	lives	lives	lives	3	nopreview	7	352	184	184	184	184	184	0
300	343	of	of	of	3	nopreview	7	353	234	234	234	234	234	0
301	344	17	17	17	3	nopreview	7	354	0	0	0	0	0	0
302	345	people	people	people	3	nopreview	7	355	244	244	244	244	244	0
303	346	and	and	and	3	nopreview	7	356	0	0	0	0	0	0
304	347	put	put	put	3	nopreview	7	357	253	253	253	253	253	0
305	348	@entity5	France	France	3	nopreview	7	358	302	302	302	159	302	0
306	349	on	on	on	3	nopreview	7	359	0	0	0	0	0	0
307	350	a	a	a	3	nopreview	7	360	0	0	0	0	0	0
308	351	heightened	heightened	heightened	3	nopreview	7	361	388	388	388	388	388	0
309	352	state	state	state	3	nopreview	7	362	245	245	245	245	245	0
310	353	of	of	of	3	nopreview	7	363	110	110	110	110	110	0
311	354	alert	alert	alert.	3	nopreview	7	364	359	359	359	189	359	0
	355	.	.		3	nopreview	7	365						
