HumanPosition	AnonymizedPosition	AnonymizedToken	OriginalToken	ExperimentToken	Participant	Condition	TextNo	JointPosition	tt	fp	rp	ff
	0	@entity2	Seoul		3	preview	4	1				
	1	(	(		3	preview	4	2				
	2	@entity3	CNN		3	preview	4	3				
	3	)	)		3	preview	4	4				
0	4	@entity1	South	South	3	preview	4	5	0	0	0	0
2			Korea	Korea	3	preview	4	6	351	169	169	169
	5	-s	-s		3	preview	4	7				
3	6	Prime	Prime	Prime	3	preview	4	8	0	0	0	0
4	7	Minister	Minister	Minister	3	preview	4	9	547	203	203	203
5	8	@entity0	Lee	Lee	3	preview	4	10	0	0	0	0
6			Wan	Wan-koo	3	preview	4	11	384	384	384	268
			-		3	preview	4	12				
			koo		3	preview	4	13				
7	9	offered	offered	offered	3	preview	4	14	0	0	0	0
8	10	to	to	to	3	preview	4	15	171	171	171	171
9	11	resign	resign	resign	3	preview	4	16	0	0	0	0
10	12	on	on	on	3	preview	4	17	161	161	161	161
11	13	Monday	Monday	Monday	3	preview	4	18	0	0	0	0
12	14	amid	amid	amid	3	preview	4	19	0	0	0	0
13	15	a	a	a	3	preview	4	20	0	0	0	0
14	16	growing	growing	growing	3	preview	4	21	0	0	0	0
15	17	political	political	political	3	preview	4	22	298	0	0	0
16	18	scandal	scandal	scandal.	3	preview	4	23	0	0	0	0
	19	.	.		3	preview	4	24				
17	20	@entity0	Lee	Lee	3	preview	4	25	0	0	0	0
18	21	will	will	will	3	preview	4	26	206	0	0	0
19	22	stay	stay	stay	3	preview	4	27	0	0	0	0
20	23	in	in	in	3	preview	4	28	0	0	0	0
21	24	his	his	his	3	preview	4	29	209	0	0	0
22	25	official	official	official	3	preview	4	30	0	0	0	0
23	26	role	role	role	3	preview	4	31	158	0	0	0
24	27	until	until	until	3	preview	4	32	277	0	0	0
25	28	@entity1	South	South	3	preview	4	33	132	0	0	0
26			Korean	Korean	3	preview	4	34	132	132	132	132
27	29	President	President	President	3	preview	4	35	201	201	1204	201
28	30	@entity6	Park	Park	3	preview	4	36	0	0	0	0
29			Geun	Geun-hye	3	preview	4	37	240	0	0	0
			-		3	preview	4	38				
			hye		3	preview	4	39				
30	31	accepts	accepts	accepts	3	preview	4	40	238	0	0	0
31	32	his	his	his	3	preview	4	41	124	0	0	0
32	33	resignation	resignation	resignation.	3	preview	4	42	221	0	0	0
	34	.	.		3	preview	4	43				
33	35	He	He	He	3	preview	4	44	0	0	0	0
34	36	has	has	has	3	preview	4	45	0	0	0	0
35	37	transferred	transferred	transferred	3	preview	4	46	221	0	0	0
36	38	his	his	his	3	preview	4	47	0	0	0	0
37	39	role	role	role	3	preview	4	48	0	0	0	0
38	40	of	of	of	3	preview	4	49	184	184	184	184
39	41	chairing	chairing	chairing	3	preview	4	50	705	143	2552	143
40	42	Cabinet	Cabinet	Cabinet	3	preview	4	51	213	0	0	0
41	43	meetings	meetings	meetings	3	preview	4	52	192	0	0	0
42	44	to	to	to	3	preview	4	53	0	0	0	0
43	45	the	the	the	3	preview	4	54	0	0	0	0
44	46	deputy	deputy	deputy	3	preview	4	55	238	0	0	0
45	47	prime	prime	prime	3	preview	4	56	0	0	0	0
46	48	minister	minister	minister	3	preview	4	57	152	0	0	0
47	49	for	for	for	3	preview	4	58	94	0	0	0
48	50	the	the	the	3	preview	4	59	0	0	0	0
49	51	time	time	time	3	preview	4	60	0	0	0	0
50	52	being	being	being,	3	preview	4	61	0	0	0	0
	53	,	,		3	preview	4	62				
51	54	according	according	according	3	preview	4	63	143	143	1032	143
52	55	to	to	to	3	preview	4	64	0	0	0	0
53	56	his	his	his	3	preview	4	65	0	0	0	0
54	57	office	office	office.	3	preview	4	66	409	0	0	0
	58	.	.		3	preview	4	67				
55	59	@entity13	Park	Park	3	preview	4	68	281	0	0	0
56	60	heard	heard	heard	3	preview	4	69	147	0	0	0
57	61	about	about	about	3	preview	4	70	154	0	0	0
58	62	the	the	the	3	preview	4	71	0	0	0	0
59	63	resignation	resignation	resignation	3	preview	4	72	208	0	0	0
60	64	and	and	and	3	preview	4	73	0	0	0	0
61	65	called	called	called	3	preview	4	74	0	0	0	0
62	66	it	it	it	3	preview	4	75	189	0	0	0
63	67	-	-	-regrettable,-	3	preview	4	76	316	0	0	0
	68	regrettable	regrettable		3	preview	4	77				
	69	,	,		3	preview	4	78				
	70	-	-		3	preview	4	79				
64	71	according	according	according	3	preview	4	80	205	115	1909	115
65	72	to	to	to	3	preview	4	81	0	0	0	0
66	73	the	the	the	3	preview	4	82	0	0	0	0
67	74	@entity1	South	South	3	preview	4	83	288	288	288	288
68			Korean	Korean	3	preview	4	84	0	0	0	0
69	75	presidential	presidential	presidential	3	preview	4	85	180	180	180	180
70	76	office	office	office.	3	preview	4	86	0	0	0	0
	77	.	.		3	preview	4	87				
71	78	Calls	Calls	Calls	3	preview	4	88	0	0	0	0
72	79	for	for	for	3	preview	4	89	247	247	247	247
73	80	@entity0	Lee	Lee	3	preview	4	90	0	0	0	0
74	81	to	to	to	3	preview	4	91	0	0	0	0
75	82	resign	resign	resign	3	preview	4	92	153	153	153	153
76	83	began	began	began	3	preview	4	93	130	130	130	130
77	84	after	after	after	3	preview	4	94	156	156	156	156
78	85	@entity1	South	South	3	preview	4	95	0	0	0	0
79			Korean	Korean	3	preview	4	96	0	0	0	0
80	86	tycoon	tycoon	tycoon	3	preview	4	97	273	0	0	0
81	87	@entity18	Sung	Sung	3	preview	4	98	916	0	0	0
82			Woan	Woan-jong	3	preview	4	99	1889	318	2117	318
			-		3	preview	4	100				
			jong		3	preview	4	101				
83	88	was	was	was	3	preview	4	102	0	0	0	0
84	89	found	found	found	3	preview	4	103	0	0	0	0
85	90	hanging	hanging	hanging	3	preview	4	104	257	0	0	0
86	91	from	from	from	3	preview	4	105	0	0	0	0
87	92	a	a	a	3	preview	4	106	0	0	0	0
88	93	tree	tree	tree	3	preview	4	107	166	166	166	166
89	94	in	in	in	3	preview	4	108	0	0	0	0
90	95	@entity2	Seoul	Seoul	3	preview	4	109	317	160	160	160
91	96	in	in	in	3	preview	4	110	0	0	0	0
92	97	an	an	an	3	preview	4	111	0	0	0	0
93	98	apparent	apparent	apparent	3	preview	4	112	455	211	1830	211
94	99	suicide	suicide	suicide	3	preview	4	113	0	0	0	0
95	100	on	on	on	3	preview	4	114	253	253	253	253
96	101	April	April	April	3	preview	4	115	0	0	0	0
97	102	9	9	9.	3	preview	4	116	0	0	0	0
	103	.	.		3	preview	4	117				
98	104	@entity18	Sung	Sung,	3	preview	4	118	0	0	0	0
	105	,	,		3	preview	4	119				
99	106	who	who	who	3	preview	4	120	150	150	150	150
100	107	was	was	was	3	preview	4	121	0	0	0	0
101	108	under	under	under	3	preview	4	122	163	0	0	0
102	109	investigation	investigation	investigation	3	preview	4	123	133	133	133	133
103	110	for	for	for	3	preview	4	124	0	0	0	0
104	111	fraud	fraud	fraud	3	preview	4	125	287	0	0	0
105	112	and	and	and	3	preview	4	126	0	0	0	0
106	113	bribery	bribery	bribery,	3	preview	4	127	234	0	0	0
	114	,	,		3	preview	4	128				
107	115	left	left	left	3	preview	4	129	151	0	0	0
108	116	a	a	a	3	preview	4	130	0	0	0	0
109	117	note	note	note	3	preview	4	131	0	0	0	0
110	118	listing	listing	listing	3	preview	4	132	633	345	345	207
111	119	names	names	names	3	preview	4	133	0	0	0	0
112	120	and	and	and	3	preview	4	134	137	0	0	0
113	121	amounts	amounts	amounts	3	preview	4	135	197	197	197	197
114	122	of	of	of	3	preview	4	136	170	0	0	0
115	123	cash	cash	cash	3	preview	4	137	0	0	0	0
116	124	given	given	given	3	preview	4	138	354	188	188	188
117	125	to	to	to	3	preview	4	139	0	0	0	0
118	126	top	top	top	3	preview	4	140	138	0	0	0
119	127	officials	officials	officials,	3	preview	4	141	451	183	321	183
	128	,	,		3	preview	4	142				
120	129	including	including	including	3	preview	4	143	448	197	2312	197
121	130	those	those	those	3	preview	4	144	0	0	2115	0
122	131	who	who	who	3	preview	4	145	0	0	0	0
123	132	work	work	work	3	preview	4	146	0	0	0	0
124	133	for	for	for	3	preview	4	147	244	244	244	244
125	134	the	the	the	3	preview	4	148	0	0	0	0
126	135	President	President	President.	3	preview	4	149	100	100	100	100
	136	.	.		3	preview	4	150				
127	137	@entity0	Lee	Lee	3	preview	4	151	0	0	0	0
128	138	and	and	and	3	preview	4	152	0	0	0	0
129	139	seven	seven	seven	3	preview	4	153	0	0	0	0
130	140	other	other	other	3	preview	4	154	0	0	0	0
131	141	politicians	politicians	politicians	3	preview	4	155	0	0	0	0
132	142	with	with	with	3	preview	4	156	0	0	0	0
133	143	links	links	links	3	preview	4	157	0	0	0	0
134	144	to	to	to	3	preview	4	158	0	0	0	0
135	145	the	the	the	3	preview	4	159	0	0	0	0
136	146	@entity1	South	South	3	preview	4	160	0	0	0	0
137			Korean	Korean	3	preview	4	161	0	0	0	0
138	147	President	President	President	3	preview	4	162	136	136	136	136
139	148	are	are	are	3	preview	4	163	0	0	0	0
140	149	under	under	under	3	preview	4	164	0	0	0	0
141	150	investigation	investigation	investigation.	3	preview	4	165	0	0	0	0
	151	.	.		3	preview	4	166				
142	152	A	A	A	3	preview	4	167	140	140	140	140
143	153	special	special	special	3	preview	4	168	0	0	0	0
144	154	prosecutor	prosecutor	prosecutor-s	3	preview	4	169	220	220	220	220
	155	-s	-s		3	preview	4	170				
145	156	team	team	team	3	preview	4	171	0	0	0	0
146	157	has	has	has	3	preview	4	172	0	0	0	0
147	158	been	been	been	3	preview	4	173	0	0	0	0
148	159	established	established	established	3	preview	4	174	261	261	261	115
149	160	to	to	to	3	preview	4	175	0	0	0	0
150	161	investigate	investigate	investigate	3	preview	4	176	153	153	153	153
151	162	the	the	the	3	preview	4	177	0	0	0	0
152	163	case	case	case.	3	preview	4	178	0	0	0	0
	164	.	.		3	preview	4	179				
153	165	@entity0	Lee	Lee	3	preview	4	180	0	0	0	0
154	166	had	had	had	3	preview	4	181	0	0	0	0
155	167	adamantly	adamantly	adamantly	3	preview	4	182	0	0	0	0
156	168	denied	denied	denied	3	preview	4	183	194	194	194	194
157	169	the	the	the	3	preview	4	184	0	0	0	0
158	170	allegations	allegations	allegations	3	preview	4	185	0	0	0	0
159	171	as	as	as	3	preview	4	186	0	0	0	0
160	172	the	the	the	3	preview	4	187	0	0	0	0
161	173	scandal	scandal	scandal	3	preview	4	188	202	0	0	0
162	174	escalated	escalated	escalated:	3	preview	4	189	98	0	0	0
163	175	:	:	-If	3	preview	4	190	155	0	0	0
	176	-	-		3	preview	4	191				
164	177	If	If	there	3	preview	4	192	0	0	0	0
	178	there	there		3	preview	4	193				
165	179	are	are	are	3	preview	4	194	208	0	0	0
166	180	any	any	any	3	preview	4	195	0	0	0	0
167	181	evidence	evidence	evidence,	3	preview	4	196	125	0	0	0
	182	,	,		3	preview	4	197				
168	183	I	I	I	3	preview	4	198	0	0	0	0
169	184	will	will	will	3	preview	4	199	0	0	0	0
170	185	give	give	give	3	preview	4	200	0	0	0	0
171	186	out	out	out	3	preview	4	201	180	0	0	0
172	187	my	my	my	3	preview	4	202	0	0	0	0
173	188	life	life	life.	3	preview	4	203	184	0	0	0
	189	.	.		3	preview	4	204				
174	190	As	As	As	3	preview	4	205	359	359	359	359
175	191	a	a	a	3	preview	4	206	0	0	0	0
176	192	Prime	Prime	Prime	3	preview	4	207	228	228	1380	228
177	193	Minister	Minister	Minister,	3	preview	4	208	186	0	0	0
	194	,	,		3	preview	4	209				
178	195	I	I	I	3	preview	4	210	0	0	0	0
179	196	will	will	will	3	preview	4	211	0	0	0	0
180	197	accept	accept	accept	3	preview	4	212	547	0	0	0
181	198	Prosecutor	Prosecutor	Prosecutor	3	preview	4	213	364	0	0	0
182	199	@entity44	Office	Office-s	3	preview	4	214	0	0	0	0
	200	-s	-s		3	preview	4	215				
183	201	investigation	investigation	investigation	3	preview	4	216	194	0	0	0
184	202	first	first	first.-	3	preview	4	217	0	0	0	0
	203	.	.		3	preview	4	218				
185	204	-	-	Park	3	preview	4	219	0	0	0	0
	205	@entity46	Park		3	preview	4	220				
186	206	has	has	has	3	preview	4	221	0	0	0	0
187	207	said	said	said	3	preview	4	222	287	287	1456	287
188	208	that	that	that	3	preview	4	223	0	0	0	0
189	209	she	she	she	3	preview	4	224	0	0	0	0
190	210	is	is	is	3	preview	4	225	0	0	0	0
191	211	taking	taking	taking	3	preview	4	226	232	0	0	0
192	212	the	the	the	3	preview	4	227	162	0	0	0
193	213	accusations	accusations	accusations	3	preview	4	228	203	0	0	0
194	214	very	very	very	3	preview	4	229	0	0	0	0
195	215	seriously	seriously	seriously.	3	preview	4	230	0	0	0	0
	216	.	.		3	preview	4	231				
196	217	Before	Before	Before	3	preview	4	232	0	0	0	0
197	218	departing	departing	departing	3	preview	4	233	0	0	0	0
198	219	on	on	on	3	preview	4	234	0	0	0	0
199	220	her	her	her	3	preview	4	235	0	0	0	0
200	221	trip	trip	trip	3	preview	4	236	225	225	225	225
201	222	to	to	to	3	preview	4	237	0	0	0	0
202	223	@entity50	Central	Central	3	preview	4	238	197	197	916	197
203			and	and	3	preview	4	239	0	0	0	0
204			South	South	3	preview	4	240	0	0	0	0
205			America	America,	3	preview	4	241	176	0	0	0
	224	,	,		3	preview	4	242				
206	225	she	she	she	3	preview	4	243	107	0	0	0
207	226	condemned	condemned	condemned	3	preview	4	244	0	0	0	0
208	227	political	political	political	3	preview	4	245	0	0	0	0
209	228	corruption	corruption	corruption	3	preview	4	246	229	0	0	0
210	229	in	in	in	3	preview	4	247	0	0	0	0
211	230	her	her	her	3	preview	4	248	0	0	0	0
212	231	country	country	country.	3	preview	4	249	0	0	0	0
	232	.	.		3	preview	4	250				
213	233	-	-	-Corruption	3	preview	4	251	461	240	973	240
	234	Corruption	Corruption		3	preview	4	252				
214	235	and	and	and	3	preview	4	253	0	0	0	0
215	236	deep	deep	deep-rooted	3	preview	4	254	0	0	0	0
	237	-	-		3	preview	4	255				
	238	rooted	rooted		3	preview	4	256				
216	239	evil	evil	evil	3	preview	4	257	0	0	0	0
217	240	are	are	are	3	preview	4	258	0	0	0	0
218	241	issues	issues	issues	3	preview	4	259	0	0	0	0
219	242	that	that	that	3	preview	4	260	0	0	0	0
220	243	can	can	can	3	preview	4	261	0	0	0	0
221	244	lead	lead	lead	3	preview	4	262	0	0	0	0
222	245	to	to	to	3	preview	4	263	0	0	0	0
223	246	taking	taking	taking	3	preview	4	264	0	0	0	0
224	247	away	away	away	3	preview	4	265	0	0	0	0
225	248	people	people	people-s	3	preview	4	266	0	0	0	0
	249	-s	-s		3	preview	4	267				
226	250	lives	lives	lives.	3	preview	4	268	0	0	0	0
	251	.	.		3	preview	4	269				
227	252	We	We	We	3	preview	4	270	0	0	0	0
228	253	take	take	take	3	preview	4	271	0	0	0	0
229	254	this	this	this	3	preview	4	272	0	0	0	0
230	255	very	very	very	3	preview	4	273	0	0	0	0
231	256	seriously	seriously	seriously.-	3	preview	4	274	0	0	0	0
	257	.	.		3	preview	4	275				
232	258	-	-	-We	3	preview	4	276	0	0	0	0
	259	-	-		3	preview	4	277				
233	260	We	We	must	3	preview	4	278	0	0	0	0
	261	must	must		3	preview	4	279				
234	262	make	make	make	3	preview	4	280	0	0	0	0
235	263	sure	sure	sure	3	preview	4	281	0	0	0	0
236	264	to	to	to	3	preview	4	282	0	0	0	0
237	265	set	set	set	3	preview	4	283	225	225	225	225
238	266	straight	straight	straight	3	preview	4	284	0	0	0	0
239	267	this	this	this	3	preview	4	285	0	0	0	0
240	268	issue	issue	issue	3	preview	4	286	0	0	0	0
241	269	as	as	as	3	preview	4	287	0	0	0	0
242	270	a	a	a	3	preview	4	288	0	0	0	0
243	271	matter	matter	matter	3	preview	4	289	0	0	0	0
244	272	of	of	of	3	preview	4	290	0	0	0	0
245	273	political	political	political	3	preview	4	291	0	0	0	0
246	274	reform	reform	reform.	3	preview	4	292	0	0	0	0
	275	.	.		3	preview	4	293				
247	276	I	I	I	3	preview	4	294	0	0	0	0
248	277	will	will	will	3	preview	4	295	224	224	224	224
249	278	not	not	not	3	preview	4	296	0	0	0	0
250	279	forgive	forgive	forgive	3	preview	4	297	0	0	0	0
251	280	anyone	anyone	anyone	3	preview	4	298	0	0	0	0
252	281	who	who	who	3	preview	4	299	0	0	0	0
253	282	is	is	is	3	preview	4	300	0	0	0	0
254	283	responsible	responsible	responsible	3	preview	4	301	0	0	0	0
255	284	for	for	for	3	preview	4	302	0	0	0	0
256	285	corruption	corruption	corruption	3	preview	4	303	0	0	0	0
257	286	or	or	or	3	preview	4	304	0	0	0	0
258	287	wrongdoing	wrongdoing	wrongdoing.-	3	preview	4	305	0	0	0	0
	288	.	.		3	preview	4	306				
259	289	-	-	Park	3	preview	4	307	0	0	0	0
	290	@entity13	Park		3	preview	4	308				
260	291	is	is	is	3	preview	4	309	0	0	0	0
261	292	in	in	in	3	preview	4	310	0	0	0	0
262	293	@entity66	Peru	Peru	3	preview	4	311	0	0	0	0
263	294	and	and	and	3	preview	4	312	0	0	0	0
264	295	is	is	is	3	preview	4	313	0	0	0	0
265	296	expected	expected	expected	3	preview	4	314	0	0	0	0
266	297	to	to	to	3	preview	4	315	0	0	0	0
267	298	arrive	arrive	arrive	3	preview	4	316	0	0	0	0
268	299	back	back	back	3	preview	4	317	0	0	0	0
269	300	to	to	to	3	preview	4	318	0	0	0	0
270	301	@entity1	South	South	3	preview	4	319	0	0	0	0
271			Korea	Korea	3	preview	4	320	0	0	0	0
272	302	on	on	on	3	preview	4	321	0	0	0	0
273	303	April	April	April	3	preview	4	322	0	0	0	0
274	304	27	27	27.	3	preview	4	323	0	0	0	0
	305	.	.		3	preview	4	324				
