HumanPosition	AnonymizedPosition	AnonymizedToken	OriginalToken	ExperimentToken	Participant	Condition	TextNo	JointPosition	tt	fp	rp	ff
1	0	A	A	A	12	nopreview	20	1	0	0	0	0
2	1	physician	physician	physician,	12	nopreview	20	2	352	352	352	129
	2	,	,		12	nopreview	20	3				
3	3	93	93	93,	12	nopreview	20	4	381	381	381	381
	4	,	,		12	nopreview	20	5				
4	5	who	who	who	12	nopreview	20	6	182	182	182	182
5				was	12	nopreview	20	7	369	0	0	0
6	6	team	team	team	12	nopreview	20	8	195	195	195	195
7	7	doctor	doctor	doctor	12	nopreview	20	9	346	135	504	135
8	8	for	for	for	12	nopreview	20	10	563	295	506	295
9	9	five	five	five	12	nopreview	20	11	495	273	273	273
10	10	@entity6	U.S.	U.S.	12	nopreview	20	12	320	134	810	134
11	11	men	men	men-s	12	nopreview	20	13	229	229	229	229
	12	-s	-s		12	nopreview	20	14				
12	13	@entity4	Olympic	Olympic	12	nopreview	20	15	0	0	0	0
13	14	hockey	hockey	hockey	12	nopreview	20	16	0	0	0	0
14	15	squads	squads	squads,	12	nopreview	20	17	152	152	152	152
	16	,	,		12	nopreview	20	18				
15	17	including	including	including	12	nopreview	20	19	312	312	312	123
16	18	the	the	the	12	nopreview	20	20	0	0	0	0
17	19	-	-	-Miracle	12	nopreview	20	21	203	203	203	203
	20	@entity8	Miracle		12	nopreview	20	22				
18			on	on	12	nopreview	20	23	0	0	0	0
19			Ice	Ice-	12	nopreview	20	24	0	0	0	0
	21	-	-		12	nopreview	20	25				
20	22	team	team	team	12	nopreview	20	26	217	217	217	217
21	23	that	that	that	12	nopreview	20	27	220	0	0	0
22	24	won	won	won	12	nopreview	20	28	185	185	185	185
23	25	in	in	in	12	nopreview	20	29	0	0	0	0
24	26	the	the	the	12	nopreview	20	30	238	238	458	238
25	27	1980	1980	1980-s,	12	nopreview	20	31	213	213	213	213
	28	-s	-s		12	nopreview	20	32				
	29	,	,		12	nopreview	20	33				
26	30	has	has	has	12	nopreview	20	34	0	0	0	0
27	31	suffered	suffered	suffered	12	nopreview	20	35	266	266	266	266
28	32	serious	serious	serious	12	nopreview	20	36	205	205	205	205
29	33	injuries	injuries	injuries	12	nopreview	20	37	138	138	138	138
30	34	in	in	in	12	nopreview	20	38	0	0	0	0
31	35	an	an	an	12	nopreview	20	39	312	0	0	0
32	36	attack	attack	attack	12	nopreview	20	40	206	206	518	206
33	37	while	while	while	12	nopreview	20	41	222	0	0	0
34	38	visiting	visiting	visiting	12	nopreview	20	42	228	228	450	228
35	39	his	his	his	12	nopreview	20	43	152	152	152	152
36	40	wife	wife	wife-s	12	nopreview	20	44	245	245	245	245
	41	-s	-s		12	nopreview	20	45				
37	42	grave	grave	grave	12	nopreview	20	46	151	151	151	151
38	43	on	on	on	12	nopreview	20	47	0	0	0	0
39	44	Sunday	Sunday	Sunday.	12	nopreview	20	48	234	234	234	234
	45	.	.		12	nopreview	20	49				
40	46	@entity13	George	George	12	nopreview	20	50	249	249	249	249
41			Nagobads	Nagobads	12	nopreview	20	51	288	288	288	197
42	47	was	was	was	12	nopreview	20	52	0	0	0	0
43	48	allegedly	allegedly	allegedly	12	nopreview	20	53	317	317	317	150
44	49	mugged	mugged	mugged	12	nopreview	20	54	229	229	229	229
45	50	by	by	by	12	nopreview	20	55	211	0	0	0
46	51	a	a	a	12	nopreview	20	56	0	0	0	0
47	52	teenager	teenager	teenager	12	nopreview	20	57	493	236	447	236
48	53	on	on	on	12	nopreview	20	58	0	0	0	0
49	54	Sunday	Sunday	Sunday	12	nopreview	20	59	484	256	741	256
50	55	afternoon	afternoon	afternoon	12	nopreview	20	60	212	212	212	212
51	56	at	at	at	12	nopreview	20	61	0	0	0	0
52	57	the	the	the	12	nopreview	20	62	207	207	207	207
53	58	@entity15	Crystal	Crystal	12	nopreview	20	63	174	174	174	174
54			Lake	Lake	12	nopreview	20	64	0	0	0	0
55			Cemetery	Cemetery	12	nopreview	20	65	463	463	463	307
56	59	in	in	in	12	nopreview	20	66	0	0	0	0
57	60	@entity16	Minneapolis	Minneapolis	12	nopreview	20	67	210	210	210	210
58	61	while	while	while	12	nopreview	20	68	184	184	184	184
59	62	laying	laying	laying	12	nopreview	20	69	209	209	209	209
60	63	flowers	flowers	flowers	12	nopreview	20	70	218	218	218	218
61	64	on	on	on	12	nopreview	20	71	0	0	0	0
62	65	his	his	his	12	nopreview	20	72	0	0	0	0
63	66	wife	wife	wife	12	nopreview	20	73	338	338	338	338
64	67	@entity18	Velta	Velta-s	12	nopreview	20	74	229	229	229	229
	68	-s	-s		12	nopreview	20	75				
65	69	grave	grave	grave.	12	nopreview	20	76	0	0	0	0
	70	.	.		12	nopreview	20	77				
66	71	He	He	He	12	nopreview	20	78	167	167	167	167
67	72	was	was	was	12	nopreview	20	79	0	0	0	0
68	73	released	released	released	12	nopreview	20	80	383	383	383	232
69	74	from	from	from	12	nopreview	20	81	250	250	250	250
70	75	the	the	the	12	nopreview	20	82	0	0	0	0
71	76	hospital	hospital	hospital	12	nopreview	20	83	296	296	296	147
72	77	on	on	on	12	nopreview	20	84	0	0	0	0
73	78	Tuesday	Tuesday	Tuesday	12	nopreview	20	85	117	117	117	117
74	79	with	with	with	12	nopreview	20	86	120	120	120	120
75	80	18	18	18	12	nopreview	20	87	0	0	0	0
76	81	stitches	stitches	stitches	12	nopreview	20	88	411	411	411	239
77	82	in	in	in	12	nopreview	20	89	0	0	0	0
78	83	his	his	his	12	nopreview	20	90	382	0	0	0
79	84	head	head	head.	12	nopreview	20	91	210	210	592	210
	85	.	.		12	nopreview	20	92				
80	86	Scroll	Scroll	After	12	nopreview	20	93	0	0	0	0
	87	down	down		12	nopreview	20	94				
	88	for	for		12	nopreview	20	95				
81	89	video	video	allegedly	12	nopreview	20	96	462	462	462	233
	90	Injured	Injured		12	nopreview	20	97				
	91	:	:		12	nopreview	20	98				
	92	Dr.	Dr.		12	nopreview	20	99				
	93	@entity13	George		12	nopreview	20	100				
			Nagobads		12	nopreview	20	101				
	94	,	,		12	nopreview	20	102				
	95	pictured	pictured		12	nopreview	20	103				
	96	in	in		12	nopreview	20	104				
	97	2010	2010		12	nopreview	20	105				
	98	with	with		12	nopreview	20	106				
	99	his	his		12	nopreview	20	107				
	100	@entity25	Hall		12	nopreview	20	108				
			of		12	nopreview	20	109				
			Fame		12	nopreview	20	110				
	101	plaque	plaque		12	nopreview	20	111				
	102	,	,		12	nopreview	20	112				
	103	was	was		12	nopreview	20	113				
	104	allegedly	allegedly		12	nopreview	20	114				
82	105	attacked	attacked	being	12	nopreview	20	115	247	247	247	247
	106	on	on		12	nopreview	20	116				
	107	Sunday	Sunday		12	nopreview	20	117				
	108	by	by		12	nopreview	20	118				
	109	a	a		12	nopreview	20	119				
	110	teenager	teenager		12	nopreview	20	120				
	111	in	in		12	nopreview	20	121				
83	112	a	a	attacked	12	nopreview	20	122	169	169	169	169
	113	cemetary	cemetary		12	nopreview	20	123				
	114	Visiting	Visiting		12	nopreview	20	124				
	115	his	his		12	nopreview	20	125				
	116	wife	wife		12	nopreview	20	126				
	117	:	:		12	nopreview	20	127				
	118	@entity13	Nagobads		12	nopreview	20	128				
	119	was	was		12	nopreview	20	129				
	120	visiting	visiting		12	nopreview	20	130				
	121	his	his		12	nopreview	20	131				
	122	wife	wife		12	nopreview	20	132				
	123	-s	-s		12	nopreview	20	133				
	124	grave	grave		12	nopreview	20	134				
	125	at	at		12	nopreview	20	135				
	126	The	The		12	nopreview	20	136				
	127	@entity15	Crystal		12	nopreview	20	137				
			Lake		12	nopreview	20	138				
			Cemetery		12	nopreview	20	139				
	128	when	when		12	nopreview	20	140				
	129	he	he		12	nopreview	20	141				
	130	was	was		12	nopreview	20	142				
	131	allegedly	allegedly		12	nopreview	20	143				
	132	beaten	beaten		12	nopreview	20	144				
	133	with	with		12	nopreview	20	145				
	134	a	a		12	nopreview	20	146				
	135	snowbrush	snowbrush		12	nopreview	20	147				
	136	After	After		12	nopreview	20	148				
	137	allegedly	allegedly		12	nopreview	20	149				
	138	being	being		12	nopreview	20	150				
	139	attacked	attacked		12	nopreview	20	151				
84	140	by	by	by	12	nopreview	20	152	149	149	149	149
85	141	a	a	a	12	nopreview	20	153	0	0	0	0
86	142	snowbrush	snowbrush	snowbrush	12	nopreview	20	154	386	0	0	0
87	143	on	on	on	12	nopreview	20	155	343	119	729	119
88	144	Sunday	Sunday	Sunday,	12	nopreview	20	156	157	157	157	157
	145	,	,		12	nopreview	20	157				
89	146	a	a	a	12	nopreview	20	158	0	0	0	0
90	147	bloodied	bloodied	bloodied	12	nopreview	20	159	196	196	196	196
91	148	@entity31	Nagobads	Nagobads	12	nopreview	20	160	419	419	419	205
92	149	managed	managed	managed	12	nopreview	20	161	290	290	290	290
93	150	to	to	to	12	nopreview	20	162	0	0	0	0
94	151	get	get	get	12	nopreview	20	163	249	249	249	249
95	152	back	back	back	12	nopreview	20	164	0	0	0	0
96	153	in	in	in	12	nopreview	20	165	311	151	151	151
97	154	his	his	his	12	nopreview	20	166	324	0	0	0
98	155	car	car	car	12	nopreview	20	167	179	179	663	179
99	156	and	and	and	12	nopreview	20	168	0	0	0	0
100	157	drive	drive	drive	12	nopreview	20	169	187	187	187	187
101	158	away	away	away.	12	nopreview	20	170	203	0	0	0
	159	.	.		12	nopreview	20	171				
102	160	@entity31	Nagobads	Nagobads,	12	nopreview	20	172	365	120	568	120
	161	,	,		12	nopreview	20	173				
103	162	who	who	who	12	nopreview	20	174	221	0	0	0
104	163	is	is	is	12	nopreview	20	175	166	166	387	166
105	164	recovering	recovering	recovering	12	nopreview	20	176	168	168	168	168
106	165	at	at	at	12	nopreview	20	177	0	0	0	0
107	166	home	home	home,	12	nopreview	20	178	188	188	188	82
	167	,	,		12	nopreview	20	179				
108	168	said	said	said	12	nopreview	20	180	0	0	0	0
109	169	on	on	on	12	nopreview	20	181	236	236	236	236
110	170	Tuesday	Tuesday	Tuesday	12	nopreview	20	182	0	0	0	0
111	171	that	that	that	12	nopreview	20	183	193	193	193	193
112	172	he	he	he	12	nopreview	20	184	0	0	0	0
113	173	sped	sped	sped	12	nopreview	20	185	187	187	187	187
114	174	to	to	to	12	nopreview	20	186	177	177	177	177
115	175	a	a	a	12	nopreview	20	187	305	0	0	0
116	176	nearby	nearby	nearby	12	nopreview	20	188	316	316	621	316
117	177	hospital	hospital	hospital	12	nopreview	20	189	315	315	315	158
118	178	following	following	following	12	nopreview	20	190	409	181	181	181
119	179	the	the	the	12	nopreview	20	191	267	267	495	174
120	180	beating	beating	beating.	12	nopreview	20	192	272	272	272	272
	181	.	.		12	nopreview	20	193				
121	182	He	He	He	12	nopreview	20	194	0	0	0	0
122	183	told	told	told	12	nopreview	20	195	0	0	0	0
123	184	@entity37	The	The	12	nopreview	20	196	190	190	190	190
124			Star	Star	12	nopreview	20	197	0	0	0	0
125			Tribune	Tribune	12	nopreview	20	198	219	219	219	219
126	185	that	that	that	12	nopreview	20	199	0	0	0	0
127	186	he	he	he	12	nopreview	20	200	355	355	355	355
128	187	suffered	suffered	suffered	12	nopreview	20	201	197	197	197	197
129	188	a	a	a	12	nopreview	20	202	0	0	0	0
130	189	slight	slight	slight	12	nopreview	20	203	240	240	240	240
131	190	concussion	concussion	concussion	12	nopreview	20	204	371	371	371	122
132	191	and	and	and	12	nopreview	20	205	0	0	0	0
133	192	was	was	was	12	nopreview	20	206	232	232	232	232
134	193	kept	kept	kept	12	nopreview	20	207	220	220	220	220
135	194	overnight	overnight	overnight	12	nopreview	20	208	114	114	114	114
136	195	for	for	for	12	nopreview	20	209	0	0	0	0
137	196	observation	observation	observation.	12	nopreview	20	210	403	403	403	185
	197	.	.		12	nopreview	20	211				
138	198	Video	Video	-I	12	nopreview	20	212	0	0	0	0
	199	courtesy	courtesy		12	nopreview	20	213				
	200	@entity40	Fox		12	nopreview	20	214				
			9		12	nopreview	20	215				
139	201	-	-	brought	12	nopreview	20	216	275	275	275	275
	202	I	I		12	nopreview	20	217				
	203	brought	brought		12	nopreview	20	218				
140	204	new	new	new	12	nopreview	20	219	0	0	0	0
141	205	flowers	flowers	flowers	12	nopreview	20	220	425	425	425	257
142	206	and	and	and	12	nopreview	20	221	0	0	0	0
143	207	was	was	was	12	nopreview	20	222	235	235	235	235
144	208	just	just	just	12	nopreview	20	223	186	0	0	0
145	209	stooping	stooping	stooping	12	nopreview	20	224	154	154	340	154
146	210	down	down	down,-	12	nopreview	20	225	352	352	352	352
	211	,	,		12	nopreview	20	226				
147	212	-	-	said	12	nopreview	20	227	0	0	0	0
	213	said	said		12	nopreview	20	228				
148	214	@entity13	Nagobads	Nagobads	12	nopreview	20	229	402	402	402	129
149	215	of	of	of	12	nopreview	20	230	0	0	0	0
150	216	honoring	honoring	honoring	12	nopreview	20	231	329	329	329	329
151	217	his	his	his	12	nopreview	20	232	0	0	0	0
152	218	wife	wife	wife	12	nopreview	20	233	353	353	353	210
153	219	@entity31	Velta	Velta	12	nopreview	20	234	247	247	247	247
154			Nagobads	Nagobads	12	nopreview	20	235	0	0	0	0
155	220	who	who	who	12	nopreview	20	236	194	194	194	194
156	221	died	died	died	12	nopreview	20	237	164	164	164	164
157	222	in	in	in	12	nopreview	20	238	685	685	685	243
158	223	2005	2005	2005.	12	nopreview	20	239	565	432	432	432
	224	.	.		12	nopreview	20	240				
159	225	Nagobads	Nagobads	Nagobads	12	nopreview	20	241	655	350	350	350
160	226	said	said	said	12	nopreview	20	242	213	213	213	213
161	227	that	that	that	12	nopreview	20	243	412	161	161	161
162	228	by	by	by	12	nopreview	20	244	221	0	0	0
163	229	throwing	throwing	throwing	12	nopreview	20	245	613	236	708	236
164	230	his	his	his	12	nopreview	20	246	429	429	429	199
165	231	wallet	wallet	wallet	12	nopreview	20	247	0	0	0	0
166	232	in	in	in	12	nopreview	20	248	0	0	0	0
167	233	attempt	attempt	attempt	12	nopreview	20	249	462	462	462	297
168	234	to	to	to	12	nopreview	20	250	0	0	0	0
169	235	distract	distract	distract	12	nopreview	20	251	161	161	161	161
170	236	the	the	the	12	nopreview	20	252	0	0	0	0
171	237	teen	teen	teen	12	nopreview	20	253	584	584	584	178
172	238	he	he	he	12	nopreview	20	254	226	226	226	226
173	239	was	was	was	12	nopreview	20	255	180	0	0	0
174	240	able	able	able	12	nopreview	20	256	137	137	317	137
175	241	to	to	to	12	nopreview	20	257	0	0	0	0
176	242	get	get	get	12	nopreview	20	258	0	0	0	0
177	243	away	away	away	12	nopreview	20	259	362	362	362	201
178	244	without	without	without	12	nopreview	20	260	304	304	304	304
179	245	further	further	further	12	nopreview	20	261	0	0	0	0
180	246	harm	harm	harm.	12	nopreview	20	262	447	447	447	278
	247	.	.		12	nopreview	20	263				
181	248	-	-	-I-m	12	nopreview	20	264	249	0	0	0
	249	I	I		12	nopreview	20	265				
	250	’m	’m		12	nopreview	20	266				
182	251	so	so	so	12	nopreview	20	267	241	241	490	241
183	252	lucky	lucky	lucky.	12	nopreview	20	268	256	256	256	256
	253	.	.		12	nopreview	20	269				
184	254	…	…	...	12	nopreview	20	270	0	0	0	0
185	255	I	I	I	12	nopreview	20	271	0	0	0	0
186	256	used	used	used	12	nopreview	20	272	240	240	240	240
187	257	that	that	that	12	nopreview	20	273	491	491	491	293
188	258	little	little	little	12	nopreview	20	274	0	0	0	0
189	259	trick	trick	trick	12	nopreview	20	275	291	291	291	291
190	260	and	and	and	12	nopreview	20	276	0	0	0	0
191	261	threw	threw	threw	12	nopreview	20	277	288	288	288	288
192	262	the	the	the	12	nopreview	20	278	86	0	0	0
193	263	wallet	wallet	wallet	12	nopreview	20	279	269	269	355	145
194	264	to	to	to	12	nopreview	20	280	0	0	0	0
195	265	get	get	get	12	nopreview	20	281	221	221	221	92
196	266	to	to	to	12	nopreview	20	282	184	0	0	0
197	267	my	my	my	12	nopreview	20	283	581	449	765	274
198	268	car	car	car-	12	nopreview	20	284	0	0	0	0
	269	-	-		12	nopreview	20	285				
199	270	about	about	about	12	nopreview	20	286	142	0	0	0
200	271	40	40	40	12	nopreview	20	287	180	180	322	180
201	272	yards	yards	yards	12	nopreview	20	288	0	0	0	0
202	273	away	away	away,	12	nopreview	20	289	428	183	183	183
	274	,	,		12	nopreview	20	290				
203	275	the	the	the	12	nopreview	20	291	467	210	712	210
204	276	doctor	doctor	doctor	12	nopreview	20	292	196	196	196	196
205	277	said	said	said.	12	nopreview	20	293	254	254	254	254
	278	.	.		12	nopreview	20	294				
206	279	As	As	As	12	nopreview	20	295	108	108	108	108
207	280	the	the	the	12	nopreview	20	296	0	0	0	0
208	281	boy	boy	boy	12	nopreview	20	297	311	311	311	149
209	282	picked	picked	picked	12	nopreview	20	298	166	166	166	166
210	283	up	up	up	12	nopreview	20	299	0	0	0	0
211	284	the	the	the	12	nopreview	20	300	620	620	620	214
212	285	wallet	wallet	wallet,	12	nopreview	20	301	0	0	0	0
	286	,	,		12	nopreview	20	302				
213	287	@entity31	Nagobads	Nagobads	12	nopreview	20	303	529	281	281	281
214	288	continued	continued	continued,	12	nopreview	20	304	438	438	686	156
	289	,	,		12	nopreview	20	305				
215	290	-	-	-I	12	nopreview	20	306	157	0	0	0
	291	I	I		12	nopreview	20	307				
216	292	was	was	was	12	nopreview	20	308	237	237	237	237
217	293	running	running	running	12	nopreview	20	309	0	0	0	0
218	294	…	…	...	12	nopreview	20	310	161	161	161	161
219	295	really	really	really	12	nopreview	20	311	579	195	195	195
220	296	fast	fast	fast.	12	nopreview	20	312	663	491	1047	491
	297	.	.		12	nopreview	20	313				
221	298	I	I	I	12	nopreview	20	314	0	0	0	0
222	299	was	was	was	12	nopreview	20	315	0	0	0	0
223	300	surprised	surprised	surprised	12	nopreview	20	316	353	353	353	353
224	301	how	how	how	12	nopreview	20	317	0	0	0	0
225	302	I	I	I	12	nopreview	20	318	178	178	178	178
226	303	could	could	could	12	nopreview	20	319	234	234	234	234
227	304	run	run	run	12	nopreview	20	320	175	175	175	175
228	305	like	like	like	12	nopreview	20	321	0	0	0	0
229	306	this	this	this.-	12	nopreview	20	322	205	205	205	205
	307	.	.		12	nopreview	20	323				
230	308	-	-	Nagobads	12	nopreview	20	324	508	319	319	147
	309	Victory	Victory		12	nopreview	20	325				
	310	:	:		12	nopreview	20	326				
	311	He	He		12	nopreview	20	327				
	312	was	was		12	nopreview	20	328				
	313	the	the		12	nopreview	20	329				
	314	doctor	doctor		12	nopreview	20	330				
	315	fro	fro		12	nopreview	20	331				
	316	the	the		12	nopreview	20	332				
	317	-	-		12	nopreview	20	333				
	318	@entity8	Miracle		12	nopreview	20	334				
			on		12	nopreview	20	335				
			Ice		12	nopreview	20	336				
	319	-	-		12	nopreview	20	337				
	320	team	team		12	nopreview	20	338				
	321	that	that		12	nopreview	20	339				
	322	won	won		12	nopreview	20	340				
	323	the	the		12	nopreview	20	341				
	324	improbable	improbable		12	nopreview	20	342				
	325	gold	gold		12	nopreview	20	343				
	326	medal	medal		12	nopreview	20	344				
	327	in	in		12	nopreview	20	345				
	328	@entity62	Lake		12	nopreview	20	346				
	329	@entity8	Placid		12	nopreview	20	347				
			Miracle		12	nopreview	20	348				
			on		12	nopreview	20	349				
			Ice		12	nopreview	20	350				
	330	:	:		12	nopreview	20	351				
	331	Nagobads	Nagobads		12	nopreview	20	352				
231	332	was	was	said	12	nopreview	20	353	139	0	0	0
232	333	team	team	that	12	nopreview	20	354	390	158	297	158
233	334	doctor	doctor	he	12	nopreview	20	355	124	0	0	0
	335	for	for		12	nopreview	20	356				
234	336	the	the	bled	12	nopreview	20	357	295	295	651	152
235	337	famous	famous	heavily	12	nopreview	20	358	0	0	0	0
	338	-	-		12	nopreview	20	359				
	339	@entity8	Miracle		12	nopreview	20	360				
			on		12	nopreview	20	361				
			Ice		12	nopreview	20	362				
	340	-	-		12	nopreview	20	363				
	341	team	team		12	nopreview	20	364				
	342	that	that		12	nopreview	20	365				
	343	won	won		12	nopreview	20	366				
	344	@entity4	Olympic		12	nopreview	20	367				
	345	gold	gold		12	nopreview	20	368				
	346	in	in		12	nopreview	20	369				
	347	1980	1980		12	nopreview	20	370				
	348	and	and		12	nopreview	20	371				
	349	that	that		12	nopreview	20	372				
	350	inspired	inspired		12	nopreview	20	373				
	351	the	the		12	nopreview	20	374				
	352	2004	2004		12	nopreview	20	375				
	353	movie	movie		12	nopreview	20	376				
	354	-	-		12	nopreview	20	377				
	355	Miracle	Miracle		12	nopreview	20	378				
	356	-	-		12	nopreview	20	379				
	357	@entity13	Nagobads		12	nopreview	20	380				
	358	said	said		12	nopreview	20	381				
	359	that	that		12	nopreview	20	382				
	360	he	he		12	nopreview	20	383				
	361	bled	bled		12	nopreview	20	384				
	362	heavily	heavily		12	nopreview	20	385				
236	363	while	while	while	12	nopreview	20	386	278	278	278	278
237	364	behind	behind	behind	12	nopreview	20	387	253	0	0	0
238	365	the	the	the	12	nopreview	20	388	127	127	380	127
239	366	wheel	wheel	wheel	12	nopreview	20	389	155	155	155	155
240	367	of	of	of	12	nopreview	20	390	0	0	0	0
241	368	his	his	his	12	nopreview	20	391	241	241	241	241
242	369	car	car	car	12	nopreview	20	392	178	0	0	0
243	370	and	and	and	12	nopreview	20	393	0	0	0	0
244	371	risked	risked	risked	12	nopreview	20	394	789	309	309	309
245	372	being	being	being	12	nopreview	20	395	995	216	216	216
246	373	stopped	stopped	stopped	12	nopreview	20	396	1046	247	1634	247
247	374	by	by	by	12	nopreview	20	397	219	219	219	219
248	375	a	a	a	12	nopreview	20	398	348	348	1197	348
249	376	cop	cop	cop.	12	nopreview	20	399	179	0	0	0
	377	.	.		12	nopreview	20	400				
250	378	-	-	-I	12	nopreview	20	401	181	181	181	181
	379	I	I		12	nopreview	20	402				
251	380	drove	drove	drove	12	nopreview	20	403	276	172	172	172
252	381	way	way	way	12	nopreview	20	404	400	0	0	0
253	382	over	over	over	12	nopreview	20	405	699	589	1203	401
254	383	the	the	the	12	nopreview	20	406	188	188	188	188
255	384	speed	speed	speed	12	nopreview	20	407	209	0	0	0
256	385	limit	limit	limit.	12	nopreview	20	408	117	117	326	117
	386	.	.		12	nopreview	20	409				
257	387	If	If	If	12	nopreview	20	410	0	0	0	0
258	388	a	a	a	12	nopreview	20	411	0	0	0	0
259	389	cop	cop	cop	12	nopreview	20	412	460	460	460	248
260	390	catches	catches	catches	12	nopreview	20	413	0	0	0	0
261	391	me	me	me,	12	nopreview	20	414	0	0	0	0
	392	,	,		12	nopreview	20	415				
262	393	that	that	that-s	12	nopreview	20	416	302	215	215	215
	394	’s	’s		12	nopreview	20	417				
263	395	fine	fine	fine,-	12	nopreview	20	418	191	191	278	191
	396	,	,		12	nopreview	20	419				
264	397	-	-	he	12	nopreview	20	420	0	0	0	0
265	398	he	he	said	12	nopreview	20	421	336	336	336	183
	399	said	said		12	nopreview	20	422				
266	400	he	he	he	12	nopreview	20	423	0	0	0	0
267	401	thought	thought	thought	12	nopreview	20	424	603	183	183	183
268	402	after	after	after	12	nopreview	20	425	559	335	693	335
269	403	the	the	the	12	nopreview	20	426	0	0	0	0
270	404	attack	attack	attack	12	nopreview	20	427	131	131	131	131
271	405	on	on	on	12	nopreview	20	428	329	329	329	329
272	406	Sunday	Sunday	Sunday.	12	nopreview	20	429	0	0	0	0
	407	.	.		12	nopreview	20	430				
273	408	Witness	Witness	Witness	12	nopreview	20	431	179	179	179	179
274	409	@entity76	Justin	Justin	12	nopreview	20	432	300	300	300	300
275			McCarthy	McCarthy	12	nopreview	20	433	189	189	189	189
276	410	says	says	says	12	nopreview	20	434	152	152	152	152
277	411	he	he	he	12	nopreview	20	435	0	0	0	0
278	412	saw	saw	saw	12	nopreview	20	436	0	0	0	0
279	413	a	a	a	12	nopreview	20	437	208	208	208	208
280	414	young	young	young	12	nopreview	20	438	0	0	0	0
281	415	man	man	man	12	nopreview	20	439	0	0	0	0
282	416	around	around	around	12	nopreview	20	440	282	282	282	282
283	417	the	the	the	12	nopreview	20	441	0	0	0	0
284	418	age	age	age	12	nopreview	20	442	183	0	0	0
285	419	of	of	of	12	nopreview	20	443	165	165	348	165
286	420	14	14	14	12	nopreview	20	444	187	187	187	187
287	421	or	or	or	12	nopreview	20	445	0	0	0	0
288	422	15	15	15	12	nopreview	20	446	0	0	0	0
289	423	looking	looking	looking	12	nopreview	20	447	346	346	346	346
290	424	through	through	through	12	nopreview	20	448	162	162	162	162
291	425	a	a	a	12	nopreview	20	449	0	0	0	0
292	426	wallet	wallet	wallet	12	nopreview	20	450	186	186	186	186
293	427	near	near	near	12	nopreview	20	451	140	140	140	140
294	428	the	the	the	12	nopreview	20	452	0	0	0	0
295	429	mausoleum	mausoleum	mausoleum	12	nopreview	20	453	249	249	249	249
296	430	before	before	before	12	nopreview	20	454	555	347	347	347
297	431	fleeing	fleeing	fleeing	12	nopreview	20	455	337	337	337	337
298	432	by	by	by	12	nopreview	20	456	0	0	0	0
299	433	bicycle	bicycle	bicycle	12	nopreview	20	457	270	270	478	270
300	434	and	and	and	12	nopreview	20	458	334	334	334	334
301	435	jumping	jumping	jumping	12	nopreview	20	459	173	173	173	173
302	436	over	over	over	12	nopreview	20	460	176	0	0	0
303	437	a	a	a	12	nopreview	20	461	221	221	397	221
304	438	fence	fence	fence.	12	nopreview	20	462	163	163	163	163
	439	.	.		12	nopreview	20	463				
305	440	-	-	-I	12	nopreview	20	464	0	0	0	0
	441	I	I		12	nopreview	20	465				
306	442	saw	saw	saw	12	nopreview	20	466	144	144	144	144
307	443	the	the	the	12	nopreview	20	467	0	0	0	0
308	444	kid	kid	kid	12	nopreview	20	468	222	222	222	222
309	445	there	there	there.	12	nopreview	20	469	236	236	236	236
	446	.	.		12	nopreview	20	470				
310	447	I	I	I	12	nopreview	20	471	0	0	0	0
311	448	put	put	put	12	nopreview	20	472	384	0	0	0
312	449	two	two	two	12	nopreview	20	473	373	373	373	373
313	450	and	and	and	12	nopreview	20	474	0	0	0	0
314	451	two	two	two	12	nopreview	20	475	179	0	0	0
315	452	together	together	together,	12	nopreview	20	476	374	219	553	219
	453	,	,		12	nopreview	20	477				
316	454	and	and	and	12	nopreview	20	478	0	0	0	0
317	455	I	I	I	12	nopreview	20	479	0	0	0	0
318	456	just	just	just	12	nopreview	20	480	486	486	486	323
319	457	got	got	got	12	nopreview	20	481	512	171	171	171
320	458	really	really	really	12	nopreview	20	482	477	244	244	244
321	459	mad	mad	mad,-	12	nopreview	20	483	282	0	0	0
	460	,	,		12	nopreview	20	484				
322	461	-	-	said	12	nopreview	20	485	122	122	404	122
	462	said	said		12	nopreview	20	486				
323	463	@entity76	McCarthy	McCarthy.	12	nopreview	20	487	369	369	369	369
	464	.	.		12	nopreview	20	488				
324	465	@entity76	McCarthy	McCarthy	12	nopreview	20	489	254	254	254	254
325	466	said	said	said	12	nopreview	20	490	292	0	0	0
326	467	he	he	he	12	nopreview	20	491	216	216	216	216
327	468	chased	chased	chased	12	nopreview	20	492	152	152	444	152
328	469	the	the	the	12	nopreview	20	493	232	232	232	232
329	470	teen	teen	teen	12	nopreview	20	494	312	312	312	312
330	471	but	but	but	12	nopreview	20	495	0	0	0	0
331	472	not	not	not	12	nopreview	20	496	376	0	0	0
332	473	very	very	very	12	nopreview	20	497	195	195	571	195
333	474	far	far	far.	12	nopreview	20	498	0	0	0	0
	475	.	.		12	nopreview	20	499				
334	476	-	-	-I-m	12	nopreview	20	500	327	172	2911	172
	477	I	I		12	nopreview	20	501				
	478	’m	’m		12	nopreview	20	502				
335	479	52	52	52	12	nopreview	20	503	0	0	0	0
336	480	and	and	and	12	nopreview	20	504	0	0	0	0
337	481	I	I	I-m	12	nopreview	20	505	0	0	0	0
	482	’m	’m		12	nopreview	20	506				
338	483	kind	kind	kind	12	nopreview	20	507	612	193	193	193
339	484	of	of	of	12	nopreview	20	508	150	150	150	150
340	485	fat	fat	fat.	12	nopreview	20	509	0	0	0	0
	486	.	.		12	nopreview	20	510				
341	487	It	It	It	12	nopreview	20	511	225	225	225	225
342	488	was	was	wasn-t	12	nopreview	20	512	161	161	161	161
	489	n’t	n’t		12	nopreview	20	513				
343	490	going	going	going	12	nopreview	20	514	0	0	0	0
344	491	to	to	to	12	nopreview	20	515	217	217	217	217
345	492	happen	happen	happen.	12	nopreview	20	516	161	161	161	161
	493	.	.		12	nopreview	20	517				
346	494	…	…	...	12	nopreview	20	518	0	0	0	0
347	495	I	I	I	12	nopreview	20	519	0	0	0	0
348	496	was	was	was	12	nopreview	20	520	234	234	234	234
349	497	completely	completely	completely	12	nopreview	20	521	0	0	0	0
350	498	exhausted	exhausted	exhausted,-	12	nopreview	20	522	299	299	299	299
	499	,	,		12	nopreview	20	523				
351	500	-	-	said	12	nopreview	20	524	157	157	397	157
	501	said	said		12	nopreview	20	525				
352	502	@entity76	McCarthy	McCarthy.	12	nopreview	20	526	134	0	0	0
	503	.	.		12	nopreview	20	527				
353	504	@entity87	Mccarthy	McCarthy	12	nopreview	20	528	0	0	0	0
354	505	said	said	said	12	nopreview	20	529	532	223	223	223
355	506	that	that	that	12	nopreview	20	530	141	0	0	0
356	507	@entity13	Nagobads	Nagobads	12	nopreview	20	531	310	130	439	130
357	508	told	told	told	12	nopreview	20	532	526	526	526	308
358	509	him	him	him,	12	nopreview	20	533	0	0	0	0
	510	,	,		12	nopreview	20	534				
359	511	-	-	-I	12	nopreview	20	535	0	0	0	0
	512	I	I		12	nopreview	20	536				
360	513	gave	gave	gave	12	nopreview	20	537	521	384	384	162
361	514	him	him	him	12	nopreview	20	538	0	0	0	0
362	515	my	my	my	12	nopreview	20	539	0	0	0	0
363	516	wallet	wallet	wallet,	12	nopreview	20	540	255	255	255	255
	517	,	,		12	nopreview	20	541				
364	518	and	and	and	12	nopreview	20	542	274	274	408	274
365	519	he	he	he	12	nopreview	20	543	0	0	134	0
366	520	still	still	still	12	nopreview	20	544	0	0	0	0
367	521	tried	tried	tried	12	nopreview	20	545	218	218	535	218
368	522	to	to	to	12	nopreview	20	546	147	0	0	0
369	523	kill	kill	kill	12	nopreview	20	547	0	0	0	0
370	524	me	me	me.-	12	nopreview	20	548	0	0	0	0
	525	.	.		12	nopreview	20	549				
371	526	’	’	Nagobads	12	nopreview	20	550	392	392	392	240
	527	@entity13	Nagobads		12	nopreview	20	551				
372	528	was	was	was	12	nopreview	20	552	203	203	203	203
373	529	the	the	the	12	nopreview	20	553	0	0	0	0
374	530	@entity89	University	University	12	nopreview	20	554	0	0	0	0
375			of	of	12	nopreview	20	555	153	153	153	153
376			Minnesota	Minnesota	12	nopreview	20	556	265	265	265	265
377	531	men	men	men-s	12	nopreview	20	557	396	396	396	179
	532	-s	-s		12	nopreview	20	558				
378	533	hockey	hockey	hockey	12	nopreview	20	559	0	0	0	0
379	534	team	team	team	12	nopreview	20	560	181	181	328	181
380	535	physician	physician	physician	12	nopreview	20	561	309	0	0	0
381	536	for	for	for	12	nopreview	20	562	0	0	0	0
382	537	34	34	34	12	nopreview	20	563	0	0	0	0
383	538	years	years	years	12	nopreview	20	564	210	210	210	210
384	539	until	until	until	12	nopreview	20	565	114	114	114	114
385	540	his	his	his	12	nopreview	20	566	0	0	0	0
386	541	retirement	retirement	retirement	12	nopreview	20	567	376	376	376	147
387	542	in	in	in	12	nopreview	20	568	0	0	0	0
388	543	1992	1992	1992.	12	nopreview	20	569	289	289	289	289
	544	.	.		12	nopreview	20	570				
389	545	He	He	He	12	nopreview	20	571	0	0	0	0
390	546	also	also	also	12	nopreview	20	572	196	196	196	196
391	547	worked	worked	worked	12	nopreview	20	573	145	145	145	145
392	548	for	for	for	12	nopreview	20	574	166	166	166	166
393	549	the	the	the	12	nopreview	20	575	0	0	0	0
394	550	@entity93	Minnesota	Minnesota	12	nopreview	20	576	191	191	500	191
395			North	North	12	nopreview	20	577	0	0	0	0
396			Stars	Stars	12	nopreview	20	578	0	0	0	0
397	551	in	in	in	12	nopreview	20	579	0	0	0	0
398	552	the	the	the	12	nopreview	20	580	0	0	0	0
399	553	late	late	late	12	nopreview	20	581	243	243	243	243
400	554	1980s	1980s	1980s	12	nopreview	20	582	0	0	0	0
401	555	and	and	and	12	nopreview	20	583	164	164	164	164
402	556	early	early	early	12	nopreview	20	584	0	0	0	0
403	557	1990s	1990s	1990s.	12	nopreview	20	585	216	216	216	216
	558	.	.		12	nopreview	20	586				
404	559	And	And	And	12	nopreview	20	587	0	0	0	0
405	560	he	he	he	12	nopreview	20	588	0	0	0	0
406	561	was	was	was	12	nopreview	20	589	224	224	224	224
407	562	team	team	team	12	nopreview	20	590	0	0	0	0
408	563	doctor	doctor	doctor	12	nopreview	20	591	208	208	208	208
409	564	for	for	for	12	nopreview	20	592	198	198	198	198
410	565	the	the	the	12	nopreview	20	593	0	0	0	0
411	566	famous	famous	famous	12	nopreview	20	594	163	163	163	163
412	567	-	-	-Miracle	12	nopreview	20	595	0	0	0	0
	568	@entity8	Miracle		12	nopreview	20	596				
413			on	on	12	nopreview	20	597	0	0	0	0
414			Ice	Ice-	12	nopreview	20	598	205	205	205	205
	569	-	-		12	nopreview	20	599				
415	570	team	team	team	12	nopreview	20	600	0	0	0	0
416	571	that	that	that	12	nopreview	20	601	164	164	164	164
417	572	won	won	won	12	nopreview	20	602	0	0	0	0
418	573	@entity4	Olympic	Olympic	12	nopreview	20	603	211	211	211	211
419	574	gold	gold	gold	12	nopreview	20	604	0	0	0	0
420	575	in	in	in	12	nopreview	20	605	0	0	0	0
421	576	1980	1980	1980.	12	nopreview	20	606	153	153	153	153
	577	.	.		12	nopreview	20	607				
422	578	He	He	He	12	nopreview	20	608	0	0	0	0
423	579	was	was	was	12	nopreview	20	609	0	0	0	0
424	580	played	played	played	12	nopreview	20	610	0	0	0	0
425	581	by	by	by	12	nopreview	20	611	0	0	0	0
426	582	@entity96	Kenneth	Kenneth	12	nopreview	20	612	0	0	0	0
427			Welsh	Welsh	12	nopreview	20	613	0	0	0	0
428	583	in	in	in	12	nopreview	20	614	0	0	0	0
429	584	the	the	the	12	nopreview	20	615	0	0	0	0
430	585	2004	2004	2004	12	nopreview	20	616	0	0	0	0
431	586	movie	movie	movie	12	nopreview	20	617	0	0	0	0
432	587	-	-	-Miracle,-	12	nopreview	20	618	0	0	0	0
	588	@entity98	Miracle		12	nopreview	20	619				
	589	,	,		12	nopreview	20	620				
433	590	-	-	about	12	nopreview	20	621	0	0	0	0
	591	about	about		12	nopreview	20	622				
434	592	the	the	the	12	nopreview	20	623	0	0	0	0
435	593	@entity6	USA	USA-s	12	nopreview	20	624	0	0	0	0
	594	’s	’s		12	nopreview	20	625				
436	595	improbable	improbable	improbable	12	nopreview	20	626	0	0	0	0
437	596	gold	gold	gold	12	nopreview	20	627	0	0	0	0
438	597	medal	medal	medal	12	nopreview	20	628	0	0	0	0
439	598	run	run	run	12	nopreview	20	629	200	200	200	200
440	599	in	in	in	12	nopreview	20	630	150	150	150	150
441	600	@entity62	Lake	Lake	12	nopreview	20	631	0	0	0	0
442			Placid	Placid.	12	nopreview	20	632	0	0	0	0
	601	.	.		12	nopreview	20	633				
443	602	The	The	The	12	nopreview	20	634	0	0	0	0
444	603	cemetery	cemetery	cemetery	12	nopreview	20	635	0	0	0	0
445	604	is	is	is	12	nopreview	20	636	0	0	0	0
446	605	owned	owned	owned	12	nopreview	20	637	0	0	0	0
447	606	by	by	by	12	nopreview	20	638	0	0	0	0
448	607	@entity101	Bill	Bill	12	nopreview	20	639	0	0	0	0
449			McReavy	McReavy,	12	nopreview	20	640	0	0	0	0
	608	,	,		12	nopreview	20	641				
450	609	who	who	who	12	nopreview	20	642	0	0	0	0
451	610	said	said	said,	12	nopreview	20	643	0	0	0	0
	611	,	,		12	nopreview	20	644				
452	612	-	-	-This	12	nopreview	20	645	277	0	0	0
	613	This	This		12	nopreview	20	646				
453	614	is	is	is	12	nopreview	20	647	0	0	0	0
454	615	an	an	an	12	nopreview	20	648	0	0	0	0
455	616	isolated	isolated	isolated	12	nopreview	20	649	499	282	282	178
456	617	incident	incident	incident	12	nopreview	20	650	594	0	0	0
457	618	and	and	and	12	nopreview	20	651	179	179	353	179
458	619	we	we	we	12	nopreview	20	652	182	0	0	0
459	620	are	are	are	12	nopreview	20	653	0	0	0	0
460	621	looking	looking	looking	12	nopreview	20	654	465	0	0	0
461	622	at	at	at	12	nopreview	20	655	0	0	0	0
462	623	it	it	it	12	nopreview	20	656	0	0	0	0
463	624	very	very	very	12	nopreview	20	657	261	0	0	0
464	625	closely	closely	closely.-	12	nopreview	20	658	319	0	0	0
	626	.	.		12	nopreview	20	659				
465	627	-	-	Unfortunately,	12	nopreview	20	660	334	149	149	149
	628	Unfortunately	Unfortunately		12	nopreview	20	661				
	629	,	,		12	nopreview	20	662				
466	630	It	It	it	12	nopreview	20	663	155	0	0	0
467	631	was	was	wasn-t	12	nopreview	20	664	326	0	0	0
	632	n-t	n-t		12	nopreview	20	665				
468	633	captured	captured	captured	12	nopreview	20	666	662	237	3610	237
469	634	on	on	on	12	nopreview	20	667	0	0	0	0
470	635	security	security	security	12	nopreview	20	668	186	186	365	186
471	636	video	video	video.	12	nopreview	20	669	0	0	0	0
	637	.	.		12	nopreview	20	670				
