HumanPosition	AnonymizedPosition	AnonymizedToken	OriginalToken	ExperimentToken	Participant	Condition	TextNo	JointPosition	tt	fp	rp	ff
1	0	(	(	Blues	12	nopreview	5	1	389	0	0	0
	1	@entity2	CNN		12	nopreview	5	2				
	2	)	)		12	nopreview	5	3				
	3	@entity1	Blues		12	nopreview	5	4				
2	4	legend	legend	legend	12	nopreview	5	5	264	264	264	116
3	5	@entity0	B.B.	B.B.	12	nopreview	5	6	786	591	591	591
4			King	King	12	nopreview	5	7	0	0	0	0
5	6	was	was	was	12	nopreview	5	8	201	201	201	201
6	7	hospitalized	hospitalized	hospitalized	12	nopreview	5	9	336	336	336	176
7	8	for	for	for	12	nopreview	5	10	0	0	0	0
8	9	dehydration	dehydration	dehydration,	12	nopreview	5	11	486	486	486	299
	10	,	,		12	nopreview	5	12				
9	11	though	though	though	12	nopreview	5	13	0	0	0	0
10	12	the	the	the	12	nopreview	5	14	389	389	389	389
11	13	ailment	ailment	ailment	12	nopreview	5	15	300	300	300	300
12	14	did	did	didn-t	12	nopreview	5	16	237	237	237	237
	15	n-t	n-t		12	nopreview	5	17				
13	16	keep	keep	keep	12	nopreview	5	18	224	0	0	0
14	17	him	him	him	12	nopreview	5	19	921	152	565	152
15	18	out	out	out	12	nopreview	5	20	124	0	0	0
16	19	for	for	for	12	nopreview	5	21	0	0	0	0
17	20	long	long	long.	12	nopreview	5	22	412	286	866	286
	21	.	.		12	nopreview	5	23				
18	22	@entity0	King	King-s	12	nopreview	5	24	676	0	0	0
	23	-s	-s		12	nopreview	5	25				
19	24	dehydration	dehydration	dehydration	12	nopreview	5	26	1433	174	2819	174
20	25	was	was	was	12	nopreview	5	27	0	0	0	0
21	26	caused	caused	caused	12	nopreview	5	28	227	227	227	227
22	27	by	by	by	12	nopreview	5	29	171	171	171	171
23	28	his	his	his	12	nopreview	5	30	0	0	0	0
24	29	Type	Type	Type	12	nopreview	5	31	228	228	228	228
25	30	II	II	II	12	nopreview	5	32	0	0	0	0
26	31	diabetes	diabetes	diabetes,	12	nopreview	5	33	287	287	287	287
	32	,	,		12	nopreview	5	34				
27	33	but	but	but	12	nopreview	5	35	257	257	257	257
28	34	he	he	he	12	nopreview	5	36	0	0	0	0
29	35	-	-	-is	12	nopreview	5	37	223	223	223	223
	36	is	is		12	nopreview	5	38				
30	37	much	much	much	12	nopreview	5	39	0	0	0	0
31	38	better	better	better,-	12	nopreview	5	40	183	183	183	183
	39	,	,		12	nopreview	5	41				
	40	-	-		12	nopreview	5	42				
32	41	his	his	his	12	nopreview	5	43	0	0	0	0
33	42	daughter	daughter	daughter,	12	nopreview	5	44	178	178	178	178
	43	,	,		12	nopreview	5	45				
34	44	@entity6	Claudette	Claudette	12	nopreview	5	46	367	367	367	219
35			King	King,	12	nopreview	5	47	161	161	161	161
	45	,	,		12	nopreview	5	48				
36	46	told	told	told	12	nopreview	5	49	0	0	0	0
37	47	the	the	the	12	nopreview	5	50	170	170	170	170
38	48	@entity9	Los	Los	12	nopreview	5	51	196	196	196	196
39			Angeles	Angeles	12	nopreview	5	52	0	0	0	0
40			Times	Times.	12	nopreview	5	53	258	258	258	258
	49	.	.		12	nopreview	5	54				
41	50	The	The	The	12	nopreview	5	55	153	153	153	153
42	51	legendary	legendary	legendary	12	nopreview	5	56	259	259	259	259
43	52	guitarist	guitarist	guitarist	12	nopreview	5	57	118	118	118	118
44	53	and	and	and	12	nopreview	5	58	124	124	124	124
45	54	vocalist	vocalist	vocalist	12	nopreview	5	59	255	255	255	255
46	55	released	released	released	12	nopreview	5	60	374	374	374	183
47	56	a	a	a	12	nopreview	5	61	0	0	0	0
48	57	statement	statement	statement	12	nopreview	5	62	308	308	308	308
49	58	thanking	thanking	thanking	12	nopreview	5	63	284	284	284	284
50	59	those	those	those	12	nopreview	5	64	161	161	161	161
51	60	who	who	who	12	nopreview	5	65	164	164	164	164
52	61	have	have	have	12	nopreview	5	66	0	0	0	0
53	62	expressed	expressed	expressed	12	nopreview	5	67	216	216	216	135
54	63	their	their	their	12	nopreview	5	68	0	0	0	0
55	64	concerns	concerns	concerns.	12	nopreview	5	69	251	251	251	251
	65	.	.		12	nopreview	5	70				
56	66	-	-	-I-m	12	nopreview	5	71	0	0	0	0
	67	I	I		12	nopreview	5	72				
	68	-m	-m		12	nopreview	5	73				
57	69	feeling	feeling	feeling	12	nopreview	5	74	299	299	299	177
58	70	much	much	much	12	nopreview	5	75	0	0	0	0
59	71	better	better	better	12	nopreview	5	76	258	258	258	258
60	72	and	and	and	12	nopreview	5	77	0	0	0	0
61	73	am	am	am	12	nopreview	5	78	0	0	0	0
62	74	leaving	leaving	leaving	12	nopreview	5	79	430	430	430	232
63	75	the	the	the	12	nopreview	5	80	0	0	0	0
64	76	hospital	hospital	hospital	12	nopreview	5	81	210	210	210	210
65	77	today	today	today,-	12	nopreview	5	82	214	0	0	0
	78	,	,		12	nopreview	5	83				
	79	-	-		12	nopreview	5	84				
66	80	@entity0	King	King	12	nopreview	5	85	130	130	344	130
67	81	said	said	said	12	nopreview	5	86	385	385	385	385
68	82	in	in	in	12	nopreview	5	87	0	0	0	0
69	83	a	a	a	12	nopreview	5	88	0	0	0	0
70	84	message	message	message	12	nopreview	5	89	406	406	406	262
71	85	Tuesday	Tuesday	Tuesday.	12	nopreview	5	90	116	116	116	116
	86	.	.		12	nopreview	5	91				
72	87	@entity17	Angela	Angela	12	nopreview	5	92	266	266	266	266
73			Moore	Moore,	12	nopreview	5	93	218	218	218	218
	88	,	,		12	nopreview	5	94				
74	89	a	a	a	12	nopreview	5	95	0	0	0	0
75	90	publicist	publicist	publicist	12	nopreview	5	96	260	260	260	260
76	91	for	for	for	12	nopreview	5	97	0	0	0	0
77	92	@entity6	Claudette	Claudette	12	nopreview	5	98	217	217	217	217
78			King	King,	12	nopreview	5	99	144	144	144	144
	93	,	,		12	nopreview	5	100				
79	94	said	said	said	12	nopreview	5	101	177	0	0	0
80	95	later	later	later	12	nopreview	5	102	110	110	287	110
81	96	in	in	in	12	nopreview	5	103	0	0	0	0
82	97	the	the	the	12	nopreview	5	104	165	165	165	165
83	98	day	day	day	12	nopreview	5	105	0	0	0	0
84	99	that	that	that	12	nopreview	5	106	189	189	189	189
85	100	he	he	he	12	nopreview	5	107	0	0	0	0
86	101	was	was	was	12	nopreview	5	108	228	228	228	228
87	102	back	back	back	12	nopreview	5	109	0	0	0	0
88	103	home	home	home	12	nopreview	5	110	250	250	250	250
89	104	resting	resting	resting	12	nopreview	5	111	215	215	215	107
90	105	and	and	and	12	nopreview	5	112	0	0	0	0
91	106	enjoying	enjoying	enjoying	12	nopreview	5	113	227	227	227	227
92	107	time	time	time	12	nopreview	5	114	276	276	276	276
93	108	with	with	with	12	nopreview	5	115	0	0	0	0
94	109	his	his	his	12	nopreview	5	116	134	134	134	134
95	110	grandchildren	grandchildren	grandchildren.	12	nopreview	5	117	337	337	337	152
	111	.	.		12	nopreview	5	118				
96	112	-	-	-He	12	nopreview	5	119	0	0	0	0
	113	He	He		12	nopreview	5	120				
97	114	was	was	was	12	nopreview	5	121	293	293	293	146
98	115	struggling	struggling	struggling	12	nopreview	5	122	0	0	0	0
99	116	before	before	before,	12	nopreview	5	123	175	175	175	175
	117	,	,		12	nopreview	5	124				
100	118	and	and	and	12	nopreview	5	125	113	113	113	113
101	119	he	he	he	12	nopreview	5	126	0	0	0	0
102	120	is	is	is	12	nopreview	5	127	0	0	0	0
103	121	a	a	a	12	nopreview	5	128	198	198	198	198
104	122	trouper	trouper	trouper,-	12	nopreview	5	129	214	214	214	214
	123	,	,		12	nopreview	5	130				
	124	-	-		12	nopreview	5	131				
105	125	@entity17	Moore	Moore	12	nopreview	5	132	298	298	298	298
106	126	said	said	said.	12	nopreview	5	133	0	0	0	0
	127	.	.		12	nopreview	5	134				
107	128	-	-	-He	12	nopreview	5	135	278	278	278	278
	129	He	He		12	nopreview	5	136				
108	130	was	was	wasn-t	12	nopreview	5	137	311	311	311	311
	131	n-t	n-t		12	nopreview	5	138				
109	132	going	going	going	12	nopreview	5	139	0	0	0	0
110	133	to	to	to	12	nopreview	5	140	0	0	0	0
111	134	let	let	let	12	nopreview	5	141	239	239	239	239
112	135	his	his	his	12	nopreview	5	142	205	205	205	205
113	136	fans	fans	fans	12	nopreview	5	143	0	0	0	0
114	137	down	down	down.-	12	nopreview	5	144	227	227	227	227
	138	.	.		12	nopreview	5	145				
115	139	-	-	No	12	nopreview	5	146	0	0	0	0
116	140	No	No	more	12	nopreview	5	147	244	244	244	244
117	141	more	more	information	12	nopreview	5	148	450	450	450	450
	142	information	information		12	nopreview	5	149				
118	143	on	on	on	12	nopreview	5	150	0	0	0	0
119	144	@entity0	King	King-s	12	nopreview	5	151	183	183	183	183
	145	-s	-s		12	nopreview	5	152				
120	146	condition	condition	condition	12	nopreview	5	153	503	503	503	284
121	147	or	or	or	12	nopreview	5	154	0	0	0	0
122	148	where	where	where	12	nopreview	5	155	0	0	0	0
123	149	he	he	he	12	nopreview	5	156	0	0	0	0
124	150	was	was	was	12	nopreview	5	157	0	0	0	0
125	151	hospitalized	hospitalized	hospitalized	12	nopreview	5	158	0	0	0	0
126	152	was	was	was	12	nopreview	5	159	0	0	0	0
127	153	immediately	immediately	immediately	12	nopreview	5	160	0	0	0	0
128	154	available	available	available.	12	nopreview	5	161	0	0	0	0
	155	.	.		12	nopreview	5	162				
129	156	@entity0	B.B.	B.B.	12	nopreview	5	163	366	366	366	366
130	157	is	is	is	12	nopreview	5	164	0	0	0	0
131	158	short	short	short	12	nopreview	5	165	254	254	254	254
132	159	for	for	for	12	nopreview	5	166	0	0	0	0
133	160	@entity24	Blues	Blues	12	nopreview	5	167	132	132	132	132
134			Boy	Boy,	12	nopreview	5	168	0	0	0	0
	161	,	,		12	nopreview	5	169				
135	162	part	part	part	12	nopreview	5	170	250	250	250	99
136	163	of	of	of	12	nopreview	5	171	0	0	0	0
137	164	the	the	the	12	nopreview	5	172	0	0	0	0
138	165	name	name	name	12	nopreview	5	173	236	236	236	236
139	166	he	he	he	12	nopreview	5	174	181	181	181	181
140	167	used	used	used	12	nopreview	5	175	0	0	0	0
141	168	as	as	as	12	nopreview	5	176	171	171	171	171
142	169	a	a	a	12	nopreview	5	177	0	0	0	0
143	170	@entity27	Memphis	Memphis	12	nopreview	5	178	272	272	272	272
144	171	disc	disc	disc	12	nopreview	5	179	0	0	0	0
145	172	jockey	jockey	jockey,	12	nopreview	5	180	255	255	255	255
	173	,	,		12	nopreview	5	181				
146	174	the	the	the	12	nopreview	5	182	0	0	0	0
147	175	@entity0	Beale	Beale	12	nopreview	5	183	154	154	154	154
148			Street	Street	12	nopreview	5	184	222	222	222	222
149			Blues	Blues	12	nopreview	5	185	0	0	0	0
150			Boy	Boy.	12	nopreview	5	186	0	0	0	0
	176	.	.		12	nopreview	5	187				
151	177	He	He	He	12	nopreview	5	188	230	230	230	230
152	178	was	was	was	12	nopreview	5	189	454	454	578	454
153	179	inducted	inducted	inducted	12	nopreview	5	190	221	0	0	0
154	180	into	into	into	12	nopreview	5	191	471	0	0	0
155	181	the	the	the	12	nopreview	5	192	0	0	0	0
156	182	@entity28	Rock	Rock	12	nopreview	5	193	0	0	0	0
157			and	and	12	nopreview	5	194	199	0	0	0
158			Roll	Roll	12	nopreview	5	195	207	0	0	0
159			Hall	Hall	12	nopreview	5	196	210	0	0	0
160			of	of	12	nopreview	5	197	0	0	0	0
161			Fame	Fame	12	nopreview	5	198	160	0	0	0
162	183	in	in	in	12	nopreview	5	199	0	0	0	0
163	184	1987	1987	1987,	12	nopreview	5	200	0	0	0	0
	185	,	,		12	nopreview	5	201				
164	186	and	and	and	12	nopreview	5	202	0	0	0	0
165	187	has	has	has	12	nopreview	5	203	0	0	0	0
166	188	30	30	30	12	nopreview	5	204	315	0	0	0
167	189	@entity30	Grammy	Grammy	12	nopreview	5	205	179	0	0	0
168	190	nominations	nominations	nominations.	12	nopreview	5	206	175	0	0	0
	191	.	.		12	nopreview	5	207				
169	192	@entity0	King	King,	12	nopreview	5	208	350	148	2285	148
	193	,	,		12	nopreview	5	209				
170	194	89	89	89,	12	nopreview	5	210	404	165	606	165
	195	,	,		12	nopreview	5	211				
171	196	has	has	has	12	nopreview	5	212	0	0	0	0
172	197	used	used	used	12	nopreview	5	213	262	262	262	262
173	198	various	various	various	12	nopreview	5	214	213	213	213	213
174	199	models	models	models	12	nopreview	5	215	236	236	236	236
175	200	of	of	of	12	nopreview	5	216	0	0	0	0
176	201	@entity33	Gibson	Gibson	12	nopreview	5	217	336	336	336	336
177	202	guitars	guitars	guitars	12	nopreview	5	218	81	81	81	81
178	203	over	over	over	12	nopreview	5	219	184	184	184	184
179	204	the	the	the	12	nopreview	5	220	0	0	0	0
180	205	years	years	years,	12	nopreview	5	221	0	0	0	0
	206	,	,		12	nopreview	5	222				
181	207	and	and	and	12	nopreview	5	223	0	0	0	0
182	208	named	named	named	12	nopreview	5	224	0	0	0	0
183	209	each	each	each	12	nopreview	5	225	0	0	0	0
184	210	one	one	one	12	nopreview	5	226	203	0	0	0
185	211	of	of	of	12	nopreview	5	227	0	0	0	0
186	212	them	them	them	12	nopreview	5	228	117	117	320	117
187	213	@entity35	Lucille	Lucille.	12	nopreview	5	229	97	97	97	97
	214	.	.		12	nopreview	5	230				
188	215	In	In	In	12	nopreview	5	231	0	0	0	0
189	216	the	the	the	12	nopreview	5	232	0	0	0	0
190	217	1980s	1980s	1980s,	12	nopreview	5	233	86	86	86	86
	218	,	,		12	nopreview	5	234				
191	219	@entity33	Gibson	Gibson	12	nopreview	5	235	327	327	327	327
192	220	officially	officially	officially	12	nopreview	5	236	244	244	244	244
193	221	dropped	dropped	dropped	12	nopreview	5	237	252	252	252	252
194	222	the	the	the	12	nopreview	5	238	0	0	0	0
195	223	model	model	model	12	nopreview	5	239	398	398	398	398
196	224	number	number	number	12	nopreview	5	240	401	401	401	291
197	225	on	on	on	12	nopreview	5	241	0	0	0	0
198	226	the	the	the	12	nopreview	5	242	0	0	0	0
199	227	guitar	guitar	guitar	12	nopreview	5	243	305	305	305	164
200	228	he	he	he	12	nopreview	5	244	0	0	0	0
201	229	used	used	used	12	nopreview	5	245	0	0	0	0
202	230	last	last	last	12	nopreview	5	246	166	166	166	166
203	231	and	and	and	12	nopreview	5	247	246	246	246	246
204	232	most	most	most.	12	nopreview	5	248	238	238	238	238
	233	.	.		12	nopreview	5	249				
205	234	It	It	It	12	nopreview	5	250	0	0	0	0
206	235	became	became	became	12	nopreview	5	251	263	263	263	263
207	236	a	a	a	12	nopreview	5	252	0	0	0	0
208	237	custom	custom	custom-made	12	nopreview	5	253	461	461	461	272
	238	-	-		12	nopreview	5	254				
	239	made	made		12	nopreview	5	255				
209	240	signature	signature	signature	12	nopreview	5	256	207	207	207	207
210	241	model	model	model	12	nopreview	5	257	0	0	0	0
211	242	named	named	named	12	nopreview	5	258	0	0	0	0
212	243	@entity35	Lucille	Lucille,	12	nopreview	5	259	454	454	454	200
	244	,	,		12	nopreview	5	260				
213	245	manufactured	manufactured	manufactured	12	nopreview	5	261	0	0	0	0
214	246	exclusively	exclusively	exclusively	12	nopreview	5	262	0	0	0	0
215	247	for	for	for	12	nopreview	5	263	0	0	0	0
216	248	the	the	the	12	nopreview	5	264	0	0	0	0
217	249	-	-	-King	12	nopreview	5	265	0	0	0	0
	250	@entity40	King		12	nopreview	5	266				
218			of	of	12	nopreview	5	267	0	0	0	0
219			the	the	12	nopreview	5	268	0	0	0	0
220			Blues	Blues.-	12	nopreview	5	269	0	0	0	0
	251	.	.		12	nopreview	5	270				
221	252	-	-	Some	12	nopreview	5	271	0	0	0	0
	253	Some	Some		12	nopreview	5	272				
222	254	of	of	of	12	nopreview	5	273	0	0	0	0
223	255	his	his	his	12	nopreview	5	274	0	0	0	0
224	256	hits	hits	hits	12	nopreview	5	275	0	0	0	0
225	257	include	include	include	12	nopreview	5	276	0	0	0	0
226	258	-	-	-The	12	nopreview	5	277	147	147	147	147
	259	The	The		12	nopreview	5	278				
227	260	Thrill	Thrill	Thrill	12	nopreview	5	279	226	0	0	0
228	261	Is	Is	Is	12	nopreview	5	280	113	113	339	113
229	262	Gone	Gone	Gone,-	12	nopreview	5	281	207	207	207	207
	263	,	,		12	nopreview	5	282				
	264	-	-		12	nopreview	5	283				
230	265	which	which	which	12	nopreview	5	284	0	0	0	0
231	266	won	won	won	12	nopreview	5	285	328	328	328	189
232	267	him	him	him	12	nopreview	5	286	0	0	0	0
233	268	his	his	his	12	nopreview	5	287	174	174	174	174
234	269	first	first	first	12	nopreview	5	288	274	274	274	274
235	270	Grammy	Grammy	Grammy	12	nopreview	5	289	0	0	0	0
236	271	in	in	in	12	nopreview	5	290	158	158	158	158
237	272	1970	1970	1970,	12	nopreview	5	291	331	331	331	331
	273	,	,		12	nopreview	5	292				
238	274	-	-	-There	12	nopreview	5	293	0	0	0	0
	275	@entity44	There		12	nopreview	5	294				
239			Must	Must	12	nopreview	5	295	120	120	120	120
240			be	be	12	nopreview	5	296	215	215	215	215
241			a	a	12	nopreview	5	297	0	0	0	0
242			Better	Better	12	nopreview	5	298	176	176	176	176
243			World	World	12	nopreview	5	299	182	0	0	0
244			Somewhere	Somewhere-	12	nopreview	5	300	343	129	525	129
	276	-	-		12	nopreview	5	301				
245	277	and	and	and	12	nopreview	5	302	0	0	0	0
246	278	-	-	-When	12	nopreview	5	303	0	0	0	0
	279	@entity45	When		12	nopreview	5	304				
247			Love	Love	12	nopreview	5	305	261	261	261	261
248			Comes	Comes	12	nopreview	5	306	0	0	0	0
249			to	to	12	nopreview	5	307	179	179	179	179
250			Town	Town,-	12	nopreview	5	308	139	139	139	139
	280	,	,		12	nopreview	5	309				
	281	-	-		12	nopreview	5	310				
251	282	a	a	a	12	nopreview	5	311	0	0	0	0
252	283	collaboration	collaboration	collaboration	12	nopreview	5	312	476	201	201	201
253	284	with	with	with	12	nopreview	5	313	0	0	0	0
254	285	@entity47	U2	U2.	12	nopreview	5	314	208	208	208	208
	286	.	.		12	nopreview	5	315				
255	287	Last	Last	Last	12	nopreview	5	316	459	0	0	0
256	288	year	year	year,	12	nopreview	5	317	296	296	296	296
	289	,	,		12	nopreview	5	318				
257	290	the	the	the	12	nopreview	5	319	0	0	0	0
258	291	bluesman	bluesman	bluesman	12	nopreview	5	320	305	305	305	133
259	292	suffered	suffered	suffered	12	nopreview	5	321	511	254	254	144
260	293	from	from	from	12	nopreview	5	322	0	0	0	0
261	294	dehydration	dehydration	dehydration	12	nopreview	5	323	312	312	312	312
262	295	and	and	and	12	nopreview	5	324	0	0	0	0
263	296	exhaustion	exhaustion	exhaustion	12	nopreview	5	325	439	439	439	265
264	297	after	after	after	12	nopreview	5	326	284	284	284	284
265	298	a	a	a	12	nopreview	5	327	0	0	0	0
266	299	show	show	show	12	nopreview	5	328	0	0	0	0
267	300	in	in	in	12	nopreview	5	329	157	157	157	157
268	301	@entity52	Chicago	Chicago,	12	nopreview	5	330	134	134	134	134
	302	,	,		12	nopreview	5	331				
269	303	forcing	forcing	forcing	12	nopreview	5	332	0	0	0	0
270	304	him	him	him	12	nopreview	5	333	240	240	240	240
271	305	to	to	to	12	nopreview	5	334	0	0	0	0
272	306	cancel	cancel	cancel	12	nopreview	5	335	297	297	297	297
273	307	the	the	the	12	nopreview	5	336	0	0	0	0
274	308	remainder	remainder	remainder	12	nopreview	5	337	489	226	226	226
275	309	of	of	of	12	nopreview	5	338	373	373	1627	373
276	310	his	his	his	12	nopreview	5	339	0	0	0	0
277	311	tour	tour	tour.	12	nopreview	5	340	0	0	0	0
	312	.	.		12	nopreview	5	341				
