HumanPosition	AnonymizedPosition	AnonymizedToken	OriginalToken	ExperimentToken	Participant	Condition	TextNo	JointPosition	tt	fp	rp	ff
	0	@entity0	Paris		12	nopreview	7	1				
	1	(	(		12	nopreview	7	2				
	2	@entity1	CNN		12	nopreview	7	3				
	3	)	)		12	nopreview	7	4				
0	4	Six	Six	Six	12	nopreview	7	5	0	0	0	0
2	5	survivors	survivors	survivors	12	nopreview	7	6	544	544	544	143
3	6	of	of	of	12	nopreview	7	7	0	0	0	0
4	7	the	the	the	12	nopreview	7	8	186	186	186	186
5	8	@entity0	Paris	Paris	12	nopreview	7	9	250	0	0	0
6	9	kosher	kosher	kosher	12	nopreview	7	10	480	139	730	139
7	10	supermarket	supermarket	supermarket	12	nopreview	7	11	312	312	312	312
8	11	siege	siege	siege	12	nopreview	7	12	438	438	438	438
9	12	in	in	in	12	nopreview	7	13	0	0	0	0
10	13	January	January	January	12	nopreview	7	14	214	214	214	214
11	14	are	are	are	12	nopreview	7	15	0	0	0	0
12	15	suing	suing	suing	12	nopreview	7	16	451	281	281	281
13	16	a	a	a	12	nopreview	7	17	197	197	367	197
14	17	@entity5	French	French	12	nopreview	7	18	179	179	179	179
15	18	media	media	media	12	nopreview	7	19	305	305	305	305
16	19	outlet	outlet	outlet	12	nopreview	7	20	259	124	124	124
17	20	for	for	for	12	nopreview	7	21	0	0	0	0
18	21	what	what	what	12	nopreview	7	22	568	204	204	204
19	22	they	they	they	12	nopreview	7	23	0	0	0	0
20	23	call	call	call	12	nopreview	7	24	383	210	210	210
21	24	dangerous	dangerous	dangerous	12	nopreview	7	25	146	146	683	146
22	25	live	live	live	12	nopreview	7	26	0	0	0	0
23	26	broadcasting	broadcasting	broadcasting	12	nopreview	7	27	471	471	471	190
24	27	during	during	during	12	nopreview	7	28	158	158	158	158
25	28	the	the	the	12	nopreview	7	29	0	0	0	0
26	29	hostage	hostage	hostage-taking.	12	nopreview	7	30	473	473	473	257
	30	-	-		12	nopreview	7	31				
	31	taking	taking		12	nopreview	7	32				
	32	.	.		12	nopreview	7	33				
27	33	According	According	According	12	nopreview	7	34	142	142	142	142
28	34	to	to	to	12	nopreview	7	35	0	0	0	0
29	35	@entity0	Paris	Paris	12	nopreview	7	36	0	0	0	0
30	36	prosecutor	prosecutor	prosecutor-s	12	nopreview	7	37	552	552	552	279
	37	-s	-s		12	nopreview	7	38				
31	38	spokeswoman	spokeswoman	spokeswoman	12	nopreview	7	39	251	251	251	251
32	39	@entity10	Agnes	Agnes	12	nopreview	7	40	192	192	192	192
33			Thibault	Thibault-Lecuivre,	12	nopreview	7	41	185	185	185	185
			-		12	nopreview	7	42				
			Lecuivre		12	nopreview	7	43				
	40	,	,		12	nopreview	7	44				
34	41	the	the	the	12	nopreview	7	45	0	0	0	0
35	42	lawsuit	lawsuit	lawsuit	12	nopreview	7	46	0	0	0	0
36	43	was	was	was	12	nopreview	7	47	0	0	0	0
37	44	filed	filed	filed	12	nopreview	7	48	335	335	335	158
38	45	March	March	March	12	nopreview	7	49	0	0	0	0
39	46	27	27	27	12	nopreview	7	50	216	216	216	216
40	47	and	and	and	12	nopreview	7	51	0	0	0	0
41	48	a	a	a	12	nopreview	7	52	0	0	0	0
42	49	preliminary	preliminary	preliminary	12	nopreview	7	53	303	303	303	303
43	50	investigation	investigation	investigation	12	nopreview	7	54	179	179	179	179
44	51	was	was	was	12	nopreview	7	55	188	188	188	188
45	52	opened	opened	opened	12	nopreview	7	56	187	187	187	187
46	53	by	by	by	12	nopreview	7	57	174	174	174	174
47	54	the	the	the	12	nopreview	7	58	0	0	0	0
48	55	prosecutor	prosecutor	prosecutor-s	12	nopreview	7	59	195	195	195	195
	56	-s	-s		12	nopreview	7	60				
49	57	office	office	office	12	nopreview	7	61	0	0	0	0
50	58	Wednesday	Wednesday	Wednesday.	12	nopreview	7	62	284	284	284	284
	59	.	.		12	nopreview	7	63				
51	60	The	The	The	12	nopreview	7	64	0	0	0	0
52	61	media	media	media	12	nopreview	7	65	186	186	186	186
53	62	outlet	outlet	outlet,	12	nopreview	7	66	225	225	225	225
	63	,	,		12	nopreview	7	67				
54	64	@entity1	CNN	CNN	12	nopreview	7	68	0	0	0	0
55	65	affiliate	affiliate	affiliate	12	nopreview	7	69	166	166	166	166
56	66	@entity16	BFMTV	BFMTV,	12	nopreview	7	70	0	0	0	0
	67	,	,		12	nopreview	7	71				
57	68	is	is	is	12	nopreview	7	72	0	0	0	0
58	69	accused	accused	accused	12	nopreview	7	73	448	448	448	269
59	70	of	of	of	12	nopreview	7	74	0	0	0	0
60	71	endangering	endangering	endangering	12	nopreview	7	75	347	347	347	127
61	72	the	the	the	12	nopreview	7	76	0	0	0	0
62	73	lives	lives	lives	12	nopreview	7	77	240	240	240	240
63	74	of	of	of	12	nopreview	7	78	0	0	0	0
64	75	the	the	the	12	nopreview	7	79	333	333	333	333
65	76	hostages	hostages	hostages,	12	nopreview	7	80	0	0	0	0
	77	,	,		12	nopreview	7	81				
66	78	who	who	who	12	nopreview	7	82	206	206	206	206
67	79	were	were	were	12	nopreview	7	83	337	337	337	337
68	80	hiding	hiding	hiding	12	nopreview	7	84	0	0	0	0
69	81	in	in	in	12	nopreview	7	85	0	0	0	0
70	82	a	a	a	12	nopreview	7	86	0	0	0	0
71	83	cold	cold	cold	12	nopreview	7	87	283	283	283	283
72	84	room	room	room	12	nopreview	7	88	255	255	255	255
73	85	during	during	during	12	nopreview	7	89	174	174	174	174
74	86	the	the	the	12	nopreview	7	90	0	0	0	0
75	87	attack	attack	attack,	12	nopreview	7	91	293	0	0	0
	88	,	,		12	nopreview	7	92				
76	89	by	by	by	12	nopreview	7	93	0	0	0	0
77	90	broadcasting	broadcasting	broadcasting	12	nopreview	7	94	413	126	706	126
78	91	their	their	their	12	nopreview	7	95	292	292	292	292
79	92	location	location	location	12	nopreview	7	96	218	218	218	218
80	93	live	live	live	12	nopreview	7	97	285	285	285	285
81	94	during	during	during	12	nopreview	7	98	0	0	0	0
82	95	the	the	the	12	nopreview	7	99	235	235	235	235
83	96	siege	siege	siege.	12	nopreview	7	100	311	311	311	182
	97	.	.		12	nopreview	7	101				
84	98	@entity23	BFM	BFM	12	nopreview	7	102	0	0	0	0
85	99	in	in	in	12	nopreview	7	103	264	264	264	264
86	100	a	a	a	12	nopreview	7	104	0	0	0	0
87	101	statement	statement	statement	12	nopreview	7	105	191	191	191	191
88	102	Friday	Friday	Friday	12	nopreview	7	106	195	0	0	0
89	103	said	said	said	12	nopreview	7	107	125	125	320	125
90	104	one	one	one	12	nopreview	7	108	261	261	261	261
91	105	of	of	of	12	nopreview	7	109	0	0	0	0
92	106	its	its	its	12	nopreview	7	110	0	0	0	0
93	107	journalists	journalists	journalists	12	nopreview	7	111	417	417	417	229
94	108	-	-	-mentioned	12	nopreview	7	112	208	208	208	208
	109	mentioned	mentioned		12	nopreview	7	113				
95	110	only	only	only	12	nopreview	7	114	0	0	0	0
96	111	once	once	once	12	nopreview	7	115	342	342	342	142
97	112	the	the	the	12	nopreview	7	116	218	218	218	218
98	113	presence	presence	presence	12	nopreview	7	117	247	247	247	247
99	114	of	of	of	12	nopreview	7	118	0	0	0	0
100	115	a	a	a	12	nopreview	7	119	248	248	248	248
101	116	woman	woman	woman	12	nopreview	7	120	0	0	0	0
102	117	hidden	hidden	hidden	12	nopreview	7	121	126	0	0	0
103	118	inside	inside	inside	12	nopreview	7	122	125	125	251	125
104	119	the	the	the	12	nopreview	7	123	160	160	160	160
105	120	@entity27	Hyper	Hyper	12	nopreview	7	124	0	0	0	0
106			Cacher	Cacher,	12	nopreview	7	125	192	192	192	192
	121	,	,		12	nopreview	7	126				
107	122	on	on	on	12	nopreview	7	127	0	0	0	0
108	123	the	the	the	12	nopreview	7	128	0	0	0	0
109	124	basis	basis	basis	12	nopreview	7	129	398	398	398	398
110	125	of	of	of	12	nopreview	7	130	0	0	0	0
111	126	police	police	police	12	nopreview	7	131	234	234	234	234
112	127	sources	sources	sources	12	nopreview	7	132	283	283	283	283
113	128	on	on	on	12	nopreview	7	133	0	0	0	0
114	129	the	the	the	12	nopreview	7	134	0	0	0	0
115	130	ground	ground	ground.-	12	nopreview	7	135	194	194	194	194
	131	.	.		12	nopreview	7	136				
116	132	-	-	-Immediately,	12	nopreview	7	137	285	285	285	124
	133	-	-		12	nopreview	7	138				
	134	Immediately	Immediately		12	nopreview	7	139				
	135	,	,		12	nopreview	7	140				
117	136	the	the	the	12	nopreview	7	141	0	0	0	0
118	137	chief	chief	chief	12	nopreview	7	142	155	155	155	155
119	138	editor	editor	editor	12	nopreview	7	143	381	381	381	180
120	139	felt	felt	felt	12	nopreview	7	144	200	200	200	200
121	140	that	that	that	12	nopreview	7	145	155	155	155	155
122	141	this	this	this	12	nopreview	7	146	0	0	0	0
123	142	information	information	information	12	nopreview	7	147	227	227	227	227
124	143	should	should	should	12	nopreview	7	148	242	242	242	242
125	144	not	not	not	12	nopreview	7	149	227	0	0	0
126	145	be	be	be	12	nopreview	7	150	259	160	160	160
127	146	released	released	released.	12	nopreview	7	151	284	284	610	284
	147	.	.		12	nopreview	7	152				
128	148	It	It	It	12	nopreview	7	153	142	142	142	142
129	149	therefore	therefore	therefore	12	nopreview	7	154	346	346	346	346
130	150	has	has	has	12	nopreview	7	155	0	0	0	0
131	151	subsequently	subsequently	subsequently	12	nopreview	7	156	282	282	282	282
132	152	never	never	never	12	nopreview	7	157	252	252	252	252
133	153	been	been	been	12	nopreview	7	158	0	0	0	0
134	154	repeated	repeated	repeated	12	nopreview	7	159	251	251	251	251
135	155	on	on	on	12	nopreview	7	160	174	174	174	174
136	156	air	air	air	12	nopreview	7	161	238	238	238	238
137	157	or	or	or	12	nopreview	7	162	0	0	0	0
138	158	posted	posted	posted	12	nopreview	7	163	373	373	373	373
139	159	on	on	on-screen.	12	nopreview	7	164	277	277	277	277
	160	-	-		12	nopreview	7	165				
	161	screen	screen		12	nopreview	7	166				
	162	.	.		12	nopreview	7	167				
140	163	@entity16	BFMTV	BFMTV	12	nopreview	7	168	188	188	323	188
141	164	regrets	regrets	regrets	12	nopreview	7	169	610	305	305	134
142	165	that	that	that	12	nopreview	7	170	0	0	0	0
143	166	the	the	the	12	nopreview	7	171	208	208	208	208
144	167	mention	mention	mention	12	nopreview	7	172	284	284	284	284
145	168	of	of	of	12	nopreview	7	173	0	0	0	0
146	169	this	this	this	12	nopreview	7	174	0	0	0	0
147	170	information	information	information	12	nopreview	7	175	477	477	477	213
148	171	could	could	could	12	nopreview	7	176	253	253	253	253
149	172	cause	cause	cause	12	nopreview	7	177	0	0	0	0
150	173	concern	concern	concern	12	nopreview	7	178	196	196	196	196
151	174	to	to	to	12	nopreview	7	179	185	185	185	185
152	175	the	the	the	12	nopreview	7	180	0	0	0	0
153	176	hostages	hostages	hostages,	12	nopreview	7	181	212	212	212	212
	177	,	,		12	nopreview	7	182				
154	178	as	as	as	12	nopreview	7	183	171	171	476	171
155	179	well	well	well	12	nopreview	7	184	0	0	0	0
156	180	as	as	as	12	nopreview	7	185	0	0	0	0
157	181	their	their	their	12	nopreview	7	186	0	0	0	0
158	182	relatives	relatives	relatives,	12	nopreview	7	187	263	263	263	263
	183	,	,		12	nopreview	7	188				
159	184	that	that	that	12	nopreview	7	189	0	0	0	0
160	185	their	their	their	12	nopreview	7	190	203	203	203	203
161	186	lives	lives	lives	12	nopreview	7	191	181	181	181	181
162	187	were	were	were	12	nopreview	7	192	0	0	0	0
163	188	in	in	in	12	nopreview	7	193	0	0	0	0
164	189	danger	danger	danger,-	12	nopreview	7	194	271	271	271	271
	190	,	,		12	nopreview	7	195				
	191	-	-		12	nopreview	7	196				
165	192	the	the	the	12	nopreview	7	197	0	0	0	0
166	193	statement	statement	statement	12	nopreview	7	198	209	209	209	209
167	194	said	said	said.	12	nopreview	7	199	250	250	250	250
	195	.	.		12	nopreview	7	200				
168	196	Gunman	Gunman	Gunman	12	nopreview	7	201	165	165	165	165
169	197	@entity47	Amedy	Amedy	12	nopreview	7	202	244	244	244	244
170			Coulibaly	Coulibaly,	12	nopreview	7	203	325	183	183	183
	198	,	,		12	nopreview	7	204				
171	199	also	also	also	12	nopreview	7	205	0	0	0	0
172	200	suspected	suspected	suspected	12	nopreview	7	206	570	570	570	290
173	201	in	in	in	12	nopreview	7	207	0	0	0	0
174	202	the	the	the	12	nopreview	7	208	204	0	0	0
175	203	slaying	slaying	slaying	12	nopreview	7	209	424	193	628	193
176	204	of	of	of	12	nopreview	7	210	0	0	0	0
177	205	a	a	a	12	nopreview	7	211	0	0	0	0
178	206	police	police	police	12	nopreview	7	212	262	262	262	262
179	207	officer	officer	officer,	12	nopreview	7	213	248	248	248	248
	208	,	,		12	nopreview	7	214				
180	209	stormed	stormed	stormed	12	nopreview	7	215	396	396	396	396
181	210	the	the	the	12	nopreview	7	216	0	0	0	0
182	211	@entity27	Hyper	Hyper	12	nopreview	7	217	162	162	304	162
183	212	@entity51	Cacher	Cacher	12	nopreview	7	218	324	0	0	0
184			Jewish	Jewish	12	nopreview	7	219	0	0	0	0
185	213	supermarket	supermarket	supermarket	12	nopreview	7	220	0	0	0	0
186	214	on	on	on	12	nopreview	7	221	0	0	0	0
187	215	January	January	January	12	nopreview	7	222	218	218	218	218
188	216	9	9	9,	12	nopreview	7	223	0	0	0	0
	217	,	,		12	nopreview	7	224				
189	218	killing	killing	killing	12	nopreview	7	225	113	113	113	113
190	219	four	four	four	12	nopreview	7	226	166	166	166	166
191	220	people	people	people	12	nopreview	7	227	299	299	299	299
192	221	and	and	and	12	nopreview	7	228	0	0	0	0
193	222	taking	taking	taking	12	nopreview	7	229	257	257	257	257
194	223	others	others	others	12	nopreview	7	230	145	145	469	145
195	224	hostage	hostage	hostage.	12	nopreview	7	231	0	0	0	0
	225	.	.		12	nopreview	7	232				
196	226	He	He	He	12	nopreview	7	233	0	0	0	0
197	227	was	was	was	12	nopreview	7	234	0	0	0	0
198	228	killed	killed	killed	12	nopreview	7	235	201	201	201	201
199	229	in	in	in	12	nopreview	7	236	0	0	0	0
200	230	the	the	the	12	nopreview	7	237	0	0	0	0
201	231	police	police	police	12	nopreview	7	238	0	0	0	0
202	232	operation	operation	operation	12	nopreview	7	239	0	0	0	0
203	233	to	to	to	12	nopreview	7	240	0	0	0	0
204	234	end	end	end	12	nopreview	7	241	0	0	0	0
205	235	the	the	the	12	nopreview	7	242	222	222	222	222
206	236	siege	siege	siege.	12	nopreview	7	243	0	0	0	0
	237	.	.		12	nopreview	7	244				
207	238	A	A	A	12	nopreview	7	245	0	0	0	0
208	239	24	24	24-year-old	12	nopreview	7	246	364	364	364	364
	240	-	-		12	nopreview	7	247				
	241	year	year		12	nopreview	7	248				
	242	-	-		12	nopreview	7	249				
	243	old	old		12	nopreview	7	250				
209	244	supermarket	supermarket	supermarket	12	nopreview	7	251	343	343	343	343
210	245	employee	employee	employee,	12	nopreview	7	252	355	355	355	181
	246	,	,		12	nopreview	7	253				
211	247	@entity57	Malian	Malian-born	12	nopreview	7	254	324	324	324	324
	248	-	-		12	nopreview	7	255				
	249	born	born		12	nopreview	7	256				
212	250	@entity56	Lassana	Lassana	12	nopreview	7	257	327	327	327	327
213			Bathily	Bathily,	12	nopreview	7	258	0	0	0	0
	251	,	,		12	nopreview	7	259				
214	252	was	was	was	12	nopreview	7	260	0	0	0	0
215	253	hailed	hailed	hailed	12	nopreview	7	261	351	351	351	351
216	254	as	as	as	12	nopreview	7	262	0	0	0	0
217	255	a	a	a	12	nopreview	7	263	0	0	0	0
218	256	hero	hero	hero	12	nopreview	7	264	493	493	493	266
219	257	afterward	afterward	afterward	12	nopreview	7	265	379	379	379	379
220	258	when	when	when	12	nopreview	7	266	0	0	0	0
221	259	it	it	it	12	nopreview	7	267	0	0	0	0
222	260	emerged	emerged	emerged	12	nopreview	7	268	367	367	367	367
223	261	that	that	that	12	nopreview	7	269	163	163	163	163
224	262	he	he	he	12	nopreview	7	270	0	0	0	0
225	263	had	had	had	12	nopreview	7	271	0	0	0	0
226	264	risked	risked	risked	12	nopreview	7	272	178	178	178	178
227	265	his	his	his	12	nopreview	7	273	170	170	170	170
228	266	life	life	life	12	nopreview	7	274	167	167	167	167
229	267	to	to	to	12	nopreview	7	275	0	0	0	0
230	268	hide	hide	hide	12	nopreview	7	276	312	0	0	0
231	269	15	15	15	12	nopreview	7	277	146	146	458	146
232	270	customers	customers	customers	12	nopreview	7	278	431	232	232	232
233	271	from	from	from	12	nopreview	7	279	124	0	0	0
234	272	@entity47	Coulibaly	Coulibaly	12	nopreview	7	280	695	438	438	210
235	273	in	in	in	12	nopreview	7	281	0	0	0	0
236	274	the	the	the	12	nopreview	7	282	0	0	0	0
237	275	cold	cold	cold	12	nopreview	7	283	0	0	0	0
238	276	room	room	room.	12	nopreview	7	284	243	243	243	243
	277	.	.		12	nopreview	7	285				
239	278	The	The	The	12	nopreview	7	286	0	0	0	0
240	279	hostage	hostage	hostage-taking	12	nopreview	7	287	648	648	648	148
	280	-	-		12	nopreview	7	288				
	281	taking	taking		12	nopreview	7	289				
241	282	was	was	was	12	nopreview	7	290	0	0	0	0
242	283	the	the	the	12	nopreview	7	291	0	0	0	0
243	284	culmination	culmination	culmination	12	nopreview	7	292	271	271	271	271
244	285	of	of	of	12	nopreview	7	293	0	0	0	0
245	286	three	three	three	12	nopreview	7	294	0	0	0	0
246	287	days	days	days	12	nopreview	7	295	0	0	0	0
247	288	of	of	of	12	nopreview	7	296	195	0	0	0
248	289	terror	terror	terror	12	nopreview	7	297	0	0	0	0
249	290	in	in	in	12	nopreview	7	298	0	0	0	0
250	291	@entity0	Paris	Paris	12	nopreview	7	299	0	0	0	0
251	292	that	that	that	12	nopreview	7	300	0	0	0	0
252	293	began	began	began	12	nopreview	7	301	0	0	0	0
253	294	with	with	with	12	nopreview	7	302	0	0	0	0
254	295	the	the	the	12	nopreview	7	303	0	0	0	0
255	296	January	January	January	12	nopreview	7	304	0	0	0	0
256	297	7	7	7	12	nopreview	7	305	0	0	0	0
257	298	shooting	shooting	shooting	12	nopreview	7	306	0	0	0	0
258	299	of	of	of	12	nopreview	7	307	0	0	0	0
259	300	12	12	12	12	nopreview	7	308	177	177	952	177
260	301	people	people	people	12	nopreview	7	309	0	0	0	0
261	302	at	at	at	12	nopreview	7	310	0	0	0	0
262	303	the	the	the	12	nopreview	7	311	0	0	0	0
263	304	offices	offices	offices	12	nopreview	7	312	248	248	248	248
264	305	of	of	of	12	nopreview	7	313	0	0	0	0
265	306	@entity5	French	French	12	nopreview	7	314	214	214	214	214
266	307	satirical	satirical	satirical	12	nopreview	7	315	0	0	0	0
267	308	magazine	magazine	magazine	12	nopreview	7	316	0	0	0	0
268	309	@entity69	Charlie	Charlie	12	nopreview	7	317	262	262	262	262
269			Hebdo	Hebdo.	12	nopreview	7	318	0	0	0	0
	310	.	.		12	nopreview	7	319				
270	311	The	The	The	12	nopreview	7	320	152	152	152	152
271	312	two	two	two	12	nopreview	7	321	0	0	0	0
272	313	brothers	brothers	brothers	12	nopreview	7	322	238	0	0	0
273	314	blamed	blamed	blamed	12	nopreview	7	323	513	305	751	185
274	315	for	for	for	12	nopreview	7	324	0	0	0	0
275	316	that	that	that	12	nopreview	7	325	0	0	0	0
276	317	attack	attack	attack,	12	nopreview	7	326	256	256	256	256
	318	,	,		12	nopreview	7	327				
277	319	@entity72	Cherif	Cherif	12	nopreview	7	328	140	140	140	140
278	320	and	and	and	12	nopreview	7	329	147	147	147	147
279	321	@entity73	Said	Said	12	nopreview	7	330	0	0	0	0
280			Kouachi	Kouachi,	12	nopreview	7	331	608	608	608	425
	322	,	,		12	nopreview	7	332				
281	323	were	were	were	12	nopreview	7	333	0	0	0	0
282	324	killed	killed	killed	12	nopreview	7	334	0	0	0	0
283	325	on	on	on	12	nopreview	7	335	0	0	0	0
284	326	January	January	January	12	nopreview	7	336	161	161	161	161
285	327	9	9	9	12	nopreview	7	337	0	0	0	0
286	328	after	after	after	12	nopreview	7	338	0	0	0	0
287	329	a	a	a	12	nopreview	7	339	0	0	0	0
288	330	violent	violent	violent	12	nopreview	7	340	0	0	0	0
289	331	standoff	standoff	standoff	12	nopreview	7	341	0	0	0	0
290	332	at	at	at	12	nopreview	7	342	0	0	0	0
291	333	an	an	an	12	nopreview	7	343	0	0	0	0
292	334	industrial	industrial	industrial	12	nopreview	7	344	0	0	0	0
293	335	site	site	site.	12	nopreview	7	345	119	0	0	0
	336	.	.		12	nopreview	7	346				
294	337	The	The	The	12	nopreview	7	347	0	0	0	0
295	338	terror	terror	terror	12	nopreview	7	348	545	339	458	211
296	339	attacks	attacks	attacks	12	nopreview	7	349	297	198	198	198
297	340	claimed	claimed	claimed	12	nopreview	7	350	419	419	419	224
298	341	the	the	the	12	nopreview	7	351	256	0	0	0
299	342	lives	lives	lives	12	nopreview	7	352	195	195	195	195
300	343	of	of	of	12	nopreview	7	353	0	0	0	0
301	344	17	17	17	12	nopreview	7	354	196	0	0	0
302	345	people	people	people	12	nopreview	7	355	684	444	444	241
303	346	and	and	and	12	nopreview	7	356	0	0	0	0
304	347	put	put	put	12	nopreview	7	357	193	193	193	193
305	348	@entity5	France	France	12	nopreview	7	358	434	207	207	207
306	349	on	on	on	12	nopreview	7	359	421	421	421	421
307	350	a	a	a	12	nopreview	7	360	0	0	0	0
308	351	heightened	heightened	heightened	12	nopreview	7	361	991	346	346	346
309	352	state	state	state	12	nopreview	7	362	374	137	137	137
310	353	of	of	of	12	nopreview	7	363	310	165	2416	165
311	354	alert	alert	alert.	12	nopreview	7	364	0	0	0	0
	355	.	.		12	nopreview	7	365				
