HumanPosition	AnonymizedPosition	AnonymizedToken	OriginalToken	ExperimentToken	Participant	Condition	TextNo	JointPosition	tt	fp	rp	ff
1	0	A	A	A	6	nopreview	17	1	0	0	0	0
2	1	boxing	boxing	boxing	6	nopreview	17	2	304	304	304	304
3	2	fight	fight	fight	6	nopreview	17	3	146	146	450	146
4	3	had	had	had	6	nopreview	17	4	0	0	0	0
5	4	to	to	to	6	nopreview	17	5	304	304	304	304
6	5	be	be	be	6	nopreview	17	6	0	0	0	0
7	6	halted	halted	halted	6	nopreview	17	7	293	293	293	293
8	7	after	after	after	6	nopreview	17	8	240	240	240	240
9	8	a	a	a	6	nopreview	17	9	0	0	0	0
10	9	fighter	fighter	fighter-s	6	nopreview	17	10	791	285	285	285
	10	-s	-s		6	nopreview	17	11				
11	11	cell	cell	cell	6	nopreview	17	12	384	384	384	384
12	12	phone	phone	phone	6	nopreview	17	13	178	178	178	178
13	13	fell	fell	fell	6	nopreview	17	14	185	185	185	185
14	14	out	out	out	6	nopreview	17	15	212	212	212	212
15	15	of	of	of	6	nopreview	17	16	406	0	0	0
16	16	his	his	his	6	nopreview	17	17	455	242	242	242
17	17	trunks	trunks	trunks.	6	nopreview	17	18	651	161	294	161
	18	.	.		6	nopreview	17	19				
18	19	@entity4	Marvin	Marvin	6	nopreview	17	20	655	0	0	0
19			-	-Papi	6	nopreview	17	21	725	0	0	0
			Papi		6	nopreview	17	22				
20			Gallo	Gallo-	6	nopreview	17	23	689	0	3067	0
			-		6	nopreview	17	24				
21			Jones	Jones	6	nopreview	17	25	521	0	0	0
22	20	and	and	and	6	nopreview	17	26	129	0	0	0
23	21	@entity5	Ramon	Ramon	6	nopreview	17	27	806	0	0	0
24			Luis	Luis	6	nopreview	17	28	696	0	0	0
25			Nicolas	Nicolas	6	nopreview	17	29	240	0	0	0
26	22	were	were	were	6	nopreview	17	30	298	0	0	0
27	23	in	in	in	6	nopreview	17	31	0	0	0	0
28	24	the	the	the	6	nopreview	17	32	604	0	0	0
29	25	middle	middle	middle	6	nopreview	17	33	316	0	0	0
30	26	of	of	of	6	nopreview	17	34	0	0	0	0
31	27	a	a	a	6	nopreview	17	35	205	0	0	0
32	28	bout	bout	bout	6	nopreview	17	36	215	215	5195	215
33	29	when	when	when	6	nopreview	17	37	241	241	241	241
34	30	the	the	the	6	nopreview	17	38	294	294	294	294
35	31	black	black	black	6	nopreview	17	39	0	0	0	0
36	32	phone	phone	phone	6	nopreview	17	40	541	541	541	261
37	33	slipped	slipped	slipped	6	nopreview	17	41	591	261	261	261
38	34	out	out	out	6	nopreview	17	42	266	266	266	266
39	35	from	from	from	6	nopreview	17	43	198	198	198	198
40	36	@entity4	Jones	Jones-	6	nopreview	17	44	220	0	0	0
	37	-	-		6	nopreview	17	45				
41	38	black	black	black	6	nopreview	17	46	518	222	222	222
42	39	and	and	and	6	nopreview	17	47	484	0	0	0
43	40	red	red	red	6	nopreview	17	48	472	270	470	270
44	41	shorts	shorts	shorts	6	nopreview	17	49	552	226	226	226
45	42	at	at	at	6	nopreview	17	50	299	0	0	0
46	43	the	the	the	6	nopreview	17	51	591	392	392	392
47	44	ring	ring	ring	6	nopreview	17	52	262	262	561	262
48	45	in	in	in	6	nopreview	17	53	125	0	0	0
49	46	@entity11	Arcadia	Arcadia,	6	nopreview	17	54	401	176	526	176
	47	,	,		6	nopreview	17	55				
50	48	@entity12	Florida	Florida.	6	nopreview	17	56	393	393	393	118
	49	.	.		6	nopreview	17	57				
51	50	Referee	Referee	Referee	6	nopreview	17	58	391	391	391	391
52	51	@entity13	Frankie	Frankie	6	nopreview	17	59	281	281	281	281
53			Santore	Santore	6	nopreview	17	60	1202	514	514	206
54			Jr.	Jr.	6	nopreview	17	61	299	135	987	135
55	52	went	went	went	6	nopreview	17	62	196	196	196	196
56	53	over	over	over	6	nopreview	17	63	256	256	256	256
57	54	to	to	to	6	nopreview	17	64	0	0	0	0
58	55	pick	pick	pick	6	nopreview	17	65	103	103	103	103
59	56	up	up	up	6	nopreview	17	66	0	0	0	0
60	57	the	the	the	6	nopreview	17	67	271	271	271	271
61	58	@entity14	Samsung	Samsung	6	nopreview	17	68	262	262	262	262
62			Galaxy	Galaxy	6	nopreview	17	69	249	249	249	249
63	59	and	and	and	6	nopreview	17	70	157	157	157	157
64	60	looked	looked	looked	6	nopreview	17	71	344	344	344	344
65	61	like	like	like	6	nopreview	17	72	162	162	162	162
66	62	he	he	he	6	nopreview	17	73	201	0	0	0
67	63	was	was	was	6	nopreview	17	74	191	191	191	191
68	64	chastising	chastising	chastising	6	nopreview	17	75	665	220	421	136
69	65	@entity4	Jones	Jones,	6	nopreview	17	76	311	132	756	132
	66	,	,		6	nopreview	17	77				
70	67	who	who	who	6	nopreview	17	78	0	0	0	0
71	68	seemed	seemed	seemed	6	nopreview	17	79	267	267	267	267
72	69	confused	confused	confused.	6	nopreview	17	80	280	280	280	280
	70	.	.		6	nopreview	17	81				
73	71	Scroll	Scroll	Jones,	6	nopreview	17	82	254	254	254	254
	72	down	down		6	nopreview	17	83				
	73	for	for		6	nopreview	17	84				
	74	video	video		6	nopreview	17	85				
	75	@entity4	Marvin		6	nopreview	17	86				
			-		6	nopreview	17	87				
			Papi		6	nopreview	17	88				
			Gallo		6	nopreview	17	89				
			-		6	nopreview	17	90				
			Jones		6	nopreview	17	91				
	76	(	(		6	nopreview	17	92				
74	77	right	right	32,	6	nopreview	17	93	302	302	302	302
	78	)	)		6	nopreview	17	94				
	79	and	and		6	nopreview	17	95				
75	80	@entity5	Ramon	held	6	nopreview	17	96	273	273	273	273
			Luis		6	nopreview	17	97				
			Nicolas		6	nopreview	17	98				
	81	(	(		6	nopreview	17	99				
	82	left	left		6	nopreview	17	100				
76	83	)	)	his	6	nopreview	17	101	255	255	255	255
77	84	were	were	hands	6	nopreview	17	102	0	0	0	0
	85	in	in		6	nopreview	17	103				
	86	the	the		6	nopreview	17	104				
	87	middle	middle		6	nopreview	17	105				
	88	of	of		6	nopreview	17	106				
	89	a	a		6	nopreview	17	107				
	90	bout	bout		6	nopreview	17	108				
	91	when	when		6	nopreview	17	109				
	92	the	the		6	nopreview	17	110				
	93	black	black		6	nopreview	17	111				
	94	phone	phone		6	nopreview	17	112				
	95	slipped	slipped		6	nopreview	17	113				
	96	out	out		6	nopreview	17	114				
	97	from	from		6	nopreview	17	115				
	98	@entity4	Jones		6	nopreview	17	116				
78	99	-	-	up	6	nopreview	17	117	208	0	0	0
79	100	black	black	as	6	nopreview	17	118	249	0	0	0
	101	and	and		6	nopreview	17	119				
80	102	red	red	the	6	nopreview	17	120	124	124	581	124
81	103	shorts	shorts	referee	6	nopreview	17	121	0	0	0	0
	104	at	at		6	nopreview	17	122				
	105	the	the		6	nopreview	17	123				
	106	ring	ring		6	nopreview	17	124				
	107	in	in		6	nopreview	17	125				
	108	@entity11	Arcadia		6	nopreview	17	126				
	109	,	,		6	nopreview	17	127				
	110	@entity12	Florida		6	nopreview	17	128				
	111	@entity4	Jones		6	nopreview	17	129				
	112	,	,		6	nopreview	17	130				
	113	32	32		6	nopreview	17	131				
	114	,	,		6	nopreview	17	132				
	115	held	held		6	nopreview	17	133				
	116	his	his		6	nopreview	17	134				
	117	hands	hands		6	nopreview	17	135				
	118	up	up		6	nopreview	17	136				
	119	as	as		6	nopreview	17	137				
	120	the	the		6	nopreview	17	138				
	121	referee	referee		6	nopreview	17	139				
82	122	took	took	took	6	nopreview	17	140	226	226	226	226
83	123	the	the	the	6	nopreview	17	141	253	253	253	253
84	124	phone	phone	phone	6	nopreview	17	142	0	0	0	0
85	125	over	over	over	6	nopreview	17	143	272	272	272	272
86	126	to	to	to	6	nopreview	17	144	107	0	0	0
87	127	the	the	the	6	nopreview	17	145	263	263	370	263
88	128	side	side	side	6	nopreview	17	146	0	0	0	0
89	129	of	of	of	6	nopreview	17	147	0	0	0	0
90	130	the	the	the	6	nopreview	17	148	322	322	322	322
91	131	ring	ring	ring.	6	nopreview	17	149	0	0	0	0
	132	.	.		6	nopreview	17	150				
92	133	The	The	The	6	nopreview	17	151	0	0	0	0
93	134	audience	audience	audience	6	nopreview	17	152	369	369	369	206
94	135	and	and	and	6	nopreview	17	153	0	0	0	0
95	136	viewers	viewers	viewers	6	nopreview	17	154	717	255	255	124
96	137	were	were	were	6	nopreview	17	155	534	290	996	157
97	138	baffled	baffled	baffled	6	nopreview	17	156	0	0	0	0
98	139	as	as	as	6	nopreview	17	157	399	399	399	399
99	140	to	to	to	6	nopreview	17	158	0	0	0	0
100	141	why	why	why	6	nopreview	17	159	295	295	295	295
101	142	@entity4	Jones	Jones	6	nopreview	17	160	196	196	196	196
102	143	had	had	had	6	nopreview	17	161	0	0	0	0
103	144	his	his	his	6	nopreview	17	162	283	283	283	283
104	145	phone	phone	phone	6	nopreview	17	163	0	0	0	0
105	146	in	in	in	6	nopreview	17	164	0	0	0	0
106	147	his	his	his	6	nopreview	17	165	375	375	375	375
107	148	shorts	shorts	shorts.	6	nopreview	17	166	0	0	0	0
	149	.	.		6	nopreview	17	167				
108	150	But	But	But	6	nopreview	17	168	0	0	0	0
109	151	@entity4	Jones	Jones	6	nopreview	17	169	544	284	284	284
110	152	later	later	later	6	nopreview	17	170	424	237	684	237
111	153	told	told	told	6	nopreview	17	171	333	333	333	333
112	154	@entity26	TMZ	TMZ	6	nopreview	17	172	1202	0	0	0
113			Sports	Sports	6	nopreview	17	173	578	143	1780	143
114	155	that	that	that	6	nopreview	17	174	290	290	290	290
115	156	he	he	he	6	nopreview	17	175	0	0	0	0
116	157	was	was	was	6	nopreview	17	176	286	286	286	286
117	158	listening	listening	listening	6	nopreview	17	177	0	0	0	0
118	159	to	to	to	6	nopreview	17	178	181	181	181	181
119	160	music	music	music	6	nopreview	17	179	122	122	122	122
120	161	before	before	before	6	nopreview	17	180	202	202	202	202
121	162	the	the	the	6	nopreview	17	181	0	0	0	0
122	163	fight	fight	fight	6	nopreview	17	182	251	251	251	251
123	164	on	on	on	6	nopreview	17	183	0	0	0	0
124	165	Friday	Friday	Friday	6	nopreview	17	184	284	284	284	284
125	166	and	and	and	6	nopreview	17	185	0	0	0	0
126	167	put	put	put	6	nopreview	17	186	410	410	410	261
127	168	his	his	his	6	nopreview	17	187	0	0	0	0
128	169	phone	phone	phone	6	nopreview	17	188	435	210	210	210
129	170	in	in	in	6	nopreview	17	189	191	0	0	0
130	171	his	his	his	6	nopreview	17	190	196	196	612	196
131	172	shorts	shorts	shorts.	6	nopreview	17	191	358	358	358	358
	173	.	.		6	nopreview	17	192				
132	174	When	When	When	6	nopreview	17	193	416	416	416	416
133	175	he	he	he	6	nopreview	17	194	0	0	0	0
134	176	got	got	got	6	nopreview	17	195	218	218	218	218
135	177	to	to	to	6	nopreview	17	196	0	0	0	0
136	178	the	the	the	6	nopreview	17	197	348	348	348	348
137	179	ring	ring	ring,	6	nopreview	17	198	0	0	0	0
	180	,	,		6	nopreview	17	199				
138	181	he	he	he	6	nopreview	17	200	0	0	0	0
139	182	pulled	pulled	pulled	6	nopreview	17	201	229	229	229	229
140	183	out	out	out	6	nopreview	17	202	0	0	0	0
141	184	his	his	his	6	nopreview	17	203	310	310	310	154
142	185	headphones	headphones	headphones,	6	nopreview	17	204	280	280	280	280
	186	,	,		6	nopreview	17	205				
143	187	but	but	but	6	nopreview	17	206	238	238	238	238
144	188	missed	missed	missed	6	nopreview	17	207	273	273	273	99
145	189	his	his	his	6	nopreview	17	208	456	456	456	290
146	190	phone	phone	phone.	6	nopreview	17	209	0	0	0	0
	191	.	.		6	nopreview	17	210				
147	192	@entity4	Jones	Jones	6	nopreview	17	211	315	315	315	315
148	193	believes	believes	believes	6	nopreview	17	212	208	208	208	208
149	194	the	the	the	6	nopreview	17	213	387	387	387	387
150	195	mishap	mishap	mishap	6	nopreview	17	214	0	0	0	0
151	196	cost	cost	cost	6	nopreview	17	215	228	228	228	228
152	197	him	him	him	6	nopreview	17	216	0	0	0	0
153	198	the	the	the	6	nopreview	17	217	237	237	237	237
154	199	fight	fight	fight	6	nopreview	17	218	189	189	189	189
155	200	as	as	as	6	nopreview	17	219	0	0	0	0
156	201	he	he	he	6	nopreview	17	220	450	450	450	450
157	202	kept	kept	kept	6	nopreview	17	221	169	0	0	0
158	203	thinking	thinking	thinking,	6	nopreview	17	222	258	258	427	258
	204	,	,		6	nopreview	17	223				
159	205	-	-	-Man,	6	nopreview	17	224	270	0	0	0
	206	Man	Man		6	nopreview	17	225				
	207	,	,		6	nopreview	17	226				
160	208	my	my	my	6	nopreview	17	227	363	81	633	81
161	209	cell	cell	cell	6	nopreview	17	228	0	0	0	0
162	210	phone	phone	phone	6	nopreview	17	229	812	562	562	296
163	211	just	just	just	6	nopreview	17	230	391	211	641	211
164	212	fell	fell	fell	6	nopreview	17	231	145	145	145	145
165	213	out	out	out	6	nopreview	17	232	256	256	256	256
166	214	in	in	in	6	nopreview	17	233	147	0	0	0
167	215	the	the	the	6	nopreview	17	234	251	251	398	251
168	216	ring	ring	ring	6	nopreview	17	235	0	0	0	0
169	217	–	–	-	6	nopreview	17	236	0	0	0	0
170	218	and	and	and	6	nopreview	17	237	725	415	415	415
171	219	on	on	on	6	nopreview	17	238	195	195	505	195
172	220	TV	TV	TV!-	6	nopreview	17	239	92	92	92	92
	221	!	!		6	nopreview	17	240				
	222	-	-		6	nopreview	17	241				
173	223	He	He	He	6	nopreview	17	242	216	216	216	216
174	224	has	has	has	6	nopreview	17	243	339	339	339	339
175	225	decided	decided	decided	6	nopreview	17	244	135	0	0	0
176	226	that	that	that	6	nopreview	17	245	647	151	782	151
177	227	for	for	for	6	nopreview	17	246	129	129	4372	129
178	228	his	his	his	6	nopreview	17	247	0	0	0	0
179	229	next	next	next	6	nopreview	17	248	0	0	0	0
180	230	fight	fight	fight	6	nopreview	17	249	0	0	0	0
181	231	he	he	he	6	nopreview	17	250	0	0	0	0
182	232	will	will	will	6	nopreview	17	251	0	0	0	0
183	233	make	make	make	6	nopreview	17	252	0	0	0	0
184	234	sure	sure	sure	6	nopreview	17	253	0	0	0	0
185	235	someone	someone	someone	6	nopreview	17	254	0	0	0	0
186	236	pats	pats	pats	6	nopreview	17	255	0	0	0	0
187	237	him	him	him	6	nopreview	17	256	0	0	0	0
188	238	down	down	down.	6	nopreview	17	257	0	0	0	0
	239	.	.		6	nopreview	17	258				
