HumanPosition	AnonymizedPosition	AnonymizedToken	OriginalToken	ExperimentToken	Participant	Condition	TextNo	JointPosition	tt	fp	rp	ff
1	0	Fighting	Fighting	Fighting	6	nopreview	19	1	352	352	352	125
2	1	between	between	between	6	nopreview	19	2	480	480	832	480
3	2	rival	rival	rival	6	nopreview	19	3	331	331	331	331
4	3	fans	fans	fans	6	nopreview	19	4	590	330	330	330
5	4	forced	forced	forced	6	nopreview	19	5	989	497	497	245
6	5	a	a	a	6	nopreview	19	6	0	0	0	0
7	6	@entity2	Russian	Russian	6	nopreview	19	7	751	400	400	258
8			Premier	Premier	6	nopreview	19	8	627	322	322	322
9			League	League	6	nopreview	19	9	506	124	124	124
10	7	match	match	match	6	nopreview	19	10	762	264	264	264
11	8	between	between	between	6	nopreview	19	11	817	325	325	325
12	9	@entity3	Arsenal	Arsenal	6	nopreview	19	12	215	215	215	215
13			Tula	Tula	6	nopreview	19	13	0	0	0	0
14	10	and	and	and	6	nopreview	19	14	513	0	0	0
15	11	@entity4	Torpedo	Torpedo	6	nopreview	19	15	1027	110	1540	110
16			Moscow	Moscow	6	nopreview	19	16	147	147	147	147
17	12	to	to	to	6	nopreview	19	17	0	0	0	0
18	13	be	be	be	6	nopreview	19	18	252	252	252	252
19	14	stopped	stopped	stopped	6	nopreview	19	19	0	0	0	0
20	15	for	for	for	6	nopreview	19	20	0	0	0	0
21	16	seven	seven	seven	6	nopreview	19	21	542	327	327	186
22	17	minutes	minutes	minutes	6	nopreview	19	22	364	364	579	364
23	18	on	on	on	6	nopreview	19	23	0	0	0	0
24	19	Sunday	Sunday	Sunday.	6	nopreview	19	24	538	411	692	411
	20	.	.		6	nopreview	19	25				
25	21	A	A	A	6	nopreview	19	26	0	0	0	0
26	22	statement	statement	statement	6	nopreview	19	27	339	339	620	177
27	23	on	on	on	6	nopreview	19	28	119	119	119	119
28	24	@entity3	Arsenal	Arsenal-s	6	nopreview	19	29	275	275	275	157
	25	-s	-s		6	nopreview	19	30				
29	26	official	official	official	6	nopreview	19	31	496	221	221	221
30	27	site	site	site	6	nopreview	19	32	317	317	317	317
31	28	read	read	read:	6	nopreview	19	33	206	206	206	206
32	29	:	:	-In	6	nopreview	19	34	468	0	0	0
	30	-	-		6	nopreview	19	35				
33	31	In	In	the	6	nopreview	19	36	358	149	1101	149
34	32	the	the	31st	6	nopreview	19	37	240	240	449	240
	33	31st	31st		6	nopreview	19	38				
35	34	minute	minute	minute,	6	nopreview	19	39	0	0	0	0
	35	,	,		6	nopreview	19	40				
36	36	fans	fans	fans	6	nopreview	19	41	301	301	301	195
37	37	from	from	from	6	nopreview	19	42	0	0	0	0
38	38	the	the	the	6	nopreview	19	43	269	269	269	269
39	39	visiting	visiting	visiting	6	nopreview	19	44	0	0	0	0
40	40	@entity9	Moscow	Moscow	6	nopreview	19	45	361	361	361	155
41	41	club	club	club	6	nopreview	19	46	161	161	161	161
42	42	broke	broke	broke	6	nopreview	19	47	0	0	0	0
43	43	down	down	down	6	nopreview	19	48	90	90	90	90
44	44	barriers	barriers	barriers	6	nopreview	19	49	311	311	311	311
45	45	in	in	in	6	nopreview	19	50	0	0	0	0
46	46	front	front	front	6	nopreview	19	51	390	258	258	258
47	47	of	of	of	6	nopreview	19	52	0	0	0	0
48	48	the	the	the	6	nopreview	19	53	366	366	366	241
49	49	visitors	visitors	visitors	6	nopreview	19	54	200	0	0	0
50	50	sector	sector	sector	6	nopreview	19	55	476	249	249	249
51	51	and	and	and	6	nopreview	19	56	256	256	256	256
52	52	tried	tried	tried	6	nopreview	19	57	384	177	177	177
53	53	to	to	to	6	nopreview	19	58	0	0	0	0
54	54	get	get	get	6	nopreview	19	59	227	227	227	227
55	55	to	to	to	6	nopreview	19	60	434	0	0	0
56	56	the	the	the	6	nopreview	19	61	145	145	338	145
57	57	@entity13	East	East	6	nopreview	19	62	163	0	0	0
58			Stand	Stand,	6	nopreview	19	63	862	450	450	450
	58	,	,		6	nopreview	19	64				
59	59	where	where	where	6	nopreview	19	65	378	272	272	272
60	60	a	a	a	6	nopreview	19	66	0	0	0	0
61	61	number	number	number	6	nopreview	19	67	272	272	272	272
62	62	of	of	of	6	nopreview	19	68	0	0	0	0
63	63	women	women	women	6	nopreview	19	69	389	225	225	225
64	64	and	and	and	6	nopreview	19	70	155	0	0	0
65	65	children	children	children	6	nopreview	19	71	287	287	287	156
66	66	were	were	were	6	nopreview	19	72	257	257	257	257
67	67	sitting	sitting	sitting.	6	nopreview	19	73	295	295	295	295
	68	.	.		6	nopreview	19	74				
68	69	-	-	-The	6	nopreview	19	75	0	0	0	0
	70	The	The		6	nopreview	19	76				
69	71	@entity4	Torpedo	Torpedo	6	nopreview	19	77	753	753	753	206
70	72	fans	fans	fans	6	nopreview	19	78	304	0	0	0
71	73	began	began	began	6	nopreview	19	79	582	582	886	320
72	74	breaking	breaking	breaking	6	nopreview	19	80	290	0	0	0
73	75	seats	seats	seats	6	nopreview	19	81	332	105	622	105
74	76	and	and	and	6	nopreview	19	82	0	0	0	0
75	77	throwing	throwing	throwing	6	nopreview	19	83	816	816	816	516
76	78	them	them	them	6	nopreview	19	84	261	261	261	261
77	79	towards	towards	towards	6	nopreview	19	85	175	175	175	175
78	80	law	law	law	6	nopreview	19	86	171	0	0	0
79	81	enforcement	enforcement	enforcement	6	nopreview	19	87	439	136	481	136
80	82	officers	officers	officers	6	nopreview	19	88	443	215	215	215
81	83	and	and	and	6	nopreview	19	89	0	0	0	0
82	84	stewards	stewards	stewards.-	6	nopreview	19	90	506	150	2586	150
	85	.	.		6	nopreview	19	91				
83	86	-	-	Referee	6	nopreview	19	92	374	0	0	0
	87	Scroll	Scroll		6	nopreview	19	93				
	88	down	down		6	nopreview	19	94				
	89	to	to		6	nopreview	19	95				
	90	watch	watch		6	nopreview	19	96				
	91	video	video		6	nopreview	19	97				
	92	footage	footage		6	nopreview	19	98				
	93	of	of		6	nopreview	19	99				
	94	the	the		6	nopreview	19	100				
	95	incident	incident		6	nopreview	19	101				
	96	Fans	Fans		6	nopreview	19	102				
	97	fight	fight		6	nopreview	19	103				
	98	leading	leading		6	nopreview	19	104				
	99	to	to		6	nopreview	19	105				
	100	@entity3	Arsenal		6	nopreview	19	106				
			Tula		6	nopreview	19	107				
	101	vs	vs		6	nopreview	19	108				
	102	@entity4	Torpedo		6	nopreview	19	109				
			Moscow		6	nopreview	19	110				
	103	to	to		6	nopreview	19	111				
	104	be	be		6	nopreview	19	112				
	105	suspended	suspended		6	nopreview	19	113				
	106	for	for		6	nopreview	19	114				
	107	seven	seven		6	nopreview	19	115				
	108	minutes	minutes		6	nopreview	19	116				
	109	on	on		6	nopreview	19	117				
	110	Sunday	Sunday		6	nopreview	19	118				
	111	@entity4	Torpedo		6	nopreview	19	119				
			Moscow		6	nopreview	19	120				
	112	fans	fans		6	nopreview	19	121				
	113	broke	broke		6	nopreview	19	122				
	114	down	down		6	nopreview	19	123				
	115	barriers	barriers		6	nopreview	19	124				
	116	and	and		6	nopreview	19	125				
	117	threw	threw		6	nopreview	19	126				
	118	chairs	chairs		6	nopreview	19	127				
	119	,	,		6	nopreview	19	128				
	120	according	according		6	nopreview	19	129				
	121	to	to		6	nopreview	19	130				
	122	@entity3	Arsenal		6	nopreview	19	131				
			Tula		6	nopreview	19	132				
	123	-s	-s		6	nopreview	19	133				
	124	website	website		6	nopreview	19	134				
	125	Referee	Referee		6	nopreview	19	135				
84	126	@entity28	Alexander	Alexander	6	nopreview	19	136	570	112	944	112
85			Yegorov	Yegorov	6	nopreview	19	137	835	835	835	274
86	127	stopped	stopped	stopped	6	nopreview	19	138	418	285	285	285
87	128	the	the	the	6	nopreview	19	139	445	445	445	445
88	129	match	match	match	6	nopreview	19	140	0	0	0	0
89	130	and	and	and	6	nopreview	19	141	0	0	0	0
90	131	told	told	told	6	nopreview	19	142	243	243	243	243
91	132	the	the	the	6	nopreview	19	143	164	0	0	0
92	133	players	players	players	6	nopreview	19	144	172	172	336	172
93	134	to	to	to	6	nopreview	19	145	0	0	0	0
94	135	leave	leave	leave	6	nopreview	19	146	339	339	339	193
95	136	the	the	the	6	nopreview	19	147	0	0	0	0
96	137	pitch	pitch	pitch	6	nopreview	19	148	245	245	245	245
97	138	and	and	and	6	nopreview	19	149	0	0	0	0
98	139	head	head	head	6	nopreview	19	150	294	0	0	0
99	140	for	for	for	6	nopreview	19	151	96	96	390	96
100	141	the	the	the	6	nopreview	19	152	341	341	341	341
101	142	dressing	dressing	dressing	6	nopreview	19	153	163	163	163	163
102	143	rooms	rooms	rooms,	6	nopreview	19	154	382	382	382	382
	144	,	,		6	nopreview	19	155				
103	145	while	while	while	6	nopreview	19	156	279	279	279	279
104	146	fights	fights	fights	6	nopreview	19	157	388	269	269	269
105	147	broke	broke	broke	6	nopreview	19	158	295	295	295	295
106	148	out	out	out	6	nopreview	19	159	0	0	0	0
107	149	between	between	between	6	nopreview	19	160	421	233	233	233
108	150	fans	fans	fans	6	nopreview	19	161	182	182	182	182
109	151	on	on	on	6	nopreview	19	162	0	0	0	0
110	152	the	the	the	6	nopreview	19	163	151	0	0	0
111	153	running	running	running	6	nopreview	19	164	234	234	385	234
112	154	track	track	track	6	nopreview	19	165	288	0	0	0
113	155	after	after	after	6	nopreview	19	166	507	120	795	120
114	156	they	they	they	6	nopreview	19	167	125	0	0	0
115	157	managed	managed	managed	6	nopreview	19	168	201	201	326	201
116	158	to	to	to	6	nopreview	19	169	0	0	0	0
117	159	climb	climb	climb	6	nopreview	19	170	305	305	305	305
118	160	over	over	over	6	nopreview	19	171	179	0	0	0
119	161	barriers	barriers	barriers.	6	nopreview	19	172	154	154	333	154
	162	.	.		6	nopreview	19	173				
120	163	After	After	After	6	nopreview	19	174	0	0	0	0
121	164	order	order	order	6	nopreview	19	175	1009	435	435	258
122	165	was	was	was	6	nopreview	19	176	0	0	0	0
123	166	restored	restored	restored	6	nopreview	19	177	561	284	858	284
124	167	play	play	play	6	nopreview	19	178	393	198	670	198
125	168	resumed	resumed	resumed	6	nopreview	19	179	223	223	223	223
126	169	and	and	and	6	nopreview	19	180	300	0	0	0
127	170	@entity4	Torpedo	Torpedo	6	nopreview	19	181	174	174	474	174
128	171	ran	ran	ran	6	nopreview	19	182	404	0	0	0
129	172	out	out	out	6	nopreview	19	183	276	157	368	157
130	173	3	3	3-1	6	nopreview	19	184	588	0	0	0
	174	-	-		6	nopreview	19	185				
	175	1	1		6	nopreview	19	186				
131	176	winners	winners	winners.	6	nopreview	19	187	441	159	1341	159
	177	.	.		6	nopreview	19	188				
132	178	@entity41	Sergei	Sergei	6	nopreview	19	189	702	306	306	306
133			Cheban	Cheban,	6	nopreview	19	190	365	109	3520	109
	179	,	,		6	nopreview	19	191				
134	180	executive	executive	executive	6	nopreview	19	192	528	336	336	336
135	181	director	director	director	6	nopreview	19	193	504	316	316	316
136	182	of	of	of	6	nopreview	19	194	360	143	740	143
137	183	the	the	the	6	nopreview	19	195	109	109	109	109
138	184	@entity2	Russian	Russian	6	nopreview	19	196	211	0	0	0
139			Football	Football	6	nopreview	19	197	256	109	467	109
140			Premier	Premier	6	nopreview	19	198	225	225	225	225
141			League	League,	6	nopreview	19	199	0	0	0	0
	185	,	,		6	nopreview	19	200				
142	186	said	said	said	6	nopreview	19	201	271	0	0	0
143	187	@entity4	Torpedo	Torpedo	6	nopreview	19	202	643	152	576	152
144	188	could	could	could	6	nopreview	19	203	580	252	590	163
145	189	expected	expected	expected	6	nopreview	19	204	1347	848	1675	186
146	190	to	to	to	6	nopreview	19	205	0	0	0	0
147	191	be	be	be	6	nopreview	19	206	501	289	289	289
148	192	heavily	heavily	heavily	6	nopreview	19	207	673	224	224	224
149	193	punished	punished	punished	6	nopreview	19	208	603	241	1855	241
150	194	for	for	for	6	nopreview	19	209	0	0	0	0
151	195	this	this	this	6	nopreview	19	210	340	340	340	340
152	196	latest	latest	latest	6	nopreview	19	211	563	263	603	263
153	197	outbreak	outbreak	outbreak	6	nopreview	19	212	244	244	544	244
154	198	of	of	of	6	nopreview	19	213	171	171	171	171
155	199	violence	violence	violence	6	nopreview	19	214	140	140	140	140
156	200	by	by	by	6	nopreview	19	215	0	0	0	0
157	201	their	their	their	6	nopreview	19	216	256	256	256	256
158	202	fans	fans	fans.	6	nopreview	19	217	0	0	0	0
	203	.	.		6	nopreview	19	218				
159	204	-	-	-Those	6	nopreview	19	219	206	0	0	0
	205	Those	Those		6	nopreview	19	220				
160	206	people	people	people	6	nopreview	19	221	439	298	298	298
161	207	who	who	who	6	nopreview	19	222	588	328	935	328
162	208	organised	organised	organised	6	nopreview	19	223	395	245	245	245
163	209	the	the	the	6	nopreview	19	224	298	141	448	141
164	210	trouble	trouble	trouble	6	nopreview	19	225	215	0	0	0
165	211	have	have	have	6	nopreview	19	226	120	120	335	120
166	212	already	already	already	6	nopreview	19	227	450	450	450	283
167	213	been	been	been	6	nopreview	19	228	0	0	0	0
168	214	detained	detained	detained.	6	nopreview	19	229	565	565	565	317
	215	.	.		6	nopreview	19	230				
169	216	The	The	The	6	nopreview	19	231	0	0	0	0
170	217	security	security	security	6	nopreview	19	232	286	286	286	286
171	218	forces	forces	forces	6	nopreview	19	233	224	224	224	224
172	219	on	on	on	6	nopreview	19	234	0	0	0	0
173	220	duty	duty	duty	6	nopreview	19	235	344	344	344	344
174	221	were	were	were	6	nopreview	19	236	250	250	250	250
175	222	very	very	very	6	nopreview	19	237	0	0	0	0
176	223	professional	professional	professional	6	nopreview	19	238	379	379	379	379
177	224	in	in	in	6	nopreview	19	239	0	0	0	0
178	225	their	their	their	6	nopreview	19	240	308	308	308	199
179	226	work	work	work,-	6	nopreview	19	241	0	0	0	0
	227	,	,		6	nopreview	19	242				
180	228	-	-	said	6	nopreview	19	243	0	0	0	0
	229	said	said		6	nopreview	19	244				
181	230	@entity41	Cheban	Cheban	6	nopreview	19	245	492	492	492	492
182	231	in	in	in	6	nopreview	19	246	119	119	119	119
183	232	an	an	an	6	nopreview	19	247	294	294	294	294
184	233	interview	interview	interview	6	nopreview	19	248	119	119	119	119
185	234	with	with	with	6	nopreview	19	249	224	0	0	0
186	235	@entity52	Championat.com	Championat.com.	6	nopreview	19	250	1514	172	1738	172
	236	.	.		6	nopreview	19	251				
187	237	-	-	-Torpedo	6	nopreview	19	252	279	0	0	0
	238	@entity4	Torpedo		6	nopreview	19	253				
188	239	can	can	can	6	nopreview	19	254	121	121	400	121
189	240	expect	expect	expect	6	nopreview	19	255	296	296	296	296
190	241	to	to	to	6	nopreview	19	256	0	0	0	0
191	242	receive	receive	receive	6	nopreview	19	257	302	302	302	302
192	243	serious	serious	serious	6	nopreview	19	258	301	301	301	151
193	244	punishment	punishment	punishment.	6	nopreview	19	259	142	142	142	142
	245	.	.		6	nopreview	19	260				
194	246	This	This	This	6	nopreview	19	261	0	0	0	0
195	247	is	is	is	6	nopreview	19	262	376	376	376	376
196	248	hooliganism	hooliganism	hooliganism	6	nopreview	19	263	171	171	171	171
197	249	and	and	and	6	nopreview	19	264	269	0	0	0
198	250	it	it	it	6	nopreview	19	265	290	290	290	290
199	251	not	not	not	6	nopreview	19	266	194	0	0	0
200	252	the	the	the	6	nopreview	19	267	406	189	869	189
201	253	first	first	first	6	nopreview	19	268	218	0	0	0
202	254	time	time	time	6	nopreview	19	269	99	99	317	99
203	255	they	they	they	6	nopreview	19	270	197	0	0	0
204	256	have	have	have	6	nopreview	19	271	436	265	265	265
205	257	stopped	stopped	stopped	6	nopreview	19	272	179	0	0	0
206	258	a	a	a	6	nopreview	19	273	0	0	0	0
207	259	match	match	match.	6	nopreview	19	274	243	243	243	243
	260	.	.		6	nopreview	19	275				
208	261	The	The	The	6	nopreview	19	276	0	0	0	0
209	262	punishment	punishment	punishment	6	nopreview	19	277	488	190	1035	190
210	263	will	will	will	6	nopreview	19	278	0	0	0	0
211	264	be	be	be	6	nopreview	19	279	0	0	0	0
212	265	harsh	harsh	harsh.-	6	nopreview	19	280	324	324	324	324
	266	.	.		6	nopreview	19	281				
213	267	-	-	Torpedo-s	6	nopreview	19	282	236	236	236	236
	268	@entity4	Torpedo		6	nopreview	19	283				
	269	-s	-s		6	nopreview	19	284				
214	270	fans	fans	fans	6	nopreview	19	285	165	165	165	165
215	271	have	have	have	6	nopreview	19	286	0	0	0	0
216	272	caused	caused	caused	6	nopreview	19	287	329	329	329	329
217	273	trouble	trouble	trouble	6	nopreview	19	288	211	211	211	211
218	274	on	on	on	6	nopreview	19	289	0	0	0	0
219	275	a	a	a	6	nopreview	19	290	0	0	0	0
220	276	number	number	number	6	nopreview	19	291	231	231	231	231
221	277	of	of	of	6	nopreview	19	292	0	0	0	0
222	278	occasions	occasions	occasions	6	nopreview	19	293	290	290	290	142
223	279	and	and	and	6	nopreview	19	294	186	0	0	0
224	280	the	the	the	6	nopreview	19	295	163	163	349	163
225	281	club	club	club	6	nopreview	19	296	0	0	0	0
226	282	have	have	have	6	nopreview	19	297	0	0	0	0
227	283	already	already	already	6	nopreview	19	298	361	361	361	202
228	284	been	been	been	6	nopreview	19	299	145	0	0	0
229	285	punished	punished	punished	6	nopreview	19	300	160	160	305	160
230	286	three	three	three	6	nopreview	19	301	345	0	0	0
231	287	times	times	times	6	nopreview	19	302	120	120	465	120
232	288	this	this	this	6	nopreview	19	303	191	0	0	0
233	289	season	season	season	6	nopreview	19	304	156	156	347	156
234	290	for	for	for	6	nopreview	19	305	0	0	0	0
235	291	racist	racist	racist	6	nopreview	19	306	340	340	340	163
236	292	behaviour	behaviour	behaviour	6	nopreview	19	307	232	232	232	232
237	293	of	of	of	6	nopreview	19	308	0	0	0	0
238	294	their	their	their	6	nopreview	19	309	286	286	286	286
239	295	supporters	supporters	supporters.	6	nopreview	19	310	139	139	139	139
	296	.	.		6	nopreview	19	311				
240	297	The	The	The	6	nopreview	19	312	0	0	0	0
241	298	last	last	last	6	nopreview	19	313	612	612	612	188
242	299	incident	incident	incident	6	nopreview	19	314	133	133	133	133
243	300	occurred	occurred	occurred	6	nopreview	19	315	308	308	308	132
244	301	on	on	on	6	nopreview	19	316	0	0	0	0
245	302	March	March	March	6	nopreview	19	317	224	224	224	224
246	303	15	15	15	6	nopreview	19	318	0	0	0	0
247	304	when	when	when	6	nopreview	19	319	860	860	860	241
248	305	@entity4	Torpedo	Torpedo	6	nopreview	19	320	0	0	0	0
249	306	fans	fans	fans	6	nopreview	19	321	285	285	285	285
250	307	abused	abused	abused	6	nopreview	19	322	577	577	577	339
251	308	@entity73	Zenit	Zenit	6	nopreview	19	323	321	321	321	321
252			St	St	6	nopreview	19	324	0	0	0	0
253			Petersburg	Petersburg-s	6	nopreview	19	325	455	455	455	202
	309	-s	-s		6	nopreview	19	326				
254	310	@entity72	Brazilian	Brazilian	6	nopreview	19	327	816	816	816	427
255	311	forward	forward	forward	6	nopreview	19	328	162	162	162	162
256	312	@entity71	Hulk	Hulk.	6	nopreview	19	329	564	564	564	215
	313	.	.		6	nopreview	19	330				
257	314	The	The	The	6	nopreview	19	331	0	0	0	0
258	315	side	side	side	6	nopreview	19	332	743	0	0	0
259	316	were	were	were	6	nopreview	19	333	739	0	0	0
260	317	sanctioned	sanctioned	sanctioned	6	nopreview	19	334	257	0	0	0
261	318	by	by	by	6	nopreview	19	335	0	0	0	0
262	319	having	having	having	6	nopreview	19	336	361	0	0	0
263	320	to	to	to	6	nopreview	19	337	0	0	0	0
264	321	play	play	play	6	nopreview	19	338	273	0	0	0
265	322	two	two	two	6	nopreview	19	339	0	0	0	0
266	323	matches	matches	matches	6	nopreview	19	340	291	0	0	0
267	324	behind	behind	behind	6	nopreview	19	341	238	0	0	0
268	325	closed	closed	closed	6	nopreview	19	342	331	0	0	0
269	326	doors	doors	doors.	6	nopreview	19	343	0	0	0	0
	327	.	.		6	nopreview	19	344				
270	328	@entity4	Torpedo	Torpedo	6	nopreview	19	345	1160	280	4174	280
271	329	are	are	are	6	nopreview	19	346	239	239	458	239
272	330	currently	currently	currently	6	nopreview	19	347	264	264	264	264
273	331	in	in	in	6	nopreview	19	348	0	0	0	0
274	332	12th	12th	12th	6	nopreview	19	349	809	499	499	297
275	333	place	place	place	6	nopreview	19	350	159	0	0	0
276	334	in	in	in	6	nopreview	19	351	374	201	201	201
277	335	the	the	the	6	nopreview	19	352	0	0	0	0
278	336	@entity2	Russian	Russian	6	nopreview	19	353	485	198	198	198
279			Premier	Premier	6	nopreview	19	354	270	270	270	270
280			League	League	6	nopreview	19	355	243	0	0	0
281	337	table	table	table	6	nopreview	19	356	150	150	150	150
282	338	with	with	with	6	nopreview	19	357	985	255	255	255
283	339	19	19	19	6	nopreview	19	358	486	308	308	308
284	340	points	points	points,	6	nopreview	19	359	311	311	311	108
	341	,	,		6	nopreview	19	360				
285	342	while	while	while	6	nopreview	19	361	0	0	0	0
286	343	@entity3	Arsenal	Arsenal	6	nopreview	19	362	538	336	336	336
287			Tula	Tula	6	nopreview	19	363	652	268	268	268
288	344	are	are	are	6	nopreview	19	364	253	0	0	0
289	345	one	one	one	6	nopreview	19	365	1982	811	1604	332
290	346	place	place	place	6	nopreview	19	366	1018	203	400	203
291	347	off	off	off	6	nopreview	19	367	824	167	387	167
292	348	the	the	the	6	nopreview	19	368	281	110	232	110
293	349	bottom	bottom	bottom	6	nopreview	19	369	1292	327	498	168
294	350	with	with	with	6	nopreview	19	370	1215	454	2513	287
295	351	14	14	14	6	nopreview	19	371	0	0	0	0
296	352	points	points	points.	6	nopreview	19	372	590	248	4487	248
	353	.	.		6	nopreview	19	373				
