HumanPosition	AnonymizedPosition	AnonymizedToken	OriginalToken	ExperimentToken	Participant	Condition	TextNo	JointPosition	tt	fp	rp	ff
1	0	(	(	The	6	nopreview	6	1	0	0	0	0
2	1	@entity0	CNN	underwater	6	nopreview	6	2	1057	0	0	0
	2	)	)		6	nopreview	6	3				
	3	The	The		6	nopreview	6	4				
	4	underwater	underwater		6	nopreview	6	5				
3	5	search	search	search	6	nopreview	6	6	483	0	0	0
4	6	area	area	area	6	nopreview	6	7	327	0	0	0
5	7	for	for	for	6	nopreview	6	8	137	0	0	0
6	8	missing	missing	missing	6	nopreview	6	9	212	0	0	0
7	9	@entity2	Malaysia	Malaysia	6	nopreview	6	10	828	0	0	0
8			Airlines	Airlines	6	nopreview	6	11	1538	0	0	0
9			Flight	Flight	6	nopreview	6	12	1102	0	0	0
10			370	370	6	nopreview	6	13	653	0	0	0
11	10	looks	looks	looks	6	nopreview	6	14	214	0	0	0
12	11	set	set	set	6	nopreview	6	15	264	0	0	0
13	12	to	to	to	6	nopreview	6	16	0	0	0	0
14	13	double	double	double	6	nopreview	6	17	251	0	0	0
15	14	in	in	in	6	nopreview	6	18	385	0	0	0
16	15	size	size	size.	6	nopreview	6	19	0	0	0	0
	16	.	.		6	nopreview	6	20				
17	17	Teams	Teams	Teams	6	nopreview	6	21	258	0	0	0
18	18	are	are	are	6	nopreview	6	22	280	0	0	0
19	19	scouring	scouring	scouring	6	nopreview	6	23	263	0	0	0
20	20	the	the	the	6	nopreview	6	24	0	0	0	0
21	21	depths	depths	depths	6	nopreview	6	25	376	0	0	0
22	22	of	of	of	6	nopreview	6	26	0	0	0	0
23	23	a	a	a	6	nopreview	6	27	288	0	0	0
24	24	remote	remote	remote	6	nopreview	6	28	207	0	0	0
25	25	part	part	part	6	nopreview	6	29	240	0	0	0
26	26	of	of	of	6	nopreview	6	30	0	0	0	0
27	27	the	the	the	6	nopreview	6	31	260	0	0	0
28	28	southern	southern	southern	6	nopreview	6	32	0	0	0	0
29	29	@entity7	Indian	Indian	6	nopreview	6	33	345	0	0	0
30			Ocean	Ocean	6	nopreview	6	34	324	0	0	0
31	30	for	for	for	6	nopreview	6	35	217	0	0	0
32	31	the	the	the	6	nopreview	6	36	110	110	9636	110
33	32	remains	remains	remains	6	nopreview	6	37	208	208	208	208
34	33	of	of	of	6	nopreview	6	38	0	0	0	0
35	34	the	the	the	6	nopreview	6	39	328	328	328	200
36	35	passenger	passenger	passenger	6	nopreview	6	40	0	0	0	0
37	36	jet	jet	jet	6	nopreview	6	41	323	323	323	323
38	37	that	that	that	6	nopreview	6	42	0	0	0	0
39	38	disappeared	disappeared	disappeared	6	nopreview	6	43	779	779	779	424
40	39	more	more	more	6	nopreview	6	44	0	0	0	0
41	40	than	than	than	6	nopreview	6	45	339	339	339	339
42	41	a	a	a	6	nopreview	6	46	245	245	245	245
43	42	year	year	year	6	nopreview	6	47	214	214	214	214
44	43	ago	ago	ago	6	nopreview	6	48	0	0	0	0
45	44	with	with	with	6	nopreview	6	49	357	357	357	357
46	45	239	239	239	6	nopreview	6	50	417	0	0	0
47	46	people	people	people	6	nopreview	6	51	626	459	1043	459
48	47	on	on	on	6	nopreview	6	52	231	231	231	231
49	48	board	board	board.	6	nopreview	6	53	127	127	127	127
	49	.	.		6	nopreview	6	54				
50	50	So	So	So	6	nopreview	6	55	1032	1032	1032	1032
51	51	far	far	far,	6	nopreview	6	56	0	0	0	0
	52	,	,		6	nopreview	6	57				
52	53	they	they	they-ve	6	nopreview	6	58	262	262	262	262
	54	-ve	-ve		6	nopreview	6	59				
53	55	covered	covered	covered	6	nopreview	6	60	353	353	353	353
54	56	about	about	about	6	nopreview	6	61	247	247	247	247
55	57	60	60	60%	6	nopreview	6	62	201	0	0	0
	58	%	%		6	nopreview	6	63				
56	59	of	of	of	6	nopreview	6	64	0	0	0	0
57	60	the	the	the	6	nopreview	6	65	512	338	713	338
58	61	priority	priority	priority	6	nopreview	6	66	0	0	0	0
59	62	search	search	search	6	nopreview	6	67	655	655	655	267
60	63	zone	zone	zone	6	nopreview	6	68	128	128	128	128
61	64	without	without	without	6	nopreview	6	69	220	220	220	220
62	65	reporting	reporting	reporting	6	nopreview	6	70	273	273	273	273
63	66	any	any	any	6	nopreview	6	71	0	0	0	0
64	67	trace	trace	trace	6	nopreview	6	72	323	323	323	323
65	68	of	of	of	6	nopreview	6	73	0	0	0	0
66	69	the	the	the	6	nopreview	6	74	226	0	0	0
67	70	airliner	airliner	airliner.	6	nopreview	6	75	151	151	377	151
	71	.	.		6	nopreview	6	76				
68	72	Families	Families	Families	6	nopreview	6	77	628	628	628	391
69	73	of	of	of	6	nopreview	6	78	164	0	0	0
70	74	passengers	passengers	passengers	6	nopreview	6	79	528	528	692	172
71	75	and	and	and	6	nopreview	6	80	0	0	0	0
72	76	crew	crew	crew	6	nopreview	6	81	303	303	303	303
73	77	members	members	members	6	nopreview	6	82	185	185	185	185
74	78	still	still	still	6	nopreview	6	83	283	283	283	116
75	79	have	have	have	6	nopreview	6	84	202	202	202	202
76	80	no	no	no	6	nopreview	6	85	0	0	0	0
77	81	answers	answers	answers	6	nopreview	6	86	269	269	269	269
78	82	about	about	about	6	nopreview	6	87	848	848	848	848
79	83	what	what	what	6	nopreview	6	88	297	297	297	297
80	84	happened	happened	happened	6	nopreview	6	89	274	274	274	274
81	85	to	to	to	6	nopreview	6	90	324	0	0	0
82	86	their	their	their	6	nopreview	6	91	731	149	1055	149
83	87	loved	loved	loved	6	nopreview	6	92	301	301	301	301
84	88	ones	ones	ones.	6	nopreview	6	93	203	203	203	203
	89	.	.		6	nopreview	6	94				
85	90	If	If	If	6	nopreview	6	95	0	0	0	0
86	91	the	the	the	6	nopreview	6	96	345	345	345	345
87	92	searchers	searchers	searchers	6	nopreview	6	97	413	413	413	261
88	93	have	have	haven-t	6	nopreview	6	98	318	318	318	318
	94	n-t	n-t		6	nopreview	6	99				
89	95	found	found	found	6	nopreview	6	100	280	280	280	280
90	96	anything	anything	anything	6	nopreview	6	101	271	271	271	271
91	97	by	by	by	6	nopreview	6	102	349	349	349	349
92	98	the	the	the	6	nopreview	6	103	0	0	0	0
93	99	time	time	time	6	nopreview	6	104	0	0	0	0
94	100	they	they	they-ve	6	nopreview	6	105	267	267	267	267
	101	-ve	-ve		6	nopreview	6	106				
95	102	covered	covered	covered	6	nopreview	6	107	254	254	254	254
96	103	the	the	the	6	nopreview	6	108	0	0	0	0
97	104	entire	entire	entire	6	nopreview	6	109	389	389	389	389
98	105	60,000	60,000	60,000-square-kilometer	6	nopreview	6	110	1306	1306	1306	256
	106	-	-		6	nopreview	6	111				
	107	square	square		6	nopreview	6	112				
	108	-	-		6	nopreview	6	113				
	109	kilometer	kilometer		6	nopreview	6	114				
99	110	priority	priority	priority	6	nopreview	6	115	452	452	452	145
100	111	zone	zone	zone,	6	nopreview	6	116	156	156	156	156
	112	,	,		6	nopreview	6	117				
101	113	the	the	the	6	nopreview	6	118	224	224	224	224
102	114	search	search	search	6	nopreview	6	119	0	0	0	0
103	115	will	will	will	6	nopreview	6	120	107	0	0	0
104	116	stretch	stretch	stretch	6	nopreview	6	121	155	155	262	155
105	117	into	into	into	6	nopreview	6	122	248	248	248	248
106	118	a	a	a	6	nopreview	6	123	0	0	0	0
107	119	new	new	new	6	nopreview	6	124	459	193	193	193
108	120	equally	equally	equally	6	nopreview	6	125	445	248	711	248
109	121	vast	vast	vast	6	nopreview	6	126	0	0	0	0
110	122	area	area	area,	6	nopreview	6	127	499	499	499	305
	123	,	,		6	nopreview	6	128				
111	124	government	government	government	6	nopreview	6	129	146	146	146	146
112	125	officials	officials	officials	6	nopreview	6	130	217	217	217	217
113	126	from	from	from	6	nopreview	6	131	643	643	643	190
114	127	@entity23	Malaysia	Malaysia,	6	nopreview	6	132	470	0	0	0
	128	,	,		6	nopreview	6	133				
115	129	@entity24	Australia	Australia	6	nopreview	6	134	960	409	992	409
116	130	and	and	and	6	nopreview	6	135	0	0	0	0
117	131	@entity25	China	China	6	nopreview	6	136	607	402	402	402
118	132	announced	announced	announced	6	nopreview	6	137	272	272	272	272
119	133	Thursday	Thursday	Thursday.	6	nopreview	6	138	407	407	1390	407
	134	.	.		6	nopreview	6	139				
120	135	-	-	-Ministers	6	nopreview	6	140	152	0	0	0
	136	Ministers	Ministers		6	nopreview	6	141				
121	137	remain	remain	remain	6	nopreview	6	142	837	0	0	0
122	138	committed	committed	committed	6	nopreview	6	143	331	0	0	0
123	139	to	to	to	6	nopreview	6	144	509	0	0	0
124	140	bring	bring	bring	6	nopreview	6	145	294	0	0	0
125	141	closure	closure	closure	6	nopreview	6	146	518	0	0	0
126	142	and	and	and	6	nopreview	6	147	340	0	0	0
127	143	some	some	some	6	nopreview	6	148	0	0	0	0
128	144	peace	peace	peace	6	nopreview	6	149	380	0	0	0
129	145	to	to	to	6	nopreview	6	150	0	0	0	0
130	146	the	the	the	6	nopreview	6	151	334	0	0	0
131	147	families	families	families	6	nopreview	6	152	0	0	0	0
132	148	and	and	and	6	nopreview	6	153	0	0	0	0
133	149	loved	loved	loved	6	nopreview	6	154	412	116	4107	116
134	150	ones	ones	ones	6	nopreview	6	155	0	0	0	0
135	151	of	of	of	6	nopreview	6	156	280	280	280	280
136	152	those	those	those	6	nopreview	6	157	307	307	307	307
137	153	on	on	on	6	nopreview	6	158	190	0	0	0
138	154	board	board	board	6	nopreview	6	159	1011	0	0	0
139	155	@entity2	Malaysia	Malaysia	6	nopreview	6	160	433	129	830	129
140			Airlines	Airlines	6	nopreview	6	161	371	128	1175	128
141			Flight	Flight	6	nopreview	6	162	334	334	334	334
142			MH370	MH370,-	6	nopreview	6	163	1122	1122	1122	849
	156	,	,		6	nopreview	6	164				
	157	-	-		6	nopreview	6	165				
143	158	the	the	the	6	nopreview	6	166	0	0	0	0
144	159	three	three	three	6	nopreview	6	167	575	442	442	442
145	160	countries	countries	countries	6	nopreview	6	168	313	313	446	163
146	161	said	said	said	6	nopreview	6	169	0	0	0	0
147	162	in	in	in	6	nopreview	6	170	381	0	0	0
148	163	a	a	a	6	nopreview	6	171	302	144	683	144
149	164	joint	joint	joint	6	nopreview	6	172	0	0	0	0
150	165	statement	statement	statement.	6	nopreview	6	173	420	185	1063	185
	166	.	.		6	nopreview	6	174				
151	167	The	The	The	6	nopreview	6	175	0	0	0	0
152	168	search	search	search	6	nopreview	6	176	236	236	236	236
153	169	of	of	of	6	nopreview	6	177	0	0	0	0
154	170	the	the	the	6	nopreview	6	178	245	0	0	0
155	171	current	current	current	6	nopreview	6	179	162	162	407	162
156	172	priority	priority	priority	6	nopreview	6	180	239	239	239	239
157	173	zone	zone	zone	6	nopreview	6	181	211	211	211	211
158	174	is	is	is	6	nopreview	6	182	0	0	0	0
159	175	expected	expected	expected	6	nopreview	6	183	286	286	286	286
160	176	to	to	to	6	nopreview	6	184	0	0	0	0
161	177	be	be	be	6	nopreview	6	185	0	0	0	0
162	178	completed	completed	completed	6	nopreview	6	186	332	332	332	167
163	179	in	in	in	6	nopreview	6	187	0	0	0	0
164	180	May	May	May.	6	nopreview	6	188	313	313	313	313
	181	.	.		6	nopreview	6	189				
165	182	Covering	Covering	Covering	6	nopreview	6	190	535	535	535	289
166	183	the	the	the	6	nopreview	6	191	0	0	0	0
167	184	new	new	new	6	nopreview	6	192	296	296	296	296
168	185	zone	zone	zone	6	nopreview	6	193	258	258	258	258
169	186	could	could	could	6	nopreview	6	194	263	263	263	263
170	187	take	take	take	6	nopreview	6	195	0	0	0	0
171	188	as	as	as	6	nopreview	6	196	207	207	207	207
172	189	long	long	long	6	nopreview	6	197	176	176	176	176
173	190	as	as	as	6	nopreview	6	198	0	0	0	0
174	191	a	a	a	6	nopreview	6	199	0	0	0	0
175	192	year	year	year.	6	nopreview	6	200	372	372	372	238
	193	.	.		6	nopreview	6	201				
176	194	At	At	At	6	nopreview	6	202	0	0	0	0
177	195	that	that	that	6	nopreview	6	203	333	333	333	333
178	196	point	point	point,	6	nopreview	6	204	0	0	0	0
	197	,	,		6	nopreview	6	205				
179	198	-	-	-all	6	nopreview	6	206	0	0	0	0
	199	all	all		6	nopreview	6	207				
180	200	high	high	high	6	nopreview	6	208	559	405	405	405
181	201	probability	probability	probability	6	nopreview	6	209	154	154	308	154
182	202	search	search	search	6	nopreview	6	210	660	660	660	660
183	203	areas	areas	areas	6	nopreview	6	211	143	143	143	143
184	204	would	would	would	6	nopreview	6	212	251	251	251	251
185	205	have	have	have	6	nopreview	6	213	449	160	160	160
186	206	been	been	been	6	nopreview	6	214	452	211	500	211
187	207	covered	covered	covered,-	6	nopreview	6	215	182	182	423	182
	208	,	,		6	nopreview	6	216				
	209	-	-		6	nopreview	6	217				
188	210	the	the	the	6	nopreview	6	218	0	0	0	0
189	211	governments	governments	governments	6	nopreview	6	219	176	176	176	176
190	212	said	said	said	6	nopreview	6	220	395	395	395	395
191	213	Thursday	Thursday	Thursday.	6	nopreview	6	221	325	325	325	179
	214	.	.		6	nopreview	6	222				
192	215	The	The	The	6	nopreview	6	223	0	0	0	0
193	216	size	size	size	6	nopreview	6	224	1123	1123	1123	837
194	217	of	of	of	6	nopreview	6	225	0	0	0	0
195	218	the	the	the	6	nopreview	6	226	178	178	178	178
196	219	doubled	doubled	doubled	6	nopreview	6	227	571	233	233	233
197	220	search	search	search	6	nopreview	6	228	265	265	603	265
198	221	area	area	area,	6	nopreview	6	229	0	0	0	0
	222	,	,		6	nopreview	6	230				
199	223	the	the	the	6	nopreview	6	231	92	0	0	0
200	224	equivalent	equivalent	equivalent	6	nopreview	6	232	132	132	224	132
201	225	of	of	of	6	nopreview	6	233	0	0	0	0
202	226	more	more	more	6	nopreview	6	234	0	0	0	0
203	227	than	than	than	6	nopreview	6	235	257	257	257	257
204	228	46,000	46,000	46,000	6	nopreview	6	236	1037	1037	1037	300
205	229	square	square	square	6	nopreview	6	237	451	451	451	223
206	230	miles	miles	miles,	6	nopreview	6	238	0	0	0	0
	231	,	,		6	nopreview	6	239				
207	232	would	would	would	6	nopreview	6	240	0	0	0	0
208	233	be	be	be	6	nopreview	6	241	300	300	300	300
209	234	bigger	bigger	bigger	6	nopreview	6	242	99	99	99	99
210	235	than	than	than	6	nopreview	6	243	0	0	0	0
211	236	the	the	the	6	nopreview	6	244	345	345	345	345
212	237	@entity50	U.S.	U.S.	6	nopreview	6	245	0	0	0	0
213	238	state	state	state	6	nopreview	6	246	414	414	414	126
214	239	of	of	of	6	nopreview	6	247	0	0	0	0
215	240	@entity51	Pennsylvania	Pennsylvania.	6	nopreview	6	248	234	234	234	234
	241	.	.		6	nopreview	6	249				
216	242	Flight	Flight	Flight	6	nopreview	6	250	301	301	301	301
217	243	370	370	370	6	nopreview	6	251	1172	899	899	899
218	244	vanished	vanished	vanished	6	nopreview	6	252	631	390	904	221
219	245	after	after	after	6	nopreview	6	253	0	0	0	0
220	246	taking	taking	taking	6	nopreview	6	254	706	342	342	342
221	247	off	off	off	6	nopreview	6	255	356	356	356	356
222	248	from	from	from	6	nopreview	6	256	227	0	0	0
223	249	@entity53	Kuala	Kuala	6	nopreview	6	257	403	262	994	262
224			Lumpur	Lumpur,	6	nopreview	6	258	241	0	0	0
	250	,	,		6	nopreview	6	259				
225	251	@entity23	Malaysia	Malaysia,	6	nopreview	6	260	361	99	602	99
	252	,	,		6	nopreview	6	261				
226	253	on	on	on	6	nopreview	6	262	146	0	0	0
227	254	March	March	March	6	nopreview	6	263	383	197	343	197
228	255	8	8	8,	6	nopreview	6	264	363	363	549	363
	256	,	,		6	nopreview	6	265				
229	257	2014	2014	2014,	6	nopreview	6	266	332	332	332	332
	258	,	,		6	nopreview	6	267				
230	259	bound	bound	bound	6	nopreview	6	268	405	405	405	405
231	260	for	for	for	6	nopreview	6	269	337	0	0	0
232	261	@entity54	Beijing	Beijing.	6	nopreview	6	270	642	187	979	187
	262	.	.		6	nopreview	6	271				
233	263	Officials	Officials	Officials	6	nopreview	6	272	244	244	244	244
234	264	are	are	are	6	nopreview	6	273	0	0	0	0
235	265	still	still	still	6	nopreview	6	274	458	293	293	293
236	266	trying	trying	trying	6	nopreview	6	275	295	149	460	149
237	267	to	to	to	6	nopreview	6	276	124	124	124	124
238	268	figure	figure	figure	6	nopreview	6	277	251	251	251	251
239	269	out	out	out	6	nopreview	6	278	0	0	0	0
240	270	why	why	why	6	nopreview	6	279	240	240	240	240
241	271	it	it	it	6	nopreview	6	280	224	224	224	224
242	272	veered	veered	veered	6	nopreview	6	281	427	226	226	226
243	273	dramatically	dramatically	dramatically	6	nopreview	6	282	325	165	526	165
244	274	off	off	off	6	nopreview	6	283	123	0	0	0
245	275	course	course	course	6	nopreview	6	284	142	142	265	142
246	276	over	over	over	6	nopreview	6	285	0	0	0	0
247	277	the	the	the	6	nopreview	6	286	236	236	236	236
248	278	sea	sea	sea	6	nopreview	6	287	282	282	282	194
249	279	between	between	between	6	nopreview	6	288	324	324	324	324
250	280	@entity23	Malaysia	Malaysia	6	nopreview	6	289	185	185	185	185
251	281	and	and	and	6	nopreview	6	290	0	0	0	0
252	282	@entity58	Vietnam	Vietnam	6	nopreview	6	291	397	397	397	119
253	283	and	and	and	6	nopreview	6	292	323	323	323	323
254	284	where	where	where	6	nopreview	6	293	178	178	178	178
255	285	exactly	exactly	exactly	6	nopreview	6	294	207	207	207	207
256	286	it	it	it	6	nopreview	6	295	365	365	365	365
257	287	ended	ended	ended	6	nopreview	6	296	0	0	0	0
258	288	up	up	up.	6	nopreview	6	297	0	0	0	0
	289	.	.		6	nopreview	6	298				
259	290	An	An	An	6	nopreview	6	299	0	0	0	0
260	291	international	international	international	6	nopreview	6	300	350	350	350	210
261	292	team	team	team	6	nopreview	6	301	219	219	219	219
262	293	of	of	of	6	nopreview	6	302	182	182	182	182
263	294	experts	experts	experts	6	nopreview	6	303	1362	1362	1362	182
264	295	used	used	used	6	nopreview	6	304	245	245	245	245
265	296	satellite	satellite	satellite	6	nopreview	6	305	517	401	401	118
266	297	data	data	data	6	nopreview	6	306	332	332	332	332
267	298	to	to	to	6	nopreview	6	307	374	374	374	374
268	299	calculate	calculate	calculate	6	nopreview	6	308	157	157	157	157
269	300	that	that	that	6	nopreview	6	309	298	298	298	298
270	301	the	the	the	6	nopreview	6	310	0	0	0	0
271	302	plane	plane	plane	6	nopreview	6	311	179	179	179	179
272	303	eventually	eventually	eventually	6	nopreview	6	312	175	175	175	175
273	304	went	went	went	6	nopreview	6	313	0	0	0	0
274	305	down	down	down	6	nopreview	6	314	268	268	268	268
275	306	in	in	in	6	nopreview	6	315	200	200	200	200
276	307	the	the	the	6	nopreview	6	316	0	0	0	0
277	308	southern	southern	southern	6	nopreview	6	317	228	228	228	228
278	309	@entity7	Indian	Indian	6	nopreview	6	318	1049	713	713	122
279			Ocean	Ocean,	6	nopreview	6	319	697	371	371	371
	310	,	,		6	nopreview	6	320				
280	311	far	far	far	6	nopreview	6	321	272	272	272	272
281	312	off	off	off	6	nopreview	6	322	176	176	176	176
282	313	the	the	the	6	nopreview	6	323	0	0	0	0
283	314	coast	coast	coast	6	nopreview	6	324	573	401	401	401
284	315	of	of	of	6	nopreview	6	325	174	0	0	0
285	316	@entity24	Western	Western	6	nopreview	6	326	603	310	310	310
286			Australia	Australia.	6	nopreview	6	327	544	274	739	274
	317	.	.		6	nopreview	6	328				
287	318	The	The	The	6	nopreview	6	329	0	0	0	0
288	319	people	people	people	6	nopreview	6	330	380	380	380	231
289	320	on	on	on	6	nopreview	6	331	0	0	0	0
290	321	board	board	board	6	nopreview	6	332	266	266	266	266
291	322	the	the	the	6	nopreview	6	333	0	0	0	0
292	323	@entity64	Boeing	Boeing	6	nopreview	6	334	294	294	294	294
293			777	777	6	nopreview	6	335	422	0	0	0
294	324	came	came	came	6	nopreview	6	336	1073	108	1495	108
295	325	from	from	from	6	nopreview	6	337	273	273	273	273
296	326	various	various	various	6	nopreview	6	338	0	0	0	0
297	327	nations	nations	nations,	6	nopreview	6	339	232	232	232	232
	328	,	,		6	nopreview	6	340				
298	329	but	but	but	6	nopreview	6	341	168	0	0	0
299	330	the	the	the	6	nopreview	6	342	179	179	347	179
300	331	majority	majority	majority	6	nopreview	6	343	140	140	140	140
301	332	were	were	were	6	nopreview	6	344	383	383	1605	383
302	333	@entity25	Chinese	Chinese.	6	nopreview	6	345	0	0	0	0
	334	.	.		6	nopreview	6	346				
