HumanPosition	AnonymizedPosition	AnonymizedToken	OriginalToken	ExperimentToken	Participant	Condition	TextNo	JointPosition	tt	fp	rp	ff
1	0	(	(	In	6	nopreview	9	1	0	0	0	0
2	1	@entity0	CNN	cities	6	nopreview	9	2	329	329	329	329
	2	)	)		6	nopreview	9	3				
	3	[	[		6	nopreview	9	4				
	4	Breaking	Breaking		6	nopreview	9	5				
	5	news	news		6	nopreview	9	6				
	6	update	update		6	nopreview	9	7				
	7	,	,		6	nopreview	9	8				
	8	posted	posted		6	nopreview	9	9				
	9	at	at		6	nopreview	9	10				
	10	11:52	11:52		6	nopreview	9	11				
	11	p.m.	p.m.		6	nopreview	9	12				
	12	ET	ET		6	nopreview	9	13				
	13	]	]		6	nopreview	9	14				
	14	@entity3	Denver		6	nopreview	9	15				
	15	police	police		6	nopreview	9	16				
	16	report	report		6	nopreview	9	17				
	17	nine	nine		6	nopreview	9	18				
	18	arrests	arrests		6	nopreview	9	19				
	19	in	in		6	nopreview	9	20				
	20	Wednesday	Wednesday		6	nopreview	9	21				
	21	-s	-s		6	nopreview	9	22				
	22	demonstrations	demonstrations		6	nopreview	9	23				
	23	.	.		6	nopreview	9	24				
	24	The	The		6	nopreview	9	25				
	25	charges	charges		6	nopreview	9	26				
	26	include	include		6	nopreview	9	27				
	27	assault	assault		6	nopreview	9	28				
	28	of	of		6	nopreview	9	29				
	29	a	a		6	nopreview	9	30				
	30	police	police		6	nopreview	9	31				
	31	officer	officer		6	nopreview	9	32				
	32	,	,		6	nopreview	9	33				
	33	robbery	robbery		6	nopreview	9	34				
	34	,	,		6	nopreview	9	35				
	35	resisting	resisting		6	nopreview	9	36				
	36	police	police		6	nopreview	9	37				
	37	,	,		6	nopreview	9	38				
	38	disobedience	disobedience		6	nopreview	9	39				
	39	to	to		6	nopreview	9	40				
	40	lawful	lawful		6	nopreview	9	41				
	41	orders	orders		6	nopreview	9	42				
	42	,	,		6	nopreview	9	43				
	43	obstructing	obstructing		6	nopreview	9	44				
	44	roadways	roadways		6	nopreview	9	45				
	45	,	,		6	nopreview	9	46				
	46	and	and		6	nopreview	9	47				
	47	interference	interference		6	nopreview	9	48				
	48	.	.		6	nopreview	9	49				
	49	[	[		6	nopreview	9	50				
	50	Previous	Previous		6	nopreview	9	51				
	51	story	story		6	nopreview	9	52				
	52	,	,		6	nopreview	9	53				
	53	posted	posted		6	nopreview	9	54				
	54	at	at		6	nopreview	9	55				
	55	10:54	10:54		6	nopreview	9	56				
	56	p.m.	p.m.		6	nopreview	9	57				
	57	ET	ET		6	nopreview	9	58				
	58	]	]		6	nopreview	9	59				
	59	(	(		6	nopreview	9	60				
	60	@entity0	CNN		6	nopreview	9	61				
	61	)	)		6	nopreview	9	62				
	62	--	--		6	nopreview	9	63				
	63	In	In		6	nopreview	9	64				
	64	cities	cities		6	nopreview	9	65				
3	65	across	across	across	6	nopreview	9	66	173	173	173	173
4	66	the	the	the	6	nopreview	9	67	0	0	0	0
5	67	@entity17	United	United	6	nopreview	9	68	208	208	208	208
6			States	States,	6	nopreview	9	69	0	0	0	0
	68	,	,		6	nopreview	9	70				
7	69	marchers	marchers	marchers	6	nopreview	9	71	279	279	279	279
8	70	took	took	took	6	nopreview	9	72	83	83	83	83
9	71	to	to	to	6	nopreview	9	73	0	0	0	0
10	72	the	the	the	6	nopreview	9	74	199	199	199	199
11	73	streets	streets	streets	6	nopreview	9	75	174	174	174	174
12	74	to	to	to	6	nopreview	9	76	0	0	0	0
13	75	show	show	show	6	nopreview	9	77	229	229	229	229
14	76	support	support	support	6	nopreview	9	78	305	305	305	305
15	77	for	for	for	6	nopreview	9	79	0	0	0	0
16	78	protesters	protesters	protesters	6	nopreview	9	80	251	251	251	251
17	79	in	in	in	6	nopreview	9	81	0	0	2230	0
18	80	@entity21	Baltimore	Baltimore	6	nopreview	9	82	277	277	277	277
19	81	and	and	and	6	nopreview	9	83	0	0	0	0
20	82	to	to	to	6	nopreview	9	84	343	0	0	0
21	83	complain	complain	complain	6	nopreview	9	85	140	140	483	140
22	84	about	about	about	6	nopreview	9	86	121	0	0	0
23	85	police	police	police	6	nopreview	9	87	264	264	385	264
24	86	violence	violence	violence	6	nopreview	9	88	241	241	241	241
25	87	in	in	in	6	nopreview	9	89	0	0	0	0
26	88	their	their	their	6	nopreview	9	90	236	236	236	236
27	89	own	own	own	6	nopreview	9	91	0	0	0	0
28	90	towns	towns	towns.	6	nopreview	9	92	235	235	235	235
	91	.	.		6	nopreview	9	93				
29	92	On	On	On	6	nopreview	9	94	185	185	185	185
30	93	Wednesday	Wednesday	Wednesday	6	nopreview	9	95	531	345	345	345
31	94	night	night	night,	6	nopreview	9	96	137	137	137	137
	95	,	,		6	nopreview	9	97				
32	96	several	several	several	6	nopreview	9	98	730	354	354	354
33	97	hundred	hundred	hundred	6	nopreview	9	99	763	131	131	131
34	98	people	people	people	6	nopreview	9	100	398	182	182	182
35	99	streamed	streamed	streamed	6	nopreview	9	101	434	208	424	208
36	100	into	into	into	6	nopreview	9	102	256	113	113	113
37	101	@entity25	Union	Union	6	nopreview	9	103	805	262	262	262
38			Square	Square	6	nopreview	9	104	744	275	275	275
39	102	for	for	for	6	nopreview	9	105	0	0	0	0
40	103	an	an	an	6	nopreview	9	106	351	351	351	148
41	104	-	-	-NYC	6	nopreview	9	107	761	0	0	0
	105	@entity26	NYC		6	nopreview	9	108				
42			Rise	Rise	6	nopreview	9	109	544	168	609	168
43			Up	Up	6	nopreview	9	110	482	0	0	0
44	106	&	&	&	6	nopreview	9	111	485	184	761	184
45	107	Shut	Shut	Shut	6	nopreview	9	112	413	253	253	253
46	108	It	It	It	6	nopreview	9	113	0	0	0	0
47	109	Down	Down	Down	6	nopreview	9	114	366	266	266	266
48	110	With	With	With	6	nopreview	9	115	362	362	362	362
49	111	@entity21	Baltimore	Baltimore-	6	nopreview	9	116	202	202	202	202
	112	-	-		6	nopreview	9	117				
50	113	rally	rally	rally.	6	nopreview	9	118	729	468	468	201
	114	.	.		6	nopreview	9	119				
51	115	Protesters	Protesters	Protesters	6	nopreview	9	120	338	338	599	338
52	116	headed	headed	headed	6	nopreview	9	121	226	0	0	0
53	117	west	west	west	6	nopreview	9	122	432	254	658	254
54	118	on	on	on	6	nopreview	9	123	0	0	0	0
55	119	17th	17th	17th	6	nopreview	9	124	1002	1002	1002	193
56	120	Street	Street	Street	6	nopreview	9	125	201	201	201	201
57	121	and	and	and	6	nopreview	9	126	268	268	268	268
58	122	were	were	were	6	nopreview	9	127	366	366	366	366
59	123	met	met	met	6	nopreview	9	128	208	208	208	208
60	124	by	by	by	6	nopreview	9	129	0	0	0	0
61	125	@entity31	New	New	6	nopreview	9	130	328	328	328	328
62			York	York	6	nopreview	9	131	276	0	0	0
63			City	City	6	nopreview	9	132	476	301	301	301
64			Police	Police	6	nopreview	9	133	493	227	944	227
65	126	officers	officers	officers	6	nopreview	9	134	0	0	0	0
66	127	who	who	who	6	nopreview	9	135	319	319	319	319
67	128	pushed	pushed	pushed	6	nopreview	9	136	165	0	0	0
68	129	them	them	them	6	nopreview	9	137	0	0	0	0
69	130	back	back	back.	6	nopreview	9	138	209	209	374	209
	131	.	.		6	nopreview	9	139				
70	132	A	A	A	6	nopreview	9	140	0	0	0	0
71	133	small	small	small	6	nopreview	9	141	270	270	270	270
72	134	scuffle	scuffle	scuffle	6	nopreview	9	142	237	237	237	237
73	135	broke	broke	broke	6	nopreview	9	143	183	183	183	183
74	136	out	out	out	6	nopreview	9	144	0	0	0	0
75	137	between	between	between	6	nopreview	9	145	260	260	260	260
76	138	the	the	the	6	nopreview	9	146	242	242	242	242
77	139	two	two	two	6	nopreview	9	147	0	0	0	0
78	140	front	front	front	6	nopreview	9	148	374	374	374	222
79	141	lines	lines	lines	6	nopreview	9	149	0	0	0	0
80	142	and	and	and	6	nopreview	9	150	0	0	0	0
81	143	police	police	police	6	nopreview	9	151	253	253	253	253
82	144	placed	placed	placed	6	nopreview	9	152	298	298	298	298
83	145	at	at	at	6	nopreview	9	153	0	0	0	0
84	146	least	least	least	6	nopreview	9	154	476	476	476	218
85	147	20	20	20	6	nopreview	9	155	0	0	0	0
86	148	people	people	people	6	nopreview	9	156	329	329	329	329
87	149	in	in	in	6	nopreview	9	157	123	123	123	123
88	150	zip	zip	zip	6	nopreview	9	158	0	0	0	0
89	151	ties	ties	ties	6	nopreview	9	159	547	547	547	184
90	152	in	in	in	6	nopreview	9	160	306	306	306	306
91	153	the	the	the	6	nopreview	9	161	197	197	197	197
92	154	street	street	street.	6	nopreview	9	162	148	148	148	148
	155	.	.		6	nopreview	9	163				
93	156	The	The	The	6	nopreview	9	164	0	0	0	0
94	157	@entity31	NYPD	NYPD	6	nopreview	9	165	949	949	949	282
95	158	also	also	also	6	nopreview	9	166	418	418	418	230
96	159	handed	handed	handed	6	nopreview	9	167	343	343	343	343
97	160	out	out	out	6	nopreview	9	168	210	0	0	0
98	161	fliers	fliers	fliers	6	nopreview	9	169	715	171	925	171
99	162	and	and	and	6	nopreview	9	170	0	0	0	0
100	163	used	used	used	6	nopreview	9	171	289	289	289	289
101	164	loudspeakers	loudspeakers	loudspeakers	6	nopreview	9	172	460	460	460	253
102	165	to	to	to	6	nopreview	9	173	0	0	0	0
103	166	tell	tell	tell	6	nopreview	9	174	261	261	261	261
104	167	protesters	protesters	protesters	6	nopreview	9	175	113	113	113	113
105	168	and	and	and	6	nopreview	9	176	0	0	0	0
106	169	pedestrians	pedestrians	pedestrians	6	nopreview	9	177	388	388	388	216
107	170	to	to	to	6	nopreview	9	178	0	0	0	0
108	171	stay	stay	stay	6	nopreview	9	179	224	224	224	224
109	172	on	on	on	6	nopreview	9	180	115	0	0	0
110	173	the	the	the	6	nopreview	9	181	317	317	432	144
111	174	sidewalk	sidewalk	sidewalk.	6	nopreview	9	182	0	0	0	0
	175	.	.		6	nopreview	9	183				
112	176	One	One	One	6	nopreview	9	184	419	262	262	262
113	177	person	person	person	6	nopreview	9	185	98	0	0	0
114	178	was	was	was	6	nopreview	9	186	418	253	673	253
115	179	placed	placed	placed	6	nopreview	9	187	178	178	178	178
116	180	in	in	in	6	nopreview	9	188	0	0	0	0
117	181	ambulance	ambulance	ambulance	6	nopreview	9	189	272	272	272	272
118	182	and	and	and	6	nopreview	9	190	0	0	0	0
119	183	taken	taken	taken	6	nopreview	9	191	391	391	391	273
120	184	away	away	away.	6	nopreview	9	192	283	283	283	283
	185	.	.		6	nopreview	9	193				
121	186	The	The	The	6	nopreview	9	194	0	0	0	0
122	187	crowd	crowd	crowd	6	nopreview	9	195	370	370	370	370
123	188	headed	headed	headed	6	nopreview	9	196	453	453	453	285
124	189	toward	toward	toward	6	nopreview	9	197	256	256	256	256
125	190	@entity47	Times	Times	6	nopreview	9	198	266	266	266	266
126			Square	Square.	6	nopreview	9	199	285	285	285	285
	191	.	.		6	nopreview	9	200				
127	192	A	A	A	6	nopreview	9	201	0	0	0	0
128	193	law	law	law	6	nopreview	9	202	251	251	251	251
129	194	enforcement	enforcement	enforcement	6	nopreview	9	203	178	178	178	178
130	195	source	source	source	6	nopreview	9	204	241	241	241	241
131	196	told	told	told	6	nopreview	9	205	246	246	246	145
132	197	@entity0	CNN	CNN	6	nopreview	9	206	275	275	275	275
133	198	that	that	that	6	nopreview	9	207	259	259	259	259
134	199	more	more	more	6	nopreview	9	208	243	243	243	243
135	200	than	than	than	6	nopreview	9	209	170	170	170	170
136	201	60	60	60	6	nopreview	9	210	0	0	0	0
137	202	people	people	people	6	nopreview	9	211	172	172	172	172
138	203	were	were	were	6	nopreview	9	212	0	0	0	0
139	204	arrested	arrested	arrested	6	nopreview	9	213	222	222	222	222
140	205	during	during	during	6	nopreview	9	214	182	182	182	182
141	206	the	the	the	6	nopreview	9	215	0	0	0	0
142	207	demonstrations	demonstrations	demonstrations.	6	nopreview	9	216	274	274	274	274
	208	.	.		6	nopreview	9	217				
143	209	The	The	The	6	nopreview	9	218	0	0	0	0
144	210	rally	rally	rally	6	nopreview	9	219	247	247	247	247
145	211	was	was	was	6	nopreview	9	220	424	0	0	0
146	212	organized	organized	organized	6	nopreview	9	221	317	157	741	157
147	213	through	through	through	6	nopreview	9	222	321	321	321	112
148	214	social	social	social	6	nopreview	9	223	190	190	190	190
149	215	media	media	media,	6	nopreview	9	224	0	0	0	0
	216	,	,		6	nopreview	9	225				
150	217	much	much	much	6	nopreview	9	226	206	206	206	206
151	218	like	like	like	6	nopreview	9	227	0	0	0	0
152	219	protests	protests	protests	6	nopreview	9	228	240	240	240	240
153	220	over	over	over	6	nopreview	9	229	156	0	0	0
154	221	the	the	the	6	nopreview	9	230	269	269	425	269
155	222	killing	killing	killing	6	nopreview	9	231	0	0	0	0
156	223	of	of	of	6	nopreview	9	232	0	0	0	0
157	224	@entity55	Eric	Eric	6	nopreview	9	233	307	307	307	307
158			Garner	Garner,	6	nopreview	9	234	495	495	495	495
	225	,	,		6	nopreview	9	235				
159	226	who	who	who	6	nopreview	9	236	0	0	0	0
160	227	died	died	died	6	nopreview	9	237	502	308	4239	308
161	228	while	while	while	6	nopreview	9	238	218	0	0	0
162	229	police	police	police	6	nopreview	9	239	149	149	367	149
163	230	held	held	held	6	nopreview	9	240	207	0	0	0
164	231	him	him	him	6	nopreview	9	241	273	162	480	162
165	232	in	in	in	6	nopreview	9	242	0	0	0	0
166	233	what	what	what	6	nopreview	9	243	335	335	335	335
167	234	appeared	appeared	appeared	6	nopreview	9	244	230	230	230	230
168	235	to	to	to	6	nopreview	9	245	0	0	0	0
169	236	be	be	be	6	nopreview	9	246	139	0	0	0
170	237	a	a	a	6	nopreview	9	247	187	187	326	187
171	238	chokehold	chokehold	chokehold.	6	nopreview	9	248	856	856	856	358
	239	.	.		6	nopreview	9	249				
172	240	The	The	The	6	nopreview	9	250	0	0	0	0
173	241	demonstrators	demonstrators	demonstrators	6	nopreview	9	251	309	309	309	146
174	242	chanted	chanted	chanted	6	nopreview	9	252	212	212	212	212
175	243	-	-	-Black	6	nopreview	9	253	537	295	295	295
	244	@entity60	Black		6	nopreview	9	254				
176			Lives	Lives	6	nopreview	9	255	689	396	931	183
177			Matter	Matter-	6	nopreview	9	256	292	292	292	292
	245	-	-		6	nopreview	9	257				
178	246	and	and	and	6	nopreview	9	258	0	0	0	0
179	247	-	-	-Justice	6	nopreview	9	259	484	253	253	253
	248	@entity61	Justice		6	nopreview	9	260				
180			for	for	6	nopreview	9	261	235	235	466	235
181			Freddie	Freddie	6	nopreview	9	262	794	794	794	335
182			Gray	Gray-	6	nopreview	9	263	244	244	244	244
	249	-	-		6	nopreview	9	264				
183	250	--	--	--	6	nopreview	9	265	185	0	0	0
184	251	the	the	the	6	nopreview	9	266	0	0	0	0
185	252	@entity21	Baltimore	Baltimore	6	nopreview	9	267	641	423	423	249
186	253	man	man	man	6	nopreview	9	268	0	0	0	0
187	254	whose	whose	whose	6	nopreview	9	269	581	581	581	436
188	255	death	death	death	6	nopreview	9	270	131	131	131	131
189	256	sparked	sparked	sparked	6	nopreview	9	271	210	210	210	210
190	257	street	street	street	6	nopreview	9	272	224	224	224	224
191	258	confrontations	confrontations	confrontations	6	nopreview	9	273	276	276	276	276
192	259	in	in	in	6	nopreview	9	274	0	0	0	0
193	260	@entity21	Baltimore	Baltimore.	6	nopreview	9	275	343	343	343	229
	261	.	.		6	nopreview	9	276				
194	262	@entity0	CNN	CNN	6	nopreview	9	277	0	0	0	0
195	263	affiliate	affiliate	affiliate	6	nopreview	9	278	1133	683	683	322
196	264	@entity65	WCBS	WCBS	6	nopreview	9	279	1727	1488	1488	1130
197	265	reported	reported	reported	6	nopreview	9	280	595	361	361	143
198	266	Mayor	Mayor	Mayor	6	nopreview	9	281	640	160	874	160
199	267	@entity66	Bill	Bill	6	nopreview	9	282	214	214	214	214
200			de	de	6	nopreview	9	283	0	0	0	0
201			Blasio	Blasio	6	nopreview	9	284	403	403	403	128
202	268	sent	sent	sent	6	nopreview	9	285	276	276	276	276
203	269	a	a	a	6	nopreview	9	286	0	0	0	0
204	270	message	message	message	6	nopreview	9	287	91	91	91	91
205	271	to	to	to	6	nopreview	9	288	0	0	0	0
206	272	the	the	the	6	nopreview	9	289	207	207	207	207
207	273	protesters	protesters	protesters:	6	nopreview	9	290	175	175	175	175
208	274	:	:	-I-d	6	nopreview	9	291	0	0	0	0
	275	-	-		6	nopreview	9	292				
	276	I	I		6	nopreview	9	293				
	277	-d	-d		6	nopreview	9	294				
209	278	say	say	say	6	nopreview	9	295	208	208	208	208
210	279	that	that	that	6	nopreview	9	296	351	245	245	245
211	280	if	if	if	6	nopreview	9	297	0	0	0	0
212	281	you	you	you	6	nopreview	9	298	401	236	507	236
213	282	want	want	want	6	nopreview	9	299	0	0	0	0
214	283	to	to	to	6	nopreview	9	300	209	209	209	209
215	284	make	make	make	6	nopreview	9	301	214	214	214	214
216	285	change	change	change,	6	nopreview	9	302	96	96	96	96
	286	,	,		6	nopreview	9	303				
217	287	keep	keep	keep	6	nopreview	9	304	222	0	0	0
218	288	things	things	things	6	nopreview	9	305	274	106	496	106
219	289	peaceful	peaceful	peaceful.-	6	nopreview	9	306	175	175	175	175
	290	.	.		6	nopreview	9	307				
220	291	-	-	A	6	nopreview	9	308	0	0	0	0
221	292	A	A	smaller	6	nopreview	9	309	269	269	269	269
	293	smaller	smaller		6	nopreview	9	310				
222	294	rally	rally	rally	6	nopreview	9	311	243	243	243	243
223	295	was	was	was	6	nopreview	9	312	0	0	0	0
224	296	held	held	held	6	nopreview	9	313	511	511	511	345
225	297	Tuesday	Tuesday	Tuesday	6	nopreview	9	314	244	244	244	244
226	298	in	in	in	6	nopreview	9	315	0	0	0	0
227	299	@entity73	New	New	6	nopreview	9	316	354	354	354	354
228			York	York.	6	nopreview	9	317	182	182	182	182
	300	.	.		6	nopreview	9	318				
229	301	In	In	In	6	nopreview	9	319	0	0	0	0
230	302	@entity76	Washington	Washington,	6	nopreview	9	320	1168	1168	1168	320
	303	,	,		6	nopreview	9	321				
231	304	about	about	about	6	nopreview	9	322	422	0	0	0
232	305	500	500	500	6	nopreview	9	323	251	0	0	0
233	306	protesters	protesters	protesters,	6	nopreview	9	324	241	120	914	120
	307	,	,		6	nopreview	9	325				
234	308	mostly	mostly	mostly	6	nopreview	9	326	194	194	194	194
235	309	in	in	in	6	nopreview	9	327	126	0	0	0
236	310	their	their	their	6	nopreview	9	328	290	290	416	290
237	311	20s	20s	20s,	6	nopreview	9	329	285	285	285	285
	312	,	,		6	nopreview	9	330				
238	313	gathered	gathered	gathered	6	nopreview	9	331	577	577	577	218
239	314	in	in	in	6	nopreview	9	332	0	0	0	0
240	315	the	the	the	6	nopreview	9	333	225	225	225	225
241	316	middle	middle	middle	6	nopreview	9	334	208	208	208	208
242	317	of	of	of	6	nopreview	9	335	0	0	0	0
243	318	@entity78	H	H	6	nopreview	9	336	251	0	0	0
244			Street	Street	6	nopreview	9	337	587	181	838	181
245	319	and	and	and	6	nopreview	9	338	258	258	258	258
246	320	7th	7th	7th	6	nopreview	9	339	986	986	986	580
247	321	and	and	and	6	nopreview	9	340	0	0	0	0
248	322	chanted	chanted	chanted,	6	nopreview	9	341	457	457	457	97
	323	,	,		6	nopreview	9	342				
249	324	-	-	-All	6	nopreview	9	343	179	179	179	179
	325	All	All		6	nopreview	9	344				
250	326	night	night	night,	6	nopreview	9	345	120	120	120	120
	327	,	,		6	nopreview	9	346				
251	328	all	all	all	6	nopreview	9	347	293	0	0	0
252	329	day	day	day,	6	nopreview	9	348	200	200	493	200
	330	,	,		6	nopreview	9	349				
253	331	we	we	we-re	6	nopreview	9	350	315	315	315	315
	332	-re	-re		6	nopreview	9	351				
254	333	gon	gon	gonna	6	nopreview	9	352	0	0	0	0
	334	na	na		6	nopreview	9	353				
255	335	fight	fight	fight	6	nopreview	9	354	210	210	210	210
256	336	for	for	for	6	nopreview	9	355	0	0	0	0
257	337	@entity79	Freddie	Freddie	6	nopreview	9	356	690	690	690	176
258			Gray	Gray.-	6	nopreview	9	357	252	252	252	252
	338	.	.		6	nopreview	9	358				
259	339	-	-	The	6	nopreview	9	359	404	0	0	0
260	340	The	The	mood	6	nopreview	9	360	1249	275	1653	275
	341	mood	mood		6	nopreview	9	361				
261	342	seemed	seemed	seemed	6	nopreview	9	362	350	0	0	0
262	343	more	more	more	6	nopreview	9	363	301	88	651	88
263	344	festive	festive	festive	6	nopreview	9	364	145	145	145	145
264	345	than	than	than	6	nopreview	9	365	286	0	0	0
265	346	confrontational	confrontational	confrontational,	6	nopreview	9	366	588	366	366	208
	347	,	,		6	nopreview	9	367				
266	348	with	with	with	6	nopreview	9	368	0	0	0	0
267	349	songs	songs	songs	6	nopreview	9	369	610	156	1118	156
268	350	by	by	by	6	nopreview	9	370	0	0	0	0
269	351	@entity82	Public	Public	6	nopreview	9	371	464	464	464	186
270			Enemy	Enemy	6	nopreview	9	372	303	303	303	303
271	352	like	like	like	6	nopreview	9	373	0	0	0	0
272	353	-	-	-Fight	6	nopreview	9	374	416	416	416	236
	354	@entity86	Fight		6	nopreview	9	375				
273			the	the	6	nopreview	9	376	0	0	0	0
274			Power	Power-	6	nopreview	9	377	394	394	394	108
	355	-	-		6	nopreview	9	378				
275	356	playing	playing	playing	6	nopreview	9	379	912	481	481	238
276	357	and	and	and	6	nopreview	9	380	479	301	301	301
277	358	sign	sign	sign-language	6	nopreview	9	381	505	155	1114	155
	359	-	-		6	nopreview	9	382				
	360	language	language		6	nopreview	9	383				
278	361	interpreters	interpreters	interpreters	6	nopreview	9	384	291	291	291	291
279	362	translating	translating	translating	6	nopreview	9	385	279	279	279	279
280	363	the	the	the	6	nopreview	9	386	0	0	0	0
281	364	music	music	music	6	nopreview	9	387	294	294	294	294
282	365	and	and	and	6	nopreview	9	388	0	0	0	0
283	366	chants	chants	chants.	6	nopreview	9	389	277	277	277	277
	367	.	.		6	nopreview	9	390				
284	368	The	The	The	6	nopreview	9	391	197	197	197	197
285	369	protest	protest	protest	6	nopreview	9	392	372	372	372	129
286	370	moved	moved	moved	6	nopreview	9	393	478	228	228	228
287	371	to	to	to	6	nopreview	9	394	0	0	0	0
288	372	the	the	the	6	nopreview	9	395	336	336	586	336
289	373	@entity88	White	White	6	nopreview	9	396	0	0	0	0
290			House	House	6	nopreview	9	397	227	227	227	227
291	374	where	where	where	6	nopreview	9	398	224	224	224	224
292	375	most	most	most	6	nopreview	9	399	316	0	0	0
293	376	of	of	of	6	nopreview	9	400	119	0	0	0
294	377	the	the	the	6	nopreview	9	401	469	0	0	0
295	378	crowd	crowd	crowd	6	nopreview	9	402	140	140	1044	140
296	379	dispersed	dispersed	dispersed.	6	nopreview	9	403	239	239	239	239
	380	.	.		6	nopreview	9	404				
297	381	It	It	It	6	nopreview	9	405	0	0	0	0
298	382	started	started	started	6	nopreview	9	406	253	253	253	253
299	383	after	after	after	6	nopreview	9	407	213	213	213	213
300	384	most	most	most	6	nopreview	9	408	314	314	314	126
301	385	office	office	office	6	nopreview	9	409	0	0	0	0
302	386	workers	workers	workers	6	nopreview	9	410	375	375	375	375
303	387	had	had	had	6	nopreview	9	411	308	0	0	0
304	388	headed	headed	headed	6	nopreview	9	412	746	414	1054	414
305	389	home	home	home	6	nopreview	9	413	181	181	181	181
306	390	and	and	and	6	nopreview	9	414	0	0	0	0
307	391	did	did	didn-t	6	nopreview	9	415	320	320	320	222
	392	n-t	n-t		6	nopreview	9	416				
308	393	disrupt	disrupt	disrupt	6	nopreview	9	417	211	211	211	211
309	394	the	the	the	6	nopreview	9	418	0	0	0	0
310	395	@entity76	Washington	Washington	6	nopreview	9	419	369	369	369	154
311	396	workforce	workforce	workforce	6	nopreview	9	420	1029	1029	2121	550
312	397	badly	badly	badly.	6	nopreview	9	421	345	345	345	345
	398	.	.		6	nopreview	9	422				
313	399	One	One	One	6	nopreview	9	423	0	0	345	0
314	400	of	of	of	6	nopreview	9	424	283	283	283	283
315	401	the	the	the	6	nopreview	9	425	0	0	0	0
316	402	groups	groups	groups	6	nopreview	9	426	164	164	164	164
317	403	involved	involved	involved	6	nopreview	9	427	158	158	158	158
318	404	in	in	in	6	nopreview	9	428	0	0	0	0
319	405	the	the	the	6	nopreview	9	429	0	0	0	0
320	406	protest	protest	protest	6	nopreview	9	430	287	287	287	287
321	407	is	is	is	6	nopreview	9	431	182	0	0	0
322	408	the	the	the	6	nopreview	9	432	152	0	0	0
323	409	@entity95	DC	DC	6	nopreview	9	433	379	169	503	169
324			Ferguson	Ferguson	6	nopreview	9	434	465	163	675	163
325			Movement	Movement.	6	nopreview	9	435	280	280	280	280
	410	.	.		6	nopreview	9	436				
326	411	Organizer	Organizer	Organizer	6	nopreview	9	437	424	424	424	424
327	412	@entity96	Eugene	Eugene	6	nopreview	9	438	367	367	367	367
328			Puryear	Puryear	6	nopreview	9	439	637	637	637	637
329	413	said	said	said	6	nopreview	9	440	563	563	563	263
330	414	the	the	the	6	nopreview	9	441	0	0	0	0
331	415	march	march	march	6	nopreview	9	442	448	293	293	293
332	416	was	was	was	6	nopreview	9	443	2176	1080	2097	1080
333	417	called	called	called	6	nopreview	9	444	310	174	544	174
334	418	to	to	to	6	nopreview	9	445	0	0	0	0
335	419	show	show	show	6	nopreview	9	446	331	331	331	331
336	420	solidarity	solidarity	solidarity	6	nopreview	9	447	329	329	329	329
337	421	with	with	with	6	nopreview	9	448	185	185	185	185
338	422	the	the	the	6	nopreview	9	449	0	0	0	0
339	423	residents	residents	residents	6	nopreview	9	450	235	235	235	235
340	424	in	in	in	6	nopreview	9	451	0	0	0	0
341	425	@entity21	Baltimore	Baltimore	6	nopreview	9	452	246	246	246	246
342	426	and	and	and	6	nopreview	9	453	0	0	0	0
343	427	to	to	to	6	nopreview	9	454	463	463	463	163
344	428	highlight	highlight	highlight	6	nopreview	9	455	178	178	178	178
345	429	that	that	that	6	nopreview	9	456	93	0	0	0
346	430	police	police	police	6	nopreview	9	457	159	159	252	159
347	431	brutality	brutality	brutality	6	nopreview	9	458	253	253	253	253
348	432	is	is	is	6	nopreview	9	459	280	0	0	0
349	433	a	a	a	6	nopreview	9	460	0	0	0	0
350	434	national	national	national	6	nopreview	9	461	662	476	942	176
351	435	issue	issue	issue.	6	nopreview	9	462	145	145	145	145
	436	.	.		6	nopreview	9	463				
352	437	Several	Several	Several	6	nopreview	9	464	181	0	0	0
353	438	hundred	hundred	hundred	6	nopreview	9	465	283	107	464	107
354	439	people	people	people	6	nopreview	9	466	280	280	280	280
355	440	gathered	gathered	gathered	6	nopreview	9	467	153	0	0	0
356	441	in	in	in	6	nopreview	9	468	177	177	177	177
357	442	@entity103	Gold	Gold	6	nopreview	9	469	279	128	281	128
358			Medal	Medal	6	nopreview	9	470	403	260	554	260
359			Park	Park	6	nopreview	9	471	0	0	0	0
360	443	in	in	in	6	nopreview	9	472	0	0	0	0
361	444	@entity104	Minneapolis	Minneapolis	6	nopreview	9	473	383	383	383	383
362	445	for	for	for	6	nopreview	9	474	365	365	365	365
363	446	a	a	a	6	nopreview	9	475	0	0	0	0
364	447	rally	rally	rally	6	nopreview	9	476	106	106	106	106
365	448	organized	organized	organized	6	nopreview	9	477	261	261	261	105
366	449	by	by	by	6	nopreview	9	478	0	0	0	0
367	450	the	the	the	6	nopreview	9	479	259	259	259	259
368	451	group	group	group	6	nopreview	9	480	0	0	0	0
369	452	of	of	of	6	nopreview	9	481	183	0	0	0
370	453	#	#	#BlackLivesMatter.	6	nopreview	9	482	1341	956	1139	301
	454	@entity107	BlackLivesMatter		6	nopreview	9	483				
	455	.	.		6	nopreview	9	484				
371	456	The	The	The	6	nopreview	9	485	0	0	0	0
372	457	@entity104	Minneapolis	Minneapolis	6	nopreview	9	486	742	481	866	130
373	458	group	group	group	6	nopreview	9	487	321	321	321	321
374	459	held	held	held	6	nopreview	9	488	197	0	0	0
375	460	similar	similar	similar	6	nopreview	9	489	287	185	484	185
376	461	events	events	events	6	nopreview	9	490	359	359	359	119
377	462	in	in	in	6	nopreview	9	491	288	288	288	288
378	463	the	the	the	6	nopreview	9	492	0	0	0	0
379	464	past	past	past	6	nopreview	9	493	149	149	149	149
380	465	in	in	in	6	nopreview	9	494	0	0	0	0
381	466	response	response	response	6	nopreview	9	495	304	304	304	172
382	467	to	to	to	6	nopreview	9	496	0	0	0	0
383	468	alleged	alleged	alleged	6	nopreview	9	497	378	205	205	205
384	469	police	police	police	6	nopreview	9	498	155	0	0	0
385	470	brutality	brutality	brutality	6	nopreview	9	499	308	149	463	149
386	471	across	across	across	6	nopreview	9	500	222	222	222	222
387	472	the	the	the	6	nopreview	9	501	0	0	0	0
388	473	country	country	country.	6	nopreview	9	502	144	144	144	144
	474	.	.		6	nopreview	9	503				
389	475	Protests	Protests	Protests	6	nopreview	9	504	323	323	323	131
390	476	also	also	also	6	nopreview	9	505	295	295	295	295
391	477	were	were	were	6	nopreview	9	506	0	0	0	0
392	478	held	held	held	6	nopreview	9	507	275	275	275	275
393	479	in	in	in	6	nopreview	9	508	0	0	0	0
394	480	@entity115	Boston	Boston	6	nopreview	9	509	203	203	203	203
395	481	and	and	and	6	nopreview	9	510	0	0	0	0
396	482	@entity116	Houston	Houston.	6	nopreview	9	511	506	301	301	301
	483	.	.		6	nopreview	9	512				
397	484	On	On	On	6	nopreview	9	513	777	0	0	0
398	485	Tuesday	Tuesday	Tuesday,	6	nopreview	9	514	1101	650	1878	226
	486	,	,		6	nopreview	9	515				
399	487	violent	violent	violent	6	nopreview	9	516	415	247	247	247
400	488	protests	protests	protests	6	nopreview	9	517	393	202	561	202
401	489	took	took	took	6	nopreview	9	518	0	0	0	0
402	490	place	place	place	6	nopreview	9	519	181	181	181	181
403	491	in	in	in	6	nopreview	9	520	0	0	0	0
404	492	@entity120	Ferguson	Ferguson,	6	nopreview	9	521	746	382	382	382
	493	,	,		6	nopreview	9	522				
405	494	@entity121	Missouri	Missouri,	6	nopreview	9	523	574	262	262	262
	495	,	,		6	nopreview	9	524				
406	496	where	where	where	6	nopreview	9	525	537	372	372	224
407	497	three	three	three	6	nopreview	9	526	0	0	0	0
408	498	people	people	people	6	nopreview	9	527	385	260	260	260
409	499	were	were	were	6	nopreview	9	528	337	0	0	0
410	500	shot	shot	shot,	6	nopreview	9	529	191	191	322	191
	501	,	,		6	nopreview	9	530				
411	502	the	the	the	6	nopreview	9	531	0	0	0	0
412	503	city	city	city	6	nopreview	9	532	333	333	333	333
413	504	police	police	police	6	nopreview	9	533	0	0	0	0
414	505	reported	reported	reported.	6	nopreview	9	534	444	444	444	241
	506	.	.		6	nopreview	9	535				
415	507	Police	Police	Police	6	nopreview	9	536	288	288	288	161
416	508	said	said	said	6	nopreview	9	537	278	278	278	278
417	509	they	they	they	6	nopreview	9	538	0	0	0	0
418	510	did	did	didn-t	6	nopreview	9	539	244	244	244	244
	511	n-t	n-t		6	nopreview	9	540				
419	512	do	do	do	6	nopreview	9	541	336	0	0	0
420	513	the	the	the	6	nopreview	9	542	151	151	487	151
421	514	shooting	shooting	shooting.	6	nopreview	9	543	0	0	0	0
	515	.	.		6	nopreview	9	544				
422	516	A	A	A	6	nopreview	9	545	0	0	0	0
423	517	20	20	20-year-old	6	nopreview	9	546	417	417	417	245
	518	-	-		6	nopreview	9	547				
	519	year	year		6	nopreview	9	548				
	520	-	-		6	nopreview	9	549				
	521	old	old		6	nopreview	9	550				
424	522	man	man	man	6	nopreview	9	551	0	0	0	0
425	523	was	was	was	6	nopreview	9	552	250	250	250	250
426	524	arrested	arrested	arrested	6	nopreview	9	553	166	166	166	166
427	525	and	and	and	6	nopreview	9	554	0	0	0	0
428	526	the	the	the	6	nopreview	9	555	221	221	221	221
429	527	three	three	three	6	nopreview	9	556	0	0	0	0
430	528	victims	victims	victims	6	nopreview	9	557	264	264	264	264
431	529	were	were	were	6	nopreview	9	558	152	0	0	0
432	530	in	in	in	6	nopreview	9	559	167	167	319	167
433	531	stable	stable	stable	6	nopreview	9	560	226	226	226	226
434	532	condition	condition	condition	6	nopreview	9	561	0	0	0	0
435	533	--	--	--	6	nopreview	9	562	0	0	0	0
436	534	two	two	two	6	nopreview	9	563	0	0	0	0
437	535	with	with	with	6	nopreview	9	564	1658	693	693	406
438	536	wounds	wounds	wounds	6	nopreview	9	565	884	571	2344	571
439	537	to	to	to	6	nopreview	9	566	0	0	0	0
440	538	the	the	the	6	nopreview	9	567	0	0	0	0
441	539	neck	neck	neck,	6	nopreview	9	568	286	0	0	0
	540	,	,		6	nopreview	9	569				
442	541	one	one	one	6	nopreview	9	570	0	0	0	0
443	542	in	in	in	6	nopreview	9	571	340	0	0	0
444	543	the	the	the	6	nopreview	9	572	0	0	0	0
445	544	leg	leg	leg,	6	nopreview	9	573	183	0	0	0
	545	,	,		6	nopreview	9	574				
446	546	police	police	police	6	nopreview	9	575	257	0	0	0
447	547	said	said	said.	6	nopreview	9	576	116	0	0	0
	548	.	.		6	nopreview	9	577				
448	549	Police	Police	Police	6	nopreview	9	578	151	0	0	0
449	550	said	said	said	6	nopreview	9	579	204	0	0	0
450	551	about	about	about	6	nopreview	9	580	198	0	0	0
451	552	300	300	300	6	nopreview	9	581	0	0	0	0
452	553	people	people	people	6	nopreview	9	582	180	0	0	0
453	554	marched	marched	marched,	6	nopreview	9	583	441	222	3033	222
	555	,	,		6	nopreview	9	584				
454	556	with	with	with	6	nopreview	9	585	0	0	0	0
455	557	protesters	protesters	protesters	6	nopreview	9	586	264	264	264	264
456	558	throwing	throwing	throwing	6	nopreview	9	587	878	331	331	331
457	559	rocks	rocks	rocks	6	nopreview	9	588	369	369	1555	369
458	560	at	at	at	6	nopreview	9	589	0	0	0	0
459	561	police	police	police,	6	nopreview	9	590	92	0	0	0
	562	,	,		6	nopreview	9	591				
460	563	damaging	damaging	damaging	6	nopreview	9	592	432	432	432	229
461	564	four	four	four	6	nopreview	9	593	240	240	240	240
462	565	police	police	police	6	nopreview	9	594	0	0	0	0
463	566	cars	cars	cars	6	nopreview	9	595	214	0	0	0
464	567	and	and	and	6	nopreview	9	596	158	158	372	158
465	568	setting	setting	setting	6	nopreview	9	597	195	195	195	195
466	569	trash	trash	trash	6	nopreview	9	598	314	314	314	143
467	570	and	and	and	6	nopreview	9	599	0	0	0	0
468	571	debris	debris	debris	6	nopreview	9	600	258	258	258	258
469	572	on	on	on	6	nopreview	9	601	0	0	0	0
470	573	fire	fire	fire	6	nopreview	9	602	245	245	245	245
471	574	near	near	near	6	nopreview	9	603	124	124	216	124
472	575	@entity139	Northwinds	Northwinds	6	nopreview	9	604	211	211	211	211
473			Estates	Estates	6	nopreview	9	605	357	357	357	357
474	576	and	and	and	6	nopreview	9	606	0	0	0	0
475	577	@entity140	West	West	6	nopreview	9	607	344	344	344	344
476			Florissant	Florissant,	6	nopreview	9	608	432	432	432	217
	578	,	,		6	nopreview	9	609				
477	579	police	police	police	6	nopreview	9	610	245	245	245	245
478	580	said	said	said.	6	nopreview	9	611	155	155	155	155
	581	.	.		6	nopreview	9	612				
479	582	One	One	One	6	nopreview	9	613	196	0	0	0
480	583	business	business	business	6	nopreview	9	614	588	342	342	342
481	584	in	in	in	6	nopreview	9	615	214	0	0	0
482	585	@entity142	Dellwood	Dellwood	6	nopreview	9	616	618	167	1274	167
483	586	was	was	was	6	nopreview	9	617	178	178	178	178
484	587	damaged	damaged	damaged,	6	nopreview	9	618	315	315	315	128
	588	,	,		6	nopreview	9	619				
485	589	police	police	police	6	nopreview	9	620	279	279	279	279
486	590	said	said	said.	6	nopreview	9	621	124	124	124	124
	591	.	.		6	nopreview	9	622				
487	592	No	No	No	6	nopreview	9	623	0	0	0	0
488	593	officers	officers	officers	6	nopreview	9	624	278	278	278	278
489	594	were	were	were	6	nopreview	9	625	195	0	0	0
490	595	injured	injured	injured	6	nopreview	9	626	157	157	352	157
491	596	as	as	as	6	nopreview	9	627	0	0	0	0
492	597	police	police	police	6	nopreview	9	628	941	941	941	775
493	598	conducted	conducted	conducted	6	nopreview	9	629	265	265	265	265
494	599	anti-riot	anti-riot	anti-riot	6	nopreview	9	630	225	225	225	225
495	600	activities	activities	activities	6	nopreview	9	631	333	333	333	117
496	601	until	until	until	6	nopreview	9	632	422	422	422	192
497	602	3	3	3	6	nopreview	9	633	0	0	0	0
498	603	a.m.	a.m.	a.m.	6	nopreview	9	634	0	0	0	0
499	604	In	In	In	6	nopreview	9	635	0	0	0	0
500	605	@entity147	Los	Los	6	nopreview	9	636	450	450	450	265
501			Angeles	Angeles,	6	nopreview	9	637	0	0	0	0
	606	,	,		6	nopreview	9	638				
502	607	six	six	six	6	nopreview	9	639	0	0	0	0
503	608	people	people	people	6	nopreview	9	640	361	361	361	157
504	609	protesting	protesting	protesting	6	nopreview	9	641	253	253	253	253
505	610	against	against	against	6	nopreview	9	642	282	282	282	282
506	611	police	police	police	6	nopreview	9	643	159	159	159	159
507	612	brutality	brutality	brutality	6	nopreview	9	644	293	293	293	293
508	613	were	were	were	6	nopreview	9	645	300	300	300	300
509	614	arrested	arrested	arrested	6	nopreview	9	646	0	0	0	0
510	615	Monday	Monday	Monday	6	nopreview	9	647	254	254	254	254
511	616	night	night	night	6	nopreview	9	648	414	414	414	414
512	617	when	when	when	6	nopreview	9	649	546	546	546	546
513	618	they	they	they	6	nopreview	9	650	279	279	279	279
514	619	failed	failed	failed	6	nopreview	9	651	239	0	0	0
515	620	to	to	to	6	nopreview	9	652	163	163	402	163
516	621	disperse	disperse	disperse,	6	nopreview	9	653	274	274	274	274
	622	,	,		6	nopreview	9	654				
517	623	reported	reported	reported	6	nopreview	9	655	554	554	554	554
518	624	@entity0	CNN	CNN	6	nopreview	9	656	153	153	153	153
519	625	affiliate	affiliate	affiliate	6	nopreview	9	657	319	319	319	319
520	626	@entity148	KABC	KABC.	6	nopreview	9	658	767	767	767	685
	627	.	.		6	nopreview	9	659				
521	628	About	About	About	6	nopreview	9	660	302	302	302	302
522	629	50	50	50	6	nopreview	9	661	0	0	0	0
523	630	people	people	people	6	nopreview	9	662	204	204	204	204
524	631	marched	marched	marched,	6	nopreview	9	663	163	163	163	163
	632	,	,		6	nopreview	9	664				
525	633	@entity148	KABC	KABC	6	nopreview	9	665	247	247	247	247
526	634	said	said	said.	6	nopreview	9	666	248	248	248	248
	635	.	.		6	nopreview	9	667				
527	636	On	On	On	6	nopreview	9	668	0	0	0	0
528	637	Tuesday	Tuesday	Tuesday,	6	nopreview	9	669	236	236	236	236
	638	,	,		6	nopreview	9	670				
529	639	protesters	protesters	protesters	6	nopreview	9	671	268	268	268	268
530	640	gathered	gathered	gathered	6	nopreview	9	672	213	213	213	213
531	641	outside	outside	outside	6	nopreview	9	673	0	0	0	0
532	642	the	the	the	6	nopreview	9	674	0	0	0	0
533	643	@entity152	Stapes	Stapes	6	nopreview	9	675	362	362	362	362
534			Center	Center,	6	nopreview	9	676	290	290	290	290
	644	,	,		6	nopreview	9	677				
535	645	where	where	where	6	nopreview	9	678	581	581	581	581
536	646	the	the	the	6	nopreview	9	679	0	0	0	0
537	647	@entity153	Los	Los	6	nopreview	9	680	241	241	241	241
538			Angeles	Angeles	6	nopreview	9	681	0	0	0	0
539			Clippers	Clippers	6	nopreview	9	682	238	238	238	238
540	648	and	and	and	6	nopreview	9	683	0	0	0	0
541	649	the	the	the	6	nopreview	9	684	309	309	309	309
542	650	@entity154	San	San	6	nopreview	9	685	257	257	257	257
543			Antonio	Antonio	6	nopreview	9	686	217	0	0	0
544			Spurs	Spurs	6	nopreview	9	687	395	177	612	177
545	651	were	were	were	6	nopreview	9	688	151	151	151	151
546	652	playing	playing	playing	6	nopreview	9	689	256	0	0	0
547	653	an	an	an	6	nopreview	9	690	0	0	0	0
548	654	@entity156	NBA	NBA	6	nopreview	9	691	377	377	633	377
549	655	playoff	playoff	playoff	6	nopreview	9	692	322	322	322	322
550	656	game	game	game.	6	nopreview	9	693	158	158	158	158
	657	.	.		6	nopreview	9	694				
551	658	They	They	They	6	nopreview	9	695	0	0	0	0
552	659	disrupted	disrupted	disrupted	6	nopreview	9	696	458	284	284	284
553	660	traffic	traffic	traffic	6	nopreview	9	697	246	246	420	246
554	661	and	and	and	6	nopreview	9	698	112	112	112	112
555	662	carried	carried	carried	6	nopreview	9	699	211	211	211	211
556	663	protest	protest	protest	6	nopreview	9	700	252	252	252	252
557	664	signs	signs	signs.	6	nopreview	9	701	154	154	154	154
	665	.	.		6	nopreview	9	702				
558	666	In	In	In	6	nopreview	9	703	0	0	0	0
559	667	@entity161	Chicago	Chicago,	6	nopreview	9	704	266	266	266	266
	668	,	,		6	nopreview	9	705				
560	669	hundreds	hundreds	hundreds	6	nopreview	9	706	285	285	285	285
561	670	of	of	of	6	nopreview	9	707	0	0	0	0
562	671	protesters	protesters	protesters	6	nopreview	9	708	297	297	297	297
563	672	marched	marched	marched	6	nopreview	9	709	463	463	463	463
564	673	Tuesday	Tuesday	Tuesday	6	nopreview	9	710	255	255	255	255
565	674	from	from	from	6	nopreview	9	711	428	428	428	428
566	675	police	police	police	6	nopreview	9	712	208	208	208	208
567	676	headquarters	headquarters	headquarters	6	nopreview	9	713	290	290	290	290
568	677	at	at	at	6	nopreview	9	714	0	0	0	0
569	678	35th	35th	35th	6	nopreview	9	715	430	430	430	430
570	679	and	and	and	6	nopreview	9	716	175	0	0	0
571	680	@entity163	Michigan	Michigan	6	nopreview	9	717	168	168	343	168
572	681	through	through	through	6	nopreview	9	718	298	298	298	298
573	682	the	the	the	6	nopreview	9	719	0	0	0	0
574	683	@entity164	Southside	Southside,	6	nopreview	9	720	269	269	269	269
	684	,	,		6	nopreview	9	721				
575	685	@entity0	CNN	CNN	6	nopreview	9	722	0	0	0	0
576	686	affiliate	affiliate	affiliate	6	nopreview	9	723	629	629	629	387
577	687	@entity159	WGN	WGN	6	nopreview	9	724	0	0	0	0
578	688	reported	reported	reported.	6	nopreview	9	725	255	255	255	255
	689	.	.		6	nopreview	9	726				
579	690	Police	Police	Police	6	nopreview	9	727	200	200	200	200
580	691	made	made	made	6	nopreview	9	728	0	0	0	0
581	692	one	one	one	6	nopreview	9	729	284	284	284	284
582	693	arrest	arrest	arrest,	6	nopreview	9	730	282	282	282	174
	694	,	,		6	nopreview	9	731				
583	695	for	for	for	6	nopreview	9	732	163	0	0	0
584	696	reckless	reckless	reckless	6	nopreview	9	733	442	222	385	222
585	697	conduct	conduct	conduct.	6	nopreview	9	734	506	289	289	289
	698	.	.		6	nopreview	9	735				
586	699	@entity159	WGN	WGN	6	nopreview	9	736	706	270	1143	270
587	700	said	said	said	6	nopreview	9	737	295	295	295	295
588	701	protesters	protesters	protesters	6	nopreview	9	738	174	174	174	174
589	702	spoke	spoke	spoke	6	nopreview	9	739	972	972	972	156
590	703	about	about	about	6	nopreview	9	740	0	0	0	0
591	704	police	police	police	6	nopreview	9	741	0	0	0	0
592	705	violence	violence	violence	6	nopreview	9	742	0	0	0	0
593	706	and	and	and	6	nopreview	9	743	0	0	0	0
594	707	the	the	the	6	nopreview	9	744	0	0	0	0
595	708	death	death	death	6	nopreview	9	745	277	277	277	277
596	709	of	of	of	6	nopreview	9	746	0	0	0	0
597	710	@entity171	Rekia	Rekia	6	nopreview	9	747	878	475	752	475
598			Boyd	Boyd,	6	nopreview	9	748	558	206	206	206
	711	,	,		6	nopreview	9	749				
599	712	who	who	who	6	nopreview	9	750	0	0	0	0
600	713	was	was	was	6	nopreview	9	751	371	371	371	159
601	714	killed	killed	killed	6	nopreview	9	752	299	0	0	0
602	715	by	by	by	6	nopreview	9	753	0	0	0	0
603	716	an	an	an	6	nopreview	9	754	273	273	273	273
604	717	off	off	off-duty	6	nopreview	9	755	547	547	547	237
	718	-	-		6	nopreview	9	756				
	719	duty	duty		6	nopreview	9	757				
605	720	officer	officer	officer	6	nopreview	9	758	231	231	231	231
606	721	in	in	in	6	nopreview	9	759	0	0	0	0
607	722	2012	2012	2012.	6	nopreview	9	760	398	398	398	175
	723	.	.		6	nopreview	9	761				
608	724	That	That	That	6	nopreview	9	762	0	0	0	0
609	725	officer	officer	officer	6	nopreview	9	763	363	363	363	363
610	726	was	was	was	6	nopreview	9	764	178	178	178	178
611	727	acquitted	acquitted	acquitted	6	nopreview	9	765	269	269	269	269
612	728	last	last	last	6	nopreview	9	766	0	0	0	0
613	729	week	week	week.	6	nopreview	9	767	292	292	3880	292
	730	.	.		6	nopreview	9	768				
614	731	The	The	The	6	nopreview	9	769	0	0	0	0
615	732	group	group	group	6	nopreview	9	770	253	253	253	253
616	733	plans	plans	plans	6	nopreview	9	771	220	220	220	220
617	734	to	to	to	6	nopreview	9	772	0	0	0	0
618	735	gather	gather	gather	6	nopreview	9	773	222	222	222	222
619	736	Wednesday	Wednesday	Wednesday	6	nopreview	9	774	209	209	209	209
620	737	night	night	night	6	nopreview	9	775	503	241	241	241
621	738	at	at	at	6	nopreview	9	776	98	0	0	0
622	739	the	the	the	6	nopreview	9	777	532	0	0	0
623	740	@entity175	DePaul	DePaul	6	nopreview	9	778	885	150	708	150
624			Law	Law	6	nopreview	9	779	382	207	1451	207
625			School	School.	6	nopreview	9	780	397	397	397	101
	741	.	.		6	nopreview	9	781				
626	742	About	About	About	6	nopreview	9	782	405	405	405	405
627	743	100	100	100	6	nopreview	9	783	0	0	0	0
628	744	people	people	people	6	nopreview	9	784	145	145	145	145
629	745	marched	marched	marched	6	nopreview	9	785	295	0	0	0
630	746	Monday	Monday	Monday	6	nopreview	9	786	153	0	0	0
631	747	night	night	night	6	nopreview	9	787	230	0	0	0
632	748	in	in	in	6	nopreview	9	788	0	0	0	0
633	749	@entity177	Oakland	Oakland	6	nopreview	9	789	232	0	0	0
634	750	in	in	in	6	nopreview	9	790	0	0	0	0
635	751	support	support	support	6	nopreview	9	791	337	0	0	0
636	752	of	of	of	6	nopreview	9	792	0	0	0	0
637	753	@entity21	Baltimore	Baltimore	6	nopreview	9	793	467	0	0	0
638	754	protesters	protesters	protesters,	6	nopreview	9	794	342	0	0	0
	755	,	,		6	nopreview	9	795				
639	756	reported	reported	reported	6	nopreview	9	796	846	264	2902	264
640	757	@entity0	CNN	CNN	6	nopreview	9	797	842	842	842	758
641	758	affiliate	affiliate	affiliate	6	nopreview	9	798	239	239	239	239
642	759	@entity148	KABC	KABC.	6	nopreview	9	799	601	601	601	601
	760	.	.		6	nopreview	9	800				
643	761	A	A	A	6	nopreview	9	801	0	0	0	0
644	762	protest	protest	protest	6	nopreview	9	802	572	572	572	404
645	763	is	is	is	6	nopreview	9	803	137	0	0	0
646	764	planned	planned	planned	6	nopreview	9	804	166	166	303	166
647	765	for	for	for	6	nopreview	9	805	119	0	0	0
648	766	Thursday	Thursday	Thursday	6	nopreview	9	806	157	157	276	157
649	767	in	in	in	6	nopreview	9	807	152	152	152	152
650	768	@entity181	Cincinnati	Cincinnati,	6	nopreview	9	808	542	542	542	542
	769	,	,		6	nopreview	9	809				
651	770	reported	reported	reported	6	nopreview	9	810	337	337	337	337
652	771	@entity0	CNN	CNN	6	nopreview	9	811	0	0	0	0
653	772	affiliate	affiliate	affiliate	6	nopreview	9	812	316	316	316	316
654	773	@entity182	WXIX	WXIX.	6	nopreview	9	813	154	154	154	154
	774	.	.		6	nopreview	9	814				
655	775	@entity183	Philly.com	Philly.com	6	nopreview	9	815	368	368	368	368
656	776	said	said	said	6	nopreview	9	816	705	459	459	459
657	777	a	a	a	6	nopreview	9	817	222	0	0	0
658	778	-	-	-Philly	6	nopreview	9	818	726	165	387	165
	779	@entity185	Philly		6	nopreview	9	819				
659	780	is	is	is	6	nopreview	9	820	0	0	0	0
660	781	@entity21	Baltimore	Baltimore-	6	nopreview	9	821	669	343	1476	216
	782	-	-		6	nopreview	9	822				
661	783	protest	protest	protest	6	nopreview	9	823	394	394	394	394
662	784	will	will	will	6	nopreview	9	824	335	335	335	335
663	785	be	be	be	6	nopreview	9	825	0	0	0	0
664	786	held	held	held	6	nopreview	9	826	327	327	327	327
665	787	Thursday	Thursday	Thursday	6	nopreview	9	827	854	424	424	424
666	788	at	at	at	6	nopreview	9	828	395	187	187	187
667	789	@entity186	Philadelphia	Philadelphia	6	nopreview	9	829	443	303	303	303
668			City	City	6	nopreview	9	830	560	363	2392	244
669			Hall	Hall.	6	nopreview	9	831	0	0	0	0
	790	.	.		6	nopreview	9	832				
