HumanPosition	AnonymizedPosition	AnonymizedToken	OriginalToken	ExperimentToken	Participant	Condition	TextNo	JointPosition	tt	fp	rp	ff
1	0	Many	Many	Many	1	preview	13	1	0	0	0	0
2	1	animals	animals	animals	1	preview	13	2	0	0	0	0
3	2	mimic	mimic	mimic	1	preview	13	3	120	120	120	120
4	3	human	human	human	1	preview	13	4	109	109	109	109
5	4	traits	traits	traits	1	preview	13	5	0	0	0	0
6	5	and	and	and	1	preview	13	6	136	136	136	136
7	6	vice	vice	vice	1	preview	13	7	0	0	0	0
8	7	versa	versa	versa	1	preview	13	8	0	0	0	0
9	8	but	but	but	1	preview	13	9	0	0	0	0
10	9	this	this	this	1	preview	13	10	133	133	133	133
11	10	puppy	puppy	puppy	1	preview	13	11	0	0	0	0
12	11	takes	takes	takes	1	preview	13	12	141	141	141	141
13	12	the	the	the	1	preview	13	13	0	0	0	0
14	13	biscuit	biscuit	biscuit.	1	preview	13	14	141	141	141	141
	14	.	.		1	preview	13	15				
15	15	@entity5	Leia	Leia,	1	preview	13	16	0	0	0	0
	16	,	,		1	preview	13	17				
16	17	an	an	an	1	preview	13	18	0	0	0	0
17	18	eight	eight	eight-month-old	1	preview	13	19	281	0	0	0
	19	-	-		1	preview	13	20				
	20	month	month		1	preview	13	21				
	21	-	-		1	preview	13	22				
	22	old	old		1	preview	13	23				
18	23	@entity6	Boxer	Boxer	1	preview	13	24	131	131	412	131
19	24	from	from	from	1	preview	13	25	0	0	0	0
20	25	@entity7	Pennsylvania	Pennsylvania,	1	preview	13	26	189	189	189	189
	26	,	,		1	preview	13	27				
21	27	was	was	was	1	preview	13	28	0	0	0	0
22	28	filmed	filmed	filmed	1	preview	13	29	191	191	191	191
23	29	as	as	as	1	preview	13	30	0	0	0	0
24	30	she	she	she	1	preview	13	31	0	0	0	0
25	31	lay	lay	lay	1	preview	13	32	136	136	136	136
26	32	on	on	on	1	preview	13	33	0	0	0	0
27	33	the	the	the	1	preview	13	34	156	156	156	156
28	34	couch	couch	couch	1	preview	13	35	0	0	0	0
29	35	and	and	and	1	preview	13	36	0	0	0	0
30	36	latched	latched	latched	1	preview	13	37	179	0	0	0
31	37	on	on	on	1	preview	13	38	0	0	0	0
32	38	to	to	to	1	preview	13	39	0	0	0	0
33	39	a	a	a	1	preview	13	40	0	0	0	0
34	40	baby	baby	baby-s	1	preview	13	41	112	112	291	112
	41	-s	-s		1	preview	13	42				
35	42	pacifier	pacifier	pacifier.	1	preview	13	43	131	131	131	131
	43	.	.		1	preview	13	44				
36	44	Footage	Footage	Footage	1	preview	13	45	237	237	237	237
37	45	shows	shows	shows	1	preview	13	46	0	0	0	0
38	46	her	her	her	1	preview	13	47	0	0	0	0
39	47	then	then	then	1	preview	13	48	0	0	0	0
40	48	sucking	sucking	sucking	1	preview	13	49	173	173	173	173
41	49	on	on	on	1	preview	13	50	0	0	0	0
42	50	it	it	it	1	preview	13	51	178	178	178	178
43	51	before	before	before	1	preview	13	52	0	0	0	0
44	52	closing	closing	closing	1	preview	13	53	0	0	0	0
45	53	her	her	her	1	preview	13	54	0	0	0	0
46	54	eyes	eyes	eyes	1	preview	13	55	0	0	0	0
47	55	and	and	and	1	preview	13	56	138	0	0	0
48	56	loudly	loudly	loudly	1	preview	13	57	0	0	0	0
49	57	snoring	snoring	snoring	1	preview	13	58	145	145	283	145
50	58	in	in	in	1	preview	13	59	0	0	0	0
51	59	her	her	her	1	preview	13	60	0	0	0	0
52	60	sleep	sleep	sleep.	1	preview	13	61	0	0	0	0
	61	.	.		1	preview	13	62				
53	62	A	A	A	1	preview	13	63	0	0	0	0
54	63	soothing	soothing	soothing	1	preview	13	64	246	246	246	246
55	64	rendition	rendition	rendition	1	preview	13	65	134	134	134	134
56	65	of	of	of	1	preview	13	66	0	0	0	0
57	66	@entity16	Twinkle	Twinkle,	1	preview	13	67	193	193	193	193
			,		1	preview	13	68				
58			Twinkle	Twinkle	1	preview	13	69	0	0	0	0
59			Little	Little	1	preview	13	70	185	0	0	0
60			Star	Star	1	preview	13	71	150	0	0	0
61	67	is	is	is	1	preview	13	72	0	0	0	0
62	68	heard	heard	heard	1	preview	13	73	119	0	0	0
63	69	playing	playing	playing	1	preview	13	74	0	0	0	0
64	70	away	away	away	1	preview	13	75	147	0	0	0
65	71	in	in	in	1	preview	13	76	0	0	0	0
66	72	the	the	the	1	preview	13	77	0	0	0	0
67	73	background	background	background.	1	preview	13	78	268	0	0	0
	74	.	.		1	preview	13	79				
68	75	The	The	The	1	preview	13	80	0	0	0	0
69	76	pup	pup	pup-s	1	preview	13	81	397	174	1266	174
	77	-s	-s		1	preview	13	82				
70	78	owner	owner	owner,	1	preview	13	83	225	225	225	225
	79	,	,		1	preview	13	84				
71	80	@entity18	Dave	Dave	1	preview	13	85	0	0	0	0
72			McK	McK,	1	preview	13	86	0	0	0	0
	81	,	,		1	preview	13	87				
73	82	says	says	says	1	preview	13	88	138	0	0	0
74	83	that	that	that	1	preview	13	89	113	0	0	0
75	84	apparently	apparently	apparently	1	preview	13	90	156	0	0	0
76	85	@entity5	Leia	Leia	1	preview	13	91	107	107	514	107
77	86	loves	loves	loves	1	preview	13	92	142	142	142	142
78	87	to	to	to	1	preview	13	93	0	0	0	0
79	88	suck	suck	suck	1	preview	13	94	0	0	0	0
80	89	on	on	on	1	preview	13	95	135	135	135	135
81	90	her	her	her	1	preview	13	96	0	0	0	0
82	91	pacifier	pacifier	pacifier.	1	preview	13	97	137	137	137	137
	92	.	.		1	preview	13	98				
83	93	Each	Each	Each	1	preview	13	99	200	200	200	200
84	94	time	time	time	1	preview	13	100	0	0	0	0
85	95	around	around	around,	1	preview	13	101	171	171	171	171
	96	,	,		1	preview	13	102				
86	97	she	she	she	1	preview	13	103	134	134	134	134
87	98	immediately	immediately	immediately	1	preview	13	104	175	0	0	0
88	99	falls	falls	falls	1	preview	13	105	120	120	295	120
89	100	to	to	to	1	preview	13	106	0	0	0	0
90	101	sleep	sleep	sleep.	1	preview	13	107	0	0	0	0
	102	.	.		1	preview	13	108				
91	103	To	To	To	1	preview	13	109	160	160	160	160
92	104	date	date	date	1	preview	13	110	0	0	0	0
93	105	the	the	the	1	preview	13	111	0	0	0	0
94	106	video	video	video	1	preview	13	112	190	190	190	190
95	107	of	of	of	1	preview	13	113	0	0	0	0
96	108	@entity5	Leia	Leia	1	preview	13	114	0	0	0	0
97	109	has	has	has	1	preview	13	115	191	191	191	191
98	110	garnered	garnered	garnered	1	preview	13	116	127	127	127	127
99	111	more	more	more	1	preview	13	117	0	0	0	0
100	112	than	than	than	1	preview	13	118	191	191	191	191
101	113	145,000	145,000	145,000	1	preview	13	119	0	0	0	0
102	114	likes	likes	likes	1	preview	13	120	0	0	0	0
103	115	on	on	on	1	preview	13	121	242	0	0	0
104	116	@entity23	Facebook	Facebook,	1	preview	13	122	151	0	0	0
	117	,	,		1	preview	13	123				
105	118	with	with	with	1	preview	13	124	108	108	501	108
106	119	many	many	many	1	preview	13	125	226	226	226	226
107	120	viewers	viewers	viewers	1	preview	13	126	0	0	0	0
108	121	deeming	deeming	deeming	1	preview	13	127	141	141	141	141
109	122	the	the	the	1	preview	13	128	0	0	0	0
110	123	scene	scene	scene	1	preview	13	129	0	0	0	0
111	124	-	-	-cute-	1	preview	13	130	0	0	0	0
	125	cute	cute		1	preview	13	131				
	126	-	-		1	preview	13	132				
112	127	and	and	and	1	preview	13	133	134	134	134	134
113	128	-	-	-adorable-.	1	preview	13	134	176	176	176	176
	129	adorable	adorable		1	preview	13	135				
	130	-	-		1	preview	13	136				
	131	.	.		1	preview	13	137				
114	132	-	-	-This	1	preview	13	138	124	124	124	124
	133	This	This		1	preview	13	139				
115	134	has	has	has	1	preview	13	140	0	0	0	0
116	135	made	made	made	1	preview	13	141	247	0	0	0
117	136	my	my	my	1	preview	13	142	0	0	0	0
118	137	night	night	night,-	1	preview	13	143	107	107	354	107
	138	,	,		1	preview	13	144				
119	139	-	-	one	1	preview	13	145	0	0	0	0
120	140	one	one	fan	1	preview	13	146	188	0	0	0
121	141	fan	fan	exclaimed,	1	preview	13	147	171	171	359	171
	142	exclaimed	exclaimed		1	preview	13	148				
	143	,	,		1	preview	13	149				
122	144	while	while	while	1	preview	13	150	0	0	0	0
123	145	another	another	another	1	preview	13	151	150	150	150	150
124	146	added	added	added:	1	preview	13	152	153	153	153	153
125	147	:	:	-That	1	preview	13	153	0	0	0	0
	148	-	-		1	preview	13	154				
	149	That	That		1	preview	13	155				
126	150	is	is	is	1	preview	13	156	194	194	194	194
127	151	the	the	the	1	preview	13	157	0	0	0	0
128	152	cutest	cutest	cutest	1	preview	13	158	164	164	164	164
129	153	thing	thing	thing	1	preview	13	159	0	0	0	0
130	154	I	I	I-ve	1	preview	13	160	0	0	0	0
	155	-ve	-ve		1	preview	13	161				
131	156	ever	ever	ever	1	preview	13	162	166	0	0	0
132	157	seen	seen	seen!-	1	preview	13	163	0	0	0	0
	158	!	!		1	preview	13	164				
	159	-	-		1	preview	13	165				
133	160	When	When	When	1	preview	13	166	269	114	435	114
134	161	she	she	she-s	1	preview	13	167	0	0	0	0
	162	-s	-s		1	preview	13	168				
135	163	not	not	not	1	preview	13	169	139	139	139	139
136	164	snoozing	snoozing	snoozing,	1	preview	13	170	179	179	179	179
	165	,	,		1	preview	13	171				
137	166	@entity5	Leia	Leia	1	preview	13	172	0	0	0	0
138	167	is	is	is	1	preview	13	173	0	0	0	0
139	168	usually	usually	usually	1	preview	13	174	240	240	240	240
140	169	getting	getting	getting	1	preview	13	175	185	185	185	185
141	170	up	up	up	1	preview	13	176	0	0	0	0
142	171	to	to	to	1	preview	13	177	0	0	0	0
143	172	mischief	mischief	mischief	1	preview	13	178	234	234	234	234
144	173	with	with	with	1	preview	13	179	98	98	98	98
145	174	her	her	her	1	preview	13	180	0	0	0	0
146	175	older	older	older	1	preview	13	181	251	0	0	0
147	176	brother	brother	brother	1	preview	13	182	0	0	0	0
148	177	@entity31	Luke	Luke.	1	preview	13	183	106	106	357	106
	178	.	.		1	preview	13	184				
149	179	Together	Together	Together,	1	preview	13	185	234	0	0	0
	180	,	,		1	preview	13	186				
150	181	the	the	the	1	preview	13	187	0	0	0	0
151	182	canines	canines	canines	1	preview	13	188	517	0	0	0
152	183	have	have	have	1	preview	13	189	0	0	0	0
153	184	starred	starred	starred	1	preview	13	190	262	0	0	0
154	185	in	in	in	1	preview	13	191	0	0	0	0
155	186	numerous	numerous	numerous	1	preview	13	192	143	143	143	143
156	187	videos	videos	videos	1	preview	13	193	185	185	1198	185
157	188	via	via	via	1	preview	13	194	0	0	0	0
158	189	@entity23	Facebook	Facebook	1	preview	13	195	106	106	106	106
159	190	and	and	and	1	preview	13	196	0	0	0	0
160	191	@entity34	YouTube	YouTube.	1	preview	13	197	195	195	195	195
	192	.	.		1	preview	13	198				
161	193	They	They	They	1	preview	13	199	0	0	0	0
162	194	also	also	also	1	preview	13	200	153	153	153	153
163	195	have	have	have	1	preview	13	201	0	0	0	0
164	196	their	their	their	1	preview	13	202	0	0	0	0
165	197	own	own	own	1	preview	13	203	157	157	157	157
166	198	website	website	website,	1	preview	13	204	123	123	123	123
	199	,	,		1	preview	13	205				
167	200	www.luketheboxer.com	www.luketheboxer.com	www.luketheboxer.com,	1	preview	13	206	400	400	400	268
168	201	where	where	where	1	preview	13	207	165	165	165	165
169	202	fans	fans	fans	1	preview	13	208	0	0	0	0
170	203	can	can	can	1	preview	13	209	0	0	0	0
171	204	buy	buy	buy	1	preview	13	210	137	137	137	137
172	205	calendars	calendars	calendars	1	preview	13	211	0	0	0	0
173	206	with	with	with	1	preview	13	212	0	0	0	0
174	207	their	their	their	1	preview	13	213	0	0	0	0
175	208	photographs	photographs	photographs	1	preview	13	214	189	189	189	189
176	209	on	on	on.	1	preview	13	215	0	0	0	0
	210	.	.		1	preview	13	216				
