HumanPosition	AnonymizedPosition	AnonymizedToken	OriginalToken	ExperimentToken	Participant	Condition	TextNo	JointPosition	tt	fp	rp	ff
1	0	(	(	Good	1	preview	3	1	124	124	124	124
	1	The	The		1	preview	3	2				
	2	@entity0	Hollywood		1	preview	3	3				
			Reporter		1	preview	3	4				
	3	)	)		1	preview	3	5				
	4	Good	Good		1	preview	3	6				
2	5	news	news	news	1	preview	3	7	0	0	0	0
3	6	arrived	arrived	arrived	1	preview	3	8	0	0	0	0
4	7	Thursday	Thursday	Thursday	1	preview	3	9	149	149	149	149
5	8	for	for	for	1	preview	3	10	0	0	0	0
6	9	-	-	-Fifty	1	preview	3	11	0	0	0	0
	10	@entity3	Fifty		1	preview	3	12				
7			Shades	Shades	1	preview	3	13	125	125	125	125
8			of	of	1	preview	3	14	0	0	0	0
9			Grey	Grey-	1	preview	3	15	149	149	149	149
	11	-	-		1	preview	3	16				
10	12	fans	fans	fans.	1	preview	3	17	0	0	0	0
	13	.	.		1	preview	3	18				
11	14	@entity4	Universal	Universal	1	preview	3	19	209	209	209	209
12	15	announced	announced	announced	1	preview	3	20	119	119	119	119
13	16	Thursday	Thursday	Thursday	1	preview	3	21	0	0	0	0
14	17	that	that	that	1	preview	3	22	0	0	0	0
15	18	the	the	the	1	preview	3	23	0	0	0	0
16	19	sequel	sequel	sequel	1	preview	3	24	0	0	0	0
17	20	to	to	to	1	preview	3	25	0	0	0	0
18	21	the	the	the	1	preview	3	26	212	0	0	0
19	22	box	box	box	1	preview	3	27	0	0	0	0
20	23	office	office	office	1	preview	3	28	138	138	350	138
21	24	blockbuster	blockbuster	blockbuster	1	preview	3	29	0	0	0	0
22	25	will	will	will	1	preview	3	30	0	0	0	0
23	26	hit	hit	hit	1	preview	3	31	0	0	0	0
24	27	theaters	theaters	theaters	1	preview	3	32	0	0	0	0
25	28	on	on	on	1	preview	3	33	0	0	0	0
26	29	Feb.	Feb.	Feb.	1	preview	3	34	0	0	0	0
27	30	10	10	10,	1	preview	3	35	0	0	0	0
	31	,	,		1	preview	3	36				
28	32	2017	2017	2017.	1	preview	3	37	0	0	0	0
	33	.	.		1	preview	3	38				
29	34	The	The	The	1	preview	3	39	0	0	0	0
30	35	third	third	third	1	preview	3	40	208	0	0	0
31	36	film	film	film	1	preview	3	41	121	0	0	0
32	37	in	in	in	1	preview	3	42	149	149	478	149
33	38	the	the	the	1	preview	3	43	0	0	0	0
34	39	series	series	series	1	preview	3	44	0	0	0	0
35	40	will	will	will	1	preview	3	45	0	0	0	0
36	41	debut	debut	debut	1	preview	3	46	0	0	0	0
37	42	Feb.	Feb.	Feb.	1	preview	3	47	0	0	0	0
38	43	9	9	9,	1	preview	3	48	0	0	0	0
	44	,	,		1	preview	3	49				
39	45	2018	2018	2018.	1	preview	3	50	0	0	0	0
	46	.	.		1	preview	3	51				
40	47	The	The	The	1	preview	3	52	0	0	0	0
41	48	news	news	news	1	preview	3	53	0	0	0	0
42	49	came	came	came	1	preview	3	54	0	0	0	0
43	50	one	one	one	1	preview	3	55	0	0	0	0
44	51	day	day	day	1	preview	3	56	0	0	0	0
45	52	after	after	after	1	preview	3	57	0	0	0	0
46	53	@entity0	The	The	1	preview	3	58	0	0	0	0
47			Hollywood	Hollywood	1	preview	3	59	179	179	179	179
48			Reporter	Reporter	1	preview	3	60	0	0	0	0
49	54	reported	reported	reported	1	preview	3	61	263	263	263	263
50	55	exclusively	exclusively	exclusively	1	preview	3	62	151	151	151	151
51	56	that	that	that	1	preview	3	63	0	0	0	0
52	57	the	the	the	1	preview	3	64	0	0	0	0
53	58	husband	husband	husband	1	preview	3	65	0	0	0	0
54	59	of	of	of	1	preview	3	66	188	188	188	188
55	60	@entity12	EL	EL	1	preview	3	67	0	0	0	0
56			James	James,	1	preview	3	68	161	161	161	161
	61	,	,		1	preview	3	69				
57	62	author	author	author	1	preview	3	70	0	0	0	0
58	63	of	of	of	1	preview	3	71	0	0	0	0
59	64	the	the	the	1	preview	3	72	0	0	0	0
60	65	-	-	-Fifty	1	preview	3	73	274	0	0	0
	66	@entity3	Fifty		1	preview	3	74				
61			Shades	Shades-	1	preview	3	75	122	122	396	122
	67	-	-		1	preview	3	76				
62	68	trilogy	trilogy	trilogy,	1	preview	3	77	0	0	0	0
	69	,	,		1	preview	3	78				
63	70	will	will	will	1	preview	3	79	162	162	162	162
64	71	write	write	write	1	preview	3	80	0	0	0	0
65	72	the	the	the	1	preview	3	81	162	162	162	162
66	73	script	script	script	1	preview	3	82	0	0	0	0
67	74	for	for	for	1	preview	3	83	159	159	159	159
68	75	the	the	the	1	preview	3	84	0	0	0	0
69	76	second	second	second	1	preview	3	85	134	134	134	134
70	77	film	film	film.	1	preview	3	86	0	0	0	0
	78	.	.		1	preview	3	87				
71	79	@entity16	Niall	Niall	1	preview	3	88	0	0	0	0
72			Leonard	Leonard,	1	preview	3	89	326	0	0	0
	80	,	,		1	preview	3	90				
73	81	who	who	who	1	preview	3	91	0	0	0	0
74	82	is	is	is	1	preview	3	92	0	0	0	0
75	83	married	married	married	1	preview	3	93	403	134	729	134
76	84	and	and	and	1	preview	3	94	0	0	0	0
77	85	has	has	has	1	preview	3	95	0	0	0	0
78	86	two	two	two	1	preview	3	96	0	0	0	0
79	87	sons	sons	sons	1	preview	3	97	0	0	0	0
80	88	with	with	with	1	preview	3	98	262	262	262	262
81	89	the	the	the	1	preview	3	99	0	0	0	0
82	90	@entity19	British	British	1	preview	3	100	198	198	198	198
83	91	author	author	author,	1	preview	3	101	146	146	146	146
	92	,	,		1	preview	3	102				
84	93	is	is	is	1	preview	3	103	0	0	0	0
85	94	an	an	an	1	preview	3	104	145	145	145	145
86	95	author	author	author	1	preview	3	105	0	0	0	0
87	96	himself	himself	himself,	1	preview	3	106	124	0	0	0
	97	,	,		1	preview	3	107				
88	98	in	in	in	1	preview	3	108	182	0	0	0
89	99	addition	addition	addition	1	preview	3	109	0	0	0	0
90	100	to	to	to	1	preview	3	110	288	132	594	132
91	101	being	being	being	1	preview	3	111	0	0	0	0
92	102	a	a	a	1	preview	3	112	0	0	0	0
93	103	screenwriter	screenwriter	screenwriter.	1	preview	3	113	312	312	312	312
	104	.	.		1	preview	3	114				
94	105	@entity12	James	James,	1	preview	3	115	0	0	0	0
	106	,	,		1	preview	3	116				
95	107	whose	whose	whose	1	preview	3	117	190	190	190	190
96	108	real	real	real	1	preview	3	118	0	0	0	0
97	109	name	name	name	1	preview	3	119	0	0	0	0
98	110	is	is	is	1	preview	3	120	441	441	441	441
99	111	@entity12	Erika	Erika	1	preview	3	121	0	0	0	0
100			Leonard	Leonard,	1	preview	3	122	0	0	0	0
	112	,	,		1	preview	3	123				
101	113	has	has	has	1	preview	3	124	0	0	0	0
102	114	been	been	been	1	preview	3	125	0	0	0	0
103	115	credited	credited	credited	1	preview	3	126	0	0	0	0
104	116	with	with	with	1	preview	3	127	176	0	0	0
105	117	keeping	keeping	keeping	1	preview	3	128	0	0	0	0
106	118	a	a	a	1	preview	3	129	0	0	0	0
107	119	strong	strong	strong	1	preview	3	130	121	0	0	0
108	120	amount	amount	amount	1	preview	3	131	0	0	0	0
109	121	of	of	of	1	preview	3	132	0	0	0	0
110	122	creative	creative	creative	1	preview	3	133	189	189	486	189
111	123	control	control	control	1	preview	3	134	0	0	0	0
112	124	when	when	when	1	preview	3	135	0	0	0	0
113	125	it	it	it	1	preview	3	136	0	0	0	0
114	126	comes	comes	comes	1	preview	3	137	0	0	0	0
115	127	to	to	to	1	preview	3	138	0	0	0	0
116	128	@entity4	Universal	Universal-s	1	preview	3	139	0	0	0	0
	129	-s	-s		1	preview	3	140				
117	130	adaptations	adaptations	adaptations	1	preview	3	141	205	205	205	205
118	131	of	of	of	1	preview	3	142	0	0	0	0
119	132	her	her	her	1	preview	3	143	0	0	0	0
120	133	books	books	books,	1	preview	3	144	0	0	0	0
	134	,	,		1	preview	3	145				
121	135	the	the	the	1	preview	3	146	0	0	0	0
122	136	second	second	second	1	preview	3	147	0	0	0	0
123	137	of	of	of	1	preview	3	148	0	0	0	0
124	138	which	which	which	1	preview	3	149	0	0	0	0
125	139	is	is	is	1	preview	3	150	0	0	0	0
126	140	titled	titled	titled	1	preview	3	151	0	0	0	0
127	141	-	-	-Fifty	1	preview	3	152	0	0	0	0
	142	@entity32	Fifty		1	preview	3	153				
128			Shades	Shades	1	preview	3	154	0	0	0	0
129			Darker	Darker.-	1	preview	3	155	0	0	0	0
	143	.	.		1	preview	3	156				
130	144	-	-	After	1	preview	3	157	400	0	0	0
	145	After	After		1	preview	3	158				
131	146	clashing	clashing	clashing	1	preview	3	159	353	185	185	185
132	147	with	with	with	1	preview	3	160	0	0	0	0
133	148	@entity12	James	James,	1	preview	3	161	152	152	152	152
	149	,	,		1	preview	3	162				
134	150	@entity33	Sam	Sam	1	preview	3	163	326	0	0	0
135			Taylor	Taylor-Johnson	1	preview	3	164	598	217	217	217
			-		1	preview	3	165				
			Johnson		1	preview	3	166				
136	151	is	is	isn-t	1	preview	3	167	130	0	0	0
	152	n-t	n-t		1	preview	3	168				
137	153	returning	returning	returning	1	preview	3	169	679	451	1646	183
138	154	to	to	to	1	preview	3	170	0	0	0	0
139	155	direct	direct	direct	1	preview	3	171	224	224	224	224
140	156	the	the	the	1	preview	3	172	0	0	0	0
141	157	sequel	sequel	sequel.	1	preview	3	173	0	0	0	0
	158	.	.		1	preview	3	174				
142	159	Stars	Stars	Stars	1	preview	3	175	321	321	321	321
143	160	@entity35	Dakota	Dakota	1	preview	3	176	149	0	0	0
144			Johnson	Johnson	1	preview	3	177	168	168	755	168
145	161	and	and	and	1	preview	3	178	0	0	0	0
146	162	@entity36	Jamie	Jamie	1	preview	3	179	401	153	153	153
147			Dornan	Dornan	1	preview	3	180	0	0	0	0
148	163	are	are	are	1	preview	3	181	0	0	0	0
149	164	negotiating	negotiating	negotiating	1	preview	3	182	0	0	0	0
150	165	for	for	for	1	preview	3	183	200	200	200	200
151	166	more	more	more	1	preview	3	184	142	142	390	142
152	167	money	money	money	1	preview	3	185	121	0	0	0
153	168	for	for	for	1	preview	3	186	0	0	0	0
154	169	the	the	the	1	preview	3	187	0	0	0	0
155	170	sequel	sequel	sequel	1	preview	3	188	0	0	0	0
156	171	after	after	after	1	preview	3	189	0	0	0	0
157	172	the	the	the	1	preview	3	190	0	0	0	0
158	173	first	first	first	1	preview	3	191	114	0	0	0
159	174	film	film	film,	1	preview	3	192	146	0	0	0
	175	,	,		1	preview	3	193				
160	176	release	release	release	1	preview	3	194	0	0	0	0
161	177	over	over	over	1	preview	3	195	152	0	0	0
162	178	@entity40	Valentine	Valentine-s	1	preview	3	196	193	0	0	0
			-s		1	preview	3	197				
163			Day	Day	1	preview	3	198	0	0	0	0
164	179	weekend	weekend	weekend	1	preview	3	199	0	0	0	0
165	180	of	of	of	1	preview	3	200	0	0	0	0
166	181	this	this	this	1	preview	3	201	0	0	0	0
167	182	year	year	year,	1	preview	3	202	261	89	815	89
	183	,	,		1	preview	3	203				
168	184	earned	earned	earned	1	preview	3	204	0	0	0	0
169	185	a	a	a	1	preview	3	205	0	0	0	0
170	186	massive	massive	massive	1	preview	3	206	95	95	267	95
171	187	$	$	$568.8	1	preview	3	207	167	167	167	167
	188	568.8	568.8		1	preview	3	208				
172	189	million	million	million	1	preview	3	209	137	0	0	0
173	190	worldwide	worldwide	worldwide.	1	preview	3	210	179	179	316	179
	191	.	.		1	preview	3	211				
