HumanPosition	AnonymizedPosition	AnonymizedToken	OriginalToken	ExperimentToken	Participant	Condition	TextNo	JointPosition	tt	fp	rp	ff	rb	sp
1	0	One	One	One	3	preview	14	1	0	0	0	0	0	0
2	1	@entity1	Wall	Wall	3	preview	14	2	207	0	0	0	0	207
3			Street	Street	3	preview	14	3	104	104	311	104	104	0
4	2	trader	trader	trader	3	preview	14	4	289	289	289	289	289	0
5	3	closed	closed	closed	3	preview	14	5	0	0	0	0	0	0
6	4	out	out	out	3	preview	14	6	0	0	0	0	0	0
7	5	his	his	his	3	preview	14	7	157	157	157	157	157	0
8	6	week	week	week	3	preview	14	8	0	0	0	0	0	0
9	7	a	a	a	3	preview	14	9	191	191	191	191	191	0
10	8	few	few	few	3	preview	14	10	0	0	0	0	0	0
11	9	million	million	million	3	preview	14	11	194	194	194	194	194	0
12	10	dollars	dollars	dollars	3	preview	14	12	0	0	0	0	0	0
13	11	richer	richer	richer	3	preview	14	13	155	155	155	155	155	0
14	12	last	last	last	3	preview	14	14	0	0	0	0	0	0
15	13	Friday	Friday	Friday	3	preview	14	15	218	218	218	218	218	0
16	14	-	-	-	3	preview	14	16	0	0	0	0	0	0
17	15	and	and	and	3	preview	14	17	0	0	0	0	0	0
18	16	it	it	it	3	preview	14	18	0	0	0	0	0	0
19	17	was	was	was	3	preview	14	19	214	214	214	214	214	0
20	18	all	all	all	3	preview	14	20	0	0	0	0	0	0
21	19	thanks	thanks	thanks	3	preview	14	21	0	0	0	0	0	0
22	20	to	to	to	3	preview	14	22	148	148	148	148	148	0
23	21	social	social	social	3	preview	14	23	218	218	218	218	218	0
24	22	media	media	media.	3	preview	14	24	0	0	0	0	0	0
	23	.	.		3	preview	14	25						
25	24	The	The	The	3	preview	14	26	0	0	0	0	0	0
26	25	unnamed	unnamed	unnamed	3	preview	14	27	194	194	194	194	194	0
27	26	trader	trader	trader	3	preview	14	28	0	0	0	0	0	0
28	27	used	used	used	3	preview	14	29	148	148	148	148	148	0
29	28	perfect	perfect	perfect	3	preview	14	30	263	263	263	263	263	0
30	29	timing	timing	timing	3	preview	14	31	0	0	0	0	0	0
31	30	to	to	to	3	preview	14	32	0	0	0	0	0	0
32	31	capitalize	capitalize	capitalize	3	preview	14	33	232	232	232	232	232	0
33	32	on	on	on	3	preview	14	34	0	0	0	0	0	0
34	33	one	one	one	3	preview	14	35	0	0	0	0	0	0
35	34	of	of	of	3	preview	14	36	0	0	0	0	0	0
36	35	the	the	the	3	preview	14	37	153	153	153	153	153	0
37	36	biggest	biggest	biggest	3	preview	14	38	239	239	239	239	239	0
38	37	deals	deals	deals	3	preview	14	39	83	0	0	0	0	83
39	38	of	of	of	3	preview	14	40	0	0	0	0	0	0
40	39	the	the	the	3	preview	14	41	185	185	268	185	185	0
41	40	year	year	year	3	preview	14	42	0	0	0	0	0	0
42	41	when	when	when	3	preview	14	43	0	0	0	0	0	0
43	42	@entity10	Wall	Wall	3	preview	14	44	144	144	144	144	144	0
44			Street	Street	3	preview	14	45	149	149	149	149	149	0
45			Journal	Journal	3	preview	14	46	199	199	199	199	199	0
46	43	mergers	mergers	mergers	3	preview	14	47	0	0	0	0	0	0
47	44	and	and	and	3	preview	14	48	0	0	0	0	0	0
48	45	acquisitions	acquisitions	acquisitions	3	preview	14	49	309	309	309	112	309	0
49	46	reporter	reporter	reporter	3	preview	14	50	293	293	293	293	293	0
50	47	@entity9	Dana	Dana	3	preview	14	51	0	0	0	0	0	0
51			Mattioli	Mattioli	3	preview	14	52	439	300	300	300	300	139
52	48	took	took	took	3	preview	14	53	0	0	0	0	0	0
53	49	to	to	to	3	preview	14	54	256	256	256	256	256	0
54	50	@entity11	Twitter	Twitter	3	preview	14	55	154	154	154	154	154	0
55	51	to	to	to	3	preview	14	56	0	0	0	0	0	0
56	52	announce	announce	announce	3	preview	14	57	236	236	236	236	236	0
57	53	that	that	that	3	preview	14	58	0	0	0	0	0	0
58	54	@entity12	Intel	Intel	3	preview	14	59	194	194	194	194	194	0
59	55	was	was	was	3	preview	14	60	88	88	88	88	88	0
60	56	in	in	in	3	preview	14	61	0	0	0	0	0	0
61	57	talks	talks	talks	3	preview	14	62	0	0	0	0	0	0
62	58	to	to	to	3	preview	14	63	194	0	0	0	0	194
63	59	buy	buy	buy	3	preview	14	64	95	95	289	95	95	0
64	60	one	one	one	3	preview	14	65	0	0	0	0	0	0
65	61	of	of	of	3	preview	14	66	0	0	0	0	0	0
66	62	its	its	its	3	preview	14	67	173	173	173	173	173	0
67	63	competitors	competitors	competitors,	3	preview	14	68	126	126	126	126	126	0
	64	,	,		3	preview	14	69						
68	65	chipmaker	chipmaker	chipmaker	3	preview	14	70	179	179	179	179	179	0
69	66	@entity16	Altera	Altera.	3	preview	14	71	267	0	0	0	0	267
	67	.	.		3	preview	14	72						
70	68	Seconds	Seconds	Seconds	3	preview	14	73	0	0	0	0	0	0
71	69	later	later	later,	3	preview	14	74	223	223	223	223	223	0
	70	,	,		3	preview	14	75						
72	71	the	the	the	3	preview	14	76	0	0	0	0	0	0
73	72	trader	trader	trader	3	preview	14	77	202	202	202	202	202	0
74	73	had	had	had	3	preview	14	78	0	0	0	0	0	0
75	74	snapped	snapped	snapped	3	preview	14	79	0	0	0	0	0	0
76	75	up	up	up	3	preview	14	80	0	0	0	0	0	0
77	76	3,158	3,158	3,158	3	preview	14	81	259	259	259	259	259	0
78	77	contracts	contracts	contracts	3	preview	14	82	210	210	210	210	210	0
79	78	of	of	of	3	preview	14	83	0	0	0	0	0	0
80	79	@entity16	Altera	Altera,	3	preview	14	84	168	168	168	168	168	0
	80	,	,		3	preview	14	85						
81	81	with	with	with	3	preview	14	86	0	0	0	0	0	0
82	82	each	each	each	3	preview	14	87	0	0	0	0	0	0
83	83	option	option	option	3	preview	14	88	202	202	202	202	202	0
84	84	contract	contract	contract	3	preview	14	89	0	0	0	0	0	0
85	85	giving	giving	giving	3	preview	14	90	174	174	174	174	174	0
86	86	them	them	them	3	preview	14	91	0	0	0	0	0	0
87	87	the	the	the	3	preview	14	92	0	0	0	0	0	0
88	88	right	right	right	3	preview	14	93	0	0	0	0	0	0
89	89	to	to	to	3	preview	14	94	0	0	0	0	0	0
90	90	purchase	purchase	purchase	3	preview	14	95	0	0	0	0	0	0
91	91	100	100	100	3	preview	14	96	0	0	0	0	0	0
92	92	shares	shares	shares.	3	preview	14	97	0	0	0	0	0	0
	93	.	.		3	preview	14	98						
93	94	Scroll	Scroll	CNBC	3	preview	14	99	230	230	230	230	230	0
	95	down	down		3	preview	14	100						
	96	for	for		3	preview	14	101						
	97	video	video		3	preview	14	102						
	98	An	An		3	preview	14	103						
	99	unnamed	unnamed		3	preview	14	104						
	100	@entity1	Wall		3	preview	14	105						
			Street		3	preview	14	106						
	101	trader	trader		3	preview	14	107						
	102	made	made		3	preview	14	108						
	103	a	a		3	preview	14	109						
	104	profit	profit		3	preview	14	110						
	105	of	of		3	preview	14	111						
	106	approximately	approximately		3	preview	14	112						
	107	$	$		3	preview	14	113						
	108	2.5million	2.5million		3	preview	14	114						
	109	on	on		3	preview	14	115						
	110	Friday	Friday		3	preview	14	116						
	111	thanks	thanks		3	preview	14	117						
	112	to	to		3	preview	14	118						
	113	a	a		3	preview	14	119						
	114	tweet	tweet		3	preview	14	120						
	115	from	from		3	preview	14	121						
	116	the	the		3	preview	14	122						
	117	@entity10	Wall		3	preview	14	123						
			Street		3	preview	14	124						
			Journal		3	preview	14	125						
	118	The	The		3	preview	14	126						
	119	trader	trader		3	preview	14	127						
	120	purchased	purchased		3	preview	14	128						
	121	315,800	315,800		3	preview	14	129						
	122	shares	shares		3	preview	14	130						
	123	of	of		3	preview	14	131						
	124	chipmaker	chipmaker		3	preview	14	132						
	125	@entity16	Altera		3	preview	14	133						
	126	one	one		3	preview	14	134						
	127	minute	minute		3	preview	14	135						
	128	after	after		3	preview	14	136						
	129	the	the		3	preview	14	137						
	130	@entity10	Journal		3	preview	14	138						
	131	reported	reported		3	preview	14	139						
	132	@entity12	Intel		3	preview	14	140						
	133	was	was		3	preview	14	141						
	134	in	in		3	preview	14	142						
	135	talks	talks		3	preview	14	143						
	136	to	to		3	preview	14	144						
	137	purchase	purchase		3	preview	14	145						
	138	them	them		3	preview	14	146						
	139	@entity32	CNBC		3	preview	14	147						
94	140	reports	reports	reports	3	preview	14	148	294	294	294	294	294	0
95	141	that	that	that	3	preview	14	149	0	0	0	0	0	0
96	142	the	the	the	3	preview	14	150	0	0	0	0	0	0
97	143	trader	trader	trader	3	preview	14	151	437	437	437	252	437	0
98	144	paid	paid	paid	3	preview	14	152	0	0	0	0	0	0
99	145	$	$	$36	3	preview	14	153	444	444	444	265	444	0
	146	36	36		3	preview	14	154						
100	147	a	a	a	3	preview	14	155	100	0	0	0	0	100
101	148	share	share	share,	3	preview	14	156	87	87	187	87	87	0
	149	,	,		3	preview	14	157						
102	150	and	and	and	3	preview	14	158	0	0	0	0	0	0
103	151	the	the	the	3	preview	14	159	196	196	196	196	196	0
104	152	call	call	call	3	preview	14	160	0	0	0	0	0	0
105	153	option	option	option	3	preview	14	161	417	417	417	417	417	0
106	154	was	was	was	3	preview	14	162	240	0	0	0	0	240
107	155	a	a	a	3	preview	14	163	0	0	0	0	0	0
108	156	mere	mere	mere	3	preview	14	164	281	281	281	281	281	0
109	157	35	35	35	3	preview	14	165	201	0	0	0	0	201
110	158	cents	cents	cents	3	preview	14	166	444	265	265	265	265	179
111	159	as	as	as	3	preview	14	167	0	0	0	0	0	0
112	160	options	options	options	3	preview	14	168	209	209	209	209	209	0
113	161	on	on	on	3	preview	14	169	276	0	0	0	0	276
114	162	the	the	the	3	preview	14	170	0	0	0	0	0	0
115	163	stock	stock	stock,	3	preview	14	171	153	153	153	153	153	0
	164	,	,		3	preview	14	172						
116	165	at	at	at	3	preview	14	173	0	0	0	0	0	0
117	166	that	that	that	3	preview	14	174	0	0	0	0	0	0
118	167	point	point	point	3	preview	14	175	517	198	198	198	198	319
119	168	valued	valued	valued	3	preview	14	176	290	0	0	0	0	290
120	169	at	at	at	3	preview	14	177	148	148	1653	148	148	0
121	170	$	$	$34.76	3	preview	14	178	0	0	1505	0	0	0
	171	34.76	34.76		3	preview	14	179						
122	172	a	a	a	3	preview	14	180	0	0	0	0	0	0
123	173	share	share	share,	3	preview	14	181	212	0	0	0	0	212
	174	,	,		3	preview	14	182						
124	175	were	were	were	3	preview	14	183	93	93	305	93	93	0
125	176	set	set	set	3	preview	14	184	0	0	0	0	0	0
126	177	to	to	to	3	preview	14	185	211	211	211	211	211	0
127	178	expire	expire	expire	3	preview	14	186	0	0	0	0	0	0
128	179	in	in	in	3	preview	14	187	258	258	258	258	258	0
129	180	just	just	just	3	preview	14	188	0	0	0	0	0	0
130	181	a	a	a	3	preview	14	189	0	0	0	0	0	0
131	182	few	few	few	3	preview	14	190	354	354	354	354	354	0
132	183	weeks	weeks	weeks.	3	preview	14	191	0	0	0	0	0	0
	184	.	.		3	preview	14	192						
133	185	3:32pm	3:32pm	When	3	preview	14	193	0	0	0	0	0	0
	186	:	:		3	preview	14	194						
	187	The	The		3	preview	14	195						
134	188	@entity10	Wall	the	3	preview	14	196	0	0	0	0	0	0
			Street		3	preview	14	197						
			Journal		3	preview	14	198						
	189	reports	reports		3	preview	14	199						
	190	that	that		3	preview	14	200						
135	191	@entity12	Intel	market	3	preview	14	201	86	86	86	86	86	0
	192	is	is		3	preview	14	202						
	193	in	in		3	preview	14	203						
	194	talks	talks		3	preview	14	204						
	195	to	to		3	preview	14	205						
	196	buy	buy		3	preview	14	206						
	197	@entity16	Altera		3	preview	14	207						
	198	.	.		3	preview	14	208						
	199	3:33pm	3:33pm		3	preview	14	209						
	200	:	:		3	preview	14	210						
	201	Trader	Trader		3	preview	14	211						
	202	purchases	purchases		3	preview	14	212						
	203	315,800	315,800		3	preview	14	213						
	204	shares	shares		3	preview	14	214						
	205	of	of		3	preview	14	215						
	206	@entity16	Altera		3	preview	14	216						
	207	at	at		3	preview	14	217						
	208	$	$		3	preview	14	218						
	209	36	36		3	preview	14	219						
	210	a	a		3	preview	14	220						
	211	share	share		3	preview	14	221						
	212	for	for		3	preview	14	222						
	213	a	a		3	preview	14	223						
	214	total	total		3	preview	14	224						
	215	cost	cost		3	preview	14	225						
	216	of	of		3	preview	14	226						
	217	$	$		3	preview	14	227						
	218	11,368,000	11,368,000		3	preview	14	228						
	219	plus	plus		3	preview	14	229						
	220	$	$		3	preview	14	230						
	221	110,530	110,530		3	preview	14	231						
	222	for	for		3	preview	14	232						
	223	a	a		3	preview	14	233						
	224	$	$		3	preview	14	234						
	225	0.35	0.35		3	preview	14	235						
	226	call	call		3	preview	14	236						
	227	option	option		3	preview	14	237						
	228	.	.		3	preview	14	238						
	229	3:35pm	3:35pm		3	preview	14	239						
	230	:	:		3	preview	14	240						
	231	@entity46	Nasdaq		3	preview	14	241						
	232	suspends	suspends		3	preview	14	242						
	233	trading	trading		3	preview	14	243						
	234	of	of		3	preview	14	244						
	235	@entity16	Altera		3	preview	14	245						
	236	in	in		3	preview	14	246						
	237	the	the		3	preview	14	247						
	238	wake	wake		3	preview	14	248						
136	239	of	of	closed	3	preview	14	249	0	0	0	0	0	0
	240	the	the		3	preview	14	250						
	241	@entity10	Journal		3	preview	14	251						
	242	-s	-s		3	preview	14	252						
	243	tweet	tweet		3	preview	14	253						
	244	.	.		3	preview	14	254						
	245	4:00pm	4:00pm		3	preview	14	255						
	246	:	:		3	preview	14	256						
	247	Trader	Trader		3	preview	14	257						
	248	sells	sells		3	preview	14	258						
	249	@entity16	Altera		3	preview	14	259						
	250	at	at		3	preview	14	260						
	251	the	the		3	preview	14	261						
	252	new	new		3	preview	14	262						
	253	share	share		3	preview	14	263						
	254	price	price		3	preview	14	264						
	255	of	of		3	preview	14	265						
	256	$	$		3	preview	14	266						
	257	44.39	44.39		3	preview	14	267						
	258	for	for		3	preview	14	268						
	259	a	a		3	preview	14	269						
	260	total	total		3	preview	14	270						
	261	of	of		3	preview	14	271						
	262	$	$		3	preview	14	272						
	263	14,018,362	14,018,362		3	preview	14	273						
	264	.	.		3	preview	14	274						
	265	This	This		3	preview	14	275						
	266	,	,		3	preview	14	276						
	267	after	after		3	preview	14	277						
	268	factoring	factoring		3	preview	14	278						
	269	in	in		3	preview	14	279						
	270	the	the		3	preview	14	280						
	271	intital	intital		3	preview	14	281						
	272	share	share		3	preview	14	282						
	273	price	price		3	preview	14	283						
	274	and	and		3	preview	14	284						
	275	call	call		3	preview	14	285						
	276	option	option		3	preview	14	286						
	277	,	,		3	preview	14	287						
	278	leaves	leaves		3	preview	14	288						
	279	them	them		3	preview	14	289						
	280	with	with		3	preview	14	290						
	281	a	a		3	preview	14	291						
	282	profit	profit		3	preview	14	292						
	283	of	of		3	preview	14	293						
	284	approximately	approximately		3	preview	14	294						
	285	$	$		3	preview	14	295						
	286	2,539.832	2,539.832		3	preview	14	296						
	287	.	.		3	preview	14	297						
	288	This	This		3	preview	14	298						
	289	call	call		3	preview	14	299						
	290	option	option		3	preview	14	300						
	291	allowed	allowed		3	preview	14	301						
137	292	the	the	for	3	preview	14	302	0	0	0	0	0	0
138	293	trader	trader	the	3	preview	14	303	0	0	0	0	0	0
	294	the	the		3	preview	14	304						
139	295	right	right	day,	3	preview	14	305	0	0	0	0	0	0
	296	to	to		3	preview	14	306						
	297	purchase	purchase		3	preview	14	307						
	298	more	more		3	preview	14	308						
	299	shares	shares		3	preview	14	309						
	300	in	in		3	preview	14	310						
140	301	the	the	Altera	3	preview	14	311	0	0	0	0	0	0
	302	company	company		3	preview	14	312						
	303	,	,		3	preview	14	313						
	304	in	in		3	preview	14	314						
	305	this	this		3	preview	14	315						
	306	case	case		3	preview	14	316						
	307	315,800	315,800		3	preview	14	317						
	308	shares	shares		3	preview	14	318						
	309	,	,		3	preview	14	319						
	310	at	at		3	preview	14	320						
	311	the	the		3	preview	14	321						
	312	cost	cost		3	preview	14	322						
	313	of	of		3	preview	14	323						
	314	$	$		3	preview	14	324						
	315	36	36		3	preview	14	325						
	316	,	,		3	preview	14	326						
	317	even	even		3	preview	14	327						
	318	though	though		3	preview	14	328						
	319	the	the		3	preview	14	329						
	320	value	value		3	preview	14	330						
	321	of	of		3	preview	14	331						
	322	shares	shares		3	preview	14	332						
	323	quickly	quickly		3	preview	14	333						
	324	began	began		3	preview	14	334						
	325	to	to		3	preview	14	335						
	326	rise	rise		3	preview	14	336						
	327	.	.		3	preview	14	337						
	328	Just	Just		3	preview	14	338						
	329	28	28		3	preview	14	339						
	330	minutes	minutes		3	preview	14	340						
	331	later	later		3	preview	14	341						
141	332	,	,	was	3	preview	14	342	0	0	0	0	0	0
142	333	when	when	valued	3	preview	14	343	197	197	603	197	197	0
	334	the	the		3	preview	14	344						
	335	market	market		3	preview	14	345						
	336	closed	closed		3	preview	14	346						
	337	for	for		3	preview	14	347						
	338	the	the		3	preview	14	348						
	339	day	day		3	preview	14	349						
	340	,	,		3	preview	14	350						
	341	@entity16	Altera		3	preview	14	351						
	342	was	was		3	preview	14	352						
	343	valued	valued		3	preview	14	353						
143	344	at	at	at	3	preview	14	354	0	0	0	0	0	0
144	345	$	$	$44.39	3	preview	14	355	0	0	0	0	0	0
	346	44.39	44.39		3	preview	14	356						
145	347	per	per	per	3	preview	14	357	0	0	0	0	0	0
146	348	share	share	share.	3	preview	14	358	0	0	0	0	0	0
	349	.	.		3	preview	14	359						
147	350	That	That	That	3	preview	14	360	0	0	0	0	0	0
148	351	was	was	was	3	preview	14	361	0	0	0	0	0	0
149	352	an	an	an	3	preview	14	362	0	0	0	0	0	0
150	353	increase	increase	increase	3	preview	14	363	0	0	0	0	0	0
151	354	of	of	of	3	preview	14	364	0	0	0	0	0	0
152	355	28	28	28%,	3	preview	14	365	0	0	0	0	0	0
	356	%	%		3	preview	14	366						
	357	,	,		3	preview	14	367						
153	358	but	but	but	3	preview	14	368	0	0	0	0	0	0
154	359	because	because	because	3	preview	14	369	0	0	0	0	0	0
155	360	of	of	of	3	preview	14	370	0	0	0	0	0	0
156	361	the	the	the	3	preview	14	371	0	0	0	0	0	0
157	362	call	call	call	3	preview	14	372	0	0	0	0	0	0
158	363	option	option	option,	3	preview	14	373	0	0	0	0	0	0
	364	,	,		3	preview	14	374						
159	365	the	the	the	3	preview	14	375	0	0	0	0	0	0
160	366	trader	trader	trader	3	preview	14	376	163	163	163	163	163	0
161	367	was	was	was	3	preview	14	377	0	0	0	0	0	0
162	368	able	able	able	3	preview	14	378	0	0	0	0	0	0
163	369	to	to	to	3	preview	14	379	170	170	170	170	170	0
164	370	sell	sell	sell	3	preview	14	380	0	0	0	0	0	0
165	371	their	their	their	3	preview	14	381	199	199	199	199	199	0
166	372	stocks	stocks	stocks	3	preview	14	382	0	0	0	0	0	0
167	373	at	at	at	3	preview	14	383	0	0	0	0	0	0
168	374	a	a	a	3	preview	14	384	0	0	0	0	0	0
169	375	far	far	far	3	preview	14	385	0	0	0	0	0	0
170	376	greater	greater	greater	3	preview	14	386	259	259	259	259	259	0
171	377	profit	profit	profit.	3	preview	14	387	0	0	0	0	0	0
	378	.	.		3	preview	14	388						
172	379	So	So	So	3	preview	14	389	0	0	0	0	0	0
173	380	instead	instead	instead	3	preview	14	390	213	213	213	213	213	0
174	381	of	of	of	3	preview	14	391	0	0	0	0	0	0
175	382	making	making	making	3	preview	14	392	0	0	0	0	0	0
176	383	a	a	a	3	preview	14	393	138	138	138	138	138	0
177	384	28	28	28%	3	preview	14	394	0	0	0	0	0	0
	385	%	%		3	preview	14	395						
178	386	profit	profit	profit,	3	preview	14	396	263	263	263	263	263	0
	387	,	,		3	preview	14	397						
179	388	the	the	the	3	preview	14	398	0	0	0	0	0	0
180	389	trader	trader	trader	3	preview	14	399	184	184	184	184	184	0
181	390	made	made	made	3	preview	14	400	0	0	0	0	0	0
182	391	a	a	a	3	preview	14	401	0	0	0	0	0	0
183	392	2,220	2,220	2,220%	3	preview	14	402	152	152	152	152	152	0
	393	%	%		3	preview	14	403						
184	394	profit	profit	profit	3	preview	14	404	178	178	178	178	178	0
185	395	of	of	of	3	preview	14	405	0	0	0	0	0	0
186	396	roughly	roughly	roughly	3	preview	14	406	0	0	0	0	0	0
187	397	$	$	$2.5million	3	preview	14	407	233	233	233	233	233	0
	398	2.5million	2.5million		3	preview	14	408						
188	399	when	when	when	3	preview	14	409	0	0	0	0	0	0
189	400	they	they	they	3	preview	14	410	0	0	0	0	0	0
190	401	sold	sold	sold	3	preview	14	411	189	189	189	189	189	0
191	402	their	their	their	3	preview	14	412	0	0	0	0	0	0
192	403	shares	shares	shares.	3	preview	14	413	241	241	241	241	241	0
	404	.	.		3	preview	14	414						
193	405	Even	Even	Even	3	preview	14	415	0	0	0	0	0	0
194	406	more	more	more	3	preview	14	416	198	198	198	198	198	0
195	407	impressive	impressive	impressive	3	preview	14	417	149	149	149	149	149	0
196	408	is	is	is	3	preview	14	418	0	0	0	0	0	0
197	409	that	that	that	3	preview	14	419	0	0	0	0	0	0
198	410	the	the	the	3	preview	14	420	184	184	184	184	184	0
199	411	trader	trader	trader	3	preview	14	421	344	344	344	344	344	0
200	412	managed	managed	managed	3	preview	14	422	522	231	231	231	231	291
201	413	to	to	to	3	preview	14	423	0	0	0	0	0	0
202	414	make	make	make	3	preview	14	424	0	0	231	0	0	0
203	415	the	the	the	3	preview	14	425	158	0	0	0	0	158
204	416	purchase	purchase	purchase	3	preview	14	426	91	91	429	91	91	0
205	417	just	just	just	3	preview	14	427	156	156	156	156	156	0
206	418	minutes	minutes	minutes	3	preview	14	428	410	229	229	229	229	181
207	419	before	before	before	3	preview	14	429	175	0	0	0	0	175
208	420	@entity46	Nasdaq	Nasdaq	3	preview	14	430	618	340	340	340	340	278
209	421	suspended	suspended	suspended	3	preview	14	431	371	242	242	242	242	129
210	422	trading	trading	trading	3	preview	14	432	893	667	1360	500	893	226
211	423	of	of	of	3	preview	14	433	182	182	589	182	182	0
212	424	@entity16	Altera	Altera	3	preview	14	434	112	112	112	112	112	0
213	425	because	because	because	3	preview	14	435	200	200	200	200	200	0
214	426	of	of	of	3	preview	14	436	0	0	0	0	0	0
215	427	the	the	the	3	preview	14	437	0	0	0	0	0	0
216	428	tweet	tweet	tweet	3	preview	14	438	479	315	315	315	315	164
217	429	from	from	from	3	preview	14	439	0	0	0	0	0	0
218	430	@entity9	Mattioli	Mattioli.	3	preview	14	440	530	530	694	184	530	0
	431	.	.		3	preview	14	441						
219	432	What	What	What-s	3	preview	14	442	0	0	0	0	0	0
	433	-s	-s		3	preview	14	443						
220	434	more	more	more,	3	preview	14	444	0	0	0	0	0	0
	435	,	,		3	preview	14	445						
221	436	call	call	call	3	preview	14	446	0	0	0	0	0	0
222	437	options	options	options	3	preview	14	447	0	0	0	0	0	0
223	438	for	for	for	3	preview	14	448	0	0	0	0	0	0
224	439	@entity16	Altera	Altera	3	preview	14	449	0	0	0	0	0	0
225	440	had	had	had	3	preview	14	450	0	0	0	0	0	0
226	441	at	at	at	3	preview	14	451	0	0	0	0	0	0
227	442	that	that	that	3	preview	14	452	0	0	0	0	0	0
228	443	point	point	point	3	preview	14	453	0	0	0	0	0	0
229	444	reached	reached	reached	3	preview	14	454	212	212	212	212	212	0
230	445	a	a	a	3	preview	14	455	0	0	0	0	0	0
231	446	price	price	price	3	preview	14	456	0	0	0	0	0	0
232	447	of	of	of	3	preview	14	457	269	269	269	269	269	0
233	448	$	$	$8.10	3	preview	14	458	0	0	0	0	0	0
	449	8.10	8.10		3	preview	14	459						
234	450	by	by	by	3	preview	14	460	182	182	182	182	182	0
235	451	the	the	the	3	preview	14	461	0	0	0	0	0	0
236	452	end	end	end	3	preview	14	462	0	0	0	0	0	0
237	453	of	of	of	3	preview	14	463	0	0	0	0	0	0
238	454	the	the	the	3	preview	14	464	282	282	282	282	282	0
239	455	day	day	day.	3	preview	14	465	0	0	0	0	0	0
	456	.	.		3	preview	14	466						
240	457	There	There	There	3	preview	14	467	0	0	0	0	0	0
241	458	is	is	is	3	preview	14	468	194	194	194	194	194	0
242	459	also	also	also	3	preview	14	469	0	0	0	0	0	0
243	460	a	a	a	3	preview	14	470	0	0	0	0	0	0
244	461	chance	chance	chance,	3	preview	14	471	174	174	174	174	174	0
	462	,	,		3	preview	14	472						
245	463	reports	reports	reports	3	preview	14	473	170	170	170	170	170	0
246	464	@entity90	Matt	Matt	3	preview	14	474	0	0	0	0	0	0
247			Khouw	Khouw,	3	preview	14	475	577	577	577	143	577	0
	465	,	,		3	preview	14	476						
248	466	that	that	that	3	preview	14	477	0	0	0	0	0	0
249	467	the	the	the	3	preview	14	478	0	0	0	0	0	0
250	468	trader	trader	trader	3	preview	14	479	278	278	278	278	278	0
251	469	could	could	could	3	preview	14	480	0	0	0	0	0	0
252	470	have	have	have	3	preview	14	481	194	194	194	194	194	0
253	471	been	been	been	3	preview	14	482	0	0	0	0	0	0
254	472	aware	aware	aware	3	preview	14	483	0	0	0	0	0	0
255	473	of	of	of	3	preview	14	484	129	129	129	129	129	0
256	474	@entity12	Intel	Intel-s	3	preview	14	485	0	0	0	0	0	0
	475	-s	-s		3	preview	14	486						
257	476	plan	plan	plan	3	preview	14	487	0	0	0	0	0	0
258	477	to	to	to	3	preview	14	488	0	0	0	0	0	0
259	478	buy	buy	buy	3	preview	14	489	0	0	0	0	0	0
260	479	@entity16	Altera	Altera	3	preview	14	490	0	0	0	0	0	0
261	480	early	early	early,	3	preview	14	491	0	0	0	0	0	0
	481	,	,		3	preview	14	492						
262	482	or	or	or	3	preview	14	493	158	0	0	0	0	158
263	483	that	that	that	3	preview	14	494	93	93	251	93	93	0
264	484	they	they	they	3	preview	14	495	0	0	0	0	0	0
265	485	used	used	used	3	preview	14	496	0	0	0	0	0	0
266	486	a	a	a	3	preview	14	497	206	206	206	206	206	0
267	487	bot	bot	bot	3	preview	14	498	0	0	0	0	0	0
268	488	to	to	to	3	preview	14	499	179	0	0	0	0	179
269	489	quickly	quickly	quickly	3	preview	14	500	290	141	141	141	141	149
270	490	buy	buy	buy	3	preview	14	501	0	0	0	0	0	0
271	491	the	the	the	3	preview	14	502	0	0	0	0	0	0
272	492	shares	shares	shares.	3	preview	14	503	185	185	513	185	185	0
	493	.	.		3	preview	14	504						
273	494	-	-	-A	3	preview	14	505	0	0	0	0	0	0
	495	A	A		3	preview	14	506						
274	496	bot	bot	bot	3	preview	14	507	0	0	0	0	0	0
275	497	is	is	is	3	preview	14	508	0	0	0	0	0	0
276	498	not	not	not	3	preview	14	509	184	184	184	184	184	0
277	499	as	as	as	3	preview	14	510	0	0	0	0	0	0
278	500	outlandish	outlandish	outlandish	3	preview	14	511	349	349	349	349	349	0
279	501	as	as	as	3	preview	14	512	0	0	0	0	0	0
280	502	it	it	it	3	preview	14	513	0	0	0	0	0	0
281	503	sounds	sounds	sounds,-	3	preview	14	514	298	298	298	298	298	0
	504	,	,		3	preview	14	515						
282	505	-	-	Khouw	3	preview	14	516	0	0	0	0	0	0
	506	@entity90	Khouw		3	preview	14	517						
283	507	said	said	said.	3	preview	14	518	0	0	0	0	0	0
	508	.	.		3	preview	14	519						
284	509	-	-	-Traders	3	preview	14	520	0	0	0	0	0	0
	510	Traders	Traders		3	preview	14	521						
285	511	need	need	need	3	preview	14	522	183	183	183	183	183	0
286	512	to	to	to	3	preview	14	523	0	0	0	0	0	0
287	513	aggregate	aggregate	aggregate	3	preview	14	524	209	209	209	209	209	0
288	514	and	and	and	3	preview	14	525	0	0	0	0	0	0
289	515	filter	filter	filter	3	preview	14	526	0	0	0	0	0	0
290	516	through	through	through	3	preview	14	527	0	0	0	0	0	0
291	517	tremendous	tremendous	tremendous	3	preview	14	528	0	0	0	0	0	0
292	518	amounts	amounts	amounts	3	preview	14	529	0	0	0	0	0	0
293	519	of	of	of	3	preview	14	530	0	0	0	0	0	0
294	520	data	data	data	3	preview	14	531	0	0	0	0	0	0
295	521	quickly	quickly	quickly	3	preview	14	532	0	0	0	0	0	0
296	522	and	and	and	3	preview	14	533	0	0	0	0	0	0
297	523	will	will	will	3	preview	14	534	0	0	0	0	0	0
298	524	rely	rely	rely	3	preview	14	535	0	0	0	0	0	0
299	525	on	on	on	3	preview	14	536	0	0	0	0	0	0
300	526	technology	technology	technology	3	preview	14	537	0	0	0	0	0	0
301	527	to	to	to	3	preview	14	538	0	0	0	0	0	0
302	528	help	help	help	3	preview	14	539	0	0	0	0	0	0
303	529	if	if	if	3	preview	14	540	0	0	0	0	0	0
304	530	it	it	it	3	preview	14	541	0	0	0	0	0	0
305	531	is	is	is	3	preview	14	542	0	0	0	0	0	0
306	532	available	available	available.-	3	preview	14	543	0	0	0	0	0	0
	533	.	.		3	preview	14	544						
307	534	-	-	As	3	preview	14	545	0	0	0	0	0	0
308	535	As	As	for	3	preview	14	546	0	0	0	0	0	0
309	536	for	for	Intel-s	3	preview	14	547	0	0	0	0	0	0
	537	@entity12	Intel		3	preview	14	548						
	538	-s	-s		3	preview	14	549						
310	539	reported	reported	reported	3	preview	14	550	0	0	0	0	0	0
311	540	purchase	purchase	purchase	3	preview	14	551	0	0	0	0	0	0
312	541	of	of	of	3	preview	14	552	0	0	0	0	0	0
313	542	@entity16	Altera	Altera,	3	preview	14	553	0	0	0	0	0	0
	543	,	,		3	preview	14	554						
314	544	that	that	that	3	preview	14	555	0	0	0	0	0	0
315	545	still	still	still	3	preview	14	556	0	0	0	0	0	0
316	546	has	has	has	3	preview	14	557	0	0	0	0	0	0
317	547	yet	yet	yet	3	preview	14	558	0	0	0	0	0	0
318	548	to	to	to	3	preview	14	559	0	0	0	0	0	0
319	549	happen	happen	happen.	3	preview	14	560	0	0	0	0	0	0
	550	.	.		3	preview	14	561						
320	551	Meanwhile	Meanwhile	Meanwhile,	3	preview	14	562	0	0	0	0	0	0
	552	,	,		3	preview	14	563						
321	553	@entity12	Intel	Intel	3	preview	14	564	0	0	0	0	0	0
322	554	share	share	share	3	preview	14	565	0	0	0	0	0	0
323	555	prices	prices	prices	3	preview	14	566	0	0	0	0	0	0
324	556	fell	fell	fell	3	preview	14	567	0	0	0	0	0	0
325	557	earlier	earlier	earlier	3	preview	14	568	0	0	0	0	0	0
326	558	this	this	this	3	preview	14	569	0	0	0	0	0	0
327	559	week	week	week	3	preview	14	570	0	0	0	0	0	0
328	560	in	in	in	3	preview	14	571	0	0	0	0	0	0
329	561	response	response	response	3	preview	14	572	0	0	0	0	0	0
330	562	to	to	to	3	preview	14	573	0	0	0	0	0	0
331	563	the	the	the	3	preview	14	574	0	0	0	0	0	0
332	564	news	news	news	3	preview	14	575	0	0	0	0	0	0
333	565	that	that	that	3	preview	14	576	0	0	0	0	0	0
334	566	they	they	they	3	preview	14	577	0	0	0	0	0	0
335	567	might	might	might	3	preview	14	578	0	0	0	0	0	0
336	568	purchase	purchase	purchase	3	preview	14	579	0	0	0	0	0	0
337	569	@entity16	Altera	Altera.	3	preview	14	580	0	0	0	0	0	0
	570	.	.		3	preview	14	581						
