HumanPosition	AnonymizedPosition	AnonymizedToken	OriginalToken	ExperimentToken	Participant	Condition	TextNo	JointPosition	tt	fp	rp	ff	rb	sp
1	0	(	(	Sabra	3	preview	2	1	242	0	0	0	0	242
	1	@entity2	CNN		3	preview	2	2						
	2	)	)		3	preview	2	3						
	3	@entity1	Sabra		3	preview	2	4						
2			Dipping	Dipping	3	preview	2	5	1886	325	325	325	325	1561
3			Co.	Co.	3	preview	2	6	218	0	0	0	0	218
4	4	is	is	is	3	preview	2	7	0	0	0	0	0	0
5	5	recalling	recalling	recalling	3	preview	2	8	619	0	325	0	0	619
6	6	30,000	30,000	30,000	3	preview	2	9	144	144	144	144	144	0
7	7	cases	cases	cases	3	preview	2	10	253	0	0	0	0	253
8	8	of	of	of	3	preview	2	11	140	140	140	140	140	0
9	9	hummus	hummus	hummus	3	preview	2	12	100	0	0	0	0	100
10	10	due	due	due	3	preview	2	13	116	116	116	116	116	0
11	11	to	to	to	3	preview	2	14	0	0	0	0	0	0
12	12	possible	possible	possible	3	preview	2	15	141	141	141	141	141	0
13	13	contamination	contamination	contamination	3	preview	2	16	0	0	0	0	0	0
14	14	with	with	with	3	preview	2	17	0	0	0	0	0	0
15	15	@entity6	Listeria	Listeria,	3	preview	2	18	214	214	214	214	214	0
	16	,	,		3	preview	2	19						
16	17	the	the	the	3	preview	2	20	0	0	0	0	0	0
17	18	@entity0	U.S.	U.S.	3	preview	2	21	0	0	0	0	0	0
18			Food	Food	3	preview	2	22	0	0	0	0	0	0
19			and	and	3	preview	2	23	364	0	0	0	0	364
20			Drug	Drug	3	preview	2	24	0	0	0	0	0	0
21			Administration	Administration	3	preview	2	25	219	219	219	219	219	0
22	19	said	said	said	3	preview	2	26	0	0	0	0	0	0
23	20	Wednesday	Wednesday	Wednesday.	3	preview	2	27	104	104	104	104	104	0
	21	.	.		3	preview	2	28						
24	22	The	The	The	3	preview	2	29	0	0	0	0	0	0
25	23	nationwide	nationwide	nationwide	3	preview	2	30	0	0	0	0	0	0
26	24	recall	recall	recall	3	preview	2	31	196	0	0	0	0	196
27	25	is	is	is	3	preview	2	32	0	0	0	0	0	0
28	26	voluntary	voluntary	voluntary.	3	preview	2	33	0	0	0	0	0	0
	27	.	.		3	preview	2	34						
29	28	So	So	So	3	preview	2	35	0	0	0	0	0	0
30	29	far	far	far,	3	preview	2	36	370	0	0	0	0	370
	30	,	,		3	preview	2	37						
31	31	no	no	no	3	preview	2	38	0	0	0	0	0	0
32	32	illnesses	illnesses	illnesses	3	preview	2	39	318	0	0	0	0	318
33	33	caused	caused	caused	3	preview	2	40	0	0	0	0	0	0
34	34	by	by	by	3	preview	2	41	0	0	0	0	0	0
35	35	the	the	the	3	preview	2	42	160	0	0	0	0	160
36	36	hummus	hummus	hummus	3	preview	2	43	0	0	0	0	0	0
37	37	have	have	have	3	preview	2	44	0	0	0	0	0	0
38	38	been	been	been	3	preview	2	45	0	0	0	0	0	0
39	39	reported	reported	reported.	3	preview	2	46	483	221	4418	221	483	262
	40	.	.		3	preview	2	47						
40	41	The	The	The	3	preview	2	48	0	0	0	0	0	0
41	42	potential	potential	potential	3	preview	2	49	179	0	0	0	0	179
42	43	for	for	for	3	preview	2	50	193	193	372	193	193	0
43	44	contamination	contamination	contamination	3	preview	2	51	209	209	209	209	209	0
44	45	was	was	was	3	preview	2	52	0	0	0	0	0	0
45	46	discovered	discovered	discovered	3	preview	2	53	199	199	199	199	199	0
46	47	when	when	when	3	preview	2	54	0	0	0	0	0	0
47	48	a	a	a	3	preview	2	55	0	0	0	0	0	0
48	49	routine	routine	routine,	3	preview	2	56	167	167	167	167	167	0
	50	,	,		3	preview	2	57						
49	51	random	random	random	3	preview	2	58	156	156	156	156	156	0
50	52	sample	sample	sample	3	preview	2	59	0	0	0	0	0	0
51	53	collected	collected	collected	3	preview	2	60	167	0	0	0	0	167
52	54	at	at	at	3	preview	2	61	0	0	0	0	0	0
53	55	a	a	a	3	preview	2	62	0	0	0	0	0	0
54	56	@entity14	Michigan	Michigan	3	preview	2	63	596	237	237	237	237	359
55	57	store	store	store	3	preview	2	64	152	152	152	152	152	0
56	58	on	on	on	3	preview	2	65	0	0	0	0	0	0
57	59	March	March	March	3	preview	2	66	0	0	0	0	0	0
58	60	30	30	30	3	preview	2	67	100	100	626	100	100	0
59	61	tested	tested	tested	3	preview	2	68	0	0	0	0	0	0
60	62	positive	positive	positive	3	preview	2	69	0	0	0	0	0	0
61	63	for	for	for	3	preview	2	70	0	0	0	0	0	0
62	64	@entity6	Listeria	Listeria	3	preview	2	71	0	0	0	0	0	0
63	65	monocytogenes	monocytogenes	monocytogenes.	3	preview	2	72	0	0	0	0	0	0
	66	.	.		3	preview	2	73						
64	67	The	The	The	3	preview	2	74	0	0	0	0	0	0
65	68	@entity0	FDA	FDA	3	preview	2	75	0	0	0	0	0	0
66	69	issued	issued	issued	3	preview	2	76	198	198	664	198	198	0
67	70	a	a	a	3	preview	2	77	0	0	0	0	0	0
68	71	list	list	list	3	preview	2	78	0	0	0	0	0	0
69	72	of	of	of	3	preview	2	79	0	0	0	0	0	0
70	73	the	the	the	3	preview	2	80	0	0	0	0	0	0
71	74	products	products	products	3	preview	2	81	0	0	0	0	0	0
72	75	in	in	in	3	preview	2	82	0	0	0	0	0	0
73	76	the	the	the	3	preview	2	83	0	0	0	0	0	0
74	77	recall	recall	recall.	3	preview	2	84	0	0	0	0	0	0
	78	.	.		3	preview	2	85						
75	79	Anyone	Anyone	Anyone	3	preview	2	86	0	0	0	0	0	0
76	80	who	who	who	3	preview	2	87	0	0	0	0	0	0
77	81	has	has	has	3	preview	2	88	0	0	0	0	0	0
78	82	purchased	purchased	purchased	3	preview	2	89	0	0	0	0	0	0
79	83	any	any	any	3	preview	2	90	0	0	0	0	0	0
80	84	of	of	of	3	preview	2	91	0	0	0	0	0	0
81	85	the	the	the	3	preview	2	92	0	0	0	0	0	0
82	86	items	items	items	3	preview	2	93	0	0	0	0	0	0
83	87	is	is	is	3	preview	2	94	0	0	0	0	0	0
84	88	urged	urged	urged	3	preview	2	95	0	0	0	0	0	0
85	89	to	to	to	3	preview	2	96	0	0	0	0	0	0
86	90	dispose	dispose	dispose	3	preview	2	97	0	0	0	0	0	0
87	91	of	of	of	3	preview	2	98	0	0	0	0	0	0
88	92	or	or	or	3	preview	2	99	0	0	0	0	0	0
89	93	return	return	return	3	preview	2	100	0	0	0	0	0	0
90	94	it	it	it	3	preview	2	101	0	0	0	0	0	0
91	95	to	to	to	3	preview	2	102	0	0	0	0	0	0
92	96	the	the	the	3	preview	2	103	0	0	0	0	0	0
93	97	store	store	store	3	preview	2	104	0	0	0	0	0	0
94	98	for	for	for	3	preview	2	105	0	0	0	0	0	0
95	99	a	a	a	3	preview	2	106	0	0	0	0	0	0
96	100	full	full	full	3	preview	2	107	0	0	0	0	0	0
97	101	refund	refund	refund.	3	preview	2	108	0	0	0	0	0	0
	102	.	.		3	preview	2	109						
98	103	Listeria	Listeria	Listeria	3	preview	2	110	195	0	0	0	0	195
99	104	monocytogenes	monocytogenes	monocytogenes	3	preview	2	111	259	0	0	0	0	259
100	105	can	can	can	3	preview	2	112	0	0	0	0	0	0
101	106	cause	cause	cause	3	preview	2	113	0	0	0	0	0	0
102	107	serious	serious	serious	3	preview	2	114	0	0	0	0	0	0
103	108	and	and	and	3	preview	2	115	0	0	0	0	0	0
104	109	sometimes	sometimes	sometimes	3	preview	2	116	0	0	0	0	0	0
105	110	fatal	fatal	fatal	3	preview	2	117	0	0	0	0	0	0
106	111	infections	infections	infections	3	preview	2	118	0	0	0	0	0	0
107	112	in	in	in	3	preview	2	119	0	0	0	0	0	0
108	113	young	young	young	3	preview	2	120	0	0	0	0	0	0
109	114	children	children	children,	3	preview	2	121	0	0	0	0	0	0
	115	,	,		3	preview	2	122						
110	116	frail	frail	frail	3	preview	2	123	185	0	0	0	0	185
111	117	or	or	or	3	preview	2	124	127	127	766	127	127	0
112	118	elderly	elderly	elderly	3	preview	2	125	0	0	0	0	0	0
113	119	people	people	people,	3	preview	2	126	0	0	0	0	0	0
	120	,	,		3	preview	2	127						
114	121	and	and	and	3	preview	2	128	0	0	0	0	0	0
115	122	others	others	others	3	preview	2	129	0	0	0	0	0	0
116	123	with	with	with	3	preview	2	130	0	0	0	0	0	0
117	124	weakened	weakened	weakened	3	preview	2	131	0	0	0	0	0	0
118	125	immune	immune	immune	3	preview	2	132	0	0	0	0	0	0
119	126	systems	systems	systems,	3	preview	2	133	0	0	0	0	0	0
	127	,	,		3	preview	2	134						
120	128	the	the	the	3	preview	2	135	0	0	0	0	0	0
121	129	@entity0	FDA	FDA	3	preview	2	136	0	0	0	0	0	0
122	130	says	says	says.	3	preview	2	137	0	0	0	0	0	0
	131	.	.		3	preview	2	138						
123	132	Although	Although	Although	3	preview	2	139	0	0	0	0	0	0
124	133	some	some	some	3	preview	2	140	0	0	0	0	0	0
125	134	people	people	people	3	preview	2	141	0	0	0	0	0	0
126	135	may	may	may	3	preview	2	142	0	0	0	0	0	0
127	136	suffer	suffer	suffer	3	preview	2	143	0	0	0	0	0	0
128	137	only	only	only	3	preview	2	144	0	0	0	0	0	0
129	138	short	short	short-term	3	preview	2	145	0	0	0	0	0	0
	139	-	-		3	preview	2	146						
	140	term	term		3	preview	2	147						
130	141	symptoms	symptoms	symptoms	3	preview	2	148	0	0	0	0	0	0
131	142	such	such	such	3	preview	2	149	0	0	0	0	0	0
132	143	as	as	as	3	preview	2	150	0	0	0	0	0	0
133	144	high	high	high	3	preview	2	151	0	0	0	0	0	0
134	145	fever	fever	fever,	3	preview	2	152	0	0	0	0	0	0
	146	,	,		3	preview	2	153						
135	147	severe	severe	severe	3	preview	2	154	0	0	0	0	0	0
136	148	headache	headache	headache,	3	preview	2	155	0	0	0	0	0	0
	149	,	,		3	preview	2	156						
137	150	nausea	nausea	nausea,	3	preview	2	157	0	0	0	0	0	0
	151	,	,		3	preview	2	158						
138	152	abdominal	abdominal	abdominal	3	preview	2	159	0	0	0	0	0	0
139	153	pain	pain	pain	3	preview	2	160	0	0	0	0	0	0
140	154	and	and	and	3	preview	2	161	0	0	0	0	0	0
141	155	diarrhea	diarrhea	diarrhea,	3	preview	2	162	0	0	0	0	0	0
	156	,	,		3	preview	2	163						
142	157	@entity6	Listeria	Listeria	3	preview	2	164	0	0	0	0	0	0
143	158	can	can	can	3	preview	2	165	0	0	0	0	0	0
144	159	also	also	also	3	preview	2	166	0	0	0	0	0	0
145	160	cause	cause	cause	3	preview	2	167	0	0	0	0	0	0
146	161	miscarriages	miscarriages	miscarriages	3	preview	2	168	0	0	0	0	0	0
147	162	and	and	and	3	preview	2	169	0	0	0	0	0	0
148	163	stillbirths	stillbirths	stillbirths	3	preview	2	170	0	0	0	0	0	0
149	164	among	among	among	3	preview	2	171	0	0	0	0	0	0
150	165	pregnant	pregnant	pregnant	3	preview	2	172	0	0	0	0	0	0
151	166	women	women	women.	3	preview	2	173	0	0	0	0	0	0
	167	.	.		3	preview	2	174						
