HumanPosition	AnonymizedPosition	AnonymizedToken	OriginalToken	ExperimentToken	Participant	Condition	TextNo	JointPosition	tt	fp	rp	ff
0	0	@entity0	Chelsea	Chelsea	7	nopreview	11	1	243	0	0	0
2	1	are	are	are	7	nopreview	11	2	140	0	0	0
3	2	looking	looking	looking	7	nopreview	11	3	152	0	0	0
4	3	to	to	to	7	nopreview	11	4	238	0	0	0
5	4	beat	beat	beat	7	nopreview	11	5	112	0	0	0
6	5	@entity1	Manchester	Manchester	7	nopreview	11	6	191	0	0	0
7			City	City	7	nopreview	11	7	556	0	0	0
8	6	to	to	to	7	nopreview	11	8	0	0	0	0
9	7	sign	sign	sign	7	nopreview	11	9	616	0	0	0
10	8	@entity3	Brazilian	Brazilian	7	nopreview	11	10	217	0	0	0
11	9	prospect	prospect	prospect	7	nopreview	11	11	442	0	0	0
12	10	@entity2	Nathan	Nathan.	7	nopreview	11	12	300	0	0	0
	11	.	.		7	nopreview	11	13				
13	12	The	The	The	7	nopreview	11	14	177	0	0	0
14	13	attacking	attacking	attacking	7	nopreview	11	15	468	0	0	0
15	14	midfielder	midfielder	midfielder	7	nopreview	11	16	262	0	0	0
16	15	turned	turned	turned	7	nopreview	11	17	385	107	4499	107
17	16	19	19	19	7	nopreview	11	18	0	0	0	0
18	17	last	last	last	7	nopreview	11	19	209	209	209	209
19	18	month	month	month	7	nopreview	11	20	0	0	0	0
20	19	but	but	but	7	nopreview	11	21	261	261	261	158
21	20	has	has	has	7	nopreview	11	22	0	0	0	0
22	21	been	been	been	7	nopreview	11	23	165	165	165	165
23	22	in	in	in	7	nopreview	11	24	196	0	0	0
24	23	contract	contract	contract	7	nopreview	11	25	137	137	333	137
25	24	dispute	dispute	dispute	7	nopreview	11	26	836	279	279	279
26	25	with	with	with	7	nopreview	11	27	414	204	971	204
27	26	his	his	his	7	nopreview	11	28	0	0	767	0
28	27	club	club	club	7	nopreview	11	29	123	123	123	123
29	28	@entity6	Atletico	Atletico	7	nopreview	11	30	319	0	0	0
30			Paranaense	Paranaense.	7	nopreview	11	31	229	126	548	126
	29	.	.		7	nopreview	11	32				
31	30	He	He	He	7	nopreview	11	33	0	0	0	0
32	31	is	is	is	7	nopreview	11	34	154	154	154	154
33	32	due	due	due	7	nopreview	11	35	126	126	126	126
34	33	to	to	to	7	nopreview	11	36	0	0	126	0
35	34	speak	speak	speak	7	nopreview	11	37	300	156	156	156
36	35	to	to	to	7	nopreview	11	38	0	0	0	0
37	36	@entity0	Chelsea	Chelsea	7	nopreview	11	39	292	292	292	159
38	37	next	next	next	7	nopreview	11	40	155	155	155	155
39	38	week	week	week	7	nopreview	11	41	113	0	0	0
40	39	ahead	ahead	ahead	7	nopreview	11	42	378	215	491	215
41	40	of	of	of	7	nopreview	11	43	0	0	0	0
42	41	a	a	a	7	nopreview	11	44	132	0	0	0
43	42	proposed	proposed	proposed	7	nopreview	11	45	156	156	288	156
44	43	move	move	move	7	nopreview	11	46	232	0	0	0
45	44	to	to	to	7	nopreview	11	47	0	0	0	0
46	45	@entity8	Stamford	Stamford	7	nopreview	11	48	241	110	473	110
47			Bridge	Bridge	7	nopreview	11	49	205	205	205	205
48	46	which	which	which	7	nopreview	11	50	0	0	0	0
49	47	would	would	would	7	nopreview	11	51	160	160	160	160
50	48	likely	likely	likely	7	nopreview	11	52	0	0	0	0
51	49	see	see	see	7	nopreview	11	53	346	228	228	228
52	50	him	him	him	7	nopreview	11	54	223	0	0	0
53	51	loaned	loaned	loaned	7	nopreview	11	55	304	304	645	164
54	52	out	out	out.	7	nopreview	11	56	0	0	0	0
	53	.	.		7	nopreview	11	57				
55	54	@entity6	Atletico	Manchester	7	nopreview	11	58	224	224	224	224
			Paranaense		7	nopreview	11	59				
	55	attacking	attacking		7	nopreview	11	60				
	56	midfielder	midfielder		7	nopreview	11	61				
	57	@entity2	Nathan		7	nopreview	11	62				
	58	is	is		7	nopreview	11	63				
	59	attracting	attracting		7	nopreview	11	64				
	60	interest	interest		7	nopreview	11	65				
	61	from	from		7	nopreview	11	66				
	62	@entity0	Chelsea		7	nopreview	11	67				
	63	and	and		7	nopreview	11	68				
	64	@entity1	Manchester		7	nopreview	11	69				
56	65	@entity11	City	City	7	nopreview	11	70	605	605	605	605
57			Jose	have	7	nopreview	11	71	124	124	124	124
58			Mourinho	been	7	nopreview	11	72	215	0	0	0
	66	and	and		7	nopreview	11	73				
	67	@entity12	Manuel		7	nopreview	11	74				
			Pellegrini		7	nopreview	11	75				
	68	will	will		7	nopreview	11	76				
	69	go	go		7	nopreview	11	77				
	70	head	head		7	nopreview	11	78				
59	71	-	-	keen	7	nopreview	11	79	0	0	0	0
	72	to	to		7	nopreview	11	80				
	73	-	-		7	nopreview	11	81				
	74	head	head		7	nopreview	11	82				
60	75	to	to	on	7	nopreview	11	83	96	96	311	96
61	76	sign	sign	Nathan	7	nopreview	11	84	243	243	243	243
	77	@entity3	Brazilian		7	nopreview	11	85				
	78	starlet	starlet		7	nopreview	11	86				
	79	@entity2	Nathan		7	nopreview	11	87				
62	80	@entity1	Manchester	following	7	nopreview	11	88	150	150	150	150
			City		7	nopreview	11	89				
	81	have	have		7	nopreview	11	90				
	82	been	been		7	nopreview	11	91				
	83	keen	keen		7	nopreview	11	92				
	84	on	on		7	nopreview	11	93				
	85	@entity2	Nathan		7	nopreview	11	94				
	86	following	following		7	nopreview	11	95				
63	87	his	his	his	7	nopreview	11	96	0	0	0	0
64	88	performances	performances	performances	7	nopreview	11	97	133	133	133	133
65	89	in	in	in	7	nopreview	11	98	0	0	0	0
66	90	the	the	the	7	nopreview	11	99	0	0	0	0
67	91	@entity16	World	World	7	nopreview	11	100	649	208	208	208
68			U17	U17	7	nopreview	11	101	405	0	0	0
69			Championships	Championships	7	nopreview	11	102	1392	131	2238	131
70	92	two	two	two	7	nopreview	11	103	108	108	108	108
71	93	years	years	years	7	nopreview	11	104	213	213	213	95
72	94	ago	ago	ago	7	nopreview	11	105	135	0	0	0
73	95	and	and	and	7	nopreview	11	106	0	0	0	0
74	96	he	he	he	7	nopreview	11	107	90	0	0	0
75	97	has	has	has	7	nopreview	11	108	182	182	272	182
76	98	since	since	since	7	nopreview	11	109	0	0	0	0
77	99	broken	broken	broken	7	nopreview	11	110	312	312	312	312
78	100	into	into	into	7	nopreview	11	111	169	169	169	169
79	101	@entity6	Paranaense	Paranaense-s	7	nopreview	11	112	253	253	253	123
	102	-s	-s		7	nopreview	11	113				
80	103	first	first	first	7	nopreview	11	114	0	0	0	0
81	104	team	team	team.	7	nopreview	11	115	328	328	328	328
	105	.	.		7	nopreview	11	116				
82	106	@entity0	Chelsea	Chelsea	7	nopreview	11	117	0	0	0	0
83	107	have	have	have	7	nopreview	11	118	907	262	262	262
84	108	a	a	a	7	nopreview	11	119	373	135	780	135
85	109	strong	strong	strong	7	nopreview	11	120	183	183	556	183
86	110	@entity3	Brazilian	Brazilian	7	nopreview	11	121	0	0	0	0
87	111	contingency	contingency	contingency	7	nopreview	11	122	197	197	197	197
88	112	with	with	with	7	nopreview	11	123	0	0	0	0
89	113	the	the	the	7	nopreview	11	124	0	0	0	0
90	114	likes	likes	likes	7	nopreview	11	125	156	156	156	156
91	115	of	of	of	7	nopreview	11	126	0	0	0	0
92	116	@entity20	Willian	Willian,	7	nopreview	11	127	168	168	168	168
	117	,	,		7	nopreview	11	128				
93	118	@entity21	Ramires	Ramires,	7	nopreview	11	129	0	0	0	0
	119	,	,		7	nopreview	11	130				
94	120	@entity22	Filipe	Filipe	7	nopreview	11	131	139	139	139	139
95			Luis	Luis	7	nopreview	11	132	0	0	0	0
96	121	and	and	and	7	nopreview	11	133	168	168	168	168
97	122	@entity23	Oscar	Oscar	7	nopreview	11	134	0	0	0	0
98	123	while	while	while	7	nopreview	11	135	258	258	258	258
99	124	21	21	21-year-old	7	nopreview	11	136	139	139	139	139
	125	-	-		7	nopreview	11	137				
	126	year	year		7	nopreview	11	138				
	127	-	-		7	nopreview	11	139				
	128	old	old		7	nopreview	11	140				
100	129	@entity24	Lucas	Lucas	7	nopreview	11	141	155	155	155	155
101			Piazon	Piazon	7	nopreview	11	142	0	0	0	0
102	130	is	is	is	7	nopreview	11	143	0	0	0	0
103	131	on	on	on	7	nopreview	11	144	153	153	153	153
104	132	loan	loan	loan	7	nopreview	11	145	0	0	0	0
105	133	at	at	at	7	nopreview	11	146	173	173	173	173
106	134	@entity26	Eintracht	Eintracht	7	nopreview	11	147	430	95	95	95
107			Frankfurt	Frankfurt.	7	nopreview	11	148	558	138	1037	138
	135	.	.		7	nopreview	11	149				
