HumanPosition	AnonymizedPosition	AnonymizedToken	OriginalToken	ExperimentToken	Participant	Condition	TextNo	JointPosition	tt	fp	rp	ff
1	0	A	A	A	7	nopreview	17	1	0	0	0	0
2	1	boxing	boxing	boxing	7	nopreview	17	2	241	0	0	0
3	2	fight	fight	fight	7	nopreview	17	3	213	0	0	0
4	3	had	had	had	7	nopreview	17	4	193	0	0	0
5	4	to	to	to	7	nopreview	17	5	0	0	0	0
6	5	be	be	be	7	nopreview	17	6	183	0	0	0
7	6	halted	halted	halted	7	nopreview	17	7	0	0	0	0
8	7	after	after	after	7	nopreview	17	8	164	0	0	0
9	8	a	a	a	7	nopreview	17	9	0	0	0	0
10	9	fighter	fighter	fighter-s	7	nopreview	17	10	389	0	0	0
	10	-s	-s		7	nopreview	17	11				
11	11	cell	cell	cell	7	nopreview	17	12	154	0	0	0
12	12	phone	phone	phone	7	nopreview	17	13	227	0	0	0
13	13	fell	fell	fell	7	nopreview	17	14	258	0	0	0
14	14	out	out	out	7	nopreview	17	15	125	0	0	0
15	15	of	of	of	7	nopreview	17	16	147	0	0	0
16	16	his	his	his	7	nopreview	17	17	0	0	0	0
17	17	trunks	trunks	trunks.	7	nopreview	17	18	134	0	0	0
	18	.	.		7	nopreview	17	19				
18	19	@entity4	Marvin	Marvin	7	nopreview	17	20	178	0	0	0
19			-	-Papi	7	nopreview	17	21	280	0	0	0
			Papi		7	nopreview	17	22				
20			Gallo	Gallo-	7	nopreview	17	23	209	0	0	0
			-		7	nopreview	17	24				
21			Jones	Jones	7	nopreview	17	25	381	0	0	0
22	20	and	and	and	7	nopreview	17	26	112	112	3588	112
23	21	@entity5	Ramon	Ramon	7	nopreview	17	27	186	186	186	186
24			Luis	Luis	7	nopreview	17	28	0	0	0	0
25			Nicolas	Nicolas	7	nopreview	17	29	131	131	131	131
26	22	were	were	were	7	nopreview	17	30	0	0	0	0
27	23	in	in	in	7	nopreview	17	31	0	0	0	0
28	24	the	the	the	7	nopreview	17	32	113	113	113	113
29	25	middle	middle	middle	7	nopreview	17	33	0	0	0	0
30	26	of	of	of	7	nopreview	17	34	0	0	0	0
31	27	a	a	a	7	nopreview	17	35	132	132	132	132
32	28	bout	bout	bout	7	nopreview	17	36	0	0	0	0
33	29	when	when	when	7	nopreview	17	37	228	228	228	141
34	30	the	the	the	7	nopreview	17	38	0	0	0	0
35	31	black	black	black	7	nopreview	17	39	207	207	207	207
36	32	phone	phone	phone	7	nopreview	17	40	99	0	0	0
37	33	slipped	slipped	slipped	7	nopreview	17	41	280	280	379	171
38	34	out	out	out	7	nopreview	17	42	0	0	0	0
39	35	from	from	from	7	nopreview	17	43	202	202	202	202
40	36	@entity4	Jones	Jones-	7	nopreview	17	44	0	0	0	0
	37	-	-		7	nopreview	17	45				
41	38	black	black	black	7	nopreview	17	46	188	188	188	188
42	39	and	and	and	7	nopreview	17	47	0	0	0	0
43	40	red	red	red	7	nopreview	17	48	162	162	162	162
44	41	shorts	shorts	shorts	7	nopreview	17	49	0	0	0	0
45	42	at	at	at	7	nopreview	17	50	0	0	0	0
46	43	the	the	the	7	nopreview	17	51	0	0	0	0
47	44	ring	ring	ring	7	nopreview	17	52	132	132	132	132
48	45	in	in	in	7	nopreview	17	53	126	126	126	126
49	46	@entity11	Arcadia	Arcadia,	7	nopreview	17	54	149	149	149	149
	47	,	,		7	nopreview	17	55				
50	48	@entity12	Florida	Florida.	7	nopreview	17	56	112	0	0	0
	49	.	.		7	nopreview	17	57				
51	50	Referee	Referee	Referee	7	nopreview	17	58	263	144	375	144
52	51	@entity13	Frankie	Frankie	7	nopreview	17	59	0	0	0	0
53			Santore	Santore	7	nopreview	17	60	0	0	0	0
54			Jr.	Jr.	7	nopreview	17	61	143	143	143	143
55	52	went	went	went	7	nopreview	17	62	0	0	0	0
56	53	over	over	over	7	nopreview	17	63	125	125	125	125
57	54	to	to	to	7	nopreview	17	64	0	0	0	0
58	55	pick	pick	pick	7	nopreview	17	65	0	0	0	0
59	56	up	up	up	7	nopreview	17	66	141	141	141	141
60	57	the	the	the	7	nopreview	17	67	0	0	0	0
61	58	@entity14	Samsung	Samsung	7	nopreview	17	68	162	162	162	162
62			Galaxy	Galaxy	7	nopreview	17	69	103	103	103	103
63	59	and	and	and	7	nopreview	17	70	0	0	0	0
64	60	looked	looked	looked	7	nopreview	17	71	132	132	132	132
65	61	like	like	like	7	nopreview	17	72	115	0	0	0
66	62	he	he	he	7	nopreview	17	73	0	0	0	0
67	63	was	was	was	7	nopreview	17	74	0	0	0	0
68	64	chastising	chastising	chastising	7	nopreview	17	75	463	226	226	226
69	65	@entity4	Jones	Jones,	7	nopreview	17	76	137	137	374	137
	66	,	,		7	nopreview	17	77				
70	67	who	who	who	7	nopreview	17	78	0	0	0	0
71	68	seemed	seemed	seemed	7	nopreview	17	79	226	226	226	226
72	69	confused	confused	confused.	7	nopreview	17	80	0	0	0	0
	70	.	.		7	nopreview	17	81				
73	71	Scroll	Scroll	Jones,	7	nopreview	17	82	0	0	0	0
	72	down	down		7	nopreview	17	83				
	73	for	for		7	nopreview	17	84				
	74	video	video		7	nopreview	17	85				
	75	@entity4	Marvin		7	nopreview	17	86				
			-		7	nopreview	17	87				
			Papi		7	nopreview	17	88				
			Gallo		7	nopreview	17	89				
			-		7	nopreview	17	90				
			Jones		7	nopreview	17	91				
	76	(	(		7	nopreview	17	92				
74	77	right	right	32,	7	nopreview	17	93	183	183	183	183
	78	)	)		7	nopreview	17	94				
	79	and	and		7	nopreview	17	95				
75	80	@entity5	Ramon	held	7	nopreview	17	96	0	0	0	0
			Luis		7	nopreview	17	97				
			Nicolas		7	nopreview	17	98				
	81	(	(		7	nopreview	17	99				
	82	left	left		7	nopreview	17	100				
76	83	)	)	his	7	nopreview	17	101	294	194	194	194
77	84	were	were	hands	7	nopreview	17	102	101	101	316	101
	85	in	in		7	nopreview	17	103				
	86	the	the		7	nopreview	17	104				
	87	middle	middle		7	nopreview	17	105				
	88	of	of		7	nopreview	17	106				
	89	a	a		7	nopreview	17	107				
	90	bout	bout		7	nopreview	17	108				
	91	when	when		7	nopreview	17	109				
	92	the	the		7	nopreview	17	110				
	93	black	black		7	nopreview	17	111				
	94	phone	phone		7	nopreview	17	112				
	95	slipped	slipped		7	nopreview	17	113				
	96	out	out		7	nopreview	17	114				
	97	from	from		7	nopreview	17	115				
	98	@entity4	Jones		7	nopreview	17	116				
78	99	-	-	up	7	nopreview	17	117	141	141	141	141
79	100	black	black	as	7	nopreview	17	118	0	0	0	0
	101	and	and		7	nopreview	17	119				
80	102	red	red	the	7	nopreview	17	120	0	0	0	0
81	103	shorts	shorts	referee	7	nopreview	17	121	118	118	118	118
	104	at	at		7	nopreview	17	122				
	105	the	the		7	nopreview	17	123				
	106	ring	ring		7	nopreview	17	124				
	107	in	in		7	nopreview	17	125				
	108	@entity11	Arcadia		7	nopreview	17	126				
	109	,	,		7	nopreview	17	127				
	110	@entity12	Florida		7	nopreview	17	128				
	111	@entity4	Jones		7	nopreview	17	129				
	112	,	,		7	nopreview	17	130				
	113	32	32		7	nopreview	17	131				
	114	,	,		7	nopreview	17	132				
	115	held	held		7	nopreview	17	133				
	116	his	his		7	nopreview	17	134				
	117	hands	hands		7	nopreview	17	135				
	118	up	up		7	nopreview	17	136				
	119	as	as		7	nopreview	17	137				
	120	the	the		7	nopreview	17	138				
	121	referee	referee		7	nopreview	17	139				
82	122	took	took	took	7	nopreview	17	140	0	0	0	0
83	123	the	the	the	7	nopreview	17	141	125	125	125	125
84	124	phone	phone	phone	7	nopreview	17	142	0	0	0	0
85	125	over	over	over	7	nopreview	17	143	209	0	0	0
86	126	to	to	to	7	nopreview	17	144	210	210	210	210
87	127	the	the	the	7	nopreview	17	145	0	0	0	0
88	128	side	side	side	7	nopreview	17	146	0	0	0	0
89	129	of	of	of	7	nopreview	17	147	0	0	0	0
90	130	the	the	the	7	nopreview	17	148	0	0	0	0
91	131	ring	ring	ring.	7	nopreview	17	149	126	126	335	126
	132	.	.		7	nopreview	17	150				
92	133	The	The	The	7	nopreview	17	151	0	0	0	0
93	134	audience	audience	audience	7	nopreview	17	152	289	289	289	154
94	135	and	and	and	7	nopreview	17	153	0	0	0	0
95	136	viewers	viewers	viewers	7	nopreview	17	154	0	0	0	0
96	137	were	were	were	7	nopreview	17	155	391	254	254	104
97	138	baffled	baffled	baffled	7	nopreview	17	156	149	0	0	0
98	139	as	as	as	7	nopreview	17	157	279	0	0	0
99	140	to	to	to	7	nopreview	17	158	121	121	242	121
100	141	why	why	why	7	nopreview	17	159	0	0	0	0
101	142	@entity4	Jones	Jones	7	nopreview	17	160	0	0	0	0
102	143	had	had	had	7	nopreview	17	161	266	0	0	0
103	144	his	his	his	7	nopreview	17	162	184	184	307	184
104	145	phone	phone	phone	7	nopreview	17	163	0	0	0	0
105	146	in	in	in	7	nopreview	17	164	0	0	0	0
106	147	his	his	his	7	nopreview	17	165	126	0	0	0
107	148	shorts	shorts	shorts.	7	nopreview	17	166	434	141	418	141
	149	.	.		7	nopreview	17	167				
108	150	But	But	But	7	nopreview	17	168	0	0	0	0
109	151	@entity4	Jones	Jones	7	nopreview	17	169	147	147	147	147
110	152	later	later	later	7	nopreview	17	170	130	130	130	130
111	153	told	told	told	7	nopreview	17	171	154	0	0	0
112	154	@entity26	TMZ	TMZ	7	nopreview	17	172	132	132	286	132
113			Sports	Sports	7	nopreview	17	173	0	0	0	0
114	155	that	that	that	7	nopreview	17	174	178	178	178	178
115	156	he	he	he	7	nopreview	17	175	0	0	0	0
116	157	was	was	was	7	nopreview	17	176	164	164	164	164
117	158	listening	listening	listening	7	nopreview	17	177	0	0	0	0
118	159	to	to	to	7	nopreview	17	178	0	0	0	0
119	160	music	music	music	7	nopreview	17	179	234	234	234	234
120	161	before	before	before	7	nopreview	17	180	0	0	0	0
121	162	the	the	the	7	nopreview	17	181	143	143	143	143
122	163	fight	fight	fight	7	nopreview	17	182	0	0	0	0
123	164	on	on	on	7	nopreview	17	183	167	167	167	167
124	165	Friday	Friday	Friday	7	nopreview	17	184	0	0	0	0
125	166	and	and	and	7	nopreview	17	185	0	0	0	0
126	167	put	put	put	7	nopreview	17	186	140	140	140	140
127	168	his	his	his	7	nopreview	17	187	111	111	111	111
128	169	phone	phone	phone	7	nopreview	17	188	118	0	0	0
129	170	in	in	in	7	nopreview	17	189	217	124	242	124
130	171	his	his	his	7	nopreview	17	190	114	114	207	114
131	172	shorts	shorts	shorts.	7	nopreview	17	191	0	0	0	0
	173	.	.		7	nopreview	17	192				
132	174	When	When	When	7	nopreview	17	193	144	0	0	0
133	175	he	he	he	7	nopreview	17	194	151	151	151	151
134	176	got	got	got	7	nopreview	17	195	0	0	0	0
135	177	to	to	to	7	nopreview	17	196	106	0	0	0
136	178	the	the	the	7	nopreview	17	197	279	121	265	121
137	179	ring	ring	ring,	7	nopreview	17	198	199	0	0	0
	180	,	,		7	nopreview	17	199				
138	181	he	he	he	7	nopreview	17	200	0	0	0	0
139	182	pulled	pulled	pulled	7	nopreview	17	201	515	133	573	133
140	183	out	out	out	7	nopreview	17	202	0	0	0	0
141	184	his	his	his	7	nopreview	17	203	135	0	0	0
142	185	headphones	headphones	headphones,	7	nopreview	17	204	268	92	808	92
	186	,	,		7	nopreview	17	205				
143	187	but	but	but	7	nopreview	17	206	0	0	0	0
144	188	missed	missed	missed	7	nopreview	17	207	229	0	0	0
145	189	his	his	his	7	nopreview	17	208	99	99	328	99
146	190	phone	phone	phone.	7	nopreview	17	209	136	136	136	136
	191	.	.		7	nopreview	17	210				
147	192	@entity4	Jones	Jones	7	nopreview	17	211	0	0	0	0
148	193	believes	believes	believes	7	nopreview	17	212	119	119	119	119
149	194	the	the	the	7	nopreview	17	213	0	0	0	0
150	195	mishap	mishap	mishap	7	nopreview	17	214	154	154	154	154
151	196	cost	cost	cost	7	nopreview	17	215	233	233	233	144
152	197	him	him	him	7	nopreview	17	216	0	0	0	0
153	198	the	the	the	7	nopreview	17	217	182	182	182	182
154	199	fight	fight	fight	7	nopreview	17	218	0	0	0	0
155	200	as	as	as	7	nopreview	17	219	0	0	0	0
156	201	he	he	he	7	nopreview	17	220	146	146	146	146
157	202	kept	kept	kept	7	nopreview	17	221	0	0	0	0
158	203	thinking	thinking	thinking,	7	nopreview	17	222	188	188	188	188
	204	,	,		7	nopreview	17	223				
159	205	-	-	-Man,	7	nopreview	17	224	120	120	120	120
	206	Man	Man		7	nopreview	17	225				
	207	,	,		7	nopreview	17	226				
160	208	my	my	my	7	nopreview	17	227	0	0	0	0
161	209	cell	cell	cell	7	nopreview	17	228	0	0	0	0
162	210	phone	phone	phone	7	nopreview	17	229	174	174	174	174
163	211	just	just	just	7	nopreview	17	230	110	110	110	110
164	212	fell	fell	fell	7	nopreview	17	231	0	0	0	0
165	213	out	out	out	7	nopreview	17	232	0	0	0	0
166	214	in	in	in	7	nopreview	17	233	0	0	0	0
167	215	the	the	the	7	nopreview	17	234	133	133	133	133
168	216	ring	ring	ring	7	nopreview	17	235	193	193	193	193
169	217	–	–	-	7	nopreview	17	236	0	0	0	0
170	218	and	and	and	7	nopreview	17	237	0	0	0	0
171	219	on	on	on	7	nopreview	17	238	0	0	0	0
172	220	TV	TV	TV!-	7	nopreview	17	239	400	400	400	191
	221	!	!		7	nopreview	17	240				
	222	-	-		7	nopreview	17	241				
173	223	He	He	He	7	nopreview	17	242	0	0	0	0
174	224	has	has	has	7	nopreview	17	243	119	0	0	0
175	225	decided	decided	decided	7	nopreview	17	244	252	252	371	252
176	226	that	that	that	7	nopreview	17	245	164	164	164	164
177	227	for	for	for	7	nopreview	17	246	276	276	1005	276
178	228	his	his	his	7	nopreview	17	247	0	0	0	0
179	229	next	next	next	7	nopreview	17	248	0	0	0	0
180	230	fight	fight	fight	7	nopreview	17	249	0	0	0	0
181	231	he	he	he	7	nopreview	17	250	0	0	0	0
182	232	will	will	will	7	nopreview	17	251	0	0	0	0
183	233	make	make	make	7	nopreview	17	252	0	0	0	0
184	234	sure	sure	sure	7	nopreview	17	253	0	0	0	0
185	235	someone	someone	someone	7	nopreview	17	254	0	0	0	0
186	236	pats	pats	pats	7	nopreview	17	255	0	0	0	0
187	237	him	him	him	7	nopreview	17	256	0	0	0	0
188	238	down	down	down.	7	nopreview	17	257	0	0	0	0
	239	.	.		7	nopreview	17	258				
