HumanPosition	AnonymizedPosition	AnonymizedToken	OriginalToken	ExperimentToken	Participant	Condition	TextNo	JointPosition	tt	fp	rp	ff	rb	sp
1	0	Many	Many	Many	11	nopreview	13	1	0	0	0	0	0	0
2	1	animals	animals	animals	11	nopreview	13	2	274	0	0	0	0	274
3	2	mimic	mimic	mimic	11	nopreview	13	3	238	0	0	0	0	238
4	3	human	human	human	11	nopreview	13	4	326	0	0	0	0	326
5	4	traits	traits	traits	11	nopreview	13	5	216	0	0	0	0	216
6	5	and	and	and	11	nopreview	13	6	0	0	0	0	0	0
7	6	vice	vice	vice	11	nopreview	13	7	348	0	0	0	0	348
8	7	versa	versa	versa	11	nopreview	13	8	183	0	0	0	0	183
9	8	but	but	but	11	nopreview	13	9	0	0	0	0	0	0
10	9	this	this	this	11	nopreview	13	10	218	0	0	0	0	218
11	10	puppy	puppy	puppy	11	nopreview	13	11	301	0	0	0	0	301
12	11	takes	takes	takes	11	nopreview	13	12	410	0	0	0	0	410
13	12	the	the	the	11	nopreview	13	13	0	0	0	0	0	0
14	13	biscuit	biscuit	biscuit.	11	nopreview	13	14	180	0	0	0	0	180
	14	.	.		11	nopreview	13	15						
15	15	@entity5	Leia	Leia,	11	nopreview	13	16	490	111	3184	111	490	379
	16	,	,		11	nopreview	13	17						
16	17	an	an	an	11	nopreview	13	18	184	184	184	184	184	0
17	18	eight	eight	eight-month-old	11	nopreview	13	19	405	405	405	162	405	0
	19	-	-		11	nopreview	13	20						
	20	month	month		11	nopreview	13	21						
	21	-	-		11	nopreview	13	22						
	22	old	old		11	nopreview	13	23						
18	23	@entity6	Boxer	Boxer	11	nopreview	13	24	175	175	175	175	175	0
19	24	from	from	from	11	nopreview	13	25	0	0	0	0	0	0
20	25	@entity7	Pennsylvania	Pennsylvania,	11	nopreview	13	26	338	338	338	163	338	0
	26	,	,		11	nopreview	13	27						
21	27	was	was	was	11	nopreview	13	28	0	0	0	0	0	0
22	28	filmed	filmed	filmed	11	nopreview	13	29	348	348	348	237	348	0
23	29	as	as	as	11	nopreview	13	30	244	244	244	244	244	0
24	30	she	she	she	11	nopreview	13	31	208	208	208	208	208	0
25	31	lay	lay	lay	11	nopreview	13	32	0	0	0	0	0	0
26	32	on	on	on	11	nopreview	13	33	162	162	162	162	162	0
27	33	the	the	the	11	nopreview	13	34	160	160	160	160	160	0
28	34	couch	couch	couch	11	nopreview	13	35	0	0	0	0	0	0
29	35	and	and	and	11	nopreview	13	36	109	0	0	0	0	109
30	36	latched	latched	latched	11	nopreview	13	37	325	144	434	144	325	181
31	37	on	on	on	11	nopreview	13	38	0	0	0	0	0	0
32	38	to	to	to	11	nopreview	13	39	0	0	0	0	0	0
33	39	a	a	a	11	nopreview	13	40	0	0	0	0	0	0
34	40	baby	baby	baby-s	11	nopreview	13	41	158	158	158	158	158	0
	41	-s	-s		11	nopreview	13	42						
35	42	pacifier	pacifier	pacifier.	11	nopreview	13	43	392	392	392	125	392	0
	43	.	.		11	nopreview	13	44						
36	44	Footage	Footage	Footage	11	nopreview	13	45	492	492	492	492	492	0
37	45	shows	shows	shows	11	nopreview	13	46	146	146	146	146	146	0
38	46	her	her	her	11	nopreview	13	47	0	0	0	0	0	0
39	47	then	then	then	11	nopreview	13	48	161	161	161	161	161	0
40	48	sucking	sucking	sucking	11	nopreview	13	49	148	148	148	148	148	0
41	49	on	on	on	11	nopreview	13	50	0	0	0	0	0	0
42	50	it	it	it	11	nopreview	13	51	180	180	180	180	180	0
43	51	before	before	before	11	nopreview	13	52	177	177	177	177	177	0
44	52	closing	closing	closing	11	nopreview	13	53	362	362	362	130	362	0
45	53	her	her	her	11	nopreview	13	54	0	0	0	0	0	0
46	54	eyes	eyes	eyes	11	nopreview	13	55	0	0	0	0	0	0
47	55	and	and	and	11	nopreview	13	56	0	0	0	0	0	0
48	56	loudly	loudly	loudly	11	nopreview	13	57	296	296	296	147	296	0
49	57	snoring	snoring	snoring	11	nopreview	13	58	237	237	237	237	237	0
50	58	in	in	in	11	nopreview	13	59	0	0	0	0	0	0
51	59	her	her	her	11	nopreview	13	60	230	230	230	230	230	0
52	60	sleep	sleep	sleep.	11	nopreview	13	61	128	128	128	128	128	0
	61	.	.		11	nopreview	13	62						
53	62	A	A	A	11	nopreview	13	63	0	0	0	0	0	0
54	63	soothing	soothing	soothing	11	nopreview	13	64	366	366	366	197	366	0
55	64	rendition	rendition	rendition	11	nopreview	13	65	337	337	337	147	337	0
56	65	of	of	of	11	nopreview	13	66	0	0	0	0	0	0
57	66	@entity16	Twinkle	Twinkle,	11	nopreview	13	67	0	0	0	0	0	0
			,		11	nopreview	13	68						
58			Twinkle	Twinkle	11	nopreview	13	69	0	0	0	0	0	0
59			Little	Little	11	nopreview	13	70	185	185	185	185	185	0
60			Star	Star	11	nopreview	13	71	170	170	170	170	170	0
61	67	is	is	is	11	nopreview	13	72	0	0	0	0	0	0
62	68	heard	heard	heard	11	nopreview	13	73	198	198	198	198	198	0
63	69	playing	playing	playing	11	nopreview	13	74	160	160	160	160	160	0
64	70	away	away	away	11	nopreview	13	75	136	136	136	136	136	0
65	71	in	in	in	11	nopreview	13	76	318	318	318	318	318	0
66	72	the	the	the	11	nopreview	13	77	0	0	0	0	0	0
67	73	background	background	background.	11	nopreview	13	78	233	233	233	233	233	0
	74	.	.		11	nopreview	13	79						
68	75	The	The	The	11	nopreview	13	80	125	125	125	125	125	0
69	76	pup	pup	pup-s	11	nopreview	13	81	459	459	459	185	459	0
	77	-s	-s		11	nopreview	13	82						
70	78	owner	owner	owner,	11	nopreview	13	83	0	0	0	0	0	0
	79	,	,		11	nopreview	13	84						
71	80	@entity18	Dave	Dave	11	nopreview	13	85	0	0	0	0	0	0
72			McK	McK,	11	nopreview	13	86	0	0	0	0	0	0
	81	,	,		11	nopreview	13	87						
73	82	says	says	says	11	nopreview	13	88	663	0	0	0	0	663
74	83	that	that	that	11	nopreview	13	89	147	0	0	0	0	147
75	84	apparently	apparently	apparently	11	nopreview	13	90	370	0	0	0	0	370
76	85	@entity5	Leia	Leia	11	nopreview	13	91	406	0	0	0	0	406
77	86	loves	loves	loves	11	nopreview	13	92	199	0	0	0	0	199
78	87	to	to	to	11	nopreview	13	93	109	0	0	0	0	109
79	88	suck	suck	suck	11	nopreview	13	94	218	0	0	0	0	218
80	89	on	on	on	11	nopreview	13	95	0	0	0	0	0	0
81	90	her	her	her	11	nopreview	13	96	217	0	0	0	0	217
82	91	pacifier	pacifier	pacifier.	11	nopreview	13	97	292	0	0	0	0	292
	92	.	.		11	nopreview	13	98						
83	93	Each	Each	Each	11	nopreview	13	99	190	0	0	0	0	190
84	94	time	time	time	11	nopreview	13	100	214	0	0	0	0	214
85	95	around	around	around,	11	nopreview	13	101	625	383	383	383	383	242
	96	,	,		11	nopreview	13	102						
86	97	she	she	she	11	nopreview	13	103	314	173	3581	173	314	141
87	98	immediately	immediately	immediately	11	nopreview	13	104	262	262	262	109	262	0
88	99	falls	falls	falls	11	nopreview	13	105	199	199	199	199	199	0
89	100	to	to	to	11	nopreview	13	106	138	138	138	138	138	0
90	101	sleep	sleep	sleep.	11	nopreview	13	107	0	0	0	0	0	0
	102	.	.		11	nopreview	13	108						
91	103	To	To	To	11	nopreview	13	109	170	170	170	170	170	0
92	104	date	date	date	11	nopreview	13	110	235	235	235	235	235	0
93	105	the	the	the	11	nopreview	13	111	170	0	0	0	0	170
94	106	video	video	video	11	nopreview	13	112	158	158	328	158	158	0
95	107	of	of	of	11	nopreview	13	113	124	124	124	124	124	0
96	108	@entity5	Leia	Leia	11	nopreview	13	114	0	0	0	0	0	0
97	109	has	has	has	11	nopreview	13	115	196	196	196	196	196	0
98	110	garnered	garnered	garnered	11	nopreview	13	116	471	471	471	197	471	0
99	111	more	more	more	11	nopreview	13	117	133	133	133	133	133	0
100	112	than	than	than	11	nopreview	13	118	352	352	352	237	352	0
101	113	145,000	145,000	145,000	11	nopreview	13	119	136	136	136	136	136	0
102	114	likes	likes	likes	11	nopreview	13	120	590	0	0	0	0	590
103	115	on	on	on	11	nopreview	13	121	136	136	726	136	136	0
104	116	@entity23	Facebook	Facebook,	11	nopreview	13	122	210	210	210	210	210	0
	117	,	,		11	nopreview	13	123						
105	118	with	with	with	11	nopreview	13	124	0	0	0	0	0	0
106	119	many	many	many	11	nopreview	13	125	328	328	328	154	328	0
107	120	viewers	viewers	viewers	11	nopreview	13	126	145	145	145	145	145	0
108	121	deeming	deeming	deeming	11	nopreview	13	127	232	232	232	232	232	0
109	122	the	the	the	11	nopreview	13	128	0	0	0	0	0	0
110	123	scene	scene	scene	11	nopreview	13	129	157	157	157	157	157	0
111	124	-	-	-cute-	11	nopreview	13	130	382	382	382	141	382	0
	125	cute	cute		11	nopreview	13	131						
	126	-	-		11	nopreview	13	132						
112	127	and	and	and	11	nopreview	13	133	0	0	0	0	0	0
113	128	-	-	-adorable-.	11	nopreview	13	134	319	319	319	142	319	0
	129	adorable	adorable		11	nopreview	13	135						
	130	-	-		11	nopreview	13	136						
	131	.	.		11	nopreview	13	137						
114	132	-	-	-This	11	nopreview	13	138	199	199	199	199	199	0
	133	This	This		11	nopreview	13	139						
115	134	has	has	has	11	nopreview	13	140	421	278	278	278	278	143
116	135	made	made	made	11	nopreview	13	141	525	222	222	222	222	303
117	136	my	my	my	11	nopreview	13	142	0	0	0	0	0	0
118	137	night	night	night,-	11	nopreview	13	143	282	282	728	282	282	0
	138	,	,		11	nopreview	13	144						
119	139	-	-	one	11	nopreview	13	145	0	0	0	0	0	0
120	140	one	one	fan	11	nopreview	13	146	205	205	205	205	205	0
121	141	fan	fan	exclaimed,	11	nopreview	13	147	322	322	322	203	322	0
	142	exclaimed	exclaimed		11	nopreview	13	148						
	143	,	,		11	nopreview	13	149						
122	144	while	while	while	11	nopreview	13	150	156	0	0	0	0	156
123	145	another	another	another	11	nopreview	13	151	141	141	297	141	141	0
124	146	added	added	added:	11	nopreview	13	152	433	304	304	171	304	129
125	147	:	:	-That	11	nopreview	13	153	226	0	0	0	0	226
	148	-	-		11	nopreview	13	154						
	149	That	That		11	nopreview	13	155						
126	150	is	is	is	11	nopreview	13	156	213	213	213	213	213	0
127	151	the	the	the	11	nopreview	13	157	319	0	0	0	0	319
128	152	cutest	cutest	cutest	11	nopreview	13	158	306	306	306	159	306	0
129	153	thing	thing	thing	11	nopreview	13	159	506	164	164	164	164	342
130	154	I	I	I-ve	11	nopreview	13	160	140	0	0	0	0	140
	155	-ve	-ve		11	nopreview	13	161						
131	156	ever	ever	ever	11	nopreview	13	162	137	137	277	137	137	0
132	157	seen	seen	seen!-	11	nopreview	13	163	282	282	282	138	282	0
	158	!	!		11	nopreview	13	164						
	159	-	-		11	nopreview	13	165						
133	160	When	When	When	11	nopreview	13	166	274	274	274	274	274	0
134	161	she	she	she-s	11	nopreview	13	167	235	235	235	235	235	0
	162	-s	-s		11	nopreview	13	168						
135	163	not	not	not	11	nopreview	13	169	552	552	552	552	552	0
136	164	snoozing	snoozing	snoozing,	11	nopreview	13	170	201	201	201	201	201	0
	165	,	,		11	nopreview	13	171						
137	166	@entity5	Leia	Leia	11	nopreview	13	172	191	191	191	191	191	0
138	167	is	is	is	11	nopreview	13	173	143	143	143	143	143	0
139	168	usually	usually	usually	11	nopreview	13	174	370	185	859	185	185	185
140	169	getting	getting	getting	11	nopreview	13	175	269	0	0	0	0	269
141	170	up	up	up	11	nopreview	13	176	203	0	0	0	0	203
142	171	to	to	to	11	nopreview	13	177	0	0	0	0	0	0
143	172	mischief	mischief	mischief	11	nopreview	13	178	0	0	0	0	0	0
144	173	with	with	with	11	nopreview	13	179	0	0	0	0	0	0
145	174	her	her	her	11	nopreview	13	180	121	121	121	121	121	0
146	175	older	older	older	11	nopreview	13	181	166	166	166	166	166	0
147	176	brother	brother	brother	11	nopreview	13	182	0	0	0	0	0	0
148	177	@entity31	Luke	Luke.	11	nopreview	13	183	211	211	211	211	211	0
	178	.	.		11	nopreview	13	184						
149	179	Together	Together	Together,	11	nopreview	13	185	448	448	448	146	448	0
	180	,	,		11	nopreview	13	186						
150	181	the	the	the	11	nopreview	13	187	0	0	0	0	0	0
151	182	canines	canines	canines	11	nopreview	13	188	436	436	436	148	436	0
152	183	have	have	have	11	nopreview	13	189	134	134	1133	134	134	0
153	184	starred	starred	starred	11	nopreview	13	190	0	0	0	0	0	0
154	185	in	in	in	11	nopreview	13	191	0	0	0	0	0	0
155	186	numerous	numerous	numerous	11	nopreview	13	192	0	0	0	0	0	0
156	187	videos	videos	videos	11	nopreview	13	193	0	0	0	0	0	0
157	188	via	via	via	11	nopreview	13	194	0	0	0	0	0	0
158	189	@entity23	Facebook	Facebook	11	nopreview	13	195	228	228	228	228	228	0
159	190	and	and	and	11	nopreview	13	196	0	0	228	0	0	0
160	191	@entity34	YouTube	YouTube.	11	nopreview	13	197	285	285	285	184	285	0
	192	.	.		11	nopreview	13	198						
161	193	They	They	They	11	nopreview	13	199	0	0	0	0	0	0
162	194	also	also	also	11	nopreview	13	200	231	231	231	231	231	0
163	195	have	have	have	11	nopreview	13	201	170	170	170	170	170	0
164	196	their	their	their	11	nopreview	13	202	255	255	255	160	255	0
165	197	own	own	own	11	nopreview	13	203	0	0	0	0	0	0
166	198	website	website	website,	11	nopreview	13	204	153	153	153	153	153	0
	199	,	,		11	nopreview	13	205						
167	200	www.luketheboxer.com	www.luketheboxer.com	www.luketheboxer.com,	11	nopreview	13	206	1158	1158	1158	236	1158	0
168	201	where	where	where	11	nopreview	13	207	145	145	145	145	145	0
169	202	fans	fans	fans	11	nopreview	13	208	263	263	263	263	263	0
170	203	can	can	can	11	nopreview	13	209	193	193	193	193	193	0
171	204	buy	buy	buy	11	nopreview	13	210	166	0	0	0	0	166
172	205	calendars	calendars	calendars	11	nopreview	13	211	335	190	501	190	335	145
173	206	with	with	with	11	nopreview	13	212	341	341	341	341	341	0
174	207	their	their	their	11	nopreview	13	213	204	204	204	204	204	0
175	208	photographs	photographs	photographs	11	nopreview	13	214	0	0	0	0	0	0
176	209	on	on	on.	11	nopreview	13	215	99	99	99	99	99	0
	210	.	.		11	nopreview	13	216						
