HumanPosition	AnonymizedPosition	AnonymizedToken	OriginalToken	ExperimentToken	Participant	Condition	TextNo	JointPosition	tt	fp	rp	ff	rb	sp
1	0	A	A	A	11	nopreview	18	1	0	0	0	0	0	0
2	1	man	man	man	11	nopreview	18	2	258	258	258	131	258	0
3	2	was	was	was	11	nopreview	18	3	125	0	0	0	0	125
4	3	horrified	horrified	horrified	11	nopreview	18	4	267	267	392	267	267	0
5	4	after	after	after	11	nopreview	18	5	0	0	0	0	0	0
6	5	finding	finding	finding	11	nopreview	18	6	282	282	282	282	282	0
7	6	a	a	a	11	nopreview	18	7	0	0	0	0	0	0
8	7	five	five	five	11	nopreview	18	8	404	404	404	237	404	0
9	8	inch	inch	inch	11	nopreview	18	9	150	150	150	150	150	0
10	9	piece	piece	piece	11	nopreview	18	10	300	300	300	300	300	0
11	10	of	of	of	11	nopreview	18	11	0	0	0	0	0	0
12	11	TIMBER	TIMBER	TIMBER	11	nopreview	18	12	322	322	322	176	322	0
13	12	in	in	in	11	nopreview	18	13	0	0	0	0	0	0
14	13	his	his	his	11	nopreview	18	14	240	240	240	240	240	0
15	14	frozen	frozen	frozen	11	nopreview	18	15	287	287	287	156	287	0
16	15	curry	curry	curry.	11	nopreview	18	16	206	206	206	206	206	0
	16	.	.		11	nopreview	18	17						
17	17	@entity5	John	John	11	nopreview	18	18	601	0	0	0	0	601
18			Foran	Foran-s	11	nopreview	18	19	239	115	840	115	239	124
	18	’s	’s		11	nopreview	18	20						
19	19	wife	wife	wife	11	nopreview	18	21	188	188	188	188	188	0
20	20	@entity4	Nita	Nita	11	nopreview	18	22	106	106	106	106	106	0
21	21	was	was	was	11	nopreview	18	23	0	0	0	0	0	0
22	22	preparing	preparing	preparing	11	nopreview	18	24	410	410	410	323	410	0
23	23	a	a	a	11	nopreview	18	25	0	0	0	0	0	0
24	24	chicken	chicken	chicken	11	nopreview	18	26	172	172	172	172	172	0
25	25	tikka	tikka	tikka	11	nopreview	18	27	293	293	293	293	293	0
26	26	biryani	biryani	biryani	11	nopreview	18	28	170	170	170	170	170	0
27	27	stir	stir	stir-fry	11	nopreview	18	29	236	236	236	236	236	0
	28	-	-		11	nopreview	18	30						
	29	fry	fry		11	nopreview	18	31						
28	30	on	on	on	11	nopreview	18	32	125	125	125	125	125	0
29	31	Tuesday	Tuesday	Tuesday	11	nopreview	18	33	0	0	0	0	0	0
30	32	April	April	April	11	nopreview	18	34	214	0	0	0	0	214
31	33	7	7	7	11	nopreview	18	35	118	118	332	118	118	0
32	34	when	when	when	11	nopreview	18	36	160	160	160	160	160	0
33	35	he	he	he	11	nopreview	18	37	0	0	0	0	0	0
34	36	found	found	found	11	nopreview	18	38	136	136	136	136	136	0
35	37	the	the	the	11	nopreview	18	39	0	0	0	0	0	0
36	38	splinter	splinter	splinter-covered	11	nopreview	18	40	578	578	578	220	578	0
	39	-	-		11	nopreview	18	41						
	40	covered	covered		11	nopreview	18	42						
37	41	shard	shard	shard.	11	nopreview	18	43	0	0	0	0	0	0
	42	.	.		11	nopreview	18	44						
38	43	The	The	The	11	nopreview	18	45	195	195	195	195	195	0
39	44	£	£	£2	11	nopreview	18	46	0	0	0	0	0	0
	45	2	2		11	nopreview	18	47						
40	46	ready	ready	ready	11	nopreview	18	48	421	421	421	157	421	0
41	47	meal	meal	meal	11	nopreview	18	49	144	144	144	144	144	0
42	48	was	was	was	11	nopreview	18	50	0	0	0	0	0	0
43	49	bought	bought	bought	11	nopreview	18	51	273	273	273	179	273	0
44	50	from	from	from	11	nopreview	18	52	85	85	85	85	85	0
45	51	an	an	an	11	nopreview	18	53	203	203	203	203	203	0
46	52	@entity11	Iceland	Iceland	11	nopreview	18	54	136	136	136	136	136	0
47			Foods	Foods	11	nopreview	18	55	0	0	0	0	0	0
48	53	store	store	store	11	nopreview	18	56	398	398	398	398	398	0
49	54	in	in	in	11	nopreview	18	57	0	0	0	0	0	0
50	55	@entity12	Spytty	Spytty	11	nopreview	18	58	460	460	460	184	460	0
51			Retail	Retail	11	nopreview	18	59	211	211	211	211	211	0
52			Park	Park	11	nopreview	18	60	0	0	0	0	0	0
53	56	near	near	near	11	nopreview	18	61	155	155	155	155	155	0
54	57	the	the	the	11	nopreview	18	62	0	0	0	0	0	0
55	58	couple	couple	couple-s	11	nopreview	18	63	281	281	281	152	281	0
	59	’s	’s		11	nopreview	18	64						
56	60	home	home	home	11	nopreview	18	65	0	0	0	0	0	0
57	61	in	in	in	11	nopreview	18	66	198	198	198	198	198	0
58	62	@entity15	Newport	Newport,	11	nopreview	18	67	134	134	134	134	134	0
	63	,	,		11	nopreview	18	68						
59	64	@entity16	South	South	11	nopreview	18	69	134	134	134	134	134	0
60			Wales	Wales,	11	nopreview	18	70	239	239	239	239	239	0
	65	,	,		11	nopreview	18	71						
61	66	within	within	within	11	nopreview	18	72	605	217	217	217	217	388
62	67	the	the	the	11	nopreview	18	73	0	0	0	0	0	0
63	68	last	last	last	11	nopreview	18	74	456	174	376	174	174	282
64	69	two	two	two	11	nopreview	18	75	229	229	511	229	229	0
65	70	weeks	weeks	weeks.	11	nopreview	18	76	180	180	366	180	180	0
	71	.	.		11	nopreview	18	77						
66	72	@entity5	John	John,	11	nopreview	18	78	271	271	11995	124	271	0
			Foran		11	nopreview	18	79						
	73	was	was		11	nopreview	18	80						
67	74	horrified	horrified	59,	11	nopreview	18	81	128	0	0	0	0	128
	75	to	to		11	nopreview	18	82						
	76	find	find		11	nopreview	18	83						
	77	a	a		11	nopreview	18	84						
68	78	five	five	said:	11	nopreview	18	85	404	160	532	160	404	244
	79	inch	inch		11	nopreview	18	86						
	80	piece	piece		11	nopreview	18	87						
	81	of	of		11	nopreview	18	88						
	82	timber	timber		11	nopreview	18	89						
	83	in	in		11	nopreview	18	90						
	84	his	his		11	nopreview	18	91						
	85	@entity11	Iceland		11	nopreview	18	92						
	86	chicken	chicken		11	nopreview	18	93						
	87	tikka	tikka		11	nopreview	18	94						
	88	biryani	biryani		11	nopreview	18	95						
	89	curry	curry		11	nopreview	18	96						
	90	@entity5	John		11	nopreview	18	97						
	91	,	,		11	nopreview	18	98						
	92	59	59		11	nopreview	18	99						
	93	,	,		11	nopreview	18	100						
	94	said	said		11	nopreview	18	101						
69	95	:	:	-When	11	nopreview	18	102	260	260	260	260	260	0
	96	-	-		11	nopreview	18	103						
	97	When	When		11	nopreview	18	104						
70	98	it	it	it	11	nopreview	18	105	0	0	0	0	0	0
71	99	fell	fell	fell	11	nopreview	18	106	301	301	301	149	301	0
72	100	out	out	out	11	nopreview	18	107	174	174	174	174	174	0
73	101	of	of	of	11	nopreview	18	108	0	0	0	0	0	0
74	102	the	the	the	11	nopreview	18	109	288	288	288	288	288	0
75	103	bag	bag	bag	11	nopreview	18	110	0	0	0	0	0	0
76	104	I	I	I	11	nopreview	18	111	0	0	0	0	0	0
77	105	could	could	couldn-t	11	nopreview	18	112	340	340	340	340	340	0
	106	n’t	n’t		11	nopreview	18	113						
78	107	believe	believe	believe	11	nopreview	18	114	174	174	174	174	174	0
79	108	it	it	it.	11	nopreview	18	115	0	0	0	0	0	0
	109	.	.		11	nopreview	18	116						
80	110	-	-	-As	11	nopreview	18	117	183	183	183	183	183	0
	111	As	As		11	nopreview	18	118						
81	112	@entity4	Nita	Nita	11	nopreview	18	119	355	355	355	355	355	0
82	113	was	was	was	11	nopreview	18	120	239	239	239	239	239	0
83	114	putting	putting	putting	11	nopreview	18	121	210	210	210	210	210	0
84	115	it	it	it	11	nopreview	18	122	272	272	272	272	272	0
85	116	in	in	in	11	nopreview	18	123	0	0	0	0	0	0
86	117	the	the	the	11	nopreview	18	124	166	166	166	166	166	0
87	118	stir	stir	stir	11	nopreview	18	125	190	190	190	190	190	0
88	119	fry	fry	fry	11	nopreview	18	126	0	0	0	0	0	0
89	120	dish	dish	dish,	11	nopreview	18	127	441	441	441	298	441	0
	121	,	,		11	nopreview	18	128						
90	122	she	she	she	11	nopreview	18	129	0	0	0	0	0	0
91	123	thought	thought	thought	11	nopreview	18	130	344	344	344	184	344	0
92	124	it	it	it	11	nopreview	18	131	189	189	189	189	189	0
93	125	was	was	was	11	nopreview	18	132	145	0	0	0	0	145
94	126	just	just	just	11	nopreview	18	133	272	272	272	272	272	0
95	127	a	a	a	11	nopreview	18	134	0	0	0	0	0	0
96	128	big	big	big	11	nopreview	18	135	204	0	0	0	0	204
97	129	bit	bit	bit	11	nopreview	18	136	522	145	726	145	522	377
98	130	of	of	of	11	nopreview	18	137	178	178	178	178	178	0
99	131	veg	veg	veg.	11	nopreview	18	138	252	252	252	252	252	0
	132	.	.		11	nopreview	18	139						
100	133	-	-	-It	11	nopreview	18	140	0	0	0	0	0	0
	134	It	It		11	nopreview	18	141						
101	135	was	was	was	11	nopreview	18	142	274	274	274	274	274	0
102	136	a	a	a	11	nopreview	18	143	141	141	141	141	141	0
103	137	piece	piece	piece	11	nopreview	18	144	248	248	248	248	248	0
104	138	of	of	of	11	nopreview	18	145	0	0	0	0	0	0
105	139	wood	wood	wood	11	nopreview	18	146	320	320	320	167	320	0
106	140	with	with	with	11	nopreview	18	147	162	162	162	162	162	0
107	141	splinters	splinters	splinters	11	nopreview	18	148	168	168	168	168	168	0
108	142	coming	coming	coming	11	nopreview	18	149	260	260	260	260	260	0
109	143	off	off	off	11	nopreview	18	150	510	510	510	510	510	0
110	144	it	it	it.	11	nopreview	18	151	0	0	0	0	0	0
	145	.	.		11	nopreview	18	152						
111	146	-	-	-I	11	nopreview	18	153	0	0	0	0	0	0
	147	I	I		11	nopreview	18	154						
112	148	just	just	just	11	nopreview	18	155	381	381	526	381	381	0
113	149	do	do	don-t	11	nopreview	18	156	290	0	0	0	0	290
	150	n’t	n’t		11	nopreview	18	157						
114	151	understand	understand	understand	11	nopreview	18	158	274	122	564	122	274	152
115	152	how	how	how	11	nopreview	18	159	329	329	329	329	329	0
116	153	it	it	it	11	nopreview	18	160	0	0	0	0	0	0
117	154	got	got	got	11	nopreview	18	161	299	299	299	299	299	0
118	155	inside	inside	inside.-	11	nopreview	18	162	0	0	0	0	0	0
	156	.	.		11	nopreview	18	163						
119	157	-	-	Shocked	11	nopreview	18	164	321	321	321	321	321	0
	158	@entity11	Iceland		11	nopreview	18	165						
	159	said	said		11	nopreview	18	166						
	160	they	they		11	nopreview	18	167						
	161	are	are		11	nopreview	18	168						
	162	carrying	carrying		11	nopreview	18	169						
	163	out	out		11	nopreview	18	170						
	164	a	a		11	nopreview	18	171						
	165	thorough	thorough		11	nopreview	18	172						
	166	investigation	investigation		11	nopreview	18	173						
	167	into	into		11	nopreview	18	174						
	168	how	how		11	nopreview	18	175						
	169	the	the		11	nopreview	18	176						
	170	timber	timber		11	nopreview	18	177						
	171	shard	shard		11	nopreview	18	178						
	172	came	came		11	nopreview	18	179						
	173	to	to		11	nopreview	18	180						
	174	be	be		11	nopreview	18	181						
	175	in	in		11	nopreview	18	182						
	176	the	the		11	nopreview	18	183						
	177	curry	curry		11	nopreview	18	184						
	178	Shocked	Shocked		11	nopreview	18	185						
120	179	@entity5	John	John	11	nopreview	18	186	0	0	0	0	0	0
121	180	immediately	immediately	immediately	11	nopreview	18	187	296	296	296	149	296	0
122	181	contacted	contacted	contacted	11	nopreview	18	188	315	315	315	315	315	0
123	182	@entity11	Iceland	Iceland	11	nopreview	18	189	236	236	236	236	236	0
124	183	who	who	who	11	nopreview	18	190	164	164	164	164	164	0
125	184	are	are	are	11	nopreview	18	191	183	0	0	0	0	183
126	185	currently	currently	currently	11	nopreview	18	192	233	118	416	118	233	115
127	186	investigating	investigating	investigating	11	nopreview	18	193	241	241	241	241	241	0
128	187	the	the	the	11	nopreview	18	194	235	0	0	0	0	235
129	188	matter	matter	matter.	11	nopreview	18	195	190	190	425	190	190	0
	189	.	.		11	nopreview	18	196						
130	190	He	He	He	11	nopreview	18	197	0	0	0	0	0	0
131	191	said	said	said:	11	nopreview	18	198	312	312	312	197	312	0
132	192	:	:	-It	11	nopreview	18	199	0	0	0	0	0	0
	193	“	“		11	nopreview	18	200						
133	194	It	It	may	11	nopreview	18	201	199	199	199	199	199	0
134	195	may	may	only	11	nopreview	18	202	487	487	487	287	487	0
135	196	only	only	have	11	nopreview	18	203	148	148	148	148	148	0
	197	have	have		11	nopreview	18	204						
136	198	been	been	been	11	nopreview	18	205	141	141	141	141	141	0
137	199	£	£	£2	11	nopreview	18	206	0	0	0	0	0	0
	200	2	2		11	nopreview	18	207						
138	201	but	but	but	11	nopreview	18	208	90	90	90	90	90	0
139	202	that	that	that-s	11	nopreview	18	209	451	451	451	180	451	0
	203	’s	’s		11	nopreview	18	210						
140	204	beside	beside	beside	11	nopreview	18	211	127	127	127	127	127	0
141	205	the	the	the	11	nopreview	18	212	0	0	0	0	0	0
142	206	point	point	point.	11	nopreview	18	213	182	182	182	182	182	0
	207	.	.		11	nopreview	18	214						
143	208	-	-	-Things	11	nopreview	18	215	204	204	204	204	204	0
	209	Things	Things		11	nopreview	18	216						
144	210	like	like	like	11	nopreview	18	217	189	189	189	189	189	0
145	211	this	this	this	11	nopreview	18	218	0	0	0	0	0	0
146	212	should	should	should	11	nopreview	18	219	296	296	296	149	296	0
147	213	not	not	not	11	nopreview	18	220	0	0	0	0	0	0
148	214	be	be	be	11	nopreview	18	221	0	0	0	0	0	0
149	215	in	in	in	11	nopreview	18	222	233	233	233	233	233	0
150	216	your	your	your	11	nopreview	18	223	219	219	219	219	219	0
151	217	food	food	food.	11	nopreview	18	224	0	0	0	0	0	0
	218	.	.		11	nopreview	18	225						
152	219	-	-	-I	11	nopreview	18	226	0	0	0	0	0	0
	220	I	I		11	nopreview	18	227						
153	221	contacted	contacted	contacted	11	nopreview	18	228	331	331	331	204	331	0
154	222	@entity11	Iceland	Iceland	11	nopreview	18	229	260	260	260	118	260	0
155	223	and	and	and	11	nopreview	18	230	282	282	542	282	282	0
156	224	all	all	all	11	nopreview	18	231	0	0	0	0	0	0
157	225	they	they	they	11	nopreview	18	232	0	0	0	0	0	0
158	226	said	said	said	11	nopreview	18	233	428	428	428	215	428	0
159	227	was	was	was	11	nopreview	18	234	0	0	0	0	0	0
160	228	take	take	take	11	nopreview	18	235	222	222	222	222	222	0
161	229	it	it	it	11	nopreview	18	236	0	0	0	0	0	0
162	230	back	back	back	11	nopreview	18	237	461	461	461	461	461	0
163	231	to	to	to	11	nopreview	18	238	0	0	0	0	0	0
164	232	the	the	the	11	nopreview	18	239	0	0	0	0	0	0
165	233	shop	shop	shop	11	nopreview	18	240	151	151	151	151	151	0
166	234	and	and	and	11	nopreview	18	241	0	0	0	0	0	0
167	235	that	that	that	11	nopreview	18	242	402	159	159	159	159	243
168	236	they	they	they-ll	11	nopreview	18	243	517	517	760	122	517	0
	237	’ll	’ll		11	nopreview	18	244						
169	238	be	be	be	11	nopreview	18	245	0	0	0	0	0	0
170	239	in	in	in	11	nopreview	18	246	238	238	238	238	238	0
171	240	touch	touch	touch.	11	nopreview	18	247	0	0	0	0	0	0
	241	.	.		11	nopreview	18	248						
172	242	-	-	-But	11	nopreview	18	249	172	0	0	0	0	172
	243	But	But		11	nopreview	18	250						
173	244	I	I	I	11	nopreview	18	251	0	0	0	0	0	0
174	245	want	want	want	11	nopreview	18	252	345	0	0	0	0	345
175	246	people	people	people	11	nopreview	18	253	789	81	81	81	81	708
176	247	to	to	to	11	nopreview	18	254	0	0	0	0	0	0
177	248	know	know	know	11	nopreview	18	255	0	0	0	0	0	0
178	249	what	what	what	11	nopreview	18	256	0	0	0	0	0	0
179	250	could	could	could	11	nopreview	18	257	0	0	0	0	0	0
180	251	be	be	be	11	nopreview	18	258	0	0	0	0	0	0
181	252	hiding	hiding	hiding	11	nopreview	18	259	147	0	0	0	0	147
182	253	in	in	in	11	nopreview	18	260	0	0	0	0	0	0
183	254	their	their	their	11	nopreview	18	261	423	423	423	281	423	0
184	255	meal	meal	meal.-	11	nopreview	18	262	276	135	135	135	135	141
	256	.	.		11	nopreview	18	263						
185	257	”	”	An	11	nopreview	18	264	153	0	0	0	0	153
186	258	An	An	Iceland	11	nopreview	18	265	321	190	1864	190	321	131
	259	@entity11	Iceland		11	nopreview	18	266						
187	260	spokeswoman	spokeswoman	spokeswoman	11	nopreview	18	267	552	97	220	97	97	455
188	261	said	said	said:	11	nopreview	18	268	230	0	0	0	0	230
189	262	:	:	-Please	11	nopreview	18	269	413	192	192	192	192	221
	263	’	’		11	nopreview	18	270						
	264	Please	Please		11	nopreview	18	271						
190	265	be	be	be	11	nopreview	18	272	200	200	200	200	200	0
191	266	assured	assured	assured	11	nopreview	18	273	117	117	117	117	117	0
192	267	that	that	that	11	nopreview	18	274	0	0	0	0	0	0
193	268	we	we	we	11	nopreview	18	275	153	153	153	153	153	0
194	269	take	take	take	11	nopreview	18	276	254	254	254	254	254	0
195	270	all	all	all	11	nopreview	18	277	163	163	163	163	163	0
196	271	complaints	complaints	complaints	11	nopreview	18	278	223	223	223	223	223	0
197	272	extremely	extremely	extremely	11	nopreview	18	279	490	490	490	490	490	0
198	273	seriously	seriously	seriously.	11	nopreview	18	280	259	259	1165	259	259	0
	274	.	.		11	nopreview	18	281						
199	275	We	We	We	11	nopreview	18	282	348	0	0	0	0	348
200	276	can	can	can	11	nopreview	18	283	0	0	0	0	0	0
201	277	confirm	confirm	confirm	11	nopreview	18	284	191	0	0	0	0	191
202	278	that	that	that	11	nopreview	18	285	0	0	0	0	0	0
203	279	Mr	Mr	Mr	11	nopreview	18	286	0	0	0	0	0	0
204	280	@entity5	Foran	Foran	11	nopreview	18	287	0	0	0	0	0	0
205	281	has	has	has	11	nopreview	18	288	410	216	216	216	216	194
206	282	now	now	now	11	nopreview	18	289	526	526	720	212	526	0
207	283	been	been	been	11	nopreview	18	290	0	0	0	0	0	0
208	284	in	in	in	11	nopreview	18	291	357	357	357	357	357	0
209	285	touch	touch	touch	11	nopreview	18	292	0	0	0	0	0	0
210	286	with	with	with	11	nopreview	18	293	190	190	190	190	190	0
211	287	our	our	our	11	nopreview	18	294	400	400	400	400	400	0
212	288	customer	customer	customer	11	nopreview	18	295	0	0	0	0	0	0
213	289	care	care	care	11	nopreview	18	296	414	414	414	414	414	0
214	290	department	department	department	11	nopreview	18	297	147	147	686	147	147	0
215	291	regarding	regarding	regarding	11	nopreview	18	298	253	0	0	0	0	253
216	292	the	the	the	11	nopreview	18	299	0	0	0	0	0	0
217	293	foreign	foreign	foreign	11	nopreview	18	300	138	138	138	138	138	0
218	294	body	body	body	11	nopreview	18	301	238	238	238	238	238	0
219	295	found	found	found	11	nopreview	18	302	274	274	274	125	274	0
220	296	in	in	in	11	nopreview	18	303	161	161	161	161	161	0
221	297	his	his	his	11	nopreview	18	304	0	0	0	0	0	0
222	298	ready	ready	ready	11	nopreview	18	305	555	174	174	174	174	381
223	299	meal	meal	meal.	11	nopreview	18	306	0	0	0	0	0	0
	300	.	.		11	nopreview	18	307						
224	301	-	-	-Mr	11	nopreview	18	308	433	245	814	245	433	188
	302	Mr	Mr		11	nopreview	18	309						
225	303	@entity5	Foran	Foran	11	nopreview	18	310	158	158	158	158	158	0
226	304	is	is	is	11	nopreview	18	311	0	0	0	0	0	0
227	305	returning	returning	returning	11	nopreview	18	312	552	552	552	154	552	0
228	306	the	the	the	11	nopreview	18	313	0	0	0	0	0	0
229	307	item	item	item	11	nopreview	18	314	150	150	403	150	150	0
230	308	to	to	to	11	nopreview	18	315	220	0	0	0	0	220
231	309	the	the	the	11	nopreview	18	316	0	0	0	0	0	0
232	310	store	store	store	11	nopreview	18	317	0	0	0	0	0	0
233	311	and	and	and	11	nopreview	18	318	0	0	0	0	0	0
234	312	the	the	the	11	nopreview	18	319	167	167	167	167	167	0
235	313	foreign	foreign	foreign	11	nopreview	18	320	473	473	473	295	473	0
236	314	body	body	body	11	nopreview	18	321	346	346	346	346	346	0
237	315	will	will	will	11	nopreview	18	322	238	238	238	238	238	0
238	316	be	be	be	11	nopreview	18	323	0	0	0	0	0	0
239	317	collected	collected	collected	11	nopreview	18	324	344	344	344	221	344	0
240	318	by	by	by	11	nopreview	18	325	0	0	0	0	0	0
241	319	our	our	our	11	nopreview	18	326	354	354	354	208	354	0
242	320	supplier	supplier	supplier	11	nopreview	18	327	138	138	138	138	138	0
243	321	in	in	in	11	nopreview	18	328	0	0	0	0	0	0
244	322	order	order	order	11	nopreview	18	329	332	332	332	189	332	0
245	323	for	for	for	11	nopreview	18	330	0	0	0	0	0	0
246	324	them	them	them	11	nopreview	18	331	132	132	352	132	132	0
247	325	to	to	to	11	nopreview	18	332	0	0	0	0	0	0
248	326	carry	carry	carry	11	nopreview	18	333	0	0	0	0	0	0
249	327	out	out	out	11	nopreview	18	334	0	0	0	0	0	0
250	328	a	a	a	11	nopreview	18	335	0	0	0	0	0	0
251	329	thorough	thorough	thorough	11	nopreview	18	336	339	339	339	339	339	0
252	330	investigation	investigation	investigation.	11	nopreview	18	337	322	322	322	187	322	0
	331	.	.		11	nopreview	18	338						
253	332	As	As	As	11	nopreview	18	339	0	0	0	0	0	0
254	333	soon	soon	soon	11	nopreview	18	340	435	435	435	191	435	0
255	334	as	as	as	11	nopreview	18	341	0	0	0	0	0	0
256	335	we	we	we	11	nopreview	18	342	177	177	177	177	177	0
257	336	have	have	have	11	nopreview	18	343	176	176	176	176	176	0
258	337	the	the	the	11	nopreview	18	344	0	0	0	0	0	0
259	338	results	results	results	11	nopreview	18	345	297	297	297	132	297	0
260	339	of	of	of	11	nopreview	18	346	0	0	0	0	0	0
261	340	this	this	this	11	nopreview	18	347	92	92	92	92	92	0
262	341	investigation	investigation	investigation	11	nopreview	18	348	254	254	254	128	254	0
263	342	we	we	we	11	nopreview	18	349	186	186	186	186	186	0
264	343	will	will	will	11	nopreview	18	350	0	0	0	0	0	0
265	344	get	get	get	11	nopreview	18	351	249	249	249	249	249	0
266	345	back	back	back	11	nopreview	18	352	156	156	156	156	156	0
267	346	in	in	in	11	nopreview	18	353	137	137	137	137	137	0
268	347	touch	touch	touch	11	nopreview	18	354	296	296	296	296	296	0
269	348	with	with	with	11	nopreview	18	355	226	226	226	226	226	0
270	349	Mr	Mr	Mr	11	nopreview	18	356	0	0	0	0	0	0
271	350	@entity5	Foran	Foran.-	11	nopreview	18	357	247	247	247	247	247	0
	351	.	.		11	nopreview	18	358						
