HumanPosition	AnonymizedPosition	AnonymizedToken	OriginalToken	ExperimentToken	Participant	Condition	TextNo	JointPosition	tt	fp	rp	ff	rb	sp
1	0	(	(	Sabra	11	nopreview	2	1	190	0	0	0	0	190
	1	@entity2	CNN		11	nopreview	2	2						
	2	)	)		11	nopreview	2	3						
	3	@entity1	Sabra		11	nopreview	2	4						
2			Dipping	Dipping	11	nopreview	2	5	359	0	0	0	0	359
3			Co.	Co.	11	nopreview	2	6	304	0	0	0	0	304
4	4	is	is	is	11	nopreview	2	7	0	0	0	0	0	0
5	5	recalling	recalling	recalling	11	nopreview	2	8	274	0	0	0	0	274
6	6	30,000	30,000	30,000	11	nopreview	2	9	210	0	0	0	0	210
7	7	cases	cases	cases	11	nopreview	2	10	486	0	0	0	0	486
8	8	of	of	of	11	nopreview	2	11	0	0	0	0	0	0
9	9	hummus	hummus	hummus	11	nopreview	2	12	196	0	0	0	0	196
10	10	due	due	due	11	nopreview	2	13	389	0	0	0	0	389
11	11	to	to	to	11	nopreview	2	14	0	0	0	0	0	0
12	12	possible	possible	possible	11	nopreview	2	15	306	0	0	0	0	306
13	13	contamination	contamination	contamination	11	nopreview	2	16	188	0	0	0	0	188
14	14	with	with	with	11	nopreview	2	17	151	0	0	0	0	151
15	15	@entity6	Listeria	Listeria,	11	nopreview	2	18	466	128	3519	128	466	338
	16	,	,		11	nopreview	2	19						
16	17	the	the	the	11	nopreview	2	20	120	0	0	0	0	120
17	18	@entity0	U.S.	U.S.	11	nopreview	2	21	362	238	238	238	238	124
18			Food	Food	11	nopreview	2	22	402	238	238	238	238	164
19			and	and	11	nopreview	2	23	0	0	0	0	0	0
20			Drug	Drug	11	nopreview	2	24	344	234	234	234	234	110
21			Administration	Administration	11	nopreview	2	25	352	178	178	178	178	174
22	19	said	said	said	11	nopreview	2	26	0	0	0	0	0	0
23	20	Wednesday	Wednesday	Wednesday.	11	nopreview	2	27	458	294	294	294	294	164
	21	.	.		11	nopreview	2	28						
24	22	The	The	The	11	nopreview	2	29	0	0	0	0	0	0
25	23	nationwide	nationwide	nationwide	11	nopreview	2	30	526	526	526	188	526	0
26	24	recall	recall	recall	11	nopreview	2	31	519	403	1259	403	403	116
27	25	is	is	is	11	nopreview	2	32	0	0	0	0	0	0
28	26	voluntary	voluntary	voluntary.	11	nopreview	2	33	0	0	0	0	0	0
	27	.	.		11	nopreview	2	34						
29	28	So	So	So	11	nopreview	2	35	0	0	0	0	0	0
30	29	far	far	far,	11	nopreview	2	36	0	0	0	0	0	0
	30	,	,		11	nopreview	2	37						
31	31	no	no	no	11	nopreview	2	38	203	203	203	203	203	0
32	32	illnesses	illnesses	illnesses	11	nopreview	2	39	212	212	212	212	212	0
33	33	caused	caused	caused	11	nopreview	2	40	468	468	468	468	468	0
34	34	by	by	by	11	nopreview	2	41	0	0	0	0	0	0
35	35	the	the	the	11	nopreview	2	42	150	150	150	150	150	0
36	36	hummus	hummus	hummus	11	nopreview	2	43	0	0	0	0	0	0
37	37	have	have	have	11	nopreview	2	44	179	0	0	0	0	179
38	38	been	been	been	11	nopreview	2	45	198	198	377	198	198	0
39	39	reported	reported	reported.	11	nopreview	2	46	252	252	368	127	252	0
	40	.	.		11	nopreview	2	47						
40	41	The	The	The	11	nopreview	2	48	139	139	139	139	139	0
41	42	potential	potential	potential	11	nopreview	2	49	218	218	218	218	218	0
42	43	for	for	for	11	nopreview	2	50	174	0	0	0	0	174
43	44	contamination	contamination	contamination	11	nopreview	2	51	477	293	651	293	477	184
44	45	was	was	was	11	nopreview	2	52	207	207	207	207	207	0
45	46	discovered	discovered	discovered	11	nopreview	2	53	200	200	200	200	200	0
46	47	when	when	when	11	nopreview	2	54	233	233	233	233	233	0
47	48	a	a	a	11	nopreview	2	55	0	0	0	0	0	0
48	49	routine	routine	routine,	11	nopreview	2	56	147	147	147	147	147	0
	50	,	,		11	nopreview	2	57						
49	51	random	random	random	11	nopreview	2	58	351	351	351	351	351	0
50	52	sample	sample	sample	11	nopreview	2	59	0	0	0	0	0	0
51	53	collected	collected	collected	11	nopreview	2	60	303	303	303	303	303	0
52	54	at	at	at	11	nopreview	2	61	118	118	118	118	118	0
53	55	a	a	a	11	nopreview	2	62	0	0	0	0	0	0
54	56	@entity14	Michigan	Michigan	11	nopreview	2	63	187	187	187	187	187	0
55	57	store	store	store	11	nopreview	2	64	831	831	831	831	831	0
56	58	on	on	on	11	nopreview	2	65	0	0	0	0	0	0
57	59	March	March	March	11	nopreview	2	66	339	339	12188	188	339	0
58	60	30	30	30	11	nopreview	2	67	0	0	0	0	0	0
59	61	tested	tested	tested	11	nopreview	2	68	275	275	275	275	275	0
60	62	positive	positive	positive	11	nopreview	2	69	216	216	216	216	216	0
61	63	for	for	for	11	nopreview	2	70	0	0	0	0	0	0
62	64	@entity6	Listeria	Listeria	11	nopreview	2	71	586	586	586	159	586	0
63	65	monocytogenes	monocytogenes	monocytogenes.	11	nopreview	2	72	581	581	581	346	581	0
	66	.	.		11	nopreview	2	73						
64	67	The	The	The	11	nopreview	2	74	333	333	333	137	333	0
65	68	@entity0	FDA	FDA	11	nopreview	2	75	135	135	135	135	135	0
66	69	issued	issued	issued	11	nopreview	2	76	309	309	309	309	309	0
67	70	a	a	a	11	nopreview	2	77	0	0	0	0	0	0
68	71	list	list	list	11	nopreview	2	78	180	180	180	180	180	0
69	72	of	of	of	11	nopreview	2	79	0	0	0	0	0	0
70	73	the	the	the	11	nopreview	2	80	0	0	0	0	0	0
71	74	products	products	products	11	nopreview	2	81	200	200	200	200	200	0
72	75	in	in	in	11	nopreview	2	82	0	0	0	0	0	0
73	76	the	the	the	11	nopreview	2	83	150	150	150	150	150	0
74	77	recall	recall	recall.	11	nopreview	2	84	578	578	578	578	578	0
	78	.	.		11	nopreview	2	85						
75	79	Anyone	Anyone	Anyone	11	nopreview	2	86	113	0	0	0	0	113
76	80	who	who	who	11	nopreview	2	87	282	282	395	282	282	0
77	81	has	has	has	11	nopreview	2	88	186	186	186	186	186	0
78	82	purchased	purchased	purchased	11	nopreview	2	89	1734	1734	1734	217	1734	0
79	83	any	any	any	11	nopreview	2	90	232	232	232	232	232	0
80	84	of	of	of	11	nopreview	2	91	0	0	0	0	0	0
81	85	the	the	the	11	nopreview	2	92	184	184	184	184	184	0
82	86	items	items	items	11	nopreview	2	93	146	146	146	146	146	0
83	87	is	is	is	11	nopreview	2	94	0	0	0	0	0	0
84	88	urged	urged	urged	11	nopreview	2	95	178	178	178	178	178	0
85	89	to	to	to	11	nopreview	2	96	0	0	0	0	0	0
86	90	dispose	dispose	dispose	11	nopreview	2	97	319	319	319	176	319	0
87	91	of	of	of	11	nopreview	2	98	0	0	0	0	0	0
88	92	or	or	or	11	nopreview	2	99	182	0	0	0	0	182
89	93	return	return	return	11	nopreview	2	100	330	330	512	330	330	0
90	94	it	it	it	11	nopreview	2	101	211	211	211	211	211	0
91	95	to	to	to	11	nopreview	2	102	0	0	0	0	0	0
92	96	the	the	the	11	nopreview	2	103	174	174	174	174	174	0
93	97	store	store	store	11	nopreview	2	104	171	171	171	171	171	0
94	98	for	for	for	11	nopreview	2	105	169	169	169	169	169	0
95	99	a	a	a	11	nopreview	2	106	0	0	0	0	0	0
96	100	full	full	full	11	nopreview	2	107	139	139	139	139	139	0
97	101	refund	refund	refund.	11	nopreview	2	108	136	136	136	136	136	0
	102	.	.		11	nopreview	2	109						
98	103	Listeria	Listeria	Listeria	11	nopreview	2	110	349	349	349	121	349	0
99	104	monocytogenes	monocytogenes	monocytogenes	11	nopreview	2	111	243	243	243	243	243	0
100	105	can	can	can	11	nopreview	2	112	414	414	414	238	414	0
101	106	cause	cause	cause	11	nopreview	2	113	0	0	0	0	0	0
102	107	serious	serious	serious	11	nopreview	2	114	320	320	320	167	320	0
103	108	and	and	and	11	nopreview	2	115	0	0	0	0	0	0
104	109	sometimes	sometimes	sometimes	11	nopreview	2	116	497	497	497	256	497	0
105	110	fatal	fatal	fatal	11	nopreview	2	117	362	362	362	172	362	0
106	111	infections	infections	infections	11	nopreview	2	118	371	371	371	188	371	0
107	112	in	in	in	11	nopreview	2	119	210	210	210	210	210	0
108	113	young	young	young	11	nopreview	2	120	0	0	0	0	0	0
109	114	children	children	children,	11	nopreview	2	121	210	210	210	210	210	0
	115	,	,		11	nopreview	2	122						
110	116	frail	frail	frail	11	nopreview	2	123	383	383	383	383	383	0
111	117	or	or	or	11	nopreview	2	124	0	0	0	0	0	0
112	118	elderly	elderly	elderly	11	nopreview	2	125	383	383	383	198	383	0
113	119	people	people	people,	11	nopreview	2	126	287	287	287	287	287	0
	120	,	,		11	nopreview	2	127						
114	121	and	and	and	11	nopreview	2	128	214	214	214	214	214	0
115	122	others	others	others	11	nopreview	2	129	370	156	156	156	156	214
116	123	with	with	with	11	nopreview	2	130	435	182	649	182	435	253
117	124	weakened	weakened	weakened	11	nopreview	2	131	0	0	0	0	0	0
118	125	immune	immune	immune	11	nopreview	2	132	228	228	228	228	228	0
119	126	systems	systems	systems,	11	nopreview	2	133	522	522	522	409	522	0
	127	,	,		11	nopreview	2	134						
120	128	the	the	the	11	nopreview	2	135	269	269	269	269	269	0
121	129	@entity0	FDA	FDA	11	nopreview	2	136	0	0	0	0	0	0
122	130	says	says	says.	11	nopreview	2	137	290	290	290	290	290	0
	131	.	.		11	nopreview	2	138						
123	132	Although	Although	Although	11	nopreview	2	139	357	357	357	357	357	0
124	133	some	some	some	11	nopreview	2	140	175	175	175	175	175	0
125	134	people	people	people	11	nopreview	2	141	205	205	205	205	205	0
126	135	may	may	may	11	nopreview	2	142	0	0	0	0	0	0
127	136	suffer	suffer	suffer	11	nopreview	2	143	455	455	455	217	455	0
128	137	only	only	only	11	nopreview	2	144	155	155	155	155	155	0
129	138	short	short	short-term	11	nopreview	2	145	451	451	451	224	451	0
	139	-	-		11	nopreview	2	146						
	140	term	term		11	nopreview	2	147						
130	141	symptoms	symptoms	symptoms	11	nopreview	2	148	264	264	264	264	264	0
131	142	such	such	such	11	nopreview	2	149	195	195	195	195	195	0
132	143	as	as	as	11	nopreview	2	150	214	0	0	0	0	214
133	144	high	high	high	11	nopreview	2	151	0	0	0	0	0	0
134	145	fever	fever	fever,	11	nopreview	2	152	141	0	0	0	0	141
	146	,	,		11	nopreview	2	153						
135	147	severe	severe	severe	11	nopreview	2	154	282	282	282	101	282	0
136	148	headache	headache	headache,	11	nopreview	2	155	166	166	448	166	166	0
	149	,	,		11	nopreview	2	156						
137	150	nausea	nausea	nausea,	11	nopreview	2	157	256	256	256	256	256	0
	151	,	,		11	nopreview	2	158						
138	152	abdominal	abdominal	abdominal	11	nopreview	2	159	312	312	312	312	312	0
139	153	pain	pain	pain	11	nopreview	2	160	140	140	140	140	140	0
140	154	and	and	and	11	nopreview	2	161	0	0	0	0	0	0
141	155	diarrhea	diarrhea	diarrhea,	11	nopreview	2	162	305	305	305	305	305	0
	156	,	,		11	nopreview	2	163						
142	157	@entity6	Listeria	Listeria	11	nopreview	2	164	310	310	665	149	310	0
143	158	can	can	can	11	nopreview	2	165	0	0	0	0	0	0
144	159	also	also	also	11	nopreview	2	166	0	0	0	0	0	0
145	160	cause	cause	cause	11	nopreview	2	167	0	0	0	0	0	0
146	161	miscarriages	miscarriages	miscarriages	11	nopreview	2	168	0	0	0	0	0	0
147	162	and	and	and	11	nopreview	2	169	0	0	0	0	0	0
148	163	stillbirths	stillbirths	stillbirths	11	nopreview	2	170	0	0	0	0	0	0
149	164	among	among	among	11	nopreview	2	171	0	0	0	0	0	0
150	165	pregnant	pregnant	pregnant	11	nopreview	2	172	0	0	0	0	0	0
151	166	women	women	women.	11	nopreview	2	173	0	0	0	0	0	0
	167	.	.		11	nopreview	2	174						
