HumanPosition	AnonymizedPosition	AnonymizedToken	OriginalToken	ExperimentToken	Participant	Condition	TextNo	JointPosition	tt	fp	rp	ff	rb	sp
1	0	(	(	Good	11	nopreview	3	1	0	0	0	0	0	0
	1	The	The		11	nopreview	3	2						
	2	@entity0	Hollywood		11	nopreview	3	3						
			Reporter		11	nopreview	3	4						
	3	)	)		11	nopreview	3	5						
	4	Good	Good		11	nopreview	3	6						
2	5	news	news	news	11	nopreview	3	7	0	0	0	0	0	0
3	6	arrived	arrived	arrived	11	nopreview	3	8	0	0	0	0	0	0
4	7	Thursday	Thursday	Thursday	11	nopreview	3	9	0	0	0	0	0	0
5	8	for	for	for	11	nopreview	3	10	0	0	0	0	0	0
6	9	-	-	-Fifty	11	nopreview	3	11	0	0	0	0	0	0
	10	@entity3	Fifty		11	nopreview	3	12						
7			Shades	Shades	11	nopreview	3	13	0	0	0	0	0	0
8			of	of	11	nopreview	3	14	0	0	0	0	0	0
9			Grey	Grey-	11	nopreview	3	15	0	0	0	0	0	0
	11	-	-		11	nopreview	3	16						
10	12	fans	fans	fans.	11	nopreview	3	17	0	0	0	0	0	0
	13	.	.		11	nopreview	3	18						
11	14	@entity4	Universal	Universal	11	nopreview	3	19	0	0	0	0	0	0
12	15	announced	announced	announced	11	nopreview	3	20	0	0	0	0	0	0
13	16	Thursday	Thursday	Thursday	11	nopreview	3	21	809	483	483	94	483	326
14	17	that	that	that	11	nopreview	3	22	0	0	0	0	0	0
15	18	the	the	the	11	nopreview	3	23	224	224	224	224	224	0
16	19	sequel	sequel	sequel	11	nopreview	3	24	317	317	317	317	317	0
17	20	to	to	to	11	nopreview	3	25	0	0	0	0	0	0
18	21	the	the	the	11	nopreview	3	26	189	189	189	189	189	0
19	22	box	box	box	11	nopreview	3	27	0	0	0	0	0	0
20	23	office	office	office	11	nopreview	3	28	191	191	191	191	191	0
21	24	blockbuster	blockbuster	blockbuster	11	nopreview	3	29	146	146	146	146	146	0
22	25	will	will	will	11	nopreview	3	30	279	131	131	131	131	148
23	26	hit	hit	hit	11	nopreview	3	31	122	122	122	122	122	0
24	27	theaters	theaters	theaters	11	nopreview	3	32	421	175	569	175	421	246
25	28	on	on	on	11	nopreview	3	33	196	196	522	196	196	0
26	29	Feb.	Feb.	Feb.	11	nopreview	3	34	0	0	0	0	0	0
27	30	10	10	10,	11	nopreview	3	35	0	0	0	0	0	0
	31	,	,		11	nopreview	3	36						
28	32	2017	2017	2017.	11	nopreview	3	37	242	0	0	0	0	242
	33	.	.		11	nopreview	3	38						
29	34	The	The	The	11	nopreview	3	39	285	0	0	0	0	285
30	35	third	third	third	11	nopreview	3	40	1057	145	145	145	145	912
31	36	film	film	film	11	nopreview	3	41	191	0	0	0	0	191
32	37	in	in	in	11	nopreview	3	42	279	279	279	279	279	0
33	38	the	the	the	11	nopreview	3	43	0	0	0	0	0	0
34	39	series	series	series	11	nopreview	3	44	181	181	181	181	181	0
35	40	will	will	will	11	nopreview	3	45	282	282	282	140	282	0
36	41	debut	debut	debut	11	nopreview	3	46	186	186	186	186	186	0
37	42	Feb.	Feb.	Feb.	11	nopreview	3	47	209	209	209	209	209	0
38	43	9	9	9,	11	nopreview	3	48	0	0	0	0	0	0
	44	,	,		11	nopreview	3	49						
39	45	2018	2018	2018.	11	nopreview	3	50	184	184	184	184	184	0
	46	.	.		11	nopreview	3	51						
40	47	The	The	The	11	nopreview	3	52	240	240	240	240	240	0
41	48	news	news	news	11	nopreview	3	53	211	211	211	211	211	0
42	49	came	came	came	11	nopreview	3	54	557	268	268	268	268	289
43	50	one	one	one	11	nopreview	3	55	0	0	0	0	0	0
44	51	day	day	day	11	nopreview	3	56	235	235	2154	235	235	0
45	52	after	after	after	11	nopreview	3	57	246	0	0	0	0	246
46	53	@entity0	The	The	11	nopreview	3	58	0	0	0	0	0	0
47			Hollywood	Hollywood	11	nopreview	3	59	196	0	0	0	0	196
48			Reporter	Reporter	11	nopreview	3	60	204	204	204	204	204	0
49	54	reported	reported	reported	11	nopreview	3	61	265	265	265	265	265	0
50	55	exclusively	exclusively	exclusively	11	nopreview	3	62	435	435	435	181	435	0
51	56	that	that	that	11	nopreview	3	63	555	555	555	326	555	0
52	57	the	the	the	11	nopreview	3	64	453	453	453	453	453	0
53	58	husband	husband	husband	11	nopreview	3	65	322	322	322	141	322	0
54	59	of	of	of	11	nopreview	3	66	386	386	386	386	386	0
55	60	@entity12	EL	EL	11	nopreview	3	67	230	230	230	230	230	0
56			James	James,	11	nopreview	3	68	681	681	1123	178	681	0
	61	,	,		11	nopreview	3	69						
57	62	author	author	author	11	nopreview	3	70	382	0	0	0	0	382
58	63	of	of	of	11	nopreview	3	71	134	0	0	0	0	134
59	64	the	the	the	11	nopreview	3	72	0	0	0	0	0	0
60	65	-	-	-Fifty	11	nopreview	3	73	139	0	0	0	0	139
	66	@entity3	Fifty		11	nopreview	3	74						
61			Shades	Shades-	11	nopreview	3	75	193	193	193	193	193	0
	67	-	-		11	nopreview	3	76						
62	68	trilogy	trilogy	trilogy,	11	nopreview	3	77	283	283	283	283	283	0
	69	,	,		11	nopreview	3	78						
63	70	will	will	will	11	nopreview	3	79	287	287	287	287	287	0
64	71	write	write	write	11	nopreview	3	80	0	0	0	0	0	0
65	72	the	the	the	11	nopreview	3	81	0	0	0	0	0	0
66	73	script	script	script	11	nopreview	3	82	379	379	379	237	379	0
67	74	for	for	for	11	nopreview	3	83	140	140	140	140	140	0
68	75	the	the	the	11	nopreview	3	84	0	0	0	0	0	0
69	76	second	second	second	11	nopreview	3	85	456	456	1111	298	456	0
70	77	film	film	film.	11	nopreview	3	86	0	0	0	0	0	0
	78	.	.		11	nopreview	3	87						
71	79	@entity16	Niall	Niall	11	nopreview	3	88	222	0	0	0	0	222
72			Leonard	Leonard,	11	nopreview	3	89	362	0	0	0	0	362
	80	,	,		11	nopreview	3	90						
73	81	who	who	who	11	nopreview	3	91	0	0	0	0	0	0
74	82	is	is	is	11	nopreview	3	92	255	0	0	0	0	255
75	83	married	married	married	11	nopreview	3	93	162	0	0	0	0	162
76	84	and	and	and	11	nopreview	3	94	279	279	279	279	279	0
77	85	has	has	has	11	nopreview	3	95	0	0	0	0	0	0
78	86	two	two	two	11	nopreview	3	96	178	178	178	178	178	0
79	87	sons	sons	sons	11	nopreview	3	97	219	219	219	219	219	0
80	88	with	with	with	11	nopreview	3	98	0	0	0	0	0	0
81	89	the	the	the	11	nopreview	3	99	139	139	139	139	139	0
82	90	@entity19	British	British	11	nopreview	3	100	136	136	136	136	136	0
83	91	author	author	author,	11	nopreview	3	101	173	173	173	173	173	0
	92	,	,		11	nopreview	3	102						
84	93	is	is	is	11	nopreview	3	103	237	237	237	237	237	0
85	94	an	an	an	11	nopreview	3	104	223	223	1224	223	223	0
86	95	author	author	author	11	nopreview	3	105	0	0	0	0	0	0
87	96	himself	himself	himself,	11	nopreview	3	106	383	0	0	0	0	383
	97	,	,		11	nopreview	3	107						
88	98	in	in	in	11	nopreview	3	108	168	0	0	0	0	168
89	99	addition	addition	addition	11	nopreview	3	109	495	0	0	0	0	495
90	100	to	to	to	11	nopreview	3	110	0	0	0	0	0	0
91	101	being	being	being	11	nopreview	3	111	629	0	0	0	0	629
92	102	a	a	a	11	nopreview	3	112	0	0	0	0	0	0
93	103	screenwriter	screenwriter	screenwriter.	11	nopreview	3	113	593	593	593	185	593	0
	104	.	.		11	nopreview	3	114						
94	105	@entity12	James	James,	11	nopreview	3	115	0	0	0	0	0	0
	106	,	,		11	nopreview	3	116						
95	107	whose	whose	whose	11	nopreview	3	117	240	240	240	240	240	0
96	108	real	real	real	11	nopreview	3	118	199	199	199	199	199	0
97	109	name	name	name	11	nopreview	3	119	199	199	199	199	199	0
98	110	is	is	is	11	nopreview	3	120	0	0	0	0	0	0
99	111	@entity12	Erika	Erika	11	nopreview	3	121	260	260	1935	260	260	0
100			Leonard	Leonard,	11	nopreview	3	122	332	0	0	0	0	332
	112	,	,		11	nopreview	3	123						
101	113	has	has	has	11	nopreview	3	124	783	0	0	0	0	783
102	114	been	been	been	11	nopreview	3	125	445	0	0	0	0	445
103	115	credited	credited	credited	11	nopreview	3	126	368	0	0	0	0	368
104	116	with	with	with	11	nopreview	3	127	233	0	0	0	0	233
105	117	keeping	keeping	keeping	11	nopreview	3	128	524	158	158	158	158	366
106	118	a	a	a	11	nopreview	3	129	139	0	0	0	0	139
107	119	strong	strong	strong	11	nopreview	3	130	350	161	161	161	161	189
108	120	amount	amount	amount	11	nopreview	3	131	1254	137	137	137	137	1117
109	121	of	of	of	11	nopreview	3	132	212	212	212	212	212	0
110	122	creative	creative	creative	11	nopreview	3	133	486	200	200	200	200	286
111	123	control	control	control	11	nopreview	3	134	437	437	4695	263	437	0
112	124	when	when	when	11	nopreview	3	135	0	0	0	0	0	0
113	125	it	it	it	11	nopreview	3	136	0	0	0	0	0	0
114	126	comes	comes	comes	11	nopreview	3	137	339	0	0	0	0	339
115	127	to	to	to	11	nopreview	3	138	0	0	0	0	0	0
116	128	@entity4	Universal	Universal-s	11	nopreview	3	139	202	0	0	0	0	202
	129	-s	-s		11	nopreview	3	140						
117	130	adaptations	adaptations	adaptations	11	nopreview	3	141	0	0	0	0	0	0
118	131	of	of	of	11	nopreview	3	142	127	0	0	0	0	127
119	132	her	her	her	11	nopreview	3	143	0	0	0	0	0	0
120	133	books	books	books,	11	nopreview	3	144	0	0	0	0	0	0
	134	,	,		11	nopreview	3	145						
121	135	the	the	the	11	nopreview	3	146	482	0	0	0	0	482
122	136	second	second	second	11	nopreview	3	147	382	0	0	0	0	382
123	137	of	of	of	11	nopreview	3	148	229	0	0	0	0	229
124	138	which	which	which	11	nopreview	3	149	0	0	0	0	0	0
125	139	is	is	is	11	nopreview	3	150	289	0	0	0	0	289
126	140	titled	titled	titled	11	nopreview	3	151	519	193	193	193	193	326
127	141	-	-	-Fifty	11	nopreview	3	152	329	133	1387	133	133	196
	142	@entity32	Fifty		11	nopreview	3	153						
128			Shades	Shades	11	nopreview	3	154	360	360	360	360	360	0
129			Darker	Darker.-	11	nopreview	3	155	206	206	206	206	206	0
	143	.	.		11	nopreview	3	156						
130	144	-	-	After	11	nopreview	3	157	214	214	214	214	214	0
	145	After	After		11	nopreview	3	158						
131	146	clashing	clashing	clashing	11	nopreview	3	159	706	706	706	276	706	0
132	147	with	with	with	11	nopreview	3	160	174	174	174	174	174	0
133	148	@entity12	James	James,	11	nopreview	3	161	589	589	589	589	589	0
	149	,	,		11	nopreview	3	162						
134	150	@entity33	Sam	Sam	11	nopreview	3	163	394	195	195	195	195	199
135			Taylor	Taylor-Johnson	11	nopreview	3	164	141	141	1658	141	141	0
			-		11	nopreview	3	165						
			Johnson		11	nopreview	3	166						
136	151	is	is	isn-t	11	nopreview	3	167	0	0	0	0	0	0
	152	n-t	n-t		11	nopreview	3	168						
137	153	returning	returning	returning	11	nopreview	3	169	0	0	0	0	0	0
138	154	to	to	to	11	nopreview	3	170	0	0	0	0	0	0
139	155	direct	direct	direct	11	nopreview	3	171	348	0	0	0	0	348
140	156	the	the	the	11	nopreview	3	172	96	96	353	96	96	0
141	157	sequel	sequel	sequel.	11	nopreview	3	173	361	234	452	234	361	127
	158	.	.		11	nopreview	3	174						
142	159	Stars	Stars	Stars	11	nopreview	3	175	266	266	266	266	266	0
143	160	@entity35	Dakota	Dakota	11	nopreview	3	176	154	154	154	154	154	0
144			Johnson	Johnson	11	nopreview	3	177	256	256	256	256	256	0
145	161	and	and	and	11	nopreview	3	178	126	126	126	126	126	0
146	162	@entity36	Jamie	Jamie	11	nopreview	3	179	311	311	311	311	311	0
147			Dornan	Dornan	11	nopreview	3	180	235	235	235	235	235	0
148	163	are	are	are	11	nopreview	3	181	0	0	0	0	0	0
149	164	negotiating	negotiating	negotiating	11	nopreview	3	182	624	624	624	202	624	0
150	165	for	for	for	11	nopreview	3	183	0	0	0	0	0	0
151	166	more	more	more	11	nopreview	3	184	205	205	205	205	205	0
152	167	money	money	money	11	nopreview	3	185	286	0	0	0	0	286
153	168	for	for	for	11	nopreview	3	186	277	0	0	0	0	277
154	169	the	the	the	11	nopreview	3	187	0	0	0	0	0	0
155	170	sequel	sequel	sequel	11	nopreview	3	188	149	0	0	0	0	149
156	171	after	after	after	11	nopreview	3	189	239	0	0	0	0	239
157	172	the	the	the	11	nopreview	3	190	0	0	0	0	0	0
158	173	first	first	first	11	nopreview	3	191	0	0	0	0	0	0
159	174	film	film	film,	11	nopreview	3	192	0	0	0	0	0	0
	175	,	,		11	nopreview	3	193						
160	176	release	release	release	11	nopreview	3	194	0	0	0	0	0	0
161	177	over	over	over	11	nopreview	3	195	0	0	0	0	0	0
162	178	@entity40	Valentine	Valentine-s	11	nopreview	3	196	0	0	0	0	0	0
			-s		11	nopreview	3	197						
163			Day	Day	11	nopreview	3	198	0	0	0	0	0	0
164	179	weekend	weekend	weekend	11	nopreview	3	199	0	0	0	0	0	0
165	180	of	of	of	11	nopreview	3	200	0	0	0	0	0	0
166	181	this	this	this	11	nopreview	3	201	222	0	0	0	0	222
167	182	year	year	year,	11	nopreview	3	202	266	0	0	0	0	266
	183	,	,		11	nopreview	3	203						
168	184	earned	earned	earned	11	nopreview	3	204	349	139	1090	139	139	210
169	185	a	a	a	11	nopreview	3	205	0	0	0	0	0	0
170	186	massive	massive	massive	11	nopreview	3	206	0	0	0	0	0	0
171	187	$	$	$568.8	11	nopreview	3	207	151	151	151	151	151	0
	188	568.8	568.8		11	nopreview	3	208						
172	189	million	million	million	11	nopreview	3	209	0	0	0	0	0	0
173	190	worldwide	worldwide	worldwide.	11	nopreview	3	210	632	632	1330	307	632	0
	191	.	.		11	nopreview	3	211						
