HumanPosition	AnonymizedPosition	AnonymizedToken	OriginalToken	ExperimentToken	Participant	Condition	TextNo	JointPosition	tt	fp	rp	ff	rb	sp
0	0	@entity0	Raheem	Raheem	10	preview	10	1	176	0	0	0	0	176
2			Sterling	Sterling	10	preview	10	2	335	0	0	0	0	335
3	1	has	has	has	10	preview	10	3	0	0	0	0	0	0
4	2	admitted	admitted	admitted	10	preview	10	4	177	0	0	0	0	177
5	3	he	he	he	10	preview	10	5	0	0	0	0	0	0
6	4	is	is	is	10	preview	10	6	163	0	0	0	0	163
7	5	not	not	not	10	preview	10	7	0	0	0	0	0	0
8	6	ready	ready	ready	10	preview	10	8	94	0	0	0	0	94
9	7	to	to	to	10	preview	10	9	0	0	0	0	0	0
10	8	sign	sign	sign	10	preview	10	10	125	0	0	0	0	125
11	9	a	a	a	10	preview	10	11	0	0	0	0	0	0
12	10	new	new	new	10	preview	10	12	0	0	0	0	0	0
13	11	contract	contract	contract	10	preview	10	13	554	0	0	0	0	554
14	12	at	at	at	10	preview	10	14	170	0	0	0	0	170
15	13	@entity3	Liverpool	Liverpool	10	preview	10	15	1020	0	0	0	0	1020
16	14	deal	deal	deal	10	preview	10	16	282	0	0	0	0	282
17	15	despite	despite	despite	10	preview	10	17	533	0	0	0	0	533
18	16	being	being	being	10	preview	10	18	249	0	0	0	0	249
19	17	offered	offered	offered	10	preview	10	19	195	0	0	0	0	195
20	18	a	a	a	10	preview	10	20	343	0	0	0	0	343
21	19	£	£	£100,000-a-week	10	preview	10	21	601	0	0	0	0	601
	20	100,000	100,000		10	preview	10	22						
	21	-	-		10	preview	10	23						
	22	a	a		10	preview	10	24						
	23	-	-		10	preview	10	25						
	24	week	week		10	preview	10	26						
22	25	deal	deal	deal	10	preview	10	27	119	0	0	0	0	119
23	26	to	to	to	10	preview	10	28	373	0	0	0	0	373
24	27	stay	stay	stay	10	preview	10	29	188	0	0	0	0	188
25	28	with	with	with	10	preview	10	30	0	0	0	0	0	0
26	29	the	the	the	10	preview	10	31	0	0	0	0	0	0
27	30	@entity6	Merseyside	Merseyside	10	preview	10	32	895	0	0	0	0	895
28	31	club	club	club.	10	preview	10	33	175	0	0	0	0	175
	32	.	.		10	preview	10	34						
29	33	The	The	The	10	preview	10	35	0	0	0	0	0	0
30	34	20	20	20-year-old	10	preview	10	36	534	0	0	0	0	534
	35	-	-		10	preview	10	37						
	36	year	year		10	preview	10	38						
	37	-	-		10	preview	10	39						
	38	old	old		10	preview	10	40						
31	39	wideman	wideman	wideman	10	preview	10	41	573	128	7238	128	573	445
32	40	edged	edged	edged	10	preview	10	42	0	0	0	0	0	0
33	41	closer	closer	closer	10	preview	10	43	394	278	278	278	278	116
34	42	towards	towards	towards	10	preview	10	44	311	123	239	123	123	188
35	43	an	an	an	10	preview	10	45	263	263	263	263	263	0
36	44	@entity9	Anfield	Anfield	10	preview	10	46	278	156	466	156	278	122
37	45	exit	exit	exit	10	preview	10	47	248	248	248	248	248	0
38	46	after	after	after	10	preview	10	48	0	0	0	0	0	0
39	47	revealing	revealing	revealing	10	preview	10	49	143	143	143	143	143	0
40	48	in	in	in	10	preview	10	50	108	108	108	108	108	0
41	49	an	an	an	10	preview	10	51	219	219	219	219	219	0
42	50	interview	interview	interview	10	preview	10	52	226	226	226	120	226	0
43	51	with	with	with	10	preview	10	53	0	0	0	0	0	0
44	52	the	the	the	10	preview	10	54	223	223	223	223	223	0
45	53	@entity11	BBC	BBC	10	preview	10	55	0	0	0	0	0	0
46	54	on	on	on	10	preview	10	56	155	155	155	155	155	0
47	55	Wednesday	Wednesday	Wednesday	10	preview	10	57	0	0	0	0	0	0
48	56	that	that	that	10	preview	10	58	131	131	131	131	131	0
49	57	he	he	he	10	preview	10	59	0	0	0	0	0	0
50	58	would	would	would	10	preview	10	60	260	260	260	260	260	0
51	59	have	have	have	10	preview	10	61	0	0	0	0	0	0
52	60	signed	signed	signed	10	preview	10	62	431	431	431	245	431	0
53	61	for	for	for	10	preview	10	63	213	0	0	0	0	213
54	62	a	a	a	10	preview	10	64	0	0	0	0	0	0
55	63	lot	lot	lot	10	preview	10	65	265	136	478	136	265	129
56	64	less	less	less	10	preview	10	66	0	0	0	0	0	0
57	65	a	a	a	10	preview	10	67	140	140	140	140	140	0
58	66	year	year	year	10	preview	10	68	0	0	0	0	0	0
59	67	ago	ago	ago.	10	preview	10	69	195	0	0	0	0	195
	68	.	.		10	preview	10	70						
60	69	However	However	However,	10	preview	10	71	598	140	793	140	598	458
	70	,	,		10	preview	10	72						
61	71	despite	despite	despite	10	preview	10	73	191	191	191	191	191	0
62	72	being	being	being	10	preview	10	74	0	0	0	0	0	0
63	73	one	one	one	10	preview	10	75	155	155	155	155	155	0
64	74	of	of	of	10	preview	10	76	0	0	0	0	0	0
65	75	@entity3	Liverpool	Liverpool-s	10	preview	10	77	273	273	273	273	273	0
	76	-s	-s		10	preview	10	78						
66	77	star	star	star	10	preview	10	79	224	224	224	224	224	0
67	78	men	men	men,	10	preview	10	80	0	0	0	0	0	0
	79	,	,		10	preview	10	81						
68	80	@entity0	Sterling	Sterling	10	preview	10	82	110	110	110	110	110	0
69	81	has	has	has	10	preview	10	83	0	0	0	0	0	0
70	82	struggled	struggled	struggled	10	preview	10	84	107	107	107	107	107	0
71	83	to	to	to	10	preview	10	85	172	172	172	172	172	0
72	84	repeat	repeat	repeat	10	preview	10	86	0	0	0	0	0	0
73	85	the	the	the	10	preview	10	87	282	194	194	194	194	88
74	86	impressive	impressive	impressive	10	preview	10	88	220	220	220	220	220	0
75	87	form	form	form	10	preview	10	89	0	0	0	0	0	0
76	88	he	he	he	10	preview	10	90	183	183	183	183	183	0
77	89	showed	showed	showed	10	preview	10	91	359	359	359	359	359	0
78	90	for	for	for	10	preview	10	92	0	0	0	0	0	0
79	91	the	the	the	10	preview	10	93	166	166	166	166	166	0
80	92	@entity18	Reds	Reds	10	preview	10	94	0	0	0	0	0	0
81	93	last	last	last	10	preview	10	95	191	191	191	191	191	0
82	94	season	season	season.	10	preview	10	96	134	134	134	134	134	0
	95	.	.		10	preview	10	97						
83	96	The	The	The	10	preview	10	98	0	0	0	0	0	0
84	97	@entity19	England	England	10	preview	10	99	161	161	161	161	161	0
85	98	international	international	international	10	preview	10	100	254	254	254	123	254	0
86	99	has	has	has	10	preview	10	101	0	0	0	0	0	0
87	100	managed	managed	managed	10	preview	10	102	546	546	546	410	546	0
88	101	just	just	just	10	preview	10	103	0	0	0	0	0	0
89	102	six	six	six	10	preview	10	104	213	213	213	213	213	0
90	103	goals	goals	goals	10	preview	10	105	124	124	124	124	124	0
91	104	this	this	this	10	preview	10	106	0	0	0	0	0	0
92	105	season	season	season	10	preview	10	107	147	147	147	147	147	0
93	106	-	-	-	10	preview	10	108	0	0	0	0	0	0
94	107	one	one	one	10	preview	10	109	0	0	0	0	0	0
95	108	less	less	less	10	preview	10	110	243	243	243	243	243	0
96	109	than	than	than	10	preview	10	111	95	0	0	0	0	95
97	110	@entity23	Stoke	Stoke	10	preview	10	112	214	214	309	214	214	0
98	111	frontman	frontman	frontman	10	preview	10	113	302	302	302	180	302	0
99	112	@entity22	Jon	Jon	10	preview	10	114	0	0	0	0	0	0
100			Walters	Walters	10	preview	10	115	209	209	209	209	209	0
101	113	-	-	-	10	preview	10	116	0	0	0	0	0	0
102	114	while	while	while	10	preview	10	117	0	0	0	0	0	0
103	115	his	his	his	10	preview	10	118	203	203	203	203	203	0
104	116	conversion	conversion	conversion	10	preview	10	119	406	406	406	259	406	0
105	117	rate	rate	rate	10	preview	10	120	0	0	0	0	0	0
106	118	and	and	and	10	preview	10	121	0	0	0	0	0	0
107	119	minutes	minutes	minutes	10	preview	10	122	363	218	218	218	218	145
108	120	per	per	per	10	preview	10	123	154	154	154	154	154	0
109	121	goal	goal	goal	10	preview	10	124	0	0	0	0	0	0
110	122	ratio	ratio	ratio	10	preview	10	125	540	127	583	127	438	413
111	123	have	have	have	10	preview	10	126	128	128	230	128	128	0
112	124	worsened	worsened	worsened.	10	preview	10	127	136	136	136	136	136	0
	125	as	as		10	preview	10	128						
113	126	the	the	Raheem	10	preview	10	129	142	0	0	0	0	142
	127	graphic	graphic		10	preview	10	130						
	128	below	below		10	preview	10	131						
	129	shows	shows		10	preview	10	132						
	130	.	.		10	preview	10	133						
	131	@entity0	Raheem		10	preview	10	134						
114			Sterling	Sterling	10	preview	10	135	134	134	276	134	134	0
115	132	has	has	has	10	preview	10	136	202	202	202	202	202	0
116	133	managed	managed	managed	10	preview	10	137	355	126	616	126	355	229
117	134	just	just	just	10	preview	10	138	0	0	0	0	0	0
118	135	six	six	six	10	preview	10	139	231	231	231	231	231	0
119	136	goals	goals	goals	10	preview	10	140	173	173	173	173	173	0
120	137	this	this	this	10	preview	10	141	0	0	0	0	0	0
121	138	season	season	season	10	preview	10	142	174	174	174	174	174	0
122	139	-	-	-	10	preview	10	143	0	0	0	0	0	0
123	140	one	one	one	10	preview	10	144	0	0	0	0	0	0
124	141	less	less	less	10	preview	10	145	0	0	0	0	0	0
125	142	than	than	than	10	preview	10	146	249	249	249	249	249	0
126	143	@entity23	Stoke	Stoke	10	preview	10	147	229	229	229	229	229	0
127	144	forward	forward	forward	10	preview	10	148	115	115	115	115	115	0
128	145	@entity22	Jon	Jon	10	preview	10	149	0	0	0	0	0	0
129			Walters	Walters.	10	preview	10	150	283	283	746	121	283	0
	146	(	(		10	preview	10	151						
