HumanPosition	AnonymizedPosition	AnonymizedToken	OriginalToken	ExperimentToken	Participant	Condition	TextNo	JointPosition	tt	fp	rp	ff	rb	sp
0	0	@entity0	Alejandro	Alejandro	10	preview	12	1	103	103	103	103	103	0
2			Valverde	Valverde	10	preview	12	2	240	240	240	240	240	0
3	1	successfully	successfully	successfully	10	preview	12	3	127	127	127	127	127	0
4	2	defended	defended	defended	10	preview	12	4	171	171	171	171	171	0
5	3	his	his	his	10	preview	12	5	0	0	0	0	0	0
6	4	@entity2	Fleche	Fleche	10	preview	12	6	224	224	224	224	224	0
7			Wallonne	Wallonne	10	preview	12	7	138	138	138	138	138	0
8	5	title	title	title	10	preview	12	8	349	349	349	349	349	0
9	6	on	on	on	10	preview	12	9	0	0	0	0	0	0
10	7	Wednesday	Wednesday	Wednesday	10	preview	12	10	559	559	559	375	559	0
11	8	as	as	as	10	preview	12	11	0	0	0	0	0	0
12	9	@entity3	Chris	Chris	10	preview	12	12	130	0	0	0	0	130
13			Froome	Froome	10	preview	12	13	90	90	220	90	90	0
14	10	finished	finished	finished	10	preview	12	14	203	203	203	203	203	0
15	11	back	back	back	10	preview	12	15	0	0	0	0	0	0
16	12	in	in	in	10	preview	12	16	208	208	208	208	208	0
17	13	123rd	123rd	123rd	10	preview	12	17	0	0	0	0	0	0
18	14	after	after	after	10	preview	12	18	0	0	0	0	0	0
19	15	a	a	a	10	preview	12	19	252	252	252	252	252	0
20	16	fall	fall	fall.	10	preview	12	20	0	0	0	0	0	0
	17	.	.		10	preview	12	21						
21	18	@entity4	Movistar	Movistar	10	preview	12	22	765	92	92	92	92	673
22	19	rider	rider	rider	10	preview	12	23	346	242	735	242	242	104
23	20	@entity0	Valverde	Valverde	10	preview	12	24	519	220	803	220	519	299
24	21	sprinted	sprinted	sprinted	10	preview	12	25	304	304	304	190	304	0
25	22	to	to	to	10	preview	12	26	0	0	0	0	0	0
26	23	victory	victory	victory	10	preview	12	27	266	266	266	144	266	0
27	24	ahead	ahead	ahead	10	preview	12	28	261	261	261	261	261	0
28	25	of	of	of	10	preview	12	29	0	0	0	0	0	0
29	26	@entity6	Julian	Julian	10	preview	12	30	118	118	118	118	118	0
30			Alaphilippe	Alaphilippe	10	preview	12	31	193	193	193	193	193	0
31	27	and	and	and	10	preview	12	32	0	0	0	0	0	0
32	28	@entity7	Michael	Michael	10	preview	12	33	0	0	0	0	0	0
33			Albasini	Albasini	10	preview	12	34	140	140	140	140	140	0
34	29	in	in	in	10	preview	12	35	0	0	0	0	0	0
35	30	a	a	a	10	preview	12	36	235	235	235	235	235	0
36	31	race	race	race	10	preview	12	37	0	0	0	0	0	0
37	32	which	which	which	10	preview	12	38	297	297	297	297	297	0
38	33	saw	saw	saw	10	preview	12	39	164	164	164	164	164	0
39	34	former	former	former	10	preview	12	40	0	0	0	0	0	0
40	35	winner	winner	winner	10	preview	12	41	169	0	0	0	0	169
41	36	@entity9	Philippe	Philippe	10	preview	12	42	241	106	410	106	241	135
42			Gilbert	Gilbert	10	preview	12	43	192	192	192	192	192	0
43	37	pull	pull	pull	10	preview	12	44	0	0	0	0	0	0
44	38	out	out	out	10	preview	12	45	0	0	0	0	0	0
45	39	after	after	after	10	preview	12	46	317	317	317	317	317	0
46	40	a	a	a	10	preview	12	47	0	0	0	0	0	0
47	41	bad	bad	bad	10	preview	12	48	148	148	148	148	148	0
48	42	crash	crash	crash	10	preview	12	49	0	0	0	0	0	0
49	43	some	some	some	10	preview	12	50	207	207	207	207	207	0
50	44	50	50	50	10	preview	12	51	0	0	0	0	0	0
51	45	kilometres	kilometres	kilometres	10	preview	12	52	182	182	182	182	182	0
52	46	from	from	from	10	preview	12	53	0	0	0	0	0	0
53	47	the	the	the	10	preview	12	54	0	0	0	0	0	0
54	48	end	end	end.	10	preview	12	55	94	94	94	94	94	0
	49	.	.		10	preview	12	56						
55	50	@entity3	Froome	Froome	10	preview	12	57	107	0	0	0	0	107
56	51	was	was	was	10	preview	12	58	136	136	243	136	136	0
57	52	involved	involved	involved	10	preview	12	59	187	187	187	187	187	0
58	53	in	in	in	10	preview	12	60	0	0	0	0	0	0
59	54	a	a	a	10	preview	12	61	247	247	247	247	247	0
60	55	crash	crash	crash	10	preview	12	62	0	0	0	0	0	0
61	56	in	in	in	10	preview	12	63	0	0	0	0	0	0
62	57	the	the	the	10	preview	12	64	164	164	164	164	164	0
63	58	final	final	final	10	preview	12	65	0	0	0	0	0	0
64	59	12	12	12	10	preview	12	66	0	0	0	0	0	0
65	60	kilometres	kilometres	kilometres	10	preview	12	67	129	129	129	129	129	0
66	61	but	but	but	10	preview	12	68	0	0	0	0	0	0
67	62	was	was	was	10	preview	12	69	242	242	242	242	242	0
68	63	able	able	able	10	preview	12	70	0	0	0	0	0	0
69	64	to	to	to	10	preview	12	71	0	0	0	0	0	0
70	65	get	get	get	10	preview	12	72	180	180	180	180	180	0
71	66	back	back	back	10	preview	12	73	0	0	0	0	0	0
72	67	on	on	on	10	preview	12	74	0	0	0	0	0	0
73	68	his	his	his	10	preview	12	75	164	0	0	0	0	164
74	69	bike	bike	bike	10	preview	12	76	0	0	0	0	0	0
75	70	and	and	and	10	preview	12	77	95	95	259	95	95	0
76	71	finish	finish	finish.	10	preview	12	78	181	181	181	181	181	0
	72	.	.		10	preview	12	79						
77	73	@entity14	Spain	Team	10	preview	12	80	129	0	0	0	0	129
	74	-s	-s		10	preview	12	81						
	75	@entity0	Alejandro		10	preview	12	82						
			Valverde		10	preview	12	83						
	76	(	(		10	preview	12	84						
	77	centre	centre		10	preview	12	85						
	78	)	)		10	preview	12	86						
	79	realises	realises		10	preview	12	87						
	80	he	he		10	preview	12	88						
78	81	-s	-s	Sky-s	10	preview	12	89	150	150	279	150	150	0
	82	done	done		10	preview	12	90						
	83	enough	enough		10	preview	12	91						
	84	to	to		10	preview	12	92						
79	85	claim	claim	sports	10	preview	12	93	0	0	0	0	0	0
	86	victory	victory		10	preview	12	94						
	87	in	in		10	preview	12	95						
	88	@entity17	Belgium		10	preview	12	96						
	89	-s	-s		10	preview	12	97						
	90	@entity2	Fleche		10	preview	12	98						
	91	@entity0	Wallonne		10	preview	12	99						
			Valverde		10	preview	12	100						
	92	(	(		10	preview	12	101						
	93	centre	centre		10	preview	12	102						
	94	)	)		10	preview	12	103						
	95	finished	finished		10	preview	12	104						
	96	ahead	ahead		10	preview	12	105						
	97	of	of		10	preview	12	106						
	98	@entity6	Julian		10	preview	12	107						
			Alaphilippe		10	preview	12	108						
	99	(	(		10	preview	12	109						
	100	left	left		10	preview	12	110						
	101	)	)		10	preview	12	111						
	102	and	and		10	preview	12	112						
	103	@entity7	Michael		10	preview	12	113						
			Albasini		10	preview	12	114						
	104	(	(		10	preview	12	115						
	105	right	right		10	preview	12	116						
	106	)	)		10	preview	12	117						
	107	on	on		10	preview	12	118						
	108	Wednesday	Wednesday		10	preview	12	119						
	109	@entity20	Team		10	preview	12	120						
			Sky		10	preview	12	121						
	110	-s	-s		10	preview	12	122						
	111	sports	sports		10	preview	12	123						
80	112	director	director	director	10	preview	12	124	0	0	0	0	0	0
81	113	@entity19	Gabriel	Gabriel	10	preview	12	125	0	0	0	0	0	0
82			Rasch	Rasch	10	preview	12	126	0	0	0	0	0	0
83	114	praised	praised	praised	10	preview	12	127	0	0	0	0	0	0
84	115	@entity3	Froome	Froome	10	preview	12	128	0	0	0	0	0	0
85	116	for	for	for	10	preview	12	129	0	0	0	0	0	0
86	117	finishing	finishing	finishing	10	preview	12	130	0	0	0	0	0	0
87	118	the	the	the	10	preview	12	131	0	0	0	0	0	0
88	119	race	race	race	10	preview	12	132	0	0	0	0	0	0
89	120	and	and	and	10	preview	12	133	0	0	0	0	0	0
90	121	said	said	said	10	preview	12	134	0	0	0	0	0	0
91	122	he	he	he	10	preview	12	135	0	0	0	0	0	0
92	123	expects	expects	expects	10	preview	12	136	551	0	0	0	0	551
93	124	the	the	the	10	preview	12	137	303	303	303	303	303	0
94	125	former	former	former	10	preview	12	138	757	202	494	202	202	555
95	126	@entity23	Tour	Tour	10	preview	12	139	136	136	136	136	136	0
96			de	de	10	preview	12	140	0	0	0	0	0	0
97			France	France	10	preview	12	141	336	188	188	188	188	148
98	127	winner	winner	winner	10	preview	12	142	0	0	0	0	0	0
99	128	will	will	will	10	preview	12	143	264	264	412	264	264	0
100	129	be	be	be	10	preview	12	144	0	0	0	0	0	0
101	130	fine	fine	fine	10	preview	12	145	0	0	0	0	0	0
102	131	to	to	to	10	preview	12	146	0	0	0	0	0	0
103	132	take	take	take	10	preview	12	147	81	81	81	81	81	0
104	133	part	part	part	10	preview	12	148	113	0	0	0	0	113
105	134	in	in	in	10	preview	12	149	259	128	128	128	128	131
106	135	the	the	the	10	preview	12	150	0	0	0	0	0	0
107	136	@entity25	Tour	Tour	10	preview	12	151	369	0	0	0	0	369
108			de	de	10	preview	12	152	197	197	197	197	197	0
109			Romandie	Romandie	10	preview	12	153	1172	98	98	98	98	1074
110	137	next	next	next	10	preview	12	154	299	0	0	0	0	299
111	138	week	week	week.	10	preview	12	155	581	178	178	178	178	403
	139	.	.		10	preview	12	156						
112	140	@entity19	Rasch	Rasch	10	preview	12	157	0	0	0	0	0	0
113	141	told	told	told	10	preview	12	158	148	148	148	148	148	0
114	142	@entity26	TeamSky.com	TeamSky.com:	10	preview	12	159	590	183	183	183	183	407
115	143	:	:	-Chris	10	preview	12	160	155	0	0	0	0	155
	144	-	-		10	preview	12	161						
	145	@entity3	Chris		10	preview	12	162						
116	146	was	was	was	10	preview	12	163	157	157	3922	157	157	0
117	147	pretty	pretty	pretty	10	preview	12	164	93	0	0	0	0	93
118	148	banged	banged	banged	10	preview	12	165	113	113	206	113	113	0
119	149	up	up	up	10	preview	12	166	0	0	0	0	0	0
120	150	but	but	but	10	preview	12	167	99	99	99	99	99	0
121	151	showed	showed	showed	10	preview	12	168	0	0	0	0	0	0
122	152	real	real	real	10	preview	12	169	249	249	249	249	249	0
123	153	courage	courage	courage	10	preview	12	170	0	0	0	0	0	0
124	154	to	to	to	10	preview	12	171	252	252	252	252	252	0
125	155	finish	finish	finish	10	preview	12	172	131	131	131	131	131	0
126	156	the	the	the	10	preview	12	173	0	0	0	0	0	0
127	157	race	race	race	10	preview	12	174	181	181	181	181	181	0
128	158	and	and	and	10	preview	12	175	0	0	0	0	0	0
129	159	we	we	we-ll	10	preview	12	176	169	169	169	169	169	0
	160	-ll	-ll		10	preview	12	177						
130	161	assess	assess	assess	10	preview	12	178	142	142	142	142	142	0
131	162	his	his	his	10	preview	12	179	0	0	0	0	0	0
132	163	injuries	injuries	injuries	10	preview	12	180	238	238	238	238	238	0
133	164	overnight	overnight	overnight.	10	preview	12	181	0	0	0	0	0	0
	165	.	.		10	preview	12	182						
134	166	-	-	-He	10	preview	12	183	0	0	0	0	0	0
	167	He	He		10	preview	12	184						
135	168	has	has	hasn-t	10	preview	12	185	179	179	179	179	179	0
	169	n-t	n-t		10	preview	12	186						
136	170	needed	needed	needed	10	preview	12	187	220	0	0	0	0	220
137	171	to	to	to	10	preview	12	188	127	127	127	127	127	0
138	172	go	go	go	10	preview	12	189	0	0	0	0	0	0
139	173	to	to	to	10	preview	12	190	187	187	407	187	187	0
140	174	hospital	hospital	hospital	10	preview	12	191	115	115	115	115	115	0
141	175	and	and	and	10	preview	12	192	0	0	0	0	0	0
142	176	right	right	right	10	preview	12	193	214	214	214	214	214	0
143	177	now	now	now,	10	preview	12	194	0	0	0	0	0	0
	178	,	,		10	preview	12	195						
144	179	as	as	as	10	preview	12	196	0	0	0	0	0	0
145	180	things	things	things	10	preview	12	197	225	225	225	225	225	0
146	181	stand	stand	stand,	10	preview	12	198	0	0	0	0	0	0
	182	,	,		10	preview	12	199						
147	183	we	we	we-re	10	preview	12	200	201	201	201	201	201	0
	184	-re	-re		10	preview	12	201						
148	185	still	still	still	10	preview	12	202	146	146	146	146	146	0
149	186	expecting	expecting	expecting	10	preview	12	203	0	0	0	0	0	0
150	187	him	him	him	10	preview	12	204	0	0	0	0	0	0
151	188	to	to	to	10	preview	12	205	185	185	185	185	185	0
152	189	line	line	line	10	preview	12	206	0	0	0	0	0	0
153	190	up	up	up	10	preview	12	207	127	127	127	127	127	0
154	191	at	at	at	10	preview	12	208	0	0	0	0	0	0
155	192	the	the	the	10	preview	12	209	0	0	0	0	0	0
156	193	@entity25	Tour	Tour	10	preview	12	210	203	203	203	203	203	0
157			de	de	10	preview	12	211	142	0	0	0	0	142
158			Romandie	Romandie	10	preview	12	212	313	313	455	313	313	0
159	194	next	next	next	10	preview	12	213	163	163	163	163	163	0
160	195	Tuesday	Tuesday	Tuesday.-	10	preview	12	214	288	288	288	288	288	0
	196	.	.		10	preview	12	215						
161	197	-	-	Team	10	preview	12	216	0	0	0	0	0	0
	198	@entity20	Team		10	preview	12	217						
162			Sky	Sky-s	10	preview	12	218	0	0	0	0	0	0
	199	-s	-s		10	preview	12	219						
163	200	@entity3	Chris	Chris	10	preview	12	220	0	0	0	0	0	0
164			Froome	Froome	10	preview	12	221	153	0	0	0	0	153
165	201	fell	fell	fell	10	preview	12	222	0	0	0	0	0	0
166	202	in	in	in	10	preview	12	223	0	0	0	0	0	0
167	203	the	the	the	10	preview	12	224	146	0	0	0	0	146
168	204	closing	closing	closing	10	preview	12	225	126	0	0	0	0	126
169	205	12km	12km	12km	10	preview	12	226	0	0	0	0	0	0
170	206	but	but	but	10	preview	12	227	236	0	0	0	0	236
171	207	fought	fought	fought	10	preview	12	228	0	0	0	0	0	0
172	208	on	on	on	10	preview	12	229	163	0	0	0	0	163
173	209	to	to	to	10	preview	12	230	0	0	0	0	0	0
174	210	finish	finish	finish	10	preview	12	231	0	0	0	0	0	0
175	211	the	the	the	10	preview	12	232	0	0	0	0	0	0
176	212	race	race	race	10	preview	12	233	0	0	0	0	0	0
177	213	despite	despite	despite	10	preview	12	234	190	190	1014	190	190	0
178	214	being	being	being	10	preview	12	235	156	156	156	156	156	0
179	215	-	-	-banged	10	preview	12	236	0	0	0	0	0	0
	216	banged	banged		10	preview	12	237						
180	217	up	up	up-.	10	preview	12	238	0	0	0	0	0	0
	218	-	-		10	preview	12	239						
