HumanPosition	AnonymizedPosition	AnonymizedToken	OriginalToken	ExperimentToken	Participant	Condition	TextNo	JointPosition	tt	fp	rp	ff	rb	sp
1	0	A	A	A	10	preview	18	1	0	0	0	0	0	0
2	1	man	man	man	10	preview	18	2	0	0	0	0	0	0
3	2	was	was	was	10	preview	18	3	100	0	0	0	0	100
4	3	horrified	horrified	horrified	10	preview	18	4	122	0	0	0	0	122
5	4	after	after	after	10	preview	18	5	155	0	0	0	0	155
6	5	finding	finding	finding	10	preview	18	6	265	0	0	0	0	265
7	6	a	a	a	10	preview	18	7	0	0	0	0	0	0
8	7	five	five	five	10	preview	18	8	241	0	0	0	0	241
9	8	inch	inch	inch	10	preview	18	9	919	0	0	0	0	919
10	9	piece	piece	piece	10	preview	18	10	228	0	0	0	0	228
11	10	of	of	of	10	preview	18	11	187	0	0	0	0	187
12	11	TIMBER	TIMBER	TIMBER	10	preview	18	12	366	0	0	0	0	366
13	12	in	in	in	10	preview	18	13	0	0	0	0	0	0
14	13	his	his	his	10	preview	18	14	773	0	0	0	0	773
15	14	frozen	frozen	frozen	10	preview	18	15	881	0	0	0	0	881
16	15	curry	curry	curry.	10	preview	18	16	618	0	0	0	0	618
	16	.	.		10	preview	18	17						
17	17	@entity5	John	John	10	preview	18	18	381	0	0	0	0	381
18			Foran	Foran-s	10	preview	18	19	1069	0	0	0	0	1069
	18	’s	’s		10	preview	18	20						
19	19	wife	wife	wife	10	preview	18	21	210	0	0	0	0	210
20	20	@entity4	Nita	Nita	10	preview	18	22	381	143	6275	143	381	238
21	21	was	was	was	10	preview	18	23	0	0	0	0	0	0
22	22	preparing	preparing	preparing	10	preview	18	24	451	187	187	187	187	264
23	23	a	a	a	10	preview	18	25	0	0	0	0	0	0
24	24	chicken	chicken	chicken	10	preview	18	26	209	209	209	209	209	0
25	25	tikka	tikka	tikka	10	preview	18	27	298	298	298	298	298	0
26	26	biryani	biryani	biryani	10	preview	18	28	731	515	515	169	515	216
27	27	stir	stir	stir-fry	10	preview	18	29	181	181	181	181	181	0
	28	-	-		10	preview	18	30						
	29	fry	fry		10	preview	18	31						
28	30	on	on	on	10	preview	18	32	0	0	0	0	0	0
29	31	Tuesday	Tuesday	Tuesday	10	preview	18	33	159	159	159	159	159	0
30	32	April	April	April	10	preview	18	34	299	0	0	0	0	299
31	33	7	7	7	10	preview	18	35	111	111	410	111	111	0
32	34	when	when	when	10	preview	18	36	0	0	0	0	0	0
33	35	he	he	he	10	preview	18	37	201	201	201	201	201	0
34	36	found	found	found	10	preview	18	38	230	111	111	111	111	119
35	37	the	the	the	10	preview	18	39	0	0	0	0	0	0
36	38	splinter	splinter	splinter-covered	10	preview	18	40	733	162	852	162	733	571
	39	-	-		10	preview	18	41						
	40	covered	covered		10	preview	18	42						
37	41	shard	shard	shard.	10	preview	18	43	500	500	500	193	500	0
	42	.	.		10	preview	18	44						
38	43	The	The	The	10	preview	18	45	0	0	0	0	0	0
39	44	£	£	£2	10	preview	18	46	221	221	221	221	221	0
	45	2	2		10	preview	18	47						
40	46	ready	ready	ready	10	preview	18	48	1244	772	772	236	772	472
41	47	meal	meal	meal	10	preview	18	49	132	132	132	132	132	0
42	48	was	was	was	10	preview	18	50	0	0	0	0	0	0
43	49	bought	bought	bought	10	preview	18	51	208	208	208	208	208	0
44	50	from	from	from	10	preview	18	52	103	103	103	103	103	0
45	51	an	an	an	10	preview	18	53	0	0	0	0	0	0
46	52	@entity11	Iceland	Iceland	10	preview	18	54	388	265	265	265	265	123
47			Foods	Foods	10	preview	18	55	353	173	476	173	353	180
48	53	store	store	store	10	preview	18	56	124	0	0	0	0	124
49	54	in	in	in	10	preview	18	57	124	124	248	124	124	0
50	55	@entity12	Spytty	Spytty	10	preview	18	58	767	346	346	346	346	421
51			Retail	Retail	10	preview	18	59	504	311	800	311	504	193
52			Park	Park	10	preview	18	60	236	236	236	236	236	0
53	56	near	near	near	10	preview	18	61	0	0	0	0	0	0
54	57	the	the	the	10	preview	18	62	182	182	182	182	182	0
55	58	couple	couple	couple-s	10	preview	18	63	180	180	180	180	180	0
	59	’s	’s		10	preview	18	64						
56	60	home	home	home	10	preview	18	65	0	0	0	0	0	0
57	61	in	in	in	10	preview	18	66	0	0	0	0	0	0
58	62	@entity15	Newport	Newport,	10	preview	18	67	437	437	437	170	437	0
	63	,	,		10	preview	18	68						
59	64	@entity16	South	South	10	preview	18	69	101	101	101	101	101	0
60			Wales	Wales,	10	preview	18	70	212	0	0	0	0	212
	65	,	,		10	preview	18	71						
61	66	within	within	within	10	preview	18	72	286	110	498	110	286	176
62	67	the	the	the	10	preview	18	73	0	0	0	0	0	0
63	68	last	last	last	10	preview	18	74	214	214	214	214	214	0
64	69	two	two	two	10	preview	18	75	178	178	178	178	178	0
65	70	weeks	weeks	weeks.	10	preview	18	76	0	0	0	0	0	0
	71	.	.		10	preview	18	77						
66	72	@entity5	John	John,	10	preview	18	78	307	307	307	307	307	0
			Foran		10	preview	18	79						
	73	was	was		10	preview	18	80						
67	74	horrified	horrified	59,	10	preview	18	81	0	0	0	0	0	0
	75	to	to		10	preview	18	82						
	76	find	find		10	preview	18	83						
	77	a	a		10	preview	18	84						
68	78	five	five	said:	10	preview	18	85	310	310	310	194	310	0
	79	inch	inch		10	preview	18	86						
	80	piece	piece		10	preview	18	87						
	81	of	of		10	preview	18	88						
	82	timber	timber		10	preview	18	89						
	83	in	in		10	preview	18	90						
	84	his	his		10	preview	18	91						
	85	@entity11	Iceland		10	preview	18	92						
	86	chicken	chicken		10	preview	18	93						
	87	tikka	tikka		10	preview	18	94						
	88	biryani	biryani		10	preview	18	95						
	89	curry	curry		10	preview	18	96						
	90	@entity5	John		10	preview	18	97						
	91	,	,		10	preview	18	98						
	92	59	59		10	preview	18	99						
	93	,	,		10	preview	18	100						
	94	said	said		10	preview	18	101						
69	95	:	:	-When	10	preview	18	102	0	0	0	0	0	0
	96	-	-		10	preview	18	103						
	97	When	When		10	preview	18	104						
70	98	it	it	it	10	preview	18	105	0	0	0	0	0	0
71	99	fell	fell	fell	10	preview	18	106	196	196	196	196	196	0
72	100	out	out	out	10	preview	18	107	182	182	182	182	182	0
73	101	of	of	of	10	preview	18	108	0	0	0	0	0	0
74	102	the	the	the	10	preview	18	109	230	230	230	230	230	0
75	103	bag	bag	bag	10	preview	18	110	0	0	0	0	0	0
76	104	I	I	I	10	preview	18	111	134	134	134	134	134	0
77	105	could	could	couldn-t	10	preview	18	112	0	0	0	0	0	0
	106	n’t	n’t		10	preview	18	113						
78	107	believe	believe	believe	10	preview	18	114	250	250	250	250	250	0
79	108	it	it	it.	10	preview	18	115	0	0	0	0	0	0
	109	.	.		10	preview	18	116						
80	110	-	-	-As	10	preview	18	117	0	0	0	0	0	0
	111	As	As		10	preview	18	118						
81	112	@entity4	Nita	Nita	10	preview	18	119	426	426	426	322	426	0
82	113	was	was	was	10	preview	18	120	0	0	0	0	0	0
83	114	putting	putting	putting	10	preview	18	121	197	197	197	197	197	0
84	115	it	it	it	10	preview	18	122	0	0	0	0	0	0
85	116	in	in	in	10	preview	18	123	0	0	0	0	0	0
86	117	the	the	the	10	preview	18	124	213	213	213	213	213	0
87	118	stir	stir	stir	10	preview	18	125	140	140	140	140	140	0
88	119	fry	fry	fry	10	preview	18	126	0	0	0	0	0	0
89	120	dish	dish	dish,	10	preview	18	127	372	372	372	372	372	0
	121	,	,		10	preview	18	128						
90	122	she	she	she	10	preview	18	129	0	0	0	0	0	0
91	123	thought	thought	thought	10	preview	18	130	250	250	250	250	250	0
92	124	it	it	it	10	preview	18	131	0	0	0	0	0	0
93	125	was	was	was	10	preview	18	132	109	109	109	109	109	0
94	126	just	just	just	10	preview	18	133	0	0	0	0	0	0
95	127	a	a	a	10	preview	18	134	0	0	0	0	0	0
96	128	big	big	big	10	preview	18	135	211	211	211	211	211	0
97	129	bit	bit	bit	10	preview	18	136	571	0	0	0	0	571
98	130	of	of	of	10	preview	18	137	214	214	785	214	214	0
99	131	veg	veg	veg.	10	preview	18	138	0	0	0	0	0	0
	132	.	.		10	preview	18	139						
100	133	-	-	-It	10	preview	18	140	0	0	0	0	0	0
	134	It	It		10	preview	18	141						
101	135	was	was	was	10	preview	18	142	333	237	237	237	237	96
102	136	a	a	a	10	preview	18	143	0	0	0	0	0	0
103	137	piece	piece	piece	10	preview	18	144	789	627	627	209	627	162
104	138	of	of	of	10	preview	18	145	0	0	0	0	0	0
105	139	wood	wood	wood	10	preview	18	146	259	103	2215	103	259	156
106	140	with	with	with	10	preview	18	147	0	0	0	0	0	0
107	141	splinters	splinters	splinters	10	preview	18	148	179	179	179	179	179	0
108	142	coming	coming	coming	10	preview	18	149	210	210	210	210	210	0
109	143	off	off	off	10	preview	18	150	0	0	0	0	0	0
110	144	it	it	it.	10	preview	18	151	151	151	151	151	151	0
	145	.	.		10	preview	18	152						
111	146	-	-	-I	10	preview	18	153	383	383	383	383	383	0
	147	I	I		10	preview	18	154						
112	148	just	just	just	10	preview	18	155	172	172	172	172	172	0
113	149	do	do	don-t	10	preview	18	156	103	0	0	0	0	103
	150	n’t	n’t		10	preview	18	157						
114	151	understand	understand	understand	10	preview	18	158	100	100	203	100	100	0
115	152	how	how	how	10	preview	18	159	158	158	158	158	158	0
116	153	it	it	it	10	preview	18	160	0	0	0	0	0	0
117	154	got	got	got	10	preview	18	161	418	418	418	418	418	0
118	155	inside	inside	inside.-	10	preview	18	162	0	0	0	0	0	0
	156	.	.		10	preview	18	163						
119	157	-	-	Shocked	10	preview	18	164	225	225	225	225	225	0
	158	@entity11	Iceland		10	preview	18	165						
	159	said	said		10	preview	18	166						
	160	they	they		10	preview	18	167						
	161	are	are		10	preview	18	168						
	162	carrying	carrying		10	preview	18	169						
	163	out	out		10	preview	18	170						
	164	a	a		10	preview	18	171						
	165	thorough	thorough		10	preview	18	172						
	166	investigation	investigation		10	preview	18	173						
	167	into	into		10	preview	18	174						
	168	how	how		10	preview	18	175						
	169	the	the		10	preview	18	176						
	170	timber	timber		10	preview	18	177						
	171	shard	shard		10	preview	18	178						
	172	came	came		10	preview	18	179						
	173	to	to		10	preview	18	180						
	174	be	be		10	preview	18	181						
	175	in	in		10	preview	18	182						
	176	the	the		10	preview	18	183						
	177	curry	curry		10	preview	18	184						
	178	Shocked	Shocked		10	preview	18	185						
120	179	@entity5	John	John	10	preview	18	186	0	0	0	0	0	0
121	180	immediately	immediately	immediately	10	preview	18	187	258	258	258	141	258	0
122	181	contacted	contacted	contacted	10	preview	18	188	184	184	184	184	184	0
123	182	@entity11	Iceland	Iceland	10	preview	18	189	115	115	115	115	115	0
124	183	who	who	who	10	preview	18	190	85	85	85	85	85	0
125	184	are	are	are	10	preview	18	191	0	0	0	0	0	0
126	185	currently	currently	currently	10	preview	18	192	210	210	210	210	210	0
127	186	investigating	investigating	investigating	10	preview	18	193	153	153	153	153	153	0
128	187	the	the	the	10	preview	18	194	0	0	0	0	0	0
129	188	matter	matter	matter.	10	preview	18	195	148	148	148	148	148	0
	189	.	.		10	preview	18	196						
130	190	He	He	He	10	preview	18	197	0	0	0	0	0	0
131	191	said	said	said:	10	preview	18	198	0	0	0	0	0	0
132	192	:	:	-It	10	preview	18	199	213	213	213	213	213	0
	193	“	“		10	preview	18	200						
133	194	It	It	may	10	preview	18	201	0	0	0	0	0	0
134	195	may	may	only	10	preview	18	202	185	185	185	185	185	0
135	196	only	only	have	10	preview	18	203	169	0	0	0	0	169
	197	have	have		10	preview	18	204						
136	198	been	been	been	10	preview	18	205	117	0	0	0	0	117
137	199	£	£	£2	10	preview	18	206	181	181	181	181	181	0
	200	2	2		10	preview	18	207						
138	201	but	but	but	10	preview	18	208	154	154	154	154	154	0
139	202	that	that	that-s	10	preview	18	209	146	0	0	0	0	146
	203	’s	’s		10	preview	18	210						
140	204	beside	beside	beside	10	preview	18	211	107	107	253	107	107	0
141	205	the	the	the	10	preview	18	212	300	300	586	300	300	0
142	206	point	point	point.	10	preview	18	213	0	0	0	0	0	0
	207	.	.		10	preview	18	214						
143	208	-	-	-Things	10	preview	18	215	210	210	210	210	210	0
	209	Things	Things		10	preview	18	216						
144	210	like	like	like	10	preview	18	217	0	0	0	0	0	0
145	211	this	this	this	10	preview	18	218	245	245	245	245	245	0
146	212	should	should	should	10	preview	18	219	186	0	0	0	0	186
147	213	not	not	not	10	preview	18	220	210	210	396	210	210	0
148	214	be	be	be	10	preview	18	221	0	0	0	0	0	0
149	215	in	in	in	10	preview	18	222	190	190	190	190	190	0
150	216	your	your	your	10	preview	18	223	142	142	142	142	142	0
151	217	food	food	food.	10	preview	18	224	0	0	0	0	0	0
	218	.	.		10	preview	18	225						
152	219	-	-	-I	10	preview	18	226	0	0	0	0	0	0
	220	I	I		10	preview	18	227						
153	221	contacted	contacted	contacted	10	preview	18	228	162	162	162	162	162	0
154	222	@entity11	Iceland	Iceland	10	preview	18	229	103	0	0	0	0	103
155	223	and	and	and	10	preview	18	230	132	132	235	132	132	0
156	224	all	all	all	10	preview	18	231	0	0	0	0	0	0
157	225	they	they	they	10	preview	18	232	443	249	249	249	249	194
158	226	said	said	said	10	preview	18	233	194	0	0	0	0	194
159	227	was	was	was	10	preview	18	234	277	277	277	277	277	0
160	228	take	take	take	10	preview	18	235	519	89	687	89	299	430
161	229	it	it	it	10	preview	18	236	131	0	0	0	0	131
162	230	back	back	back	10	preview	18	237	354	354	705	354	354	0
163	231	to	to	to	10	preview	18	238	0	0	0	0	0	0
164	232	the	the	the	10	preview	18	239	228	228	228	228	228	0
165	233	shop	shop	shop	10	preview	18	240	0	0	0	0	0	0
166	234	and	and	and	10	preview	18	241	0	0	0	0	0	0
167	235	that	that	that	10	preview	18	242	205	205	205	205	205	0
168	236	they	they	they-ll	10	preview	18	243	332	332	332	332	332	0
	237	’ll	’ll		10	preview	18	244						
169	238	be	be	be	10	preview	18	245	0	0	0	0	0	0
170	239	in	in	in	10	preview	18	246	185	185	185	185	185	0
171	240	touch	touch	touch.	10	preview	18	247	0	0	0	0	0	0
	241	.	.		10	preview	18	248						
172	242	-	-	-But	10	preview	18	249	0	0	0	0	0	0
	243	But	But		10	preview	18	250						
173	244	I	I	I	10	preview	18	251	0	0	0	0	0	0
174	245	want	want	want	10	preview	18	252	171	171	171	171	171	0
175	246	people	people	people	10	preview	18	253	208	208	208	208	208	0
176	247	to	to	to	10	preview	18	254	0	0	0	0	0	0
177	248	know	know	know	10	preview	18	255	159	159	159	159	159	0
178	249	what	what	what	10	preview	18	256	184	184	184	184	184	0
179	250	could	could	could	10	preview	18	257	0	0	0	0	0	0
180	251	be	be	be	10	preview	18	258	0	0	0	0	0	0
181	252	hiding	hiding	hiding	10	preview	18	259	0	0	0	0	0	0
182	253	in	in	in	10	preview	18	260	0	0	0	0	0	0
183	254	their	their	their	10	preview	18	261	239	239	239	239	239	0
184	255	meal	meal	meal.-	10	preview	18	262	0	0	0	0	0	0
	256	.	.		10	preview	18	263						
185	257	”	”	An	10	preview	18	264	0	0	0	0	0	0
186	258	An	An	Iceland	10	preview	18	265	233	233	233	233	233	0
	259	@entity11	Iceland		10	preview	18	266						
187	260	spokeswoman	spokeswoman	spokeswoman	10	preview	18	267	267	267	267	267	267	0
188	261	said	said	said:	10	preview	18	268	0	0	0	0	0	0
189	262	:	:	-Please	10	preview	18	269	172	172	172	172	172	0
	263	’	’		10	preview	18	270						
	264	Please	Please		10	preview	18	271						
190	265	be	be	be	10	preview	18	272	0	0	0	0	0	0
191	266	assured	assured	assured	10	preview	18	273	170	170	170	170	170	0
192	267	that	that	that	10	preview	18	274	0	0	0	0	0	0
193	268	we	we	we	10	preview	18	275	0	0	0	0	0	0
194	269	take	take	take	10	preview	18	276	213	213	213	213	213	0
195	270	all	all	all	10	preview	18	277	0	0	0	0	0	0
196	271	complaints	complaints	complaints	10	preview	18	278	183	183	183	183	183	0
197	272	extremely	extremely	extremely	10	preview	18	279	356	356	356	127	356	0
198	273	seriously	seriously	seriously.	10	preview	18	280	111	111	111	111	111	0
	274	.	.		10	preview	18	281						
199	275	We	We	We	10	preview	18	282	0	0	0	0	0	0
200	276	can	can	can	10	preview	18	283	0	0	0	0	0	0
201	277	confirm	confirm	confirm	10	preview	18	284	207	207	207	207	207	0
202	278	that	that	that	10	preview	18	285	174	174	174	174	174	0
203	279	Mr	Mr	Mr	10	preview	18	286	0	0	0	0	0	0
204	280	@entity5	Foran	Foran	10	preview	18	287	210	0	0	0	0	210
205	281	has	has	has	10	preview	18	288	188	188	188	188	188	0
206	282	now	now	now	10	preview	18	289	0	0	0	0	0	0
207	283	been	been	been	10	preview	18	290	124	124	124	124	124	0
208	284	in	in	in	10	preview	18	291	119	119	329	119	119	0
209	285	touch	touch	touch	10	preview	18	292	170	170	170	170	170	0
210	286	with	with	with	10	preview	18	293	149	149	149	149	149	0
211	287	our	our	our	10	preview	18	294	0	0	0	0	0	0
212	288	customer	customer	customer	10	preview	18	295	386	205	205	205	205	181
213	289	care	care	care	10	preview	18	296	0	0	0	0	0	0
214	290	department	department	department	10	preview	18	297	146	146	327	146	146	0
215	291	regarding	regarding	regarding	10	preview	18	298	180	0	0	0	0	180
216	292	the	the	the	10	preview	18	299	103	103	283	103	103	0
217	293	foreign	foreign	foreign	10	preview	18	300	200	200	200	200	200	0
218	294	body	body	body	10	preview	18	301	103	103	103	103	103	0
219	295	found	found	found	10	preview	18	302	0	0	0	0	0	0
220	296	in	in	in	10	preview	18	303	144	144	144	144	144	0
221	297	his	his	his	10	preview	18	304	0	0	0	0	0	0
222	298	ready	ready	ready	10	preview	18	305	382	382	382	382	382	0
223	299	meal	meal	meal.	10	preview	18	306	0	0	0	0	0	0
	300	.	.		10	preview	18	307						
224	301	-	-	-Mr	10	preview	18	308	0	0	0	0	0	0
	302	Mr	Mr		10	preview	18	309						
225	303	@entity5	Foran	Foran	10	preview	18	310	181	181	181	181	181	0
226	304	is	is	is	10	preview	18	311	0	0	0	0	0	0
227	305	returning	returning	returning	10	preview	18	312	405	405	405	257	405	0
228	306	the	the	the	10	preview	18	313	0	0	0	0	0	0
229	307	item	item	item	10	preview	18	314	111	111	111	111	111	0
230	308	to	to	to	10	preview	18	315	0	0	0	0	0	0
231	309	the	the	the	10	preview	18	316	0	0	0	0	0	0
232	310	store	store	store	10	preview	18	317	261	261	261	261	261	0
233	311	and	and	and	10	preview	18	318	0	0	0	0	0	0
234	312	the	the	the	10	preview	18	319	0	0	0	0	0	0
235	313	foreign	foreign	foreign	10	preview	18	320	276	276	276	276	276	0
236	314	body	body	body	10	preview	18	321	0	0	0	0	0	0
237	315	will	will	will	10	preview	18	322	147	0	0	0	0	147
238	316	be	be	be	10	preview	18	323	196	196	343	196	196	0
239	317	collected	collected	collected	10	preview	18	324	140	140	140	140	140	0
240	318	by	by	by	10	preview	18	325	0	0	0	0	0	0
241	319	our	our	our	10	preview	18	326	0	0	0	0	0	0
242	320	supplier	supplier	supplier	10	preview	18	327	186	186	186	186	186	0
243	321	in	in	in	10	preview	18	328	220	220	220	220	220	0
244	322	order	order	order	10	preview	18	329	179	179	179	179	179	0
245	323	for	for	for	10	preview	18	330	155	0	0	0	0	155
246	324	them	them	them	10	preview	18	331	184	85	85	85	85	99
247	325	to	to	to	10	preview	18	332	0	0	0	0	0	0
248	326	carry	carry	carry	10	preview	18	333	218	218	472	218	218	0
249	327	out	out	out	10	preview	18	334	228	228	228	228	228	0
250	328	a	a	a	10	preview	18	335	0	0	0	0	0	0
251	329	thorough	thorough	thorough	10	preview	18	336	221	221	221	221	221	0
252	330	investigation	investigation	investigation.	10	preview	18	337	132	132	132	132	132	0
	331	.	.		10	preview	18	338						
253	332	As	As	As	10	preview	18	339	0	0	0	0	0	0
254	333	soon	soon	soon	10	preview	18	340	186	186	186	186	186	0
255	334	as	as	as	10	preview	18	341	0	0	0	0	0	0
256	335	we	we	we	10	preview	18	342	0	0	0	0	0	0
257	336	have	have	have	10	preview	18	343	237	237	237	237	237	0
258	337	the	the	the	10	preview	18	344	0	0	0	0	0	0
259	338	results	results	results	10	preview	18	345	189	189	189	189	189	0
260	339	of	of	of	10	preview	18	346	0	0	0	0	0	0
261	340	this	this	this	10	preview	18	347	208	208	208	208	208	0
262	341	investigation	investigation	investigation	10	preview	18	348	144	144	144	144	144	0
263	342	we	we	we	10	preview	18	349	0	0	0	0	0	0
264	343	will	will	will	10	preview	18	350	146	146	146	146	146	0
265	344	get	get	get	10	preview	18	351	0	0	0	0	0	0
266	345	back	back	back	10	preview	18	352	209	0	0	0	0	209
267	346	in	in	in	10	preview	18	353	127	127	336	127	127	0
268	347	touch	touch	touch	10	preview	18	354	109	109	109	109	109	0
269	348	with	with	with	10	preview	18	355	0	0	0	0	0	0
270	349	Mr	Mr	Mr	10	preview	18	356	0	0	0	0	0	0
271	350	@entity5	Foran	Foran.-	10	preview	18	357	223	223	223	223	223	0
	351	.	.		10	preview	18	358						
