ModelID	alpha	FixationRate	Epochs
34423505	3.0	0.6283641411251556	1
43841930	1.5	0.7202570827320186	3
9850125	3.0	0.628065252851986	2
31110833	1.75	0.7092655328370264	3
53751801	2.0	0.6960204765065283	3
78530677	2.75	0.6502079176045996	3
49177686	2.25	0.6785616481724734	3
26245403	2.25	0.4998529284938996	1
34677577	3.0	0.6353146617991172	3
6885666	3.25	0.611037575197862	3
17562048	2.5	0.6683938051335947	3
88932700	2.0	0.7013897919803079	2
88030657	3.75	0.5702590441576548	3
39998596	3.5	0.602452192137262	2
59351533	3.0	0.6376561870635847	2
