0	0	@entity0	Chelsea	Chelsea
2	1	are	are	are
3	2	looking	looking	looking
4	3	to	to	to
5	4	beat	beat	beat
6	5	@entity1	Manchester	Manchester
7			City	City
8	6	to	to	to
9	7	sign	sign	sign
10	8	@entity3	Brazilian	Brazilian
11	9	prospect	prospect	prospect
12	10	@entity2	Nathan	Nathan.
	11	.	.
13	12	The	The	The
14	13	attacking	attacking	attacking
15	14	midfielder	midfielder	midfielder
16	15	turned	turned	turned
17	16	19	19	19
18	17	last	last	last
19	18	month	month	month
20	19	but	but	but
21	20	has	has	has
22	21	been	been	been
23	22	in	in	in
24	23	contract	contract	contract
25	24	dispute	dispute	dispute
26	25	with	with	with
27	26	his	his	his
28	27	club	club	club
29	28	@entity6	Atletico	Atletico
30			Paranaense	Paranaense.
	29	.	.
31	30	He	He	He
32	31	is	is	is
33	32	due	due	due
34	33	to	to	to
35	34	speak	speak	speak
36	35	to	to	to
37	36	@entity0	Chelsea	Chelsea
38	37	next	next	next
39	38	week	week	week
40	39	ahead	ahead	ahead
41	40	of	of	of
42	41	a	a	a
43	42	proposed	proposed	proposed
44	43	move	move	move
45	44	to	to	to
46	45	@entity8	Stamford	Stamford
47			Bridge	Bridge
48	46	which	which	which
49	47	would	would	would
50	48	likely	likely	likely
51	49	see	see	see
52	50	him	him	him
53	51	loaned	loaned	loaned
54	52	out	out	out.
	53	.	.
55	54	@entity6	Atletico	Manchester
			Paranaense
	55	attacking	attacking
	56	midfielder	midfielder
	57	@entity2	Nathan
	58	is	is
	59	attracting	attracting
	60	interest	interest
	61	from	from
	62	@entity0	Chelsea
	63	and	and
	64	@entity1	Manchester
56	65	@entity11	City	City
57			Jose	have
58			Mourinho	been
	66	and	and
	67	@entity12	Manuel
			Pellegrini
	68	will	will
	69	go	go
	70	head	head
59	71	-	-	keen
	72	to	to
	73	-	-
	74	head	head
60	75	to	to	on
61	76	sign	sign	Nathan
	77	@entity3	Brazilian
	78	starlet	starlet
	79	@entity2	Nathan
62	80	@entity1	Manchester	following
			City
	81	have	have
	82	been	been
	83	keen	keen
	84	on	on
	85	@entity2	Nathan
	86	following	following
63	87	his	his	his
64	88	performances	performances	performances
65	89	in	in	in
66	90	the	the	the
67	91	@entity16	World	World
68			U17	U17
69			Championships	Championships
70	92	two	two	two
71	93	years	years	years
72	94	ago	ago	ago
73	95	and	and	and
74	96	he	he	he
75	97	has	has	has
76	98	since	since	since
77	99	broken	broken	broken
78	100	into	into	into
79	101	@entity6	Paranaense	Paranaense's
	102	's	's
80	103	first	first	first
81	104	team	team	team.
	105	.	.
82	106	@entity0	Chelsea	Chelsea
83	107	have	have	have
84	108	a	a	a
85	109	strong	strong	strong
86	110	@entity3	Brazilian	Brazilian
87	111	contingency	contingency	contingency
88	112	with	with	with
89	113	the	the	the
90	114	likes	likes	likes
91	115	of	of	of
92	116	@entity20	Willian	Willian,
	117	,	,
93	118	@entity21	Ramires	Ramires,
	119	,	,
94	120	@entity22	Filipe	Filipe
95			Luis	Luis
96	121	and	and	and
97	122	@entity23	Oscar	Oscar
98	123	while	while	while
99	124	21	21	21-year-old
	125	-	-
	126	year	year
	127	-	-
	128	old	old
100	129	@entity24	Lucas	Lucas
101			Piazon	Piazon
102	130	is	is	is
103	131	on	on	on
104	132	loan	loan	loan
105	133	at	at	at
106	134	@entity26	Eintracht	Eintracht
107			Frankfurt	Frankfurt.
	135	.	.
