1	0	(	(	The
2	1	@entity0	CNN	underwater
	2	)	)
	3	The	The
	4	underwater	underwater
3	5	search	search	search
4	6	area	area	area
5	7	for	for	for
6	8	missing	missing	missing
7	9	@entity2	Malaysia	Malaysia
8			Airlines	Airlines
9			Flight	Flight
10			370	370
11	10	looks	looks	looks
12	11	set	set	set
13	12	to	to	to
14	13	double	double	double
15	14	in	in	in
16	15	size	size	size.
	16	.	.
17	17	Teams	Teams	Teams
18	18	are	are	are
19	19	scouring	scouring	scouring
20	20	the	the	the
21	21	depths	depths	depths
22	22	of	of	of
23	23	a	a	a
24	24	remote	remote	remote
25	25	part	part	part
26	26	of	of	of
27	27	the	the	the
28	28	southern	southern	southern
29	29	@entity7	Indian	Indian
30			Ocean	Ocean
31	30	for	for	for
32	31	the	the	the
33	32	remains	remains	remains
34	33	of	of	of
35	34	the	the	the
36	35	passenger	passenger	passenger
37	36	jet	jet	jet
38	37	that	that	that
39	38	disappeared	disappeared	disappeared
40	39	more	more	more
41	40	than	than	than
42	41	a	a	a
43	42	year	year	year
44	43	ago	ago	ago
45	44	with	with	with
46	45	239	239	239
47	46	people	people	people
48	47	on	on	on
49	48	board	board	board.
	49	.	.
50	50	So	So	So
51	51	far	far	far,
	52	,	,
52	53	they	they	they've
	54	've	've
53	55	covered	covered	covered
54	56	about	about	about
55	57	60	60	60%
	58	%	%
56	59	of	of	of
57	60	the	the	the
58	61	priority	priority	priority
59	62	search	search	search
60	63	zone	zone	zone
61	64	without	without	without
62	65	reporting	reporting	reporting
63	66	any	any	any
64	67	trace	trace	trace
65	68	of	of	of
66	69	the	the	the
67	70	airliner	airliner	airliner.
	71	.	.
68	72	Families	Families	Families
69	73	of	of	of
70	74	passengers	passengers	passengers
71	75	and	and	and
72	76	crew	crew	crew
73	77	members	members	members
74	78	still	still	still
75	79	have	have	have
76	80	no	no	no
77	81	answers	answers	answers
78	82	about	about	about
79	83	what	what	what
80	84	happened	happened	happened
81	85	to	to	to
82	86	their	their	their
83	87	loved	loved	loved
84	88	ones	ones	ones.
	89	.	.
85	90	If	If	If
86	91	the	the	the
87	92	searchers	searchers	searchers
88	93	have	have	haven't
	94	n't	n't
89	95	found	found	found
90	96	anything	anything	anything
91	97	by	by	by
92	98	the	the	the
93	99	time	time	time
94	100	they	they	they've
	101	've	've
95	102	covered	covered	covered
96	103	the	the	the
97	104	entire	entire	entire
98	105	60,000	60,000	60,000-square-kilometer
	106	-	-
	107	square	square
	108	-	-
	109	kilometer	kilometer
99	110	priority	priority	priority
100	111	zone	zone	zone,
	112	,	,
101	113	the	the	the
102	114	search	search	search
103	115	will	will	will
104	116	stretch	stretch	stretch
105	117	into	into	into
106	118	a	a	a
107	119	new	new	new
108	120	equally	equally	equally
109	121	vast	vast	vast
110	122	area	area	area,
	123	,	,
111	124	government	government	government
112	125	officials	officials	officials
113	126	from	from	from
114	127	@entity23	Malaysia	Malaysia,
	128	,	,
115	129	@entity24	Australia	Australia
116	130	and	and	and
117	131	@entity25	China	China
118	132	announced	announced	announced
119	133	Thursday	Thursday	Thursday.
	134	.	.
120	135	"	"	"Ministers
	136	Ministers	Ministers
121	137	remain	remain	remain
122	138	committed	committed	committed
123	139	to	to	to
124	140	bring	bring	bring
125	141	closure	closure	closure
126	142	and	and	and
127	143	some	some	some
128	144	peace	peace	peace
129	145	to	to	to
130	146	the	the	the
131	147	families	families	families
132	148	and	and	and
133	149	loved	loved	loved
134	150	ones	ones	ones
135	151	of	of	of
136	152	those	those	those
137	153	on	on	on
138	154	board	board	board
139	155	@entity2	Malaysia	Malaysia
140			Airlines	Airlines
141			Flight	Flight
142			MH370	MH370,"
	156	,	,
	157	"	"
143	158	the	the	the
144	159	three	three	three
145	160	countries	countries	countries
146	161	said	said	said
147	162	in	in	in
148	163	a	a	a
149	164	joint	joint	joint
150	165	statement	statement	statement.
	166	.	.
151	167	The	The	The
152	168	search	search	search
153	169	of	of	of
154	170	the	the	the
155	171	current	current	current
156	172	priority	priority	priority
157	173	zone	zone	zone
158	174	is	is	is
159	175	expected	expected	expected
160	176	to	to	to
161	177	be	be	be
162	178	completed	completed	completed
163	179	in	in	in
164	180	May	May	May.
	181	.	.
165	182	Covering	Covering	Covering
166	183	the	the	the
167	184	new	new	new
168	185	zone	zone	zone
169	186	could	could	could
170	187	take	take	take
171	188	as	as	as
172	189	long	long	long
173	190	as	as	as
174	191	a	a	a
175	192	year	year	year.
	193	.	.
176	194	At	At	At
177	195	that	that	that
178	196	point	point	point,
	197	,	,
179	198	"	"	"all
	199	all	all
180	200	high	high	high
181	201	probability	probability	probability
182	202	search	search	search
183	203	areas	areas	areas
184	204	would	would	would
185	205	have	have	have
186	206	been	been	been
187	207	covered	covered	covered,"
	208	,	,
	209	"	"
188	210	the	the	the
189	211	governments	governments	governments
190	212	said	said	said
191	213	Thursday	Thursday	Thursday.
	214	.	.
192	215	The	The	The
193	216	size	size	size
194	217	of	of	of
195	218	the	the	the
196	219	doubled	doubled	doubled
197	220	search	search	search
198	221	area	area	area,
	222	,	,
199	223	the	the	the
200	224	equivalent	equivalent	equivalent
201	225	of	of	of
202	226	more	more	more
203	227	than	than	than
204	228	46,000	46,000	46,000
205	229	square	square	square
206	230	miles	miles	miles,
	231	,	,
207	232	would	would	would
208	233	be	be	be
209	234	bigger	bigger	bigger
210	235	than	than	than
211	236	the	the	the
212	237	@entity50	U.S.	U.S.
213	238	state	state	state
214	239	of	of	of
215	240	@entity51	Pennsylvania	Pennsylvania.
	241	.	.
216	242	Flight	Flight	Flight
217	243	370	370	370
218	244	vanished	vanished	vanished
219	245	after	after	after
220	246	taking	taking	taking
221	247	off	off	off
222	248	from	from	from
223	249	@entity53	Kuala	Kuala
224			Lumpur	Lumpur,
	250	,	,
225	251	@entity23	Malaysia	Malaysia,
	252	,	,
226	253	on	on	on
227	254	March	March	March
228	255	8	8	8,
	256	,	,
229	257	2014	2014	2014,
	258	,	,
230	259	bound	bound	bound
231	260	for	for	for
232	261	@entity54	Beijing	Beijing.
	262	.	.
233	263	Officials	Officials	Officials
234	264	are	are	are
235	265	still	still	still
236	266	trying	trying	trying
237	267	to	to	to
238	268	figure	figure	figure
239	269	out	out	out
240	270	why	why	why
241	271	it	it	it
242	272	veered	veered	veered
243	273	dramatically	dramatically	dramatically
244	274	off	off	off
245	275	course	course	course
246	276	over	over	over
247	277	the	the	the
248	278	sea	sea	sea
249	279	between	between	between
250	280	@entity23	Malaysia	Malaysia
251	281	and	and	and
252	282	@entity58	Vietnam	Vietnam
253	283	and	and	and
254	284	where	where	where
255	285	exactly	exactly	exactly
256	286	it	it	it
257	287	ended	ended	ended
258	288	up	up	up.
	289	.	.
259	290	An	An	An
260	291	international	international	international
261	292	team	team	team
262	293	of	of	of
263	294	experts	experts	experts
264	295	used	used	used
265	296	satellite	satellite	satellite
266	297	data	data	data
267	298	to	to	to
268	299	calculate	calculate	calculate
269	300	that	that	that
270	301	the	the	the
271	302	plane	plane	plane
272	303	eventually	eventually	eventually
273	304	went	went	went
274	305	down	down	down
275	306	in	in	in
276	307	the	the	the
277	308	southern	southern	southern
278	309	@entity7	Indian	Indian
279			Ocean	Ocean,
	310	,	,
280	311	far	far	far
281	312	off	off	off
282	313	the	the	the
283	314	coast	coast	coast
284	315	of	of	of
285	316	@entity24	Western	Western
286			Australia	Australia.
	317	.	.
287	318	The	The	The
288	319	people	people	people
289	320	on	on	on
290	321	board	board	board
291	322	the	the	the
292	323	@entity64	Boeing	Boeing
293			777	777
294	324	came	came	came
295	325	from	from	from
296	326	various	various	various
297	327	nations	nations	nations,
	328	,	,
298	329	but	but	but
299	330	the	the	the
300	331	majority	majority	majority
301	332	were	were	were
302	333	@entity25	Chinese	Chinese.
	334	.	.
