1	0	(	(	In
2	1	@entity0	CNN	cities
	2	)	)
	3	[	[
	4	Breaking	Breaking
	5	news	news
	6	update	update
	7	,	,
	8	posted	posted
	9	at	at
	10	11:52	11:52
	11	p.m.	p.m.
	12	ET	ET
	13	]	]
	14	@entity3	Denver
	15	police	police
	16	report	report
	17	nine	nine
	18	arrests	arrests
	19	in	in
	20	Wednesday	Wednesday
	21	's	's
	22	demonstrations	demonstrations
	23	.	.
	24	The	The
	25	charges	charges
	26	include	include
	27	assault	assault
	28	of	of
	29	a	a
	30	police	police
	31	officer	officer
	32	,	,
	33	robbery	robbery
	34	,	,
	35	resisting	resisting
	36	police	police
	37	,	,
	38	disobedience	disobedience
	39	to	to
	40	lawful	lawful
	41	orders	orders
	42	,	,
	43	obstructing	obstructing
	44	roadways	roadways
	45	,	,
	46	and	and
	47	interference	interference
	48	.	.
	49	[	[
	50	Previous	Previous
	51	story	story
	52	,	,
	53	posted	posted
	54	at	at
	55	10:54	10:54
	56	p.m.	p.m.
	57	ET	ET
	58	]	]
	59	(	(
	60	@entity0	CNN
	61	)	)
	62	--	--
	63	In	In
	64	cities	cities
3	65	across	across	across
4	66	the	the	the
5	67	@entity17	United	United
6			States	States,
	68	,	,
7	69	marchers	marchers	marchers
8	70	took	took	took
9	71	to	to	to
10	72	the	the	the
11	73	streets	streets	streets
12	74	to	to	to
13	75	show	show	show
14	76	support	support	support
15	77	for	for	for
16	78	protesters	protesters	protesters
17	79	in	in	in
18	80	@entity21	Baltimore	Baltimore
19	81	and	and	and
20	82	to	to	to
21	83	complain	complain	complain
22	84	about	about	about
23	85	police	police	police
24	86	violence	violence	violence
25	87	in	in	in
26	88	their	their	their
27	89	own	own	own
28	90	towns	towns	towns.
	91	.	.
29	92	On	On	On
30	93	Wednesday	Wednesday	Wednesday
31	94	night	night	night,
	95	,	,
32	96	several	several	several
33	97	hundred	hundred	hundred
34	98	people	people	people
35	99	streamed	streamed	streamed
36	100	into	into	into
37	101	@entity25	Union	Union
38			Square	Square
39	102	for	for	for
40	103	an	an	an
41	104	"	"	"NYC
	105	@entity26	NYC
42			Rise	Rise
43			Up	Up
44	106	&	&	&
45	107	Shut	Shut	Shut
46	108	It	It	It
47	109	Down	Down	Down
48	110	With	With	With
49	111	@entity21	Baltimore	Baltimore"
	112	"	"
50	113	rally	rally	rally.
	114	.	.
51	115	Protesters	Protesters	Protesters
52	116	headed	headed	headed
53	117	west	west	west
54	118	on	on	on
55	119	17th	17th	17th
56	120	Street	Street	Street
57	121	and	and	and
58	122	were	were	were
59	123	met	met	met
60	124	by	by	by
61	125	@entity31	New	New
62			York	York
63			City	City
64			Police	Police
65	126	officers	officers	officers
66	127	who	who	who
67	128	pushed	pushed	pushed
68	129	them	them	them
69	130	back	back	back.
	131	.	.
70	132	A	A	A
71	133	small	small	small
72	134	scuffle	scuffle	scuffle
73	135	broke	broke	broke
74	136	out	out	out
75	137	between	between	between
76	138	the	the	the
77	139	two	two	two
78	140	front	front	front
79	141	lines	lines	lines
80	142	and	and	and
81	143	police	police	police
82	144	placed	placed	placed
83	145	at	at	at
84	146	least	least	least
85	147	20	20	20
86	148	people	people	people
87	149	in	in	in
88	150	zip	zip	zip
89	151	ties	ties	ties
90	152	in	in	in
91	153	the	the	the
92	154	street	street	street.
	155	.	.
93	156	The	The	The
94	157	@entity31	NYPD	NYPD
95	158	also	also	also
96	159	handed	handed	handed
97	160	out	out	out
98	161	fliers	fliers	fliers
99	162	and	and	and
100	163	used	used	used
101	164	loudspeakers	loudspeakers	loudspeakers
102	165	to	to	to
103	166	tell	tell	tell
104	167	protesters	protesters	protesters
105	168	and	and	and
106	169	pedestrians	pedestrians	pedestrians
107	170	to	to	to
108	171	stay	stay	stay
109	172	on	on	on
110	173	the	the	the
111	174	sidewalk	sidewalk	sidewalk.
	175	.	.
112	176	One	One	One
113	177	person	person	person
114	178	was	was	was
115	179	placed	placed	placed
116	180	in	in	in
117	181	ambulance	ambulance	ambulance
118	182	and	and	and
119	183	taken	taken	taken
120	184	away	away	away.
	185	.	.
121	186	The	The	The
122	187	crowd	crowd	crowd
123	188	headed	headed	headed
124	189	toward	toward	toward
125	190	@entity47	Times	Times
126			Square	Square.
	191	.	.
127	192	A	A	A
128	193	law	law	law
129	194	enforcement	enforcement	enforcement
130	195	source	source	source
131	196	told	told	told
132	197	@entity0	CNN	CNN
133	198	that	that	that
134	199	more	more	more
135	200	than	than	than
136	201	60	60	60
137	202	people	people	people
138	203	were	were	were
139	204	arrested	arrested	arrested
140	205	during	during	during
141	206	the	the	the
142	207	demonstrations	demonstrations	demonstrations.
	208	.	.
143	209	The	The	The
144	210	rally	rally	rally
145	211	was	was	was
146	212	organized	organized	organized
147	213	through	through	through
148	214	social	social	social
149	215	media	media	media,
	216	,	,
150	217	much	much	much
151	218	like	like	like
152	219	protests	protests	protests
153	220	over	over	over
154	221	the	the	the
155	222	killing	killing	killing
156	223	of	of	of
157	224	@entity55	Eric	Eric
158			Garner	Garner,
	225	,	,
159	226	who	who	who
160	227	died	died	died
161	228	while	while	while
162	229	police	police	police
163	230	held	held	held
164	231	him	him	him
165	232	in	in	in
166	233	what	what	what
167	234	appeared	appeared	appeared
168	235	to	to	to
169	236	be	be	be
170	237	a	a	a
171	238	chokehold	chokehold	chokehold.
	239	.	.
172	240	The	The	The
173	241	demonstrators	demonstrators	demonstrators
174	242	chanted	chanted	chanted
175	243	"	"	"Black
	244	@entity60	Black
176			Lives	Lives
177			Matter	Matter"
	245	"	"
178	246	and	and	and
179	247	"	"	"Justice
	248	@entity61	Justice
180			for	for
181			Freddie	Freddie
182			Gray	Gray"
	249	"	"
183	250	--	--	--
184	251	the	the	the
185	252	@entity21	Baltimore	Baltimore
186	253	man	man	man
187	254	whose	whose	whose
188	255	death	death	death
189	256	sparked	sparked	sparked
190	257	street	street	street
191	258	confrontations	confrontations	confrontations
192	259	in	in	in
193	260	@entity21	Baltimore	Baltimore.
	261	.	.
194	262	@entity0	CNN	CNN
195	263	affiliate	affiliate	affiliate
196	264	@entity65	WCBS	WCBS
197	265	reported	reported	reported
198	266	Mayor	Mayor	Mayor
199	267	@entity66	Bill	Bill
200			de	de
201			Blasio	Blasio
202	268	sent	sent	sent
203	269	a	a	a
204	270	message	message	message
205	271	to	to	to
206	272	the	the	the
207	273	protesters	protesters	protesters:
208	274	:	:	"I'd
	275	"	"
	276	I	I
	277	'd	'd
209	278	say	say	say
210	279	that	that	that
211	280	if	if	if
212	281	you	you	you
213	282	want	want	want
214	283	to	to	to
215	284	make	make	make
216	285	change	change	change,
	286	,	,
217	287	keep	keep	keep
218	288	things	things	things
219	289	peaceful	peaceful	peaceful."
	290	.	.
220	291	"	"	A
221	292	A	A	smaller
	293	smaller	smaller
222	294	rally	rally	rally
223	295	was	was	was
224	296	held	held	held
225	297	Tuesday	Tuesday	Tuesday
226	298	in	in	in
227	299	@entity73	New	New
228			York	York.
	300	.	.
229	301	In	In	In
230	302	@entity76	Washington	Washington,
	303	,	,
231	304	about	about	about
232	305	500	500	500
233	306	protesters	protesters	protesters,
	307	,	,
234	308	mostly	mostly	mostly
235	309	in	in	in
236	310	their	their	their
237	311	20s	20s	20s,
	312	,	,
238	313	gathered	gathered	gathered
239	314	in	in	in
240	315	the	the	the
241	316	middle	middle	middle
242	317	of	of	of
243	318	@entity78	H	H
244			Street	Street
245	319	and	and	and
246	320	7th	7th	7th
247	321	and	and	and
248	322	chanted	chanted	chanted,
	323	,	,
249	324	"	"	"All
	325	All	All
250	326	night	night	night,
	327	,	,
251	328	all	all	all
252	329	day	day	day,
	330	,	,
253	331	we	we	we're
	332	're	're
254	333	gon	gon	gonna
	334	na	na
255	335	fight	fight	fight
256	336	for	for	for
257	337	@entity79	Freddie	Freddie
258			Gray	Gray."
	338	.	.
259	339	"	"	The
260	340	The	The	mood
	341	mood	mood
261	342	seemed	seemed	seemed
262	343	more	more	more
263	344	festive	festive	festive
264	345	than	than	than
265	346	confrontational	confrontational	confrontational,
	347	,	,
266	348	with	with	with
267	349	songs	songs	songs
268	350	by	by	by
269	351	@entity82	Public	Public
270			Enemy	Enemy
271	352	like	like	like
272	353	"	"	"Fight
	354	@entity86	Fight
273			the	the
274			Power	Power"
	355	"	"
275	356	playing	playing	playing
276	357	and	and	and
277	358	sign	sign	sign-language
	359	-	-
	360	language	language
278	361	interpreters	interpreters	interpreters
279	362	translating	translating	translating
280	363	the	the	the
281	364	music	music	music
282	365	and	and	and
283	366	chants	chants	chants.
	367	.	.
284	368	The	The	The
285	369	protest	protest	protest
286	370	moved	moved	moved
287	371	to	to	to
288	372	the	the	the
289	373	@entity88	White	White
290			House	House
291	374	where	where	where
292	375	most	most	most
293	376	of	of	of
294	377	the	the	the
295	378	crowd	crowd	crowd
296	379	dispersed	dispersed	dispersed.
	380	.	.
297	381	It	It	It
298	382	started	started	started
299	383	after	after	after
300	384	most	most	most
301	385	office	office	office
302	386	workers	workers	workers
303	387	had	had	had
304	388	headed	headed	headed
305	389	home	home	home
306	390	and	and	and
307	391	did	did	didn't
	392	n't	n't
308	393	disrupt	disrupt	disrupt
309	394	the	the	the
310	395	@entity76	Washington	Washington
311	396	workforce	workforce	workforce
312	397	badly	badly	badly.
	398	.	.
313	399	One	One	One
314	400	of	of	of
315	401	the	the	the
316	402	groups	groups	groups
317	403	involved	involved	involved
318	404	in	in	in
319	405	the	the	the
320	406	protest	protest	protest
321	407	is	is	is
322	408	the	the	the
323	409	@entity95	DC	DC
324			Ferguson	Ferguson
325			Movement	Movement.
	410	.	.
326	411	Organizer	Organizer	Organizer
327	412	@entity96	Eugene	Eugene
328			Puryear	Puryear
329	413	said	said	said
330	414	the	the	the
331	415	march	march	march
332	416	was	was	was
333	417	called	called	called
334	418	to	to	to
335	419	show	show	show
336	420	solidarity	solidarity	solidarity
337	421	with	with	with
338	422	the	the	the
339	423	residents	residents	residents
340	424	in	in	in
341	425	@entity21	Baltimore	Baltimore
342	426	and	and	and
343	427	to	to	to
344	428	highlight	highlight	highlight
345	429	that	that	that
346	430	police	police	police
347	431	brutality	brutality	brutality
348	432	is	is	is
349	433	a	a	a
350	434	national	national	national
351	435	issue	issue	issue.
	436	.	.
352	437	Several	Several	Several
353	438	hundred	hundred	hundred
354	439	people	people	people
355	440	gathered	gathered	gathered
356	441	in	in	in
357	442	@entity103	Gold	Gold
358			Medal	Medal
359			Park	Park
360	443	in	in	in
361	444	@entity104	Minneapolis	Minneapolis
362	445	for	for	for
363	446	a	a	a
364	447	rally	rally	rally
365	448	organized	organized	organized
366	449	by	by	by
367	450	the	the	the
368	451	group	group	group
369	452	of	of	of
370	453	#	#	#BlackLivesMatter.
	454	@entity107	BlackLivesMatter
	455	.	.
371	456	The	The	The
372	457	@entity104	Minneapolis	Minneapolis
373	458	group	group	group
374	459	held	held	held
375	460	similar	similar	similar
376	461	events	events	events
377	462	in	in	in
378	463	the	the	the
379	464	past	past	past
380	465	in	in	in
381	466	response	response	response
382	467	to	to	to
383	468	alleged	alleged	alleged
384	469	police	police	police
385	470	brutality	brutality	brutality
386	471	across	across	across
387	472	the	the	the
388	473	country	country	country.
	474	.	.
389	475	Protests	Protests	Protests
390	476	also	also	also
391	477	were	were	were
392	478	held	held	held
393	479	in	in	in
394	480	@entity115	Boston	Boston
395	481	and	and	and
396	482	@entity116	Houston	Houston.
	483	.	.
397	484	On	On	On
398	485	Tuesday	Tuesday	Tuesday,
	486	,	,
399	487	violent	violent	violent
400	488	protests	protests	protests
401	489	took	took	took
402	490	place	place	place
403	491	in	in	in
404	492	@entity120	Ferguson	Ferguson,
	493	,	,
405	494	@entity121	Missouri	Missouri,
	495	,	,
406	496	where	where	where
407	497	three	three	three
408	498	people	people	people
409	499	were	were	were
410	500	shot	shot	shot,
	501	,	,
411	502	the	the	the
412	503	city	city	city
413	504	police	police	police
414	505	reported	reported	reported.
	506	.	.
415	507	Police	Police	Police
416	508	said	said	said
417	509	they	they	they
418	510	did	did	didn't
	511	n't	n't
419	512	do	do	do
420	513	the	the	the
421	514	shooting	shooting	shooting.
	515	.	.
422	516	A	A	A
423	517	20	20	20-year-old
	518	-	-
	519	year	year
	520	-	-
	521	old	old
424	522	man	man	man
425	523	was	was	was
426	524	arrested	arrested	arrested
427	525	and	and	and
428	526	the	the	the
429	527	three	three	three
430	528	victims	victims	victims
431	529	were	were	were
432	530	in	in	in
433	531	stable	stable	stable
434	532	condition	condition	condition
435	533	--	--	--
436	534	two	two	two
437	535	with	with	with
438	536	wounds	wounds	wounds
439	537	to	to	to
440	538	the	the	the
441	539	neck	neck	neck,
	540	,	,
442	541	one	one	one
443	542	in	in	in
444	543	the	the	the
445	544	leg	leg	leg,
	545	,	,
446	546	police	police	police
447	547	said	said	said.
	548	.	.
448	549	Police	Police	Police
449	550	said	said	said
450	551	about	about	about
451	552	300	300	300
452	553	people	people	people
453	554	marched	marched	marched,
	555	,	,
454	556	with	with	with
455	557	protesters	protesters	protesters
456	558	throwing	throwing	throwing
457	559	rocks	rocks	rocks
458	560	at	at	at
459	561	police	police	police,
	562	,	,
460	563	damaging	damaging	damaging
461	564	four	four	four
462	565	police	police	police
463	566	cars	cars	cars
464	567	and	and	and
465	568	setting	setting	setting
466	569	trash	trash	trash
467	570	and	and	and
468	571	debris	debris	debris
469	572	on	on	on
470	573	fire	fire	fire
471	574	near	near	near
472	575	@entity139	Northwinds	Northwinds
473			Estates	Estates
474	576	and	and	and
475	577	@entity140	West	West
476			Florissant	Florissant,
	578	,	,
477	579	police	police	police
478	580	said	said	said.
	581	.	.
479	582	One	One	One
480	583	business	business	business
481	584	in	in	in
482	585	@entity142	Dellwood	Dellwood
483	586	was	was	was
484	587	damaged	damaged	damaged,
	588	,	,
485	589	police	police	police
486	590	said	said	said.
	591	.	.
487	592	No	No	No
488	593	officers	officers	officers
489	594	were	were	were
490	595	injured	injured	injured
491	596	as	as	as
492	597	police	police	police
493	598	conducted	conducted	conducted
494	599	anti-riot	anti-riot	anti-riot
495	600	activities	activities	activities
496	601	until	until	until
497	602	3	3	3
498	603	a.m.	a.m.	a.m.
499	604	In	In	In
500	605	@entity147	Los	Los
501			Angeles	Angeles,
	606	,	,
502	607	six	six	six
503	608	people	people	people
504	609	protesting	protesting	protesting
505	610	against	against	against
506	611	police	police	police
507	612	brutality	brutality	brutality
508	613	were	were	were
509	614	arrested	arrested	arrested
510	615	Monday	Monday	Monday
511	616	night	night	night
512	617	when	when	when
513	618	they	they	they
514	619	failed	failed	failed
515	620	to	to	to
516	621	disperse	disperse	disperse,
	622	,	,
517	623	reported	reported	reported
518	624	@entity0	CNN	CNN
519	625	affiliate	affiliate	affiliate
520	626	@entity148	KABC	KABC.
	627	.	.
521	628	About	About	About
522	629	50	50	50
523	630	people	people	people
524	631	marched	marched	marched,
	632	,	,
525	633	@entity148	KABC	KABC
526	634	said	said	said.
	635	.	.
527	636	On	On	On
528	637	Tuesday	Tuesday	Tuesday,
	638	,	,
529	639	protesters	protesters	protesters
530	640	gathered	gathered	gathered
531	641	outside	outside	outside
532	642	the	the	the
533	643	@entity152	Stapes	Stapes
534			Center	Center,
	644	,	,
535	645	where	where	where
536	646	the	the	the
537	647	@entity153	Los	Los
538			Angeles	Angeles
539			Clippers	Clippers
540	648	and	and	and
541	649	the	the	the
542	650	@entity154	San	San
543			Antonio	Antonio
544			Spurs	Spurs
545	651	were	were	were
546	652	playing	playing	playing
547	653	an	an	an
548	654	@entity156	NBA	NBA
549	655	playoff	playoff	playoff
550	656	game	game	game.
	657	.	.
551	658	They	They	They
552	659	disrupted	disrupted	disrupted
553	660	traffic	traffic	traffic
554	661	and	and	and
555	662	carried	carried	carried
556	663	protest	protest	protest
557	664	signs	signs	signs.
	665	.	.
558	666	In	In	In
559	667	@entity161	Chicago	Chicago,
	668	,	,
560	669	hundreds	hundreds	hundreds
561	670	of	of	of
562	671	protesters	protesters	protesters
563	672	marched	marched	marched
564	673	Tuesday	Tuesday	Tuesday
565	674	from	from	from
566	675	police	police	police
567	676	headquarters	headquarters	headquarters
568	677	at	at	at
569	678	35th	35th	35th
570	679	and	and	and
571	680	@entity163	Michigan	Michigan
572	681	through	through	through
573	682	the	the	the
574	683	@entity164	Southside	Southside,
	684	,	,
575	685	@entity0	CNN	CNN
576	686	affiliate	affiliate	affiliate
577	687	@entity159	WGN	WGN
578	688	reported	reported	reported.
	689	.	.
579	690	Police	Police	Police
580	691	made	made	made
581	692	one	one	one
582	693	arrest	arrest	arrest,
	694	,	,
583	695	for	for	for
584	696	reckless	reckless	reckless
585	697	conduct	conduct	conduct.
	698	.	.
586	699	@entity159	WGN	WGN
587	700	said	said	said
588	701	protesters	protesters	protesters
589	702	spoke	spoke	spoke
590	703	about	about	about
591	704	police	police	police
592	705	violence	violence	violence
593	706	and	and	and
594	707	the	the	the
595	708	death	death	death
596	709	of	of	of
597	710	@entity171	Rekia	Rekia
598			Boyd	Boyd,
	711	,	,
599	712	who	who	who
600	713	was	was	was
601	714	killed	killed	killed
602	715	by	by	by
603	716	an	an	an
604	717	off	off	off-duty
	718	-	-
	719	duty	duty
605	720	officer	officer	officer
606	721	in	in	in
607	722	2012	2012	2012.
	723	.	.
608	724	That	That	That
609	725	officer	officer	officer
610	726	was	was	was
611	727	acquitted	acquitted	acquitted
612	728	last	last	last
613	729	week	week	week.
	730	.	.
614	731	The	The	The
615	732	group	group	group
616	733	plans	plans	plans
617	734	to	to	to
618	735	gather	gather	gather
619	736	Wednesday	Wednesday	Wednesday
620	737	night	night	night
621	738	at	at	at
622	739	the	the	the
623	740	@entity175	DePaul	DePaul
624			Law	Law
625			School	School.
	741	.	.
626	742	About	About	About
627	743	100	100	100
628	744	people	people	people
629	745	marched	marched	marched
630	746	Monday	Monday	Monday
631	747	night	night	night
632	748	in	in	in
633	749	@entity177	Oakland	Oakland
634	750	in	in	in
635	751	support	support	support
636	752	of	of	of
637	753	@entity21	Baltimore	Baltimore
638	754	protesters	protesters	protesters,
	755	,	,
639	756	reported	reported	reported
640	757	@entity0	CNN	CNN
641	758	affiliate	affiliate	affiliate
642	759	@entity148	KABC	KABC.
	760	.	.
643	761	A	A	A
644	762	protest	protest	protest
645	763	is	is	is
646	764	planned	planned	planned
647	765	for	for	for
648	766	Thursday	Thursday	Thursday
649	767	in	in	in
650	768	@entity181	Cincinnati	Cincinnati,
	769	,	,
651	770	reported	reported	reported
652	771	@entity0	CNN	CNN
653	772	affiliate	affiliate	affiliate
654	773	@entity182	WXIX	WXIX.
	774	.	.
655	775	@entity183	Philly.com	Philly.com
656	776	said	said	said
657	777	a	a	a
658	778	"	"	"Philly
	779	@entity185	Philly
659	780	is	is	is
660	781	@entity21	Baltimore	Baltimore"
	782	"	"
661	783	protest	protest	protest
662	784	will	will	will
663	785	be	be	be
664	786	held	held	held
665	787	Thursday	Thursday	Thursday
666	788	at	at	at
667	789	@entity186	Philadelphia	Philadelphia
668			City	City
669			Hall	Hall.
	790	.	.
