HumanPosition	AnonymizedPosition	AnonymizedToken	OriginalToken	ExperimentToken	Participant	Condition	TextNo	JointPosition	tt	fp	rp	ff
	0	@entity2	Seoul		9	preview	4	1				
	1	(	(		9	preview	4	2				
	2	@entity3	CNN		9	preview	4	3				
	3	)	)		9	preview	4	4				
0	4	@entity1	South	South	9	preview	4	5	155	0	0	0
2			Korea	Korea	9	preview	4	6	152	0	0	0
	5	-s	-s		9	preview	4	7				
3	6	Prime	Prime	Prime	9	preview	4	8	0	0	0	0
4	7	Minister	Minister	Minister	9	preview	4	9	0	0	0	0
5	8	@entity0	Lee	Lee	9	preview	4	10	0	0	0	0
6			Wan	Wan-koo	9	preview	4	11	0	0	0	0
			-		9	preview	4	12				
			koo		9	preview	4	13				
7	9	offered	offered	offered	9	preview	4	14	0	0	0	0
8	10	to	to	to	9	preview	4	15	0	0	0	0
9	11	resign	resign	resign	9	preview	4	16	0	0	0	0
10	12	on	on	on	9	preview	4	17	0	0	0	0
11	13	Monday	Monday	Monday	9	preview	4	18	245	0	0	0
12	14	amid	amid	amid	9	preview	4	19	0	0	0	0
13	15	a	a	a	9	preview	4	20	105	0	0	0
14	16	growing	growing	growing	9	preview	4	21	0	0	0	0
15	17	political	political	political	9	preview	4	22	352	0	0	0
16	18	scandal	scandal	scandal.	9	preview	4	23	0	0	0	0
	19	.	.		9	preview	4	24				
17	20	@entity0	Lee	Lee	9	preview	4	25	0	0	0	0
18	21	will	will	will	9	preview	4	26	0	0	0	0
19	22	stay	stay	stay	9	preview	4	27	0	0	0	0
20	23	in	in	in	9	preview	4	28	0	0	0	0
21	24	his	his	his	9	preview	4	29	0	0	0	0
22	25	official	official	official	9	preview	4	30	226	226	638	226
23	26	role	role	role	9	preview	4	31	0	0	0	0
24	27	until	until	until	9	preview	4	32	0	0	0	0
25	28	@entity1	South	South	9	preview	4	33	0	0	0	0
26			Korean	Korean	9	preview	4	34	120	0	0	0
27	29	President	President	President	9	preview	4	35	0	0	0	0
28	30	@entity6	Park	Park	9	preview	4	36	0	0	0	0
29			Geun	Geun-hye	9	preview	4	37	299	0	0	0
			-		9	preview	4	38				
			hye		9	preview	4	39				
30	31	accepts	accepts	accepts	9	preview	4	40	0	0	0	0
31	32	his	his	his	9	preview	4	41	305	305	305	305
32	33	resignation	resignation	resignation.	9	preview	4	42	0	0	0	0
	34	.	.		9	preview	4	43				
33	35	He	He	He	9	preview	4	44	150	150	150	150
34	36	has	has	has	9	preview	4	45	256	0	0	0
35	37	transferred	transferred	transferred	9	preview	4	46	244	137	854	137
36	38	his	his	his	9	preview	4	47	0	0	0	0
37	39	role	role	role	9	preview	4	48	0	0	0	0
38	40	of	of	of	9	preview	4	49	122	0	0	0
39	41	chairing	chairing	chairing	9	preview	4	50	94	0	0	0
40	42	Cabinet	Cabinet	Cabinet	9	preview	4	51	0	0	0	0
41	43	meetings	meetings	meetings	9	preview	4	52	0	0	0	0
42	44	to	to	to	9	preview	4	53	438	207	207	207
43	45	the	the	the	9	preview	4	54	0	0	0	0
44	46	deputy	deputy	deputy	9	preview	4	55	133	133	133	133
45	47	prime	prime	prime	9	preview	4	56	108	0	0	0
46	48	minister	minister	minister	9	preview	4	57	0	0	0	0
47	49	for	for	for	9	preview	4	58	0	0	0	0
48	50	the	the	the	9	preview	4	59	326	326	326	326
49	51	time	time	time	9	preview	4	60	511	393	393	393
50	52	being	being	being,	9	preview	4	61	464	254	1799	254
	53	,	,		9	preview	4	62				
51	54	according	according	according	9	preview	4	63	0	0	0	0
52	55	to	to	to	9	preview	4	64	0	0	0	0
53	56	his	his	his	9	preview	4	65	0	0	0	0
54	57	office	office	office.	9	preview	4	66	0	0	0	0
	58	.	.		9	preview	4	67				
55	59	@entity13	Park	Park	9	preview	4	68	0	0	0	0
56	60	heard	heard	heard	9	preview	4	69	0	0	0	0
57	61	about	about	about	9	preview	4	70	0	0	0	0
58	62	the	the	the	9	preview	4	71	0	0	0	0
59	63	resignation	resignation	resignation	9	preview	4	72	164	0	0	0
60	64	and	and	and	9	preview	4	73	0	0	0	0
61	65	called	called	called	9	preview	4	74	0	0	0	0
62	66	it	it	it	9	preview	4	75	159	0	0	0
63	67	-	-	-regrettable,-	9	preview	4	76	91	91	91	91
	68	regrettable	regrettable		9	preview	4	77				
	69	,	,		9	preview	4	78				
	70	-	-		9	preview	4	79				
64	71	according	according	according	9	preview	4	80	183	183	506	183
65	72	to	to	to	9	preview	4	81	0	0	0	0
66	73	the	the	the	9	preview	4	82	0	0	0	0
67	74	@entity1	South	South	9	preview	4	83	241	0	0	0
68			Korean	Korean	9	preview	4	84	0	0	0	0
69	75	presidential	presidential	presidential	9	preview	4	85	272	0	0	0
70	76	office	office	office.	9	preview	4	86	0	0	0	0
	77	.	.		9	preview	4	87				
71	78	Calls	Calls	Calls	9	preview	4	88	0	0	0	0
72	79	for	for	for	9	preview	4	89	0	0	0	0
73	80	@entity0	Lee	Lee	9	preview	4	90	252	0	0	0
74	81	to	to	to	9	preview	4	91	0	0	0	0
75	82	resign	resign	resign	9	preview	4	92	0	0	0	0
76	83	began	began	began	9	preview	4	93	173	0	0	0
77	84	after	after	after	9	preview	4	94	0	0	0	0
78	85	@entity1	South	South	9	preview	4	95	276	134	1214	134
79			Korean	Korean	9	preview	4	96	224	224	224	224
80	86	tycoon	tycoon	tycoon	9	preview	4	97	0	0	0	0
81	87	@entity18	Sung	Sung	9	preview	4	98	0	0	0	0
82			Woan	Woan-jong	9	preview	4	99	3564	2463	2463	451
			-		9	preview	4	100				
			jong		9	preview	4	101				
83	88	was	was	was	9	preview	4	102	0	0	0	0
84	89	found	found	found	9	preview	4	103	163	163	163	163
85	90	hanging	hanging	hanging	9	preview	4	104	0	0	0	0
86	91	from	from	from	9	preview	4	105	146	146	146	146
87	92	a	a	a	9	preview	4	106	0	0	0	0
88	93	tree	tree	tree	9	preview	4	107	0	0	0	0
89	94	in	in	in	9	preview	4	108	185	185	185	185
90	95	@entity2	Seoul	Seoul	9	preview	4	109	0	0	0	0
91	96	in	in	in	9	preview	4	110	0	0	0	0
92	97	an	an	an	9	preview	4	111	0	0	0	0
93	98	apparent	apparent	apparent	9	preview	4	112	98	98	98	98
94	99	suicide	suicide	suicide	9	preview	4	113	0	0	0	0
95	100	on	on	on	9	preview	4	114	218	218	218	218
96	101	April	April	April	9	preview	4	115	0	0	0	0
97	102	9	9	9.	9	preview	4	116	0	0	0	0
	103	.	.		9	preview	4	117				
98	104	@entity18	Sung	Sung,	9	preview	4	118	0	0	0	0
	105	,	,		9	preview	4	119				
99	106	who	who	who	9	preview	4	120	0	0	0	0
100	107	was	was	was	9	preview	4	121	195	195	195	195
101	108	under	under	under	9	preview	4	122	0	0	0	0
102	109	investigation	investigation	investigation	9	preview	4	123	153	153	153	153
103	110	for	for	for	9	preview	4	124	0	0	0	0
104	111	fraud	fraud	fraud	9	preview	4	125	0	0	0	0
105	112	and	and	and	9	preview	4	126	0	0	0	0
106	113	bribery	bribery	bribery,	9	preview	4	127	0	0	0	0
	114	,	,		9	preview	4	128				
107	115	left	left	left	9	preview	4	129	0	0	0	0
108	116	a	a	a	9	preview	4	130	0	0	0	0
109	117	note	note	note	9	preview	4	131	0	0	0	0
110	118	listing	listing	listing	9	preview	4	132	0	0	0	0
111	119	names	names	names	9	preview	4	133	0	0	0	0
112	120	and	and	and	9	preview	4	134	0	0	0	0
113	121	amounts	amounts	amounts	9	preview	4	135	204	204	204	204
114	122	of	of	of	9	preview	4	136	0	0	0	0
115	123	cash	cash	cash	9	preview	4	137	0	0	0	0
116	124	given	given	given	9	preview	4	138	0	0	0	0
117	125	to	to	to	9	preview	4	139	0	0	0	0
118	126	top	top	top	9	preview	4	140	0	0	0	0
119	127	officials	officials	officials,	9	preview	4	141	0	0	0	0
	128	,	,		9	preview	4	142				
120	129	including	including	including	9	preview	4	143	0	0	0	0
121	130	those	those	those	9	preview	4	144	0	0	0	0
122	131	who	who	who	9	preview	4	145	0	0	0	0
123	132	work	work	work	9	preview	4	146	0	0	0	0
124	133	for	for	for	9	preview	4	147	0	0	0	0
125	134	the	the	the	9	preview	4	148	0	0	0	0
126	135	President	President	President.	9	preview	4	149	225	225	225	225
	136	.	.		9	preview	4	150				
127	137	@entity0	Lee	Lee	9	preview	4	151	0	0	0	0
128	138	and	and	and	9	preview	4	152	0	0	0	0
129	139	seven	seven	seven	9	preview	4	153	264	264	264	264
130	140	other	other	other	9	preview	4	154	0	0	0	0
131	141	politicians	politicians	politicians	9	preview	4	155	146	146	146	146
132	142	with	with	with	9	preview	4	156	0	0	0	0
133	143	links	links	links	9	preview	4	157	0	0	0	0
134	144	to	to	to	9	preview	4	158	114	114	114	114
135	145	the	the	the	9	preview	4	159	0	0	0	0
136	146	@entity1	South	South	9	preview	4	160	0	0	0	0
137			Korean	Korean	9	preview	4	161	0	0	0	0
138	147	President	President	President	9	preview	4	162	0	0	0	0
139	148	are	are	are	9	preview	4	163	0	0	0	0
140	149	under	under	under	9	preview	4	164	0	0	0	0
141	150	investigation	investigation	investigation.	9	preview	4	165	178	178	178	178
	151	.	.		9	preview	4	166				
142	152	A	A	A	9	preview	4	167	0	0	0	0
143	153	special	special	special	9	preview	4	168	0	0	0	0
144	154	prosecutor	prosecutor	prosecutor-s	9	preview	4	169	197	102	1298	102
	155	-s	-s		9	preview	4	170				
145	156	team	team	team	9	preview	4	171	0	0	0	0
146	157	has	has	has	9	preview	4	172	204	204	204	204
147	158	been	been	been	9	preview	4	173	0	0	0	0
148	159	established	established	established	9	preview	4	174	271	271	271	271
149	160	to	to	to	9	preview	4	175	0	0	0	0
150	161	investigate	investigate	investigate	9	preview	4	176	0	0	0	0
151	162	the	the	the	9	preview	4	177	0	0	0	0
152	163	case	case	case.	9	preview	4	178	0	0	0	0
	164	.	.		9	preview	4	179				
153	165	@entity0	Lee	Lee	9	preview	4	180	153	153	153	153
154	166	had	had	had	9	preview	4	181	0	0	0	0
155	167	adamantly	adamantly	adamantly	9	preview	4	182	0	0	0	0
156	168	denied	denied	denied	9	preview	4	183	138	138	138	138
157	169	the	the	the	9	preview	4	184	0	0	0	0
158	170	allegations	allegations	allegations	9	preview	4	185	141	141	141	141
159	171	as	as	as	9	preview	4	186	0	0	0	0
160	172	the	the	the	9	preview	4	187	0	0	0	0
161	173	scandal	scandal	scandal	9	preview	4	188	203	203	203	203
162	174	escalated	escalated	escalated:	9	preview	4	189	0	0	0	0
163	175	:	:	-If	9	preview	4	190	0	0	0	0
	176	-	-		9	preview	4	191				
164	177	If	If	there	9	preview	4	192	0	0	0	0
	178	there	there		9	preview	4	193				
165	179	are	are	are	9	preview	4	194	0	0	0	0
166	180	any	any	any	9	preview	4	195	0	0	0	0
167	181	evidence	evidence	evidence,	9	preview	4	196	0	0	0	0
	182	,	,		9	preview	4	197				
168	183	I	I	I	9	preview	4	198	0	0	0	0
169	184	will	will	will	9	preview	4	199	0	0	0	0
170	185	give	give	give	9	preview	4	200	0	0	0	0
171	186	out	out	out	9	preview	4	201	0	0	0	0
172	187	my	my	my	9	preview	4	202	0	0	0	0
173	188	life	life	life.	9	preview	4	203	0	0	0	0
	189	.	.		9	preview	4	204				
174	190	As	As	As	9	preview	4	205	0	0	0	0
175	191	a	a	a	9	preview	4	206	0	0	0	0
176	192	Prime	Prime	Prime	9	preview	4	207	0	0	0	0
177	193	Minister	Minister	Minister,	9	preview	4	208	269	0	0	0
	194	,	,		9	preview	4	209				
178	195	I	I	I	9	preview	4	210	0	0	0	0
179	196	will	will	will	9	preview	4	211	221	0	0	0
180	197	accept	accept	accept	9	preview	4	212	0	0	0	0
181	198	Prosecutor	Prosecutor	Prosecutor	9	preview	4	213	217	217	707	217
182	199	@entity44	Office	Office-s	9	preview	4	214	0	0	0	0
	200	-s	-s		9	preview	4	215				
183	201	investigation	investigation	investigation	9	preview	4	216	0	0	0	0
184	202	first	first	first.-	9	preview	4	217	0	0	0	0
	203	.	.		9	preview	4	218				
185	204	-	-	Park	9	preview	4	219	0	0	0	0
	205	@entity46	Park		9	preview	4	220				
186	206	has	has	has	9	preview	4	221	0	0	0	0
187	207	said	said	said	9	preview	4	222	0	0	0	0
188	208	that	that	that	9	preview	4	223	0	0	0	0
189	209	she	she	she	9	preview	4	224	0	0	0	0
190	210	is	is	is	9	preview	4	225	0	0	0	0
191	211	taking	taking	taking	9	preview	4	226	0	0	0	0
192	212	the	the	the	9	preview	4	227	0	0	0	0
193	213	accusations	accusations	accusations	9	preview	4	228	0	0	0	0
194	214	very	very	very	9	preview	4	229	0	0	0	0
195	215	seriously	seriously	seriously.	9	preview	4	230	0	0	0	0
	216	.	.		9	preview	4	231				
196	217	Before	Before	Before	9	preview	4	232	0	0	0	0
197	218	departing	departing	departing	9	preview	4	233	142	0	0	0
198	219	on	on	on	9	preview	4	234	0	0	0	0
199	220	her	her	her	9	preview	4	235	0	0	0	0
200	221	trip	trip	trip	9	preview	4	236	0	0	0	0
201	222	to	to	to	9	preview	4	237	161	0	0	0
202	223	@entity50	Central	Central	9	preview	4	238	0	0	0	0
203			and	and	9	preview	4	239	0	0	0	0
204			South	South	9	preview	4	240	277	0	0	0
205			America	America,	9	preview	4	241	0	0	0	0
	224	,	,		9	preview	4	242				
206	225	she	she	she	9	preview	4	243	0	0	0	0
207	226	condemned	condemned	condemned	9	preview	4	244	425	197	728	197
208	227	political	political	political	9	preview	4	245	0	0	0	0
209	228	corruption	corruption	corruption	9	preview	4	246	0	0	0	0
210	229	in	in	in	9	preview	4	247	0	0	0	0
211	230	her	her	her	9	preview	4	248	174	174	174	174
212	231	country	country	country.	9	preview	4	249	0	0	0	0
	232	.	.		9	preview	4	250				
213	233	-	-	-Corruption	9	preview	4	251	465	218	495	218
	234	Corruption	Corruption		9	preview	4	252				
214	235	and	and	and	9	preview	4	253	0	0	0	0
215	236	deep	deep	deep-rooted	9	preview	4	254	0	0	0	0
	237	-	-		9	preview	4	255				
	238	rooted	rooted		9	preview	4	256				
216	239	evil	evil	evil	9	preview	4	257	0	0	0	0
217	240	are	are	are	9	preview	4	258	0	0	0	0
218	241	issues	issues	issues	9	preview	4	259	267	0	0	0
219	242	that	that	that	9	preview	4	260	171	171	438	171
220	243	can	can	can	9	preview	4	261	0	0	0	0
221	244	lead	lead	lead	9	preview	4	262	0	0	0	0
222	245	to	to	to	9	preview	4	263	0	0	0	0
223	246	taking	taking	taking	9	preview	4	264	137	137	384	137
224	247	away	away	away	9	preview	4	265	0	0	0	0
225	248	people	people	people-s	9	preview	4	266	0	0	0	0
	249	-s	-s		9	preview	4	267				
226	250	lives	lives	lives.	9	preview	4	268	99	0	0	0
	251	.	.		9	preview	4	269				
227	252	We	We	We	9	preview	4	270	0	0	0	0
228	253	take	take	take	9	preview	4	271	0	0	0	0
229	254	this	this	this	9	preview	4	272	0	0	0	0
230	255	very	very	very	9	preview	4	273	0	0	0	0
231	256	seriously	seriously	seriously.-	9	preview	4	274	227	227	227	227
	257	.	.		9	preview	4	275				
232	258	-	-	-We	9	preview	4	276	0	0	0	0
	259	-	-		9	preview	4	277				
233	260	We	We	must	9	preview	4	278	0	0	0	0
	261	must	must		9	preview	4	279				
234	262	make	make	make	9	preview	4	280	166	166	166	166
235	263	sure	sure	sure	9	preview	4	281	0	0	0	0
236	264	to	to	to	9	preview	4	282	0	0	0	0
237	265	set	set	set	9	preview	4	283	0	0	0	0
238	266	straight	straight	straight	9	preview	4	284	150	150	249	150
239	267	this	this	this	9	preview	4	285	0	0	0	0
240	268	issue	issue	issue	9	preview	4	286	0	0	0	0
241	269	as	as	as	9	preview	4	287	0	0	0	0
242	270	a	a	a	9	preview	4	288	0	0	0	0
243	271	matter	matter	matter	9	preview	4	289	0	0	0	0
244	272	of	of	of	9	preview	4	290	0	0	0	0
245	273	political	political	political	9	preview	4	291	0	0	0	0
246	274	reform	reform	reform.	9	preview	4	292	0	0	0	0
	275	.	.		9	preview	4	293				
247	276	I	I	I	9	preview	4	294	0	0	0	0
248	277	will	will	will	9	preview	4	295	0	0	0	0
249	278	not	not	not	9	preview	4	296	0	0	0	0
250	279	forgive	forgive	forgive	9	preview	4	297	165	0	0	0
251	280	anyone	anyone	anyone	9	preview	4	298	172	172	337	172
252	281	who	who	who	9	preview	4	299	0	0	0	0
253	282	is	is	is	9	preview	4	300	0	0	0	0
254	283	responsible	responsible	responsible	9	preview	4	301	150	150	150	150
255	284	for	for	for	9	preview	4	302	0	0	0	0
256	285	corruption	corruption	corruption	9	preview	4	303	0	0	0	0
257	286	or	or	or	9	preview	4	304	0	0	0	0
258	287	wrongdoing	wrongdoing	wrongdoing.-	9	preview	4	305	0	0	0	0
	288	.	.		9	preview	4	306				
259	289	-	-	Park	9	preview	4	307	88	0	0	0
	290	@entity13	Park		9	preview	4	308				
260	291	is	is	is	9	preview	4	309	0	0	0	0
261	292	in	in	in	9	preview	4	310	0	0	0	0
262	293	@entity66	Peru	Peru	9	preview	4	311	270	125	125	125
263	294	and	and	and	9	preview	4	312	0	0	0	0
264	295	is	is	is	9	preview	4	313	0	0	0	0
265	296	expected	expected	expected	9	preview	4	314	0	0	0	0
266	297	to	to	to	9	preview	4	315	0	0	0	0
267	298	arrive	arrive	arrive	9	preview	4	316	0	0	0	0
268	299	back	back	back	9	preview	4	317	0	0	0	0
269	300	to	to	to	9	preview	4	318	0	0	0	0
270	301	@entity1	South	South	9	preview	4	319	0	0	0	0
271			Korea	Korea	9	preview	4	320	325	217	558	217
272	302	on	on	on	9	preview	4	321	0	0	0	0
273	303	April	April	April	9	preview	4	322	190	190	190	190
274	304	27	27	27.	9	preview	4	323	0	0	0	0
	305	.	.		9	preview	4	324				
