HumanPosition	AnonymizedPosition	AnonymizedToken	OriginalToken	ExperimentToken	Participant	Condition	TextNo	JointPosition	tt	fp	rp	ff
1	0	Per	Per	Per	3	nopreview	15	1	644	0	0	0
2	1	@entity0	Mertesacker	Mertesacker	3	nopreview	15	2	959	0	0	0
3	2	looks	looks	looks	3	nopreview	15	3	483	0	0	0
4	3	set	set	set	3	nopreview	15	4	0	0	0	0
5	4	to	to	to	3	nopreview	15	5	362	0	0	0
6	5	be	be	be	3	nopreview	15	6	0	0	0	0
7	6	ruled	ruled	ruled	3	nopreview	15	7	210	0	0	0
8	7	out	out	out	3	nopreview	15	8	310	0	0	0
9	8	of	of	of	3	nopreview	15	9	0	0	0	0
10	9	@entity2	Arsenal	Arsenal-s	3	nopreview	15	10	106	0	0	0
	10	’s	’s		3	nopreview	15	11				
11	11	derby	derby	derby	3	nopreview	15	12	202	0	0	0
12	12	against	against	against	3	nopreview	15	13	476	0	0	0
13	13	@entity3	Chelsea	Chelsea	3	nopreview	15	14	102	0	0	0
14	14	although	although	although	3	nopreview	15	15	380	0	0	0
15	15	the	the	the	3	nopreview	15	16	0	0	0	0
16	16	defender	defender	defender	3	nopreview	15	17	313	0	0	0
17	17	has	has	has	3	nopreview	15	18	241	0	0	0
18	18	escaped	escaped	escaped	3	nopreview	15	19	1110	0	0	0
19	19	any	any	any	3	nopreview	15	20	0	0	0	0
20	20	serious	serious	serious	3	nopreview	15	21	585	0	0	0
21	21	ankle	ankle	ankle	3	nopreview	15	22	389	0	0	0
22	22	ligament	ligament	ligament	3	nopreview	15	23	313	0	0	0
23	23	damage	damage	damage.	3	nopreview	15	24	433	0	0	0
	24	.	.		3	nopreview	15	25				
24	25	@entity0	Mertesacker	Mertesacker,	3	nopreview	15	26	238	0	0	0
	26	,	,		3	nopreview	15	27				
25	27	captain	captain	captain	3	nopreview	15	28	380	0	0	0
26	28	during	during	during	3	nopreview	15	29	354	0	0	0
27	29	the	the	the	3	nopreview	15	30	0	0	0	0
28	30	long	long	long	3	nopreview	15	31	374	0	0	0
29	31	absence	absence	absence	3	nopreview	15	32	476	0	0	0
30	32	of	of	of	3	nopreview	15	33	0	0	0	0
31	33	@entity8	Mikel	Mikel	3	nopreview	15	34	228	0	0	0
32			Arteta	Arteta,	3	nopreview	15	35	830	0	0	0
	34	,	,		3	nopreview	15	36				
33	35	limped	limped	limped	3	nopreview	15	37	233	0	0	0
34	36	off	off	off	3	nopreview	15	38	314	0	0	0
35	37	during	during	during	3	nopreview	15	39	956	0	0	0
36	38	the	the	the	3	nopreview	15	40	336	0	0	0
37	39	second	second	second	3	nopreview	15	41	373	0	0	0
38	40	half	half	half	3	nopreview	15	42	132	0	0	0
39	41	of	of	of	3	nopreview	15	43	0	0	0	0
40	42	the	the	the	3	nopreview	15	44	249	0	0	0
41	43	@entity10	FA	FA	3	nopreview	15	45	166	0	0	0
42			Cup	Cup	3	nopreview	15	46	459	0	0	0
43	44	semi-final	semi-final	semi-final	3	nopreview	15	47	1114	0	0	0
44	45	against	against	against	3	nopreview	15	48	719	0	0	0
45	46	@entity12	Reading	Reading	3	nopreview	15	49	1572	0	0	0
46	47	at	at	at	3	nopreview	15	50	192	0	0	0
47	48	@entity13	Wembley	Wembley	3	nopreview	15	51	2128	0	0	0
48	49	on	on	on	3	nopreview	15	52	177	0	0	0
49	50	Saturday	Saturday	Saturday.	3	nopreview	15	53	705	0	0	0
	51	.	.		3	nopreview	15	54				
50	52	There	There	There	3	nopreview	15	55	527	0	0	0
51	53	were	were	were	3	nopreview	15	56	448	0	0	0
52	54	fears	fears	fears	3	nopreview	15	57	198	0	0	0
53	55	of	of	of	3	nopreview	15	58	0	0	0	0
54	56	a	a	a	3	nopreview	15	59	0	0	0	0
55	57	serious	serious	serious	3	nopreview	15	60	850	0	0	0
56	58	injury	injury	injury	3	nopreview	15	61	318	0	0	0
57	59	for	for	for	3	nopreview	15	62	494	0	0	0
58	60	the	the	the	3	nopreview	15	63	0	0	0	0
59	61	6ft	6ft	6ft	3	nopreview	15	64	375	111	18941	111
60	62	6in	6in	6in	3	nopreview	15	65	957	473	473	473
61	63	@entity17	German	German	3	nopreview	15	66	499	271	271	271
62	64	after	after	after	3	nopreview	15	67	843	265	265	265
63	65	he	he	he	3	nopreview	15	68	275	0	0	0
64	66	twisted	twisted	twisted	3	nopreview	15	69	461	207	207	207
65	67	the	the	the	3	nopreview	15	70	244	244	244	244
66	68	joint	joint	joint	3	nopreview	15	71	480	261	261	261
67	69	but	but	but	3	nopreview	15	72	236	0	0	0
68	70	subsequent	subsequent	subsequent	3	nopreview	15	73	1296	479	1094	239
69	71	scans	scans	scans	3	nopreview	15	74	556	556	6599	556
70	72	have	have	have	3	nopreview	15	75	572	358	358	358
71	73	shown	shown	shown	3	nopreview	15	76	277	277	491	277
72	74	it	it	it	3	nopreview	15	77	226	226	226	226
73	75	is	is	is	3	nopreview	15	78	536	238	238	238
74	76	a	a	a	3	nopreview	15	79	312	0	0	0
75	77	minor	minor	minor	3	nopreview	15	80	645	269	269	269
76	78	sprain	sprain	sprain.	3	nopreview	15	81	585	408	1571	200
	79	.	.		3	nopreview	15	82				
77	80	Per	Per	He	3	nopreview	15	83	173	0	0	0
78	81	@entity0	Mertesacker	is	3	nopreview	15	84	425	242	242	242
	82	will	will		3	nopreview	15	85				
79	83	miss	miss	not	3	nopreview	15	86	138	0	0	0
	84	@entity2	Arsenal		3	nopreview	15	87				
	85	-s	-s		3	nopreview	15	88				
80	86	visit	visit	expected	3	nopreview	15	89	1077	454	454	253
	87	by	by		3	nopreview	15	90				
	88	@entity3	Chelsea		3	nopreview	15	91				
	89	on	on		3	nopreview	15	92				
	90	Sunday	Sunday		3	nopreview	15	93				
	91	due	due		3	nopreview	15	94				
	92	to	to		3	nopreview	15	95				
	93	an	an		3	nopreview	15	96				
	94	ankle	ankle		3	nopreview	15	97				
	95	injury	injury		3	nopreview	15	98				
	96	The	The		3	nopreview	15	99				
	97	stand	stand		3	nopreview	15	100				
	98	-	-		3	nopreview	15	101				
	99	in	in		3	nopreview	15	102				
	100	Gunners	Gunners		3	nopreview	15	103				
	101	captain	captain		3	nopreview	15	104				
	102	went	went		3	nopreview	15	105				
	103	down	down		3	nopreview	15	106				
	104	in	in		3	nopreview	15	107				
	105	@entity2	Arsenal		3	nopreview	15	108				
	106	-s	-s		3	nopreview	15	109				
	107	@entity10	FA		3	nopreview	15	110				
			Cup		3	nopreview	15	111				
	108	semi-final	semi-final		3	nopreview	15	112				
	109	win	win		3	nopreview	15	113				
	110	over	over		3	nopreview	15	114				
	111	@entity12	Reading		3	nopreview	15	115				
	112	on	on		3	nopreview	15	116				
	113	Saturday	Saturday		3	nopreview	15	117				
	114	He	He		3	nopreview	15	118				
	115	is	is		3	nopreview	15	119				
	116	not	not		3	nopreview	15	120				
	117	expected	expected		3	nopreview	15	121				
81	118	to	to	to	3	nopreview	15	122	0	0	0	0
82	119	be	be	be	3	nopreview	15	123	817	211	521	211
83	120	fit	fit	fit	3	nopreview	15	124	236	236	236	236
84	121	in	in	in	3	nopreview	15	125	340	340	340	340
85	122	time	time	time	3	nopreview	15	126	187	187	187	187
86	123	for	for	for	3	nopreview	15	127	0	0	0	0
87	124	Sunday	Sunday	Sunday,	3	nopreview	15	128	118	118	118	118
	125	,	,		3	nopreview	15	129				
88	126	however	however	however,	3	nopreview	15	130	516	0	0	0
	127	,	,		3	nopreview	15	131				
89	128	and	and	and	3	nopreview	15	132	689	119	1205	119
90	129	likely	likely	likely	3	nopreview	15	133	239	239	239	239
91	130	to	to	to	3	nopreview	15	134	0	0	0	0
92	131	be	be	be	3	nopreview	15	135	0	0	0	0
93	132	replaced	replaced	replaced	3	nopreview	15	136	421	421	421	243
94	133	at	at	at	3	nopreview	15	137	0	0	0	0
95	134	centre	centre	centre-half	3	nopreview	15	138	816	448	448	275
	135	-	-		3	nopreview	15	139				
	136	half	half		3	nopreview	15	140				
96	137	by	by	by	3	nopreview	15	141	0	0	0	0
97	138	@entity26	Gabriel	Gabriel	3	nopreview	15	142	987	589	589	332
98			Paulista	Paulista,	3	nopreview	15	143	2280	813	5484	717
	139	,	,		3	nopreview	15	144				
99	140	who	who	who	3	nopreview	15	145	0	0	0	0
100	141	has	has	has	3	nopreview	15	146	146	146	146	146
101	142	started	started	started	3	nopreview	15	147	271	0	0	0
102	143	three	three	three	3	nopreview	15	148	406	108	677	108
103	144	times	times	times	3	nopreview	15	149	0	0	0	0
104	145	in	in	in	3	nopreview	15	150	119	119	119	119
105	146	the	the	the	3	nopreview	15	151	0	0	0	0
106	147	@entity28	Barclays	Barclays	3	nopreview	15	152	271	271	271	271
107			Premier	Premier	3	nopreview	15	153	225	225	225	225
108			League	League	3	nopreview	15	154	0	0	0	0
109	148	since	since	since	3	nopreview	15	155	239	239	239	239
110	149	he	he	he	3	nopreview	15	156	0	0	0	0
111	150	was	was	was	3	nopreview	15	157	229	229	229	229
112	151	signed	signed	signed	3	nopreview	15	158	232	232	232	232
113	152	in	in	in	3	nopreview	15	159	0	0	0	0
114	153	January	January	January	3	nopreview	15	160	659	659	659	659
115	154	from	from	from	3	nopreview	15	161	339	0	0	0
116	155	@entity29	Villarreal	Villarreal.	3	nopreview	15	162	362	119	701	119
	156	.	.		3	nopreview	15	163				
117	157	@entity3	Chelsea	Chelsea	3	nopreview	15	164	316	316	316	316
118	158	come	come	come	3	nopreview	15	165	159	159	159	159
119	159	into	into	into	3	nopreview	15	166	583	583	583	403
120	160	the	the	the	3	nopreview	15	167	0	0	0	0
121	161	match	match	match	3	nopreview	15	168	291	291	291	291
122	162	with	with	with	3	nopreview	15	169	349	349	349	349
123	163	a	a	a	3	nopreview	15	170	0	0	0	0
124	164	10	10	10-point	3	nopreview	15	171	487	487	487	238
	165	-	-		3	nopreview	15	172				
	166	point	point		3	nopreview	15	173				
125	167	lead	lead	lead	3	nopreview	15	174	254	254	254	254
126	168	over	over	over	3	nopreview	15	175	251	251	251	251
127	169	their	their	their	3	nopreview	15	176	159	159	159	159
128	170	@entity33	London	London	3	nopreview	15	177	0	0	0	0
129	171	rivals	rivals	rivals	3	nopreview	15	178	394	394	394	394
130	172	and	and	and	3	nopreview	15	179	0	0	0	0
131	173	will	will	will	3	nopreview	15	180	427	219	219	219
132	174	need	need	need	3	nopreview	15	181	563	305	305	305
133	175	to	to	to	3	nopreview	15	182	344	0	0	0
134	176	capitulate	capitulate	capitulate	3	nopreview	15	183	3246	783	783	292
135	177	in	in	in	3	nopreview	15	184	0	0	0	0
136	178	spectacular	spectacular	spectacular	3	nopreview	15	185	778	280	280	280
137	179	fashion	fashion	fashion	3	nopreview	15	186	675	224	224	224
138	180	to	to	to	3	nopreview	15	187	127	127	127	127
139	181	not	not	not	3	nopreview	15	188	238	0	0	0
140	182	take	take	take	3	nopreview	15	189	592	592	592	421
141	183	the	the	the	3	nopreview	15	190	0	0	0	0
142	184	@entity28	Premier	Premier	3	nopreview	15	191	186	186	186	186
143			League	League	3	nopreview	15	192	417	417	417	141
144	185	title	title	title.	3	nopreview	15	193	344	344	3734	344
	186	.	.		3	nopreview	15	194				
145	187	Second	Second	Second-placed	3	nopreview	15	195	985	387	2055	387
	188	-	-		3	nopreview	15	196				
	189	placed	placed		3	nopreview	15	197				
146	190	@entity2	Arsenal	Arsenal,	3	nopreview	15	198	186	186	186	186
	191	,	,		3	nopreview	15	199				
147	192	on	on	on	3	nopreview	15	200	500	321	321	321
148	193	66	66	66	3	nopreview	15	201	0	0	0	0
149	194	points	points	points,	3	nopreview	15	202	303	303	482	303
	195	,	,		3	nopreview	15	203				
150	196	lead	lead	lead	3	nopreview	15	204	106	106	106	106
151	197	@entity38	Manchester	Manchester	3	nopreview	15	205	391	151	151	151
152			United	United	3	nopreview	15	206	659	659	899	659
153	198	on	on	on	3	nopreview	15	207	0	0	0	0
154	199	65	65	65	3	nopreview	15	208	201	201	201	201
155	200	and	and	and	3	nopreview	15	209	0	0	0	0
156	201	@entity39	Manchester	Manchester	3	nopreview	15	210	0	0	0	0
157			City	City	3	nopreview	15	211	0	0	0	0
158	202	on	on	on	3	nopreview	15	212	0	0	0	0
159	203	64	64	64.	3	nopreview	15	213	0	0	0	0
	204	.	.		3	nopreview	15	214				
