HumanPosition	AnonymizedPosition	AnonymizedToken	OriginalToken	ExperimentToken	Participant	Condition	TextNo	JointPosition	tt	fp	rp	ff
1	0	(	(	Good	3	nopreview	3	1	372	372	372	161
	1	The	The		3	nopreview	3	2				
	2	@entity0	Hollywood		3	nopreview	3	3				
			Reporter		3	nopreview	3	4				
	3	)	)		3	nopreview	3	5				
	4	Good	Good		3	nopreview	3	6				
2	5	news	news	news	3	nopreview	3	7	0	0	0	0
3	6	arrived	arrived	arrived	3	nopreview	3	8	770	533	533	220
4	7	Thursday	Thursday	Thursday	3	nopreview	3	9	423	219	660	219
5	8	for	for	for	3	nopreview	3	10	0	0	0	0
6	9	-	-	-Fifty	3	nopreview	3	11	226	226	226	226
	10	@entity3	Fifty		3	nopreview	3	12				
7			Shades	Shades	3	nopreview	3	13	395	395	395	225
8			of	of	3	nopreview	3	14	0	0	0	0
9			Grey	Grey-	3	nopreview	3	15	0	0	0	0
	11	-	-		3	nopreview	3	16				
10	12	fans	fans	fans.	3	nopreview	3	17	408	408	408	223
	13	.	.		3	nopreview	3	18				
11	14	@entity4	Universal	Universal	3	nopreview	3	19	259	259	259	259
12	15	announced	announced	announced	3	nopreview	3	20	208	208	208	208
13	16	Thursday	Thursday	Thursday	3	nopreview	3	21	327	327	327	119
14	17	that	that	that	3	nopreview	3	22	349	349	349	349
15	18	the	the	the	3	nopreview	3	23	0	0	0	0
16	19	sequel	sequel	sequel	3	nopreview	3	24	452	221	221	221
17	20	to	to	to	3	nopreview	3	25	0	0	0	0
18	21	the	the	the	3	nopreview	3	26	231	231	462	231
19	22	box	box	box	3	nopreview	3	27	221	221	221	221
20	23	office	office	office	3	nopreview	3	28	190	190	190	190
21	24	blockbuster	blockbuster	blockbuster	3	nopreview	3	29	253	253	253	253
22	25	will	will	will	3	nopreview	3	30	203	203	203	203
23	26	hit	hit	hit	3	nopreview	3	31	0	0	0	0
24	27	theaters	theaters	theaters	3	nopreview	3	32	395	395	395	232
25	28	on	on	on	3	nopreview	3	33	0	0	0	0
26	29	Feb.	Feb.	Feb.	3	nopreview	3	34	223	223	223	223
27	30	10	10	10,	3	nopreview	3	35	162	162	162	162
	31	,	,		3	nopreview	3	36				
28	32	2017	2017	2017.	3	nopreview	3	37	791	485	485	142
	33	.	.		3	nopreview	3	38				
29	34	The	The	The	3	nopreview	3	39	332	332	332	332
30	35	third	third	third	3	nopreview	3	40	760	343	343	343
31	36	film	film	film	3	nopreview	3	41	262	262	262	262
32	37	in	in	in	3	nopreview	3	42	0	0	0	0
33	38	the	the	the	3	nopreview	3	43	0	0	0	0
34	39	series	series	series	3	nopreview	3	44	538	306	827	306
35	40	will	will	will	3	nopreview	3	45	228	228	228	228
36	41	debut	debut	debut	3	nopreview	3	46	145	145	145	145
37	42	Feb.	Feb.	Feb.	3	nopreview	3	47	351	0	0	0
38	43	9	9	9,	3	nopreview	3	48	178	178	178	178
	44	,	,		3	nopreview	3	49				
39	45	2018	2018	2018.	3	nopreview	3	50	900	900	1685	258
	46	.	.		3	nopreview	3	51				
40	47	The	The	The	3	nopreview	3	52	0	0	0	0
41	48	news	news	news	3	nopreview	3	53	294	294	294	294
42	49	came	came	came	3	nopreview	3	54	201	201	201	201
43	50	one	one	one	3	nopreview	3	55	297	297	297	297
44	51	day	day	day	3	nopreview	3	56	0	0	0	0
45	52	after	after	after	3	nopreview	3	57	322	322	322	322
46	53	@entity0	The	The	3	nopreview	3	58	109	0	0	0
47			Hollywood	Hollywood	3	nopreview	3	59	850	286	286	286
48			Reporter	Reporter	3	nopreview	3	60	379	379	379	379
49	54	reported	reported	reported	3	nopreview	3	61	920	270	270	270
50	55	exclusively	exclusively	exclusively	3	nopreview	3	62	669	271	630	271
51	56	that	that	that	3	nopreview	3	63	397	203	203	203
52	57	the	the	the	3	nopreview	3	64	285	0	0	0
53	58	husband	husband	husband	3	nopreview	3	65	420	181	181	181
54	59	of	of	of	3	nopreview	3	66	664	450	450	450
55	60	@entity12	EL	EL	3	nopreview	3	67	665	0	0	0
56			James	James,	3	nopreview	3	68	1253	446	446	293
	61	,	,		3	nopreview	3	69				
57	62	author	author	author	3	nopreview	3	70	737	0	0	0
58	63	of	of	of	3	nopreview	3	71	133	133	439	133
59	64	the	the	the	3	nopreview	3	72	220	0	0	0
60	65	-	-	-Fifty	3	nopreview	3	73	285	285	285	285
	66	@entity3	Fifty		3	nopreview	3	74				
61			Shades	Shades-	3	nopreview	3	75	671	308	593	308
	67	-	-		3	nopreview	3	76				
62	68	trilogy	trilogy	trilogy,	3	nopreview	3	77	524	242	242	242
	69	,	,		3	nopreview	3	78				
63	70	will	will	will	3	nopreview	3	79	142	0	0	0
64	71	write	write	write	3	nopreview	3	80	1086	739	4966	270
65	72	the	the	the	3	nopreview	3	81	272	272	272	272
66	73	script	script	script	3	nopreview	3	82	270	270	270	270
67	74	for	for	for	3	nopreview	3	83	580	342	342	342
68	75	the	the	the	3	nopreview	3	84	174	174	174	174
69	76	second	second	second	3	nopreview	3	85	567	214	214	214
70	77	film	film	film.	3	nopreview	3	86	715	715	828	296
	78	.	.		3	nopreview	3	87				
71	79	@entity16	Niall	Niall	3	nopreview	3	88	790	136	136	136
72			Leonard	Leonard,	3	nopreview	3	89	1164	648	648	416
	80	,	,		3	nopreview	3	90				
73	81	who	who	who	3	nopreview	3	91	260	0	0	0
74	82	is	is	is	3	nopreview	3	92	0	0	0	0
75	83	married	married	married	3	nopreview	3	93	503	291	291	291
76	84	and	and	and	3	nopreview	3	94	437	233	233	233
77	85	has	has	has	3	nopreview	3	95	477	246	246	246
78	86	two	two	two	3	nopreview	3	96	236	236	236	236
79	87	sons	sons	sons	3	nopreview	3	97	0	0	0	0
80	88	with	with	with	3	nopreview	3	98	636	299	299	299
81	89	the	the	the	3	nopreview	3	99	0	0	0	0
82	90	@entity19	British	British	3	nopreview	3	100	712	231	231	231
83	91	author	author	author,	3	nopreview	3	101	586	424	2573	424
	92	,	,		3	nopreview	3	102				
84	93	is	is	is	3	nopreview	3	103	0	0	0	0
85	94	an	an	an	3	nopreview	3	104	275	275	275	275
86	95	author	author	author	3	nopreview	3	105	110	110	110	110
87	96	himself	himself	himself,	3	nopreview	3	106	1065	170	170	170
	97	,	,		3	nopreview	3	107				
88	98	in	in	in	3	nopreview	3	108	276	0	0	0
89	99	addition	addition	addition	3	nopreview	3	109	546	546	546	295
90	100	to	to	to	3	nopreview	3	110	140	0	0	0
91	101	being	being	being	3	nopreview	3	111	194	194	194	194
92	102	a	a	a	3	nopreview	3	112	0	0	0	0
93	103	screenwriter	screenwriter	screenwriter.	3	nopreview	3	113	689	689	689	250
	104	.	.		3	nopreview	3	114				
94	105	@entity12	James	James,	3	nopreview	3	115	792	152	152	152
	106	,	,		3	nopreview	3	116				
95	107	whose	whose	whose	3	nopreview	3	117	681	361	361	361
96	108	real	real	real	3	nopreview	3	118	437	437	437	437
97	109	name	name	name	3	nopreview	3	119	293	0	0	0
98	110	is	is	is	3	nopreview	3	120	235	235	235	235
99	111	@entity12	Erika	Erika	3	nopreview	3	121	855	554	970	554
100			Leonard	Leonard,	3	nopreview	3	122	1216	830	6090	525
	112	,	,		3	nopreview	3	123				
101	113	has	has	has	3	nopreview	3	124	267	267	267	267
102	114	been	been	been	3	nopreview	3	125	298	298	298	298
103	115	credited	credited	credited	3	nopreview	3	126	203	203	203	203
104	116	with	with	with	3	nopreview	3	127	259	259	259	259
105	117	keeping	keeping	keeping	3	nopreview	3	128	224	224	224	224
106	118	a	a	a	3	nopreview	3	129	0	0	0	0
107	119	strong	strong	strong	3	nopreview	3	130	254	254	254	254
108	120	amount	amount	amount	3	nopreview	3	131	249	249	249	249
109	121	of	of	of	3	nopreview	3	132	0	0	0	0
110	122	creative	creative	creative	3	nopreview	3	133	221	221	221	221
111	123	control	control	control	3	nopreview	3	134	417	417	417	157
112	124	when	when	when	3	nopreview	3	135	122	122	122	122
113	125	it	it	it	3	nopreview	3	136	0	0	0	0
114	126	comes	comes	comes	3	nopreview	3	137	560	560	560	140
115	127	to	to	to	3	nopreview	3	138	0	0	0	0
116	128	@entity4	Universal	Universal-s	3	nopreview	3	139	230	230	230	230
	129	-s	-s		3	nopreview	3	140				
117	130	adaptations	adaptations	adaptations	3	nopreview	3	141	470	470	470	470
118	131	of	of	of	3	nopreview	3	142	0	0	0	0
119	132	her	her	her	3	nopreview	3	143	229	229	229	229
120	133	books	books	books,	3	nopreview	3	144	224	224	224	224
	134	,	,		3	nopreview	3	145				
121	135	the	the	the	3	nopreview	3	146	0	0	0	0
122	136	second	second	second	3	nopreview	3	147	398	398	398	157
123	137	of	of	of	3	nopreview	3	148	0	0	0	0
124	138	which	which	which	3	nopreview	3	149	249	249	249	249
125	139	is	is	is	3	nopreview	3	150	136	136	136	136
126	140	titled	titled	titled	3	nopreview	3	151	325	325	325	325
127	141	-	-	-Fifty	3	nopreview	3	152	144	144	144	144
	142	@entity32	Fifty		3	nopreview	3	153				
128			Shades	Shades	3	nopreview	3	154	159	159	159	159
129			Darker	Darker.-	3	nopreview	3	155	207	207	207	207
	143	.	.		3	nopreview	3	156				
130	144	-	-	After	3	nopreview	3	157	518	224	224	224
	145	After	After		3	nopreview	3	158				
131	146	clashing	clashing	clashing	3	nopreview	3	159	814	229	229	229
132	147	with	with	with	3	nopreview	3	160	683	379	865	379
133	148	@entity12	James	James,	3	nopreview	3	161	893	330	330	330
	149	,	,		3	nopreview	3	162				
134	150	@entity33	Sam	Sam	3	nopreview	3	163	1014	602	602	602
135			Taylor	Taylor-Johnson	3	nopreview	3	164	3539	564	564	230
			-		3	nopreview	3	165				
			Johnson		3	nopreview	3	166				
136	151	is	is	isn-t	3	nopreview	3	167	178	178	178	178
	152	n-t	n-t		3	nopreview	3	168				
137	153	returning	returning	returning	3	nopreview	3	169	239	239	239	239
138	154	to	to	to	3	nopreview	3	170	0	0	0	0
139	155	direct	direct	direct	3	nopreview	3	171	574	574	574	574
140	156	the	the	the	3	nopreview	3	172	324	324	2449	324
141	157	sequel	sequel	sequel.	3	nopreview	3	173	0	0	0	0
	158	.	.		3	nopreview	3	174				
142	159	Stars	Stars	Stars	3	nopreview	3	175	383	383	383	383
143	160	@entity35	Dakota	Dakota	3	nopreview	3	176	459	243	243	243
144			Johnson	Johnson	3	nopreview	3	177	495	207	207	207
145	161	and	and	and	3	nopreview	3	178	0	0	0	0
146	162	@entity36	Jamie	Jamie	3	nopreview	3	179	415	193	193	193
147			Dornan	Dornan	3	nopreview	3	180	909	0	0	0
148	163	are	are	are	3	nopreview	3	181	0	0	0	0
149	164	negotiating	negotiating	negotiating	3	nopreview	3	182	375	375	375	205
150	165	for	for	for	3	nopreview	3	183	0	0	0	0
151	166	more	more	more	3	nopreview	3	184	1196	1196	5353	416
152	167	money	money	money	3	nopreview	3	185	265	265	265	133
153	168	for	for	for	3	nopreview	3	186	0	0	265	0
154	169	the	the	the	3	nopreview	3	187	174	174	174	174
155	170	sequel	sequel	sequel	3	nopreview	3	188	154	154	154	154
156	171	after	after	after	3	nopreview	3	189	193	193	193	193
157	172	the	the	the	3	nopreview	3	190	0	0	0	0
158	173	first	first	first	3	nopreview	3	191	295	295	295	295
159	174	film	film	film,	3	nopreview	3	192	0	0	0	0
	175	,	,		3	nopreview	3	193				
160	176	release	release	release	3	nopreview	3	194	372	372	372	170
161	177	over	over	over	3	nopreview	3	195	229	229	229	229
162	178	@entity40	Valentine	Valentine-s	3	nopreview	3	196	200	200	200	200
			-s		3	nopreview	3	197				
163			Day	Day	3	nopreview	3	198	0	0	0	0
164	179	weekend	weekend	weekend	3	nopreview	3	199	308	308	308	209
165	180	of	of	of	3	nopreview	3	200	0	0	0	0
166	181	this	this	this	3	nopreview	3	201	517	517	517	162
167	182	year	year	year,	3	nopreview	3	202	0	0	0	0
	183	,	,		3	nopreview	3	203				
168	184	earned	earned	earned	3	nopreview	3	204	292	292	292	292
169	185	a	a	a	3	nopreview	3	205	0	0	0	0
170	186	massive	massive	massive	3	nopreview	3	206	288	288	288	288
171	187	$	$	$568.8	3	nopreview	3	207	846	516	516	174
	188	568.8	568.8		3	nopreview	3	208				
172	189	million	million	million	3	nopreview	3	209	0	0	0	0
173	190	worldwide	worldwide	worldwide.	3	nopreview	3	210	345	345	675	169
	191	.	.		3	nopreview	3	211				
