HumanPosition	AnonymizedPosition	AnonymizedToken	OriginalToken	ExperimentToken	Participant	Condition	TextNo	JointPosition	tt	fp	rp	ff	rb	sp
1	0	(	(	Two	9	preview	1	1	0	0	0	0	0	0
2	1	@entity1	CNN	passengers	9	preview	1	2	410	410	410	139	410	0
	2	)	)		9	preview	1	3						
	3	Two	Two		9	preview	1	4						
	4	passengers	passengers		9	preview	1	5						
3	5	found	found	found	9	preview	1	6	0	0	0	0	0	0
4	6	dead	dead	dead	9	preview	1	7	923	193	193	193	193	730
5	7	on	on	on	9	preview	1	8	0	0	0	0	0	0
6	8	a	a	a	9	preview	1	9	0	0	0	0	0	0
7	9	cruise	cruise	cruise	9	preview	1	10	228	0	0	0	0	228
8	10	ship	ship	ship	9	preview	1	11	312	312	312	312	312	0
9	11	in	in	in	9	preview	1	12	0	0	0	0	0	0
10	12	@entity4	Puerto	Puerto	9	preview	1	13	518	235	1476	235	518	283
11			Rico	Rico	9	preview	1	14	0	0	0	0	0	0
12	13	appear	appear	appear	9	preview	1	15	0	0	0	0	0	0
13	14	to	to	to	9	preview	1	16	289	289	289	289	289	0
14	15	have	have	have	9	preview	1	17	0	0	0	0	0	0
15	16	died	died	died	9	preview	1	18	0	0	0	0	0	0
16	17	in	in	in	9	preview	1	19	0	0	0	0	0	0
17	18	a	a	a	9	preview	1	20	0	0	0	0	0	0
18	19	murder	murder	murder-suicide,	9	preview	1	21	368	0	0	0	0	368
	20	-	-		9	preview	1	22						
	21	suicide	suicide		9	preview	1	23						
	22	,	,		9	preview	1	24						
19	23	the	the	the	9	preview	1	25	0	0	0	0	0	0
20	24	cruise	cruise	cruise	9	preview	1	26	0	0	0	0	0	0
21	25	line	line	line	9	preview	1	27	260	0	0	0	0	260
22	26	said	said	said.	9	preview	1	28	0	0	0	0	0	0
	27	.	.		9	preview	1	29						
23	28	@entity6	Holland	Holland	9	preview	1	30	162	162	422	162	162	0
24			America	America	9	preview	1	31	248	248	248	248	248	0
25			Line	Line	9	preview	1	32	122	122	122	122	122	0
26	29	said	said	said	9	preview	1	33	0	0	0	0	0	0
27	30	two	two	two	9	preview	1	34	0	0	0	0	0	0
28	31	guests	guests	guests	9	preview	1	35	92	92	92	92	92	0
29	32	were	were	were	9	preview	1	36	0	0	0	0	0	0
30	33	found	found	found	9	preview	1	37	90	90	458	90	90	0
31	34	dead	dead	dead	9	preview	1	38	0	0	0	0	0	0
32	35	inside	inside	inside	9	preview	1	39	475	0	0	0	0	475
33	36	their	their	their	9	preview	1	40	202	0	0	0	0	202
34	37	stateroom	stateroom	stateroom	9	preview	1	41	0	0	0	0	0	0
35	38	on	on	on	9	preview	1	42	201	0	0	0	0	201
36	39	the	the	the	9	preview	1	43	0	0	0	0	0	0
37	40	@entity9	ms	ms	9	preview	1	44	392	0	0	0	0	392
38			Ryndam	Ryndam	9	preview	1	45	354	354	354	354	354	0
39	41	at	at	at	9	preview	1	46	0	0	0	0	0	0
40	42	11:30	11:30	11:30	9	preview	1	47	0	0	0	0	0	0
41	43	a.m.	a.m.	a.m.	9	preview	1	48	200	0	0	0	0	200
42	44	Thursday	Thursday	Thursday.	9	preview	1	49	286	101	1079	101	286	185
	45	.	.		9	preview	1	50						
43	46	-	-	-The	9	preview	1	51	0	0	0	0	0	0
	47	The	The		9	preview	1	52						
44	48	cabin	cabin	cabin	9	preview	1	53	549	549	1226	549	549	0
45	49	was	was	was	9	preview	1	54	0	0	0	0	0	0
46	50	immediately	immediately	immediately	9	preview	1	55	0	0	0	0	0	0
47	51	secured	secured	secured,	9	preview	1	56	0	0	0	0	0	0
	52	,	,		9	preview	1	57						
48	53	and	and	and	9	preview	1	58	0	0	0	0	0	0
49	54	the	the	the	9	preview	1	59	0	0	0	0	0	0
50	55	authorities	authorities	authorities	9	preview	1	60	325	325	325	325	325	0
51	56	were	were	were	9	preview	1	61	0	0	0	0	0	0
52	57	notified	notified	notified,	9	preview	1	62	217	217	217	217	217	0
	58	,	,		9	preview	1	63						
53	59	including	including	including	9	preview	1	64	145	145	145	145	145	0
54	60	the	the	the	9	preview	1	65	0	0	0	0	0	0
55	61	@entity12	FBI	FBI,-	9	preview	1	66	167	167	167	167	167	0
	62	,	,		9	preview	1	67						
	63	-	-		9	preview	1	68						
56	64	@entity6	Holland	Holland	9	preview	1	69	0	0	0	0	0	0
57			America	America	9	preview	1	70	0	0	0	0	0	0
58	65	said	said	said.	9	preview	1	71	257	257	257	257	257	0
	66	.	.		9	preview	1	72						
59	67	-	-	-We	9	preview	1	73	0	0	0	0	0	0
	68	We	We		9	preview	1	74						
60	69	are	are	are	9	preview	1	75	0	0	0	0	0	0
61	70	cooperating	cooperating	cooperating	9	preview	1	76	253	253	253	253	253	0
62	71	fully	fully	fully	9	preview	1	77	0	0	0	0	0	0
63	72	with	with	with	9	preview	1	78	0	0	0	0	0	0
64	73	the	the	the	9	preview	1	79	0	0	0	0	0	0
65	74	investigation	investigation	investigation,	9	preview	1	80	223	223	223	223	223	0
	75	,	,		9	preview	1	81						
66	76	and	and	and	9	preview	1	82	0	0	0	0	0	0
67	77	the	the	the	9	preview	1	83	0	0	0	0	0	0
68	78	authorities	authorities	authorities	9	preview	1	84	0	0	0	0	0	0
69	79	will	will	will	9	preview	1	85	0	0	0	0	0	0
70	80	make	make	make	9	preview	1	86	124	0	0	0	0	124
71	81	the	the	the	9	preview	1	87	0	0	0	0	0	0
72	82	official	official	official	9	preview	1	88	0	0	0	0	0	0
73	83	determination	determination	determination	9	preview	1	89	0	0	0	0	0	0
74	84	on	on	on	9	preview	1	90	0	0	0	0	0	0
75	85	what	what	what	9	preview	1	91	0	0	0	0	0	0
76	86	occurred	occurred	occurred.-	9	preview	1	92	0	0	0	0	0	0
	87	.	.		9	preview	1	93						
77	88	-	-	FBI	9	preview	1	94	191	0	0	0	0	191
78	89	@entity12	FBI	spokesman	9	preview	1	95	229	229	544	102	229	0
	90	spokesman	spokesman		9	preview	1	96						
79	91	@entity17	Moises	Moises	9	preview	1	97	0	0	0	0	0	0
80			Quiñones	Quinones	9	preview	1	98	0	0	0	0	0	0
81	92	said	said	said	9	preview	1	99	0	0	0	0	0	0
82	93	authorities	authorities	authorities	9	preview	1	100	374	0	0	0	0	374
83	94	were	were	were	9	preview	1	101	130	0	0	0	0	130
84	95	on	on	on	9	preview	1	102	0	0	0	0	0	0
85	96	scene	scene	scene	9	preview	1	103	266	0	0	0	0	266
86	97	investigating	investigating	investigating.	9	preview	1	104	215	0	0	0	0	215
	98	.	.		9	preview	1	105						
87	99	The	The	The	9	preview	1	106	0	0	0	0	0	0
88	100	ship	ship	ship	9	preview	1	107	1016	0	0	0	0	1016
89	101	left	left	left	9	preview	1	108	349	0	0	0	0	349
90	102	@entity21	Tampa	Tampa,	9	preview	1	109	324	0	0	0	0	324
	103	,	,		9	preview	1	110						
91	104	@entity22	Florida	Florida,	9	preview	1	111	682	218	713	218	451	464
	105	,	,		9	preview	1	112						
92	106	on	on	on	9	preview	1	113	0	0	0	0	0	0
93	107	March	March	March	9	preview	1	114	169	169	715	169	169	0
94	108	29	29	29	9	preview	1	115	0	0	0	0	0	0
95	109	on	on	on	9	preview	1	116	751	0	0	0	0	751
96	110	a	a	a	9	preview	1	117	0	0	0	0	0	0
97	111	14	14	14-day	9	preview	1	118	542	0	0	0	0	542
	112	-	-		9	preview	1	119						
	113	day	day		9	preview	1	120						
98	114	@entity24	Southern	Southern	9	preview	1	121	421	0	0	0	0	421
99			Caribbean	Caribbean	9	preview	1	122	0	0	0	0	0	0
100	115	cruise	cruise	cruise.	9	preview	1	123	160	0	0	0	0	160
	116	.	.		9	preview	1	124						
101	117	It	It	It-s	9	preview	1	125	0	0	0	0	0	0
	118	-s	-s		9	preview	1	126						
102	119	currently	currently	currently	9	preview	1	127	642	0	0	0	0	642
103	120	in	in	in	9	preview	1	128	0	0	0	0	0	0
104	121	@entity26	San	San	9	preview	1	129	220	0	0	0	0	220
105			Juan	Juan,	9	preview	1	130	0	0	0	0	0	0
	122	,	,		9	preview	1	131						
106	123	@entity4	Puerto	Puerto	9	preview	1	132	836	237	237	237	237	599
107			Rico	Rico.	9	preview	1	133	1110	599	6304	599	1110	511
	124	.	.		9	preview	1	134						
108	125	@entity28	Puerto	Puerto	9	preview	1	135	0	0	0	0	0	0
109			Rico	Rico	9	preview	1	136	597	362	362	362	362	235
110			Port	Port	9	preview	1	137	0	0	0	0	0	0
111			Authority	Authority	9	preview	1	138	434	298	298	298	298	136
112	126	spokesman	spokesman	spokesman	9	preview	1	139	0	0	0	0	0	0
113	127	@entity27	Efraín	Efrain	9	preview	1	140	0	0	0	0	0	0
114			Santiago	Santiago	9	preview	1	141	277	113	233	113	113	164
115	128	told	told	told	9	preview	1	142	0	0	0	0	0	0
116	129	@entity30	El	El	9	preview	1	143	0	0	0	0	0	0
117			Nuevo	Nuevo	9	preview	1	144	0	0	0	0	0	0
118			Dia	Dia	9	preview	1	145	168	168	332	168	168	0
119	130	newspaper	newspaper	newspaper	9	preview	1	146	144	0	1225	0	0	144
120	131	that	that	that	9	preview	1	147	0	0	0	0	0	0
121	132	the	the	the	9	preview	1	148	0	0	0	0	0	0
122	133	cleaning	cleaning	cleaning	9	preview	1	149	238	0	0	0	0	238
123	134	staff	staff	staff	9	preview	1	150	135	0	0	0	0	135
124	135	on	on	on	9	preview	1	151	0	0	0	0	0	0
125	136	the	the	the	9	preview	1	152	0	0	0	0	0	0
126	137	ship	ship	ship	9	preview	1	153	0	0	0	0	0	0
127	138	had	had	had	9	preview	1	154	169	0	0	0	0	169
128	139	discovered	discovered	discovered	9	preview	1	155	106	0	0	0	0	106
129	140	the	the	the	9	preview	1	156	0	0	0	0	0	0
130	141	deceased	deceased	deceased	9	preview	1	157	152	0	0	0	0	152
131	142	passengers	passengers	passengers	9	preview	1	158	298	0	0	0	0	298
132	143	after	after	after	9	preview	1	159	136	136	401	136	136	0
133	144	knocking	knocking	knocking	9	preview	1	160	232	139	139	139	139	93
134	145	on	on	on	9	preview	1	161	0	0	0	0	0	0
135	146	the	the	the	9	preview	1	162	0	0	0	0	0	0
136	147	cabin	cabin	cabin-s	9	preview	1	163	162	162	1721	162	162	0
	148	-s	-s		9	preview	1	164						
137	149	door	door	door.	9	preview	1	165	0	0	0	0	0	0
	150	.	.		9	preview	1	166						
