HumanPosition	AnonymizedPosition	AnonymizedToken	OriginalToken	ExperimentToken	Participant	Condition	TextNo	JointPosition	tt	fp	rp	ff	rb	sp
	0	@entity0	Paris		9	preview	7	1						
	1	(	(		9	preview	7	2						
	2	@entity1	CNN		9	preview	7	3						
	3	)	)		9	preview	7	4						
0	4	Six	Six	Six	9	preview	7	5	0	0	0	0	0	0
2	5	survivors	survivors	survivors	9	preview	7	6	0	0	0	0	0	0
3	6	of	of	of	9	preview	7	7	0	0	0	0	0	0
4	7	the	the	the	9	preview	7	8	0	0	0	0	0	0
5	8	@entity0	Paris	Paris	9	preview	7	9	195	195	195	195	195	0
6	9	kosher	kosher	kosher	9	preview	7	10	0	0	0	0	0	0
7	10	supermarket	supermarket	supermarket	9	preview	7	11	254	254	254	254	254	0
8	11	siege	siege	siege	9	preview	7	12	0	0	0	0	0	0
9	12	in	in	in	9	preview	7	13	0	0	0	0	0	0
10	13	January	January	January	9	preview	7	14	0	0	0	0	0	0
11	14	are	are	are	9	preview	7	15	142	142	142	142	142	0
12	15	suing	suing	suing	9	preview	7	16	0	0	0	0	0	0
13	16	a	a	a	9	preview	7	17	0	0	0	0	0	0
14	17	@entity5	French	French	9	preview	7	18	145	145	145	145	145	0
15	18	media	media	media	9	preview	7	19	159	0	0	0	0	159
16	19	outlet	outlet	outlet	9	preview	7	20	145	145	304	145	145	0
17	20	for	for	for	9	preview	7	21	0	0	0	0	0	0
18	21	what	what	what	9	preview	7	22	0	0	0	0	0	0
19	22	they	they	they	9	preview	7	23	0	0	0	0	0	0
20	23	call	call	call	9	preview	7	24	0	0	0	0	0	0
21	24	dangerous	dangerous	dangerous	9	preview	7	25	0	0	0	0	0	0
22	25	live	live	live	9	preview	7	26	0	0	0	0	0	0
23	26	broadcasting	broadcasting	broadcasting	9	preview	7	27	413	280	280	280	280	133
24	27	during	during	during	9	preview	7	28	0	0	0	0	0	0
25	28	the	the	the	9	preview	7	29	235	103	368	103	235	132
26	29	hostage	hostage	hostage-taking.	9	preview	7	30	303	303	303	303	303	0
	30	-	-		9	preview	7	31						
	31	taking	taking		9	preview	7	32						
	32	.	.		9	preview	7	33						
27	33	According	According	According	9	preview	7	34	0	0	0	0	0	0
28	34	to	to	to	9	preview	7	35	0	0	0	0	0	0
29	35	@entity0	Paris	Paris	9	preview	7	36	0	0	0	0	0	0
30	36	prosecutor	prosecutor	prosecutor-s	9	preview	7	37	0	0	0	0	0	0
	37	-s	-s		9	preview	7	38						
31	38	spokeswoman	spokeswoman	spokeswoman	9	preview	7	39	188	188	188	188	188	0
32	39	@entity10	Agnes	Agnes	9	preview	7	40	0	0	0	0	0	0
33			Thibault	Thibault-Lecuivre,	9	preview	7	41	160	160	160	160	160	0
			-		9	preview	7	42						
			Lecuivre		9	preview	7	43						
	40	,	,		9	preview	7	44						
34	41	the	the	the	9	preview	7	45	0	0	0	0	0	0
35	42	lawsuit	lawsuit	lawsuit	9	preview	7	46	0	0	0	0	0	0
36	43	was	was	was	9	preview	7	47	244	244	244	244	244	0
37	44	filed	filed	filed	9	preview	7	48	0	0	0	0	0	0
38	45	March	March	March	9	preview	7	49	137	137	137	137	137	0
39	46	27	27	27	9	preview	7	50	0	0	0	0	0	0
40	47	and	and	and	9	preview	7	51	0	0	0	0	0	0
41	48	a	a	a	9	preview	7	52	0	0	0	0	0	0
42	49	preliminary	preliminary	preliminary	9	preview	7	53	0	0	0	0	0	0
43	50	investigation	investigation	investigation	9	preview	7	54	233	233	233	233	233	0
44	51	was	was	was	9	preview	7	55	0	0	0	0	0	0
45	52	opened	opened	opened	9	preview	7	56	199	199	199	199	199	0
46	53	by	by	by	9	preview	7	57	0	0	0	0	0	0
47	54	the	the	the	9	preview	7	58	0	0	0	0	0	0
48	55	prosecutor	prosecutor	prosecutor-s	9	preview	7	59	0	0	0	0	0	0
	56	-s	-s		9	preview	7	60						
49	57	office	office	office	9	preview	7	61	0	0	0	0	0	0
50	58	Wednesday	Wednesday	Wednesday.	9	preview	7	62	0	0	0	0	0	0
	59	.	.		9	preview	7	63						
51	60	The	The	The	9	preview	7	64	0	0	0	0	0	0
52	61	media	media	media	9	preview	7	65	148	0	0	0	0	148
53	62	outlet	outlet	outlet,	9	preview	7	66	134	134	282	134	134	0
	63	,	,		9	preview	7	67						
54	64	@entity1	CNN	CNN	9	preview	7	68	0	0	0	0	0	0
55	65	affiliate	affiliate	affiliate	9	preview	7	69	156	156	156	156	156	0
56	66	@entity16	BFMTV	BFMTV,	9	preview	7	70	0	0	0	0	0	0
	67	,	,		9	preview	7	71						
57	68	is	is	is	9	preview	7	72	0	0	0	0	0	0
58	69	accused	accused	accused	9	preview	7	73	163	163	163	163	163	0
59	70	of	of	of	9	preview	7	74	0	0	0	0	0	0
60	71	endangering	endangering	endangering	9	preview	7	75	278	278	278	142	278	0
61	72	the	the	the	9	preview	7	76	0	0	0	0	0	0
62	73	lives	lives	lives	9	preview	7	77	0	0	0	0	0	0
63	74	of	of	of	9	preview	7	78	0	0	0	0	0	0
64	75	the	the	the	9	preview	7	79	240	240	240	240	240	0
65	76	hostages	hostages	hostages,	9	preview	7	80	0	0	0	0	0	0
	77	,	,		9	preview	7	81						
66	78	who	who	who	9	preview	7	82	0	0	0	0	0	0
67	79	were	were	were	9	preview	7	83	0	0	0	0	0	0
68	80	hiding	hiding	hiding	9	preview	7	84	291	291	291	291	291	0
69	81	in	in	in	9	preview	7	85	0	0	0	0	0	0
70	82	a	a	a	9	preview	7	86	0	0	0	0	0	0
71	83	cold	cold	cold	9	preview	7	87	177	177	177	177	177	0
72	84	room	room	room	9	preview	7	88	0	0	0	0	0	0
73	85	during	during	during	9	preview	7	89	82	82	82	82	82	0
74	86	the	the	the	9	preview	7	90	0	0	0	0	0	0
75	87	attack	attack	attack,	9	preview	7	91	0	0	0	0	0	0
	88	,	,		9	preview	7	92						
76	89	by	by	by	9	preview	7	93	188	0	0	0	0	188
77	90	broadcasting	broadcasting	broadcasting	9	preview	7	94	169	0	0	0	0	169
78	91	their	their	their	9	preview	7	95	0	0	0	0	0	0
79	92	location	location	location	9	preview	7	96	266	135	623	135	266	131
80	93	live	live	live	9	preview	7	97	0	0	0	0	0	0
81	94	during	during	during	9	preview	7	98	0	0	0	0	0	0
82	95	the	the	the	9	preview	7	99	0	0	0	0	0	0
83	96	siege	siege	siege.	9	preview	7	100	125	125	125	125	125	0
	97	.	.		9	preview	7	101						
84	98	@entity23	BFM	BFM	9	preview	7	102	0	0	0	0	0	0
85	99	in	in	in	9	preview	7	103	0	0	0	0	0	0
86	100	a	a	a	9	preview	7	104	0	0	0	0	0	0
87	101	statement	statement	statement	9	preview	7	105	195	195	195	195	195	0
88	102	Friday	Friday	Friday	9	preview	7	106	0	0	0	0	0	0
89	103	said	said	said	9	preview	7	107	490	200	200	200	200	290
90	104	one	one	one	9	preview	7	108	0	0	0	0	0	0
91	105	of	of	of	9	preview	7	109	0	0	0	0	0	0
92	106	its	its	its	9	preview	7	110	184	0	0	0	0	184
93	107	journalists	journalists	journalists	9	preview	7	111	565	195	622	195	332	370
94	108	-	-	-mentioned	9	preview	7	112	0	0	0	0	0	0
	109	mentioned	mentioned		9	preview	7	113						
95	110	only	only	only	9	preview	7	114	314	172	172	172	172	142
96	111	once	once	once	9	preview	7	115	233	0	0	0	0	233
97	112	the	the	the	9	preview	7	116	0	0	0	0	0	0
98	113	presence	presence	presence	9	preview	7	117	156	156	389	156	156	0
99	114	of	of	of	9	preview	7	118	413	144	144	144	144	269
100	115	a	a	a	9	preview	7	119	0	0	0	0	0	0
101	116	woman	woman	woman	9	preview	7	120	0	0	0	0	0	0
102	117	hidden	hidden	hidden	9	preview	7	121	0	0	0	0	0	0
103	118	inside	inside	inside	9	preview	7	122	197	0	0	0	0	197
104	119	the	the	the	9	preview	7	123	326	208	208	208	208	118
105	120	@entity27	Hyper	Hyper	9	preview	7	124	0	0	0	0	0	0
106			Cacher	Cacher,	9	preview	7	125	180	180	180	180	180	0
	121	,	,		9	preview	7	126						
107	122	on	on	on	9	preview	7	127	157	0	0	0	0	157
108	123	the	the	the	9	preview	7	128	0	0	0	0	0	0
109	124	basis	basis	basis	9	preview	7	129	0	0	0	0	0	0
110	125	of	of	of	9	preview	7	130	107	0	0	0	0	107
111	126	police	police	police	9	preview	7	131	432	298	405	298	298	134
112	127	sources	sources	sources	9	preview	7	132	0	0	0	0	0	0
113	128	on	on	on	9	preview	7	133	0	0	0	0	0	0
114	129	the	the	the	9	preview	7	134	0	0	0	0	0	0
115	130	ground	ground	ground.-	9	preview	7	135	231	0	0	0	0	231
	131	.	.		9	preview	7	136						
116	132	-	-	-Immediately,	9	preview	7	137	230	230	230	230	230	0
	133	-	-		9	preview	7	138						
	134	Immediately	Immediately		9	preview	7	139						
	135	,	,		9	preview	7	140						
117	136	the	the	the	9	preview	7	141	0	0	0	0	0	0
118	137	chief	chief	chief	9	preview	7	142	0	0	0	0	0	0
119	138	editor	editor	editor	9	preview	7	143	247	247	247	247	247	0
120	139	felt	felt	felt	9	preview	7	144	0	0	0	0	0	0
121	140	that	that	that	9	preview	7	145	190	190	190	190	190	0
122	141	this	this	this	9	preview	7	146	0	0	0	0	0	0
123	142	information	information	information	9	preview	7	147	228	228	228	228	228	0
124	143	should	should	should	9	preview	7	148	0	0	0	0	0	0
125	144	not	not	not	9	preview	7	149	148	0	0	0	0	148
126	145	be	be	be	9	preview	7	150	0	0	0	0	0	0
127	146	released	released	released.	9	preview	7	151	188	188	336	188	188	0
	147	.	.		9	preview	7	152						
128	148	It	It	It	9	preview	7	153	0	0	0	0	0	0
129	149	therefore	therefore	therefore	9	preview	7	154	112	0	0	0	0	112
130	150	has	has	has	9	preview	7	155	158	158	270	158	158	0
131	151	subsequently	subsequently	subsequently	9	preview	7	156	126	126	126	126	126	0
132	152	never	never	never	9	preview	7	157	0	0	0	0	0	0
133	153	been	been	been	9	preview	7	158	0	0	0	0	0	0
134	154	repeated	repeated	repeated	9	preview	7	159	234	234	234	234	234	0
135	155	on	on	on	9	preview	7	160	0	0	0	0	0	0
136	156	air	air	air	9	preview	7	161	0	0	0	0	0	0
137	157	or	or	or	9	preview	7	162	0	0	0	0	0	0
138	158	posted	posted	posted	9	preview	7	163	140	140	140	140	140	0
139	159	on	on	on-screen.	9	preview	7	164	335	335	2000	231	335	0
	160	-	-		9	preview	7	165						
	161	screen	screen		9	preview	7	166						
	162	.	.		9	preview	7	167						
140	163	@entity16	BFMTV	BFMTV	9	preview	7	168	0	0	0	0	0	0
141	164	regrets	regrets	regrets	9	preview	7	169	0	0	0	0	0	0
142	165	that	that	that	9	preview	7	170	0	0	0	0	0	0
143	166	the	the	the	9	preview	7	171	0	0	0	0	0	0
144	167	mention	mention	mention	9	preview	7	172	0	0	0	0	0	0
145	168	of	of	of	9	preview	7	173	0	0	0	0	0	0
146	169	this	this	this	9	preview	7	174	135	135	135	135	135	0
147	170	information	information	information	9	preview	7	175	0	0	0	0	0	0
148	171	could	could	could	9	preview	7	176	0	0	0	0	0	0
149	172	cause	cause	cause	9	preview	7	177	173	173	173	173	173	0
150	173	concern	concern	concern	9	preview	7	178	0	0	0	0	0	0
151	174	to	to	to	9	preview	7	179	0	0	0	0	0	0
152	175	the	the	the	9	preview	7	180	0	0	0	0	0	0
153	176	hostages	hostages	hostages,	9	preview	7	181	182	182	182	182	182	0
	177	,	,		9	preview	7	182						
154	178	as	as	as	9	preview	7	183	0	0	0	0	0	0
155	179	well	well	well	9	preview	7	184	0	0	0	0	0	0
156	180	as	as	as	9	preview	7	185	0	0	0	0	0	0
157	181	their	their	their	9	preview	7	186	324	324	324	324	324	0
158	182	relatives	relatives	relatives,	9	preview	7	187	0	0	0	0	0	0
	183	,	,		9	preview	7	188						
159	184	that	that	that	9	preview	7	189	0	0	0	0	0	0
160	185	their	their	their	9	preview	7	190	0	0	0	0	0	0
161	186	lives	lives	lives	9	preview	7	191	225	225	225	225	225	0
162	187	were	were	were	9	preview	7	192	0	0	0	0	0	0
163	188	in	in	in	9	preview	7	193	0	0	0	0	0	0
164	189	danger	danger	danger,-	9	preview	7	194	0	0	0	0	0	0
	190	,	,		9	preview	7	195						
	191	-	-		9	preview	7	196						
165	192	the	the	the	9	preview	7	197	0	0	0	0	0	0
166	193	statement	statement	statement	9	preview	7	198	202	202	202	202	202	0
167	194	said	said	said.	9	preview	7	199	0	0	0	0	0	0
	195	.	.		9	preview	7	200						
168	196	Gunman	Gunman	Gunman	9	preview	7	201	133	133	133	133	133	0
169	197	@entity47	Amedy	Amedy	9	preview	7	202	289	0	0	0	0	289
170			Coulibaly	Coulibaly,	9	preview	7	203	1213	368	1502	116	1213	845
	198	,	,		9	preview	7	204						
171	199	also	also	also	9	preview	7	205	0	0	0	0	0	0
172	200	suspected	suspected	suspected	9	preview	7	206	722	468	468	249	468	254
173	201	in	in	in	9	preview	7	207	0	0	0	0	0	0
174	202	the	the	the	9	preview	7	208	206	0	0	0	0	206
175	203	slaying	slaying	slaying	9	preview	7	209	549	181	1009	181	549	368
176	204	of	of	of	9	preview	7	210	124	0	0	0	0	124
177	205	a	a	a	9	preview	7	211	0	0	0	0	0	0
178	206	police	police	police	9	preview	7	212	146	146	270	146	146	0
179	207	officer	officer	officer,	9	preview	7	213	0	0	0	0	0	0
	208	,	,		9	preview	7	214						
180	209	stormed	stormed	stormed	9	preview	7	215	0	0	0	0	0	0
181	210	the	the	the	9	preview	7	216	213	213	213	213	213	0
182	211	@entity27	Hyper	Hyper	9	preview	7	217	0	0	0	0	0	0
183	212	@entity51	Cacher	Cacher	9	preview	7	218	222	0	0	0	0	222
184			Jewish	Jewish	9	preview	7	219	112	112	334	112	112	0
185	213	supermarket	supermarket	supermarket	9	preview	7	220	0	0	0	0	0	0
186	214	on	on	on	9	preview	7	221	0	0	0	0	0	0
187	215	January	January	January	9	preview	7	222	157	157	157	157	157	0
188	216	9	9	9,	9	preview	7	223	0	0	0	0	0	0
	217	,	,		9	preview	7	224						
189	218	killing	killing	killing	9	preview	7	225	0	0	0	0	0	0
190	219	four	four	four	9	preview	7	226	248	248	248	248	248	0
191	220	people	people	people	9	preview	7	227	0	0	0	0	0	0
192	221	and	and	and	9	preview	7	228	0	0	0	0	0	0
193	222	taking	taking	taking	9	preview	7	229	0	0	0	0	0	0
194	223	others	others	others	9	preview	7	230	132	132	132	132	132	0
195	224	hostage	hostage	hostage.	9	preview	7	231	0	0	0	0	0	0
	225	.	.		9	preview	7	232						
196	226	He	He	He	9	preview	7	233	197	197	197	197	197	0
197	227	was	was	was	9	preview	7	234	0	0	0	0	0	0
198	228	killed	killed	killed	9	preview	7	235	253	253	253	253	253	0
199	229	in	in	in	9	preview	7	236	0	0	0	0	0	0
200	230	the	the	the	9	preview	7	237	0	0	0	0	0	0
201	231	police	police	police	9	preview	7	238	255	255	255	255	255	0
202	232	operation	operation	operation	9	preview	7	239	0	0	0	0	0	0
203	233	to	to	to	9	preview	7	240	148	148	148	148	148	0
204	234	end	end	end	9	preview	7	241	0	0	0	0	0	0
205	235	the	the	the	9	preview	7	242	0	0	0	0	0	0
206	236	siege	siege	siege.	9	preview	7	243	133	133	133	133	133	0
	237	.	.		9	preview	7	244						
207	238	A	A	A	9	preview	7	245	0	0	0	0	0	0
208	239	24	24	24-year-old	9	preview	7	246	149	149	149	149	149	0
	240	-	-		9	preview	7	247						
	241	year	year		9	preview	7	248						
	242	-	-		9	preview	7	249						
	243	old	old		9	preview	7	250						
209	244	supermarket	supermarket	supermarket	9	preview	7	251	275	275	275	275	275	0
210	245	employee	employee	employee,	9	preview	7	252	0	0	0	0	0	0
	246	,	,		9	preview	7	253						
211	247	@entity57	Malian	Malian-born	9	preview	7	254	0	0	0	0	0	0
	248	-	-		9	preview	7	255						
	249	born	born		9	preview	7	256						
212	250	@entity56	Lassana	Lassana	9	preview	7	257	235	235	235	235	235	0
213			Bathily	Bathily,	9	preview	7	258	0	0	0	0	0	0
	251	,	,		9	preview	7	259						
214	252	was	was	was	9	preview	7	260	0	0	0	0	0	0
215	253	hailed	hailed	hailed	9	preview	7	261	294	294	294	294	294	0
216	254	as	as	as	9	preview	7	262	0	0	0	0	0	0
217	255	a	a	a	9	preview	7	263	0	0	0	0	0	0
218	256	hero	hero	hero	9	preview	7	264	0	0	0	0	0	0
219	257	afterward	afterward	afterward	9	preview	7	265	238	238	238	238	238	0
220	258	when	when	when	9	preview	7	266	0	0	0	0	0	0
221	259	it	it	it	9	preview	7	267	0	0	0	0	0	0
222	260	emerged	emerged	emerged	9	preview	7	268	263	263	263	263	263	0
223	261	that	that	that	9	preview	7	269	0	0	0	0	0	0
224	262	he	he	he	9	preview	7	270	0	0	0	0	0	0
225	263	had	had	had	9	preview	7	271	0	0	0	0	0	0
226	264	risked	risked	risked	9	preview	7	272	107	0	0	0	0	107
227	265	his	his	his	9	preview	7	273	179	179	286	179	179	0
228	266	life	life	life	9	preview	7	274	257	0	0	0	0	257
229	267	to	to	to	9	preview	7	275	0	0	0	0	0	0
230	268	hide	hide	hide	9	preview	7	276	0	0	0	0	0	0
231	269	15	15	15	9	preview	7	277	0	0	0	0	0	0
232	270	customers	customers	customers	9	preview	7	278	164	164	164	164	164	0
233	271	from	from	from	9	preview	7	279	0	0	0	0	0	0
234	272	@entity47	Coulibaly	Coulibaly	9	preview	7	280	157	157	157	157	157	0
235	273	in	in	in	9	preview	7	281	0	0	0	0	0	0
236	274	the	the	the	9	preview	7	282	0	0	0	0	0	0
237	275	cold	cold	cold	9	preview	7	283	0	0	0	0	0	0
238	276	room	room	room.	9	preview	7	284	0	0	0	0	0	0
	277	.	.		9	preview	7	285						
239	278	The	The	The	9	preview	7	286	0	0	0	0	0	0
240	279	hostage	hostage	hostage-taking	9	preview	7	287	193	193	450	193	193	0
	280	-	-		9	preview	7	288						
	281	taking	taking		9	preview	7	289						
241	282	was	was	was	9	preview	7	290	0	0	0	0	0	0
242	283	the	the	the	9	preview	7	291	0	0	0	0	0	0
243	284	culmination	culmination	culmination	9	preview	7	292	0	0	0	0	0	0
244	285	of	of	of	9	preview	7	293	0	0	0	0	0	0
245	286	three	three	three	9	preview	7	294	0	0	0	0	0	0
246	287	days	days	days	9	preview	7	295	0	0	0	0	0	0
247	288	of	of	of	9	preview	7	296	0	0	0	0	0	0
248	289	terror	terror	terror	9	preview	7	297	0	0	0	0	0	0
249	290	in	in	in	9	preview	7	298	0	0	0	0	0	0
250	291	@entity0	Paris	Paris	9	preview	7	299	0	0	0	0	0	0
251	292	that	that	that	9	preview	7	300	0	0	0	0	0	0
252	293	began	began	began	9	preview	7	301	0	0	0	0	0	0
253	294	with	with	with	9	preview	7	302	0	0	0	0	0	0
254	295	the	the	the	9	preview	7	303	0	0	0	0	0	0
255	296	January	January	January	9	preview	7	304	0	0	0	0	0	0
256	297	7	7	7	9	preview	7	305	0	0	0	0	0	0
257	298	shooting	shooting	shooting	9	preview	7	306	200	200	200	200	200	0
258	299	of	of	of	9	preview	7	307	0	0	0	0	0	0
259	300	12	12	12	9	preview	7	308	0	0	0	0	0	0
260	301	people	people	people	9	preview	7	309	0	0	0	0	0	0
261	302	at	at	at	9	preview	7	310	0	0	0	0	0	0
262	303	the	the	the	9	preview	7	311	0	0	0	0	0	0
263	304	offices	offices	offices	9	preview	7	312	0	0	0	0	0	0
264	305	of	of	of	9	preview	7	313	0	0	0	0	0	0
265	306	@entity5	French	French	9	preview	7	314	0	0	0	0	0	0
266	307	satirical	satirical	satirical	9	preview	7	315	0	0	0	0	0	0
267	308	magazine	magazine	magazine	9	preview	7	316	0	0	0	0	0	0
268	309	@entity69	Charlie	Charlie	9	preview	7	317	0	0	0	0	0	0
269			Hebdo	Hebdo.	9	preview	7	318	200	200	200	200	200	0
	310	.	.		9	preview	7	319						
270	311	The	The	The	9	preview	7	320	0	0	0	0	0	0
271	312	two	two	two	9	preview	7	321	0	0	0	0	0	0
272	313	brothers	brothers	brothers	9	preview	7	322	0	0	0	0	0	0
273	314	blamed	blamed	blamed	9	preview	7	323	145	0	0	0	0	145
274	315	for	for	for	9	preview	7	324	0	0	0	0	0	0
275	316	that	that	that	9	preview	7	325	0	0	0	0	0	0
276	317	attack	attack	attack,	9	preview	7	326	0	0	0	0	0	0
	318	,	,		9	preview	7	327						
277	319	@entity72	Cherif	Cherif	9	preview	7	328	0	0	0	0	0	0
278	320	and	and	and	9	preview	7	329	0	0	0	0	0	0
279	321	@entity73	Said	Said	9	preview	7	330	0	0	0	0	0	0
280			Kouachi	Kouachi,	9	preview	7	331	272	272	417	272	272	0
	322	,	,		9	preview	7	332						
281	323	were	were	were	9	preview	7	333	0	0	0	0	0	0
282	324	killed	killed	killed	9	preview	7	334	0	0	0	0	0	0
283	325	on	on	on	9	preview	7	335	0	0	0	0	0	0
284	326	January	January	January	9	preview	7	336	0	0	0	0	0	0
285	327	9	9	9	9	preview	7	337	0	0	0	0	0	0
286	328	after	after	after	9	preview	7	338	0	0	0	0	0	0
287	329	a	a	a	9	preview	7	339	0	0	0	0	0	0
288	330	violent	violent	violent	9	preview	7	340	0	0	0	0	0	0
289	331	standoff	standoff	standoff	9	preview	7	341	0	0	0	0	0	0
290	332	at	at	at	9	preview	7	342	0	0	0	0	0	0
291	333	an	an	an	9	preview	7	343	0	0	0	0	0	0
292	334	industrial	industrial	industrial	9	preview	7	344	197	197	197	197	197	0
293	335	site	site	site.	9	preview	7	345	0	0	0	0	0	0
	336	.	.		9	preview	7	346						
294	337	The	The	The	9	preview	7	347	0	0	0	0	0	0
295	338	terror	terror	terror	9	preview	7	348	0	0	0	0	0	0
296	339	attacks	attacks	attacks	9	preview	7	349	146	146	146	146	146	0
297	340	claimed	claimed	claimed	9	preview	7	350	0	0	0	0	0	0
298	341	the	the	the	9	preview	7	351	0	0	0	0	0	0
299	342	lives	lives	lives	9	preview	7	352	0	0	0	0	0	0
300	343	of	of	of	9	preview	7	353	0	0	0	0	0	0
301	344	17	17	17	9	preview	7	354	0	0	0	0	0	0
302	345	people	people	people	9	preview	7	355	122	122	122	122	122	0
303	346	and	and	and	9	preview	7	356	0	0	0	0	0	0
304	347	put	put	put	9	preview	7	357	0	0	0	0	0	0
305	348	@entity5	France	France	9	preview	7	358	108	108	108	108	108	0
306	349	on	on	on	9	preview	7	359	0	0	0	0	0	0
307	350	a	a	a	9	preview	7	360	0	0	0	0	0	0
308	351	heightened	heightened	heightened	9	preview	7	361	193	0	0	0	0	193
309	352	state	state	state	9	preview	7	362	134	134	327	134	134	0
310	353	of	of	of	9	preview	7	363	0	0	0	0	0	0
311	354	alert	alert	alert.	9	preview	7	364	0	0	0	0	0	0
	355	.	.		9	preview	7	365						
