HumanPosition	AnonymizedPosition	AnonymizedToken	OriginalToken	ExperimentToken	Participant	Condition	TextNo	JointPosition	tt	fp	rp	ff	rb	sp
1	0	(	(	Two	5	nopreview	1	1	0	0	0	0	0	0
2	1	@entity1	CNN	passengers	5	nopreview	1	2	229	0	0	0	0	229
	2	)	)		5	nopreview	1	3						
	3	Two	Two		5	nopreview	1	4						
	4	passengers	passengers		5	nopreview	1	5						
3	5	found	found	found	5	nopreview	1	6	224	95	453	95	224	129
4	6	dead	dead	dead	5	nopreview	1	7	123	123	123	123	123	0
5	7	on	on	on	5	nopreview	1	8	0	0	0	0	0	0
6	8	a	a	a	5	nopreview	1	9	0	0	0	0	0	0
7	9	cruise	cruise	cruise	5	nopreview	1	10	362	362	362	228	362	0
8	10	ship	ship	ship	5	nopreview	1	11	93	93	93	93	93	0
9	11	in	in	in	5	nopreview	1	12	0	0	0	0	0	0
10	12	@entity4	Puerto	Puerto	5	nopreview	1	13	251	251	251	251	251	0
11			Rico	Rico	5	nopreview	1	14	0	0	0	0	0	0
12	13	appear	appear	appear	5	nopreview	1	15	300	300	300	161	300	0
13	14	to	to	to	5	nopreview	1	16	0	0	0	0	0	0
14	15	have	have	have	5	nopreview	1	17	195	195	195	195	195	0
15	16	died	died	died	5	nopreview	1	18	119	119	119	119	119	0
16	17	in	in	in	5	nopreview	1	19	102	102	102	102	102	0
17	18	a	a	a	5	nopreview	1	20	0	0	0	0	0	0
18	19	murder	murder	murder-suicide,	5	nopreview	1	21	336	336	336	178	336	0
	20	-	-		5	nopreview	1	22						
	21	suicide	suicide		5	nopreview	1	23						
	22	,	,		5	nopreview	1	24						
19	23	the	the	the	5	nopreview	1	25	0	0	0	0	0	0
20	24	cruise	cruise	cruise	5	nopreview	1	26	411	161	161	161	161	250
21	25	line	line	line	5	nopreview	1	27	286	133	536	133	286	153
22	26	said	said	said.	5	nopreview	1	28	0	0	0	0	0	0
	27	.	.		5	nopreview	1	29						
23	28	@entity6	Holland	Holland	5	nopreview	1	30	756	169	169	169	169	587
24			America	America	5	nopreview	1	31	376	163	963	163	376	213
25			Line	Line	5	nopreview	1	32	0	0	0	0	0	0
26	29	said	said	said	5	nopreview	1	33	261	261	261	261	261	0
27	30	two	two	two	5	nopreview	1	34	221	0	0	0	0	221
28	31	guests	guests	guests	5	nopreview	1	35	579	231	800	231	579	348
29	32	were	were	were	5	nopreview	1	36	232	232	232	232	232	0
30	33	found	found	found	5	nopreview	1	37	0	0	0	0	0	0
31	34	dead	dead	dead	5	nopreview	1	38	0	0	0	0	0	0
32	35	inside	inside	inside	5	nopreview	1	39	314	314	314	182	314	0
33	36	their	their	their	5	nopreview	1	40	0	0	0	0	0	0
34	37	stateroom	stateroom	stateroom	5	nopreview	1	41	347	347	347	193	347	0
35	38	on	on	on	5	nopreview	1	42	0	0	0	0	0	0
36	39	the	the	the	5	nopreview	1	43	0	0	0	0	0	0
37	40	@entity9	ms	ms	5	nopreview	1	44	577	177	177	177	177	400
38			Ryndam	Ryndam	5	nopreview	1	45	563	165	963	165	563	398
39	41	at	at	at	5	nopreview	1	46	0	0	0	0	0	0
40	42	11:30	11:30	11:30	5	nopreview	1	47	198	198	198	198	198	0
41	43	a.m.	a.m.	a.m.	5	nopreview	1	48	324	324	324	239	324	0
42	44	Thursday	Thursday	Thursday.	5	nopreview	1	49	416	416	416	416	416	0
	45	.	.		5	nopreview	1	50						
43	46	-	-	-The	5	nopreview	1	51	0	0	0	0	0	0
	47	The	The		5	nopreview	1	52						
44	48	cabin	cabin	cabin	5	nopreview	1	53	1468	1268	1268	208	1268	200
45	49	was	was	was	5	nopreview	1	54	82	82	82	82	82	0
46	50	immediately	immediately	immediately	5	nopreview	1	55	189	189	189	189	189	0
47	51	secured	secured	secured,	5	nopreview	1	56	359	359	359	214	359	0
	52	,	,		5	nopreview	1	57						
48	53	and	and	and	5	nopreview	1	58	177	0	0	0	0	177
49	54	the	the	the	5	nopreview	1	59	500	373	877	373	500	127
50	55	authorities	authorities	authorities	5	nopreview	1	60	170	170	170	170	170	0
51	56	were	were	were	5	nopreview	1	61	129	129	129	129	129	0
52	57	notified	notified	notified,	5	nopreview	1	62	131	131	131	131	131	0
	58	,	,		5	nopreview	1	63						
53	59	including	including	including	5	nopreview	1	64	216	216	216	216	216	0
54	60	the	the	the	5	nopreview	1	65	0	0	0	0	0	0
55	61	@entity12	FBI	FBI,-	5	nopreview	1	66	275	275	275	157	275	0
	62	,	,		5	nopreview	1	67						
	63	-	-		5	nopreview	1	68						
56	64	@entity6	Holland	Holland	5	nopreview	1	69	176	176	176	176	176	0
57			America	America	5	nopreview	1	70	0	0	0	0	0	0
58	65	said	said	said.	5	nopreview	1	71	169	169	169	169	169	0
	66	.	.		5	nopreview	1	72						
59	67	-	-	-We	5	nopreview	1	73	0	0	0	0	0	0
	68	We	We		5	nopreview	1	74						
60	69	are	are	are	5	nopreview	1	75	0	0	0	0	0	0
61	70	cooperating	cooperating	cooperating	5	nopreview	1	76	334	334	334	171	334	0
62	71	fully	fully	fully	5	nopreview	1	77	125	125	125	125	125	0
63	72	with	with	with	5	nopreview	1	78	0	0	0	0	0	0
64	73	the	the	the	5	nopreview	1	79	0	0	0	0	0	0
65	74	investigation	investigation	investigation,	5	nopreview	1	80	148	148	148	148	148	0
	75	,	,		5	nopreview	1	81						
66	76	and	and	and	5	nopreview	1	82	0	0	0	0	0	0
67	77	the	the	the	5	nopreview	1	83	135	135	135	135	135	0
68	78	authorities	authorities	authorities	5	nopreview	1	84	181	181	181	181	181	0
69	79	will	will	will	5	nopreview	1	85	0	0	0	0	0	0
70	80	make	make	make	5	nopreview	1	86	170	0	0	0	0	170
71	81	the	the	the	5	nopreview	1	87	292	127	462	127	292	165
72	82	official	official	official	5	nopreview	1	88	140	140	140	140	140	0
73	83	determination	determination	determination	5	nopreview	1	89	183	183	183	183	183	0
74	84	on	on	on	5	nopreview	1	90	0	0	0	0	0	0
75	85	what	what	what	5	nopreview	1	91	438	168	168	168	168	270
76	86	occurred	occurred	occurred.-	5	nopreview	1	92	296	296	296	148	296	0
	87	.	.		5	nopreview	1	93						
77	88	-	-	FBI	5	nopreview	1	94	0	0	0	0	0	0
78	89	@entity12	FBI	spokesman	5	nopreview	1	95	789	143	578	143	308	646
	90	spokesman	spokesman		5	nopreview	1	96						
79	91	@entity17	Moises	Moises	5	nopreview	1	97	569	155	1050	155	569	414
80			Quiñones	Quinones	5	nopreview	1	98	296	296	296	183	296	0
81	92	said	said	said	5	nopreview	1	99	0	0	0	0	0	0
82	93	authorities	authorities	authorities	5	nopreview	1	100	411	411	411	127	411	0
83	94	were	were	were	5	nopreview	1	101	216	216	216	216	216	0
84	95	on	on	on	5	nopreview	1	102	0	0	0	0	0	0
85	96	scene	scene	scene	5	nopreview	1	103	319	0	0	0	0	319
86	97	investigating	investigating	investigating.	5	nopreview	1	104	147	147	466	147	147	0
	98	.	.		5	nopreview	1	105						
87	99	The	The	The	5	nopreview	1	106	156	156	156	156	156	0
88	100	ship	ship	ship	5	nopreview	1	107	149	0	0	0	0	149
89	101	left	left	left	5	nopreview	1	108	321	143	143	143	143	178
90	102	@entity21	Tampa	Tampa,	5	nopreview	1	109	368	189	695	189	368	179
	103	,	,		5	nopreview	1	110						
91	104	@entity22	Florida	Florida,	5	nopreview	1	111	280	280	280	280	280	0
	105	,	,		5	nopreview	1	112						
92	106	on	on	on	5	nopreview	1	113	0	0	0	0	0	0
93	107	March	March	March	5	nopreview	1	114	129	129	129	129	129	0
94	108	29	29	29	5	nopreview	1	115	0	0	0	0	0	0
95	109	on	on	on	5	nopreview	1	116	239	239	239	239	239	0
96	110	a	a	a	5	nopreview	1	117	0	0	0	0	0	0
97	111	14	14	14-day	5	nopreview	1	118	630	220	220	220	220	410
	112	-	-		5	nopreview	1	119						
	113	day	day		5	nopreview	1	120						
98	114	@entity24	Southern	Southern	5	nopreview	1	121	371	173	781	173	371	198
99			Caribbean	Caribbean	5	nopreview	1	122	186	186	186	186	186	0
100	115	cruise	cruise	cruise.	5	nopreview	1	123	193	193	193	193	193	0
	116	.	.		5	nopreview	1	124						
101	117	It	It	It-s	5	nopreview	1	125	0	0	0	0	0	0
	118	-s	-s		5	nopreview	1	126						
102	119	currently	currently	currently	5	nopreview	1	127	407	187	187	187	187	220
103	120	in	in	in	5	nopreview	1	128	0	0	0	0	0	0
104	121	@entity26	San	San	5	nopreview	1	129	331	186	551	186	331	145
105			Juan	Juan,	5	nopreview	1	130	0	0	0	0	0	0
	122	,	,		5	nopreview	1	131						
106	123	@entity4	Puerto	Puerto	5	nopreview	1	132	588	197	197	197	197	391
107			Rico	Rico.	5	nopreview	1	133	165	165	165	165	165	0
	124	.	.		5	nopreview	1	134						
108	125	@entity28	Puerto	Puerto	5	nopreview	1	135	209	0	0	0	0	209
109			Rico	Rico	5	nopreview	1	136	420	0	0	0	0	420
110			Port	Port	5	nopreview	1	137	480	0	0	0	0	480
111			Authority	Authority	5	nopreview	1	138	667	108	791	108	271	559
112	126	spokesman	spokesman	spokesman	5	nopreview	1	139	245	98	597	98	245	147
113	127	@entity27	Efraín	Efrain	5	nopreview	1	140	611	302	302	302	302	309
114			Santiago	Santiago	5	nopreview	1	141	682	483	2015	147	682	199
115	128	told	told	told	5	nopreview	1	142	0	0	0	0	0	0
116	129	@entity30	El	El	5	nopreview	1	143	150	150	150	150	150	0
117			Nuevo	Nuevo	5	nopreview	1	144	129	129	129	129	129	0
118			Dia	Dia	5	nopreview	1	145	0	0	0	0	0	0
119	130	newspaper	newspaper	newspaper	5	nopreview	1	146	188	188	188	188	188	0
120	131	that	that	that	5	nopreview	1	147	89	89	89	89	89	0
121	132	the	the	the	5	nopreview	1	148	0	0	0	0	0	0
122	133	cleaning	cleaning	cleaning	5	nopreview	1	149	372	372	372	234	372	0
123	134	staff	staff	staff	5	nopreview	1	150	87	87	87	87	87	0
124	135	on	on	on	5	nopreview	1	151	0	0	0	0	0	0
125	136	the	the	the	5	nopreview	1	152	149	149	149	149	149	0
126	137	ship	ship	ship	5	nopreview	1	153	90	90	90	90	90	0
127	138	had	had	had	5	nopreview	1	154	0	0	0	0	0	0
128	139	discovered	discovered	discovered	5	nopreview	1	155	150	150	150	150	150	0
129	140	the	the	the	5	nopreview	1	156	0	0	0	0	0	0
130	141	deceased	deceased	deceased	5	nopreview	1	157	137	137	137	137	137	0
131	142	passengers	passengers	passengers	5	nopreview	1	158	147	147	147	147	147	0
132	143	after	after	after	5	nopreview	1	159	0	0	0	0	0	0
133	144	knocking	knocking	knocking	5	nopreview	1	160	141	141	141	141	141	0
134	145	on	on	on	5	nopreview	1	161	0	0	0	0	0	0
135	146	the	the	the	5	nopreview	1	162	0	0	0	0	0	0
136	147	cabin	cabin	cabin-s	5	nopreview	1	163	328	328	328	328	328	0
	148	-s	-s		5	nopreview	1	164						
137	149	door	door	door.	5	nopreview	1	165	0	0	0	0	0	0
	150	.	.		5	nopreview	1	166						
