HumanPosition	AnonymizedPosition	AnonymizedToken	OriginalToken	ExperimentToken	Participant	Condition	TextNo	JointPosition	tt	fp	rp	ff	rb	sp
0	0	@entity0	Raheem	Raheem	5	nopreview	10	1	1046	0	0	0	0	1046
2			Sterling	Sterling	5	nopreview	10	2	586	103	677	103	274	483
3	1	has	has	has	5	nopreview	10	3	142	142	142	142	142	0
4	2	admitted	admitted	admitted	5	nopreview	10	4	573	402	402	246	402	171
5	3	he	he	he	5	nopreview	10	5	0	0	0	0	0	0
6	4	is	is	is	5	nopreview	10	6	140	140	140	140	140	0
7	5	not	not	not	5	nopreview	10	7	0	0	0	0	0	0
8	6	ready	ready	ready	5	nopreview	10	8	111	111	111	111	111	0
9	7	to	to	to	5	nopreview	10	9	0	0	0	0	0	0
10	8	sign	sign	sign	5	nopreview	10	10	288	288	288	148	288	0
11	9	a	a	a	5	nopreview	10	11	0	0	0	0	0	0
12	10	new	new	new	5	nopreview	10	12	0	0	0	0	0	0
13	11	contract	contract	contract	5	nopreview	10	13	532	190	190	190	190	342
14	12	at	at	at	5	nopreview	10	14	364	152	494	152	152	212
15	13	@entity3	Liverpool	Liverpool	5	nopreview	10	15	249	130	461	130	249	119
16	14	deal	deal	deal	5	nopreview	10	16	322	0	0	0	0	322
17	15	despite	despite	despite	5	nopreview	10	17	518	268	840	132	518	250
18	16	being	being	being	5	nopreview	10	18	162	162	162	162	162	0
19	17	offered	offered	offered	5	nopreview	10	19	171	0	0	0	0	171
20	18	a	a	a	5	nopreview	10	20	0	0	0	0	0	0
21	19	£	£	£100,000-a-week	5	nopreview	10	21	1649	1193	1193	176	1193	456
	20	100,000	100,000		5	nopreview	10	22						
	21	-	-		5	nopreview	10	23						
	22	a	a		5	nopreview	10	24						
	23	-	-		5	nopreview	10	25						
	24	week	week		5	nopreview	10	26						
22	25	deal	deal	deal	5	nopreview	10	27	0	0	0	0	0	0
23	26	to	to	to	5	nopreview	10	28	0	0	0	0	0	0
24	27	stay	stay	stay	5	nopreview	10	29	156	156	156	156	156	0
25	28	with	with	with	5	nopreview	10	30	0	0	0	0	0	0
26	29	the	the	the	5	nopreview	10	31	146	146	146	146	146	0
27	30	@entity6	Merseyside	Merseyside	5	nopreview	10	32	503	503	1130	128	503	0
28	31	club	club	club.	5	nopreview	10	33	0	0	0	0	0	0
	32	.	.		5	nopreview	10	34						
29	33	The	The	The	5	nopreview	10	35	0	0	0	0	0	0
30	34	20	20	20-year-old	5	nopreview	10	36	392	392	392	143	392	0
	35	-	-		5	nopreview	10	37						
	36	year	year		5	nopreview	10	38						
	37	-	-		5	nopreview	10	39						
	38	old	old		5	nopreview	10	40						
31	39	wideman	wideman	wideman	5	nopreview	10	41	1490	305	305	195	305	1185
32	40	edged	edged	edged	5	nopreview	10	42	559	155	1744	155	559	404
33	41	closer	closer	closer	5	nopreview	10	43	112	112	112	112	112	0
34	42	towards	towards	towards	5	nopreview	10	44	136	136	136	136	136	0
35	43	an	an	an	5	nopreview	10	45	0	0	0	0	0	0
36	44	@entity9	Anfield	Anfield	5	nopreview	10	46	332	332	332	332	332	0
37	45	exit	exit	exit	5	nopreview	10	47	295	295	295	169	295	0
38	46	after	after	after	5	nopreview	10	48	0	0	0	0	0	0
39	47	revealing	revealing	revealing	5	nopreview	10	49	502	502	502	280	502	0
40	48	in	in	in	5	nopreview	10	50	124	124	124	124	124	0
41	49	an	an	an	5	nopreview	10	51	131	131	131	131	131	0
42	50	interview	interview	interview	5	nopreview	10	52	151	0	0	0	0	151
43	51	with	with	with	5	nopreview	10	53	130	130	281	130	130	0
44	52	the	the	the	5	nopreview	10	54	0	0	0	0	0	0
45	53	@entity11	BBC	BBC	5	nopreview	10	55	156	156	156	156	156	0
46	54	on	on	on	5	nopreview	10	56	0	0	0	0	0	0
47	55	Wednesday	Wednesday	Wednesday	5	nopreview	10	57	184	184	184	184	184	0
48	56	that	that	that	5	nopreview	10	58	0	0	0	0	0	0
49	57	he	he	he	5	nopreview	10	59	153	153	153	153	153	0
50	58	would	would	would	5	nopreview	10	60	104	104	104	104	104	0
51	59	have	have	have	5	nopreview	10	61	0	0	0	0	0	0
52	60	signed	signed	signed	5	nopreview	10	62	247	247	247	153	247	0
53	61	for	for	for	5	nopreview	10	63	0	0	0	0	0	0
54	62	a	a	a	5	nopreview	10	64	0	0	0	0	0	0
55	63	lot	lot	lot	5	nopreview	10	65	435	271	271	271	271	164
56	64	less	less	less	5	nopreview	10	66	246	158	158	158	158	88
57	65	a	a	a	5	nopreview	10	67	0	0	0	0	0	0
58	66	year	year	year	5	nopreview	10	68	134	134	134	134	134	0
59	67	ago	ago	ago.	5	nopreview	10	69	0	0	0	0	0	0
	68	.	.		5	nopreview	10	70						
60	69	However	However	However,	5	nopreview	10	71	454	365	617	152	365	89
	70	,	,		5	nopreview	10	72						
61	71	despite	despite	despite	5	nopreview	10	73	389	239	478	110	389	150
62	72	being	being	being	5	nopreview	10	74	141	141	141	141	141	0
63	73	one	one	one	5	nopreview	10	75	0	0	0	0	0	0
64	74	of	of	of	5	nopreview	10	76	0	0	0	0	0	0
65	75	@entity3	Liverpool	Liverpool-s	5	nopreview	10	77	182	182	182	182	182	0
	76	-s	-s		5	nopreview	10	78						
66	77	star	star	star	5	nopreview	10	79	208	208	208	208	208	0
67	78	men	men	men,	5	nopreview	10	80	0	0	0	0	0	0
	79	,	,		5	nopreview	10	81						
68	80	@entity0	Sterling	Sterling	5	nopreview	10	82	216	216	216	216	216	0
69	81	has	has	has	5	nopreview	10	83	0	0	0	0	0	0
70	82	struggled	struggled	struggled	5	nopreview	10	84	315	315	315	166	315	0
71	83	to	to	to	5	nopreview	10	85	0	0	0	0	0	0
72	84	repeat	repeat	repeat	5	nopreview	10	86	201	201	201	201	201	0
73	85	the	the	the	5	nopreview	10	87	0	0	0	0	0	0
74	86	impressive	impressive	impressive	5	nopreview	10	88	160	160	160	160	160	0
75	87	form	form	form	5	nopreview	10	89	198	198	198	198	198	0
76	88	he	he	he	5	nopreview	10	90	0	0	0	0	0	0
77	89	showed	showed	showed	5	nopreview	10	91	119	119	119	119	119	0
78	90	for	for	for	5	nopreview	10	92	0	0	0	0	0	0
79	91	the	the	the	5	nopreview	10	93	138	138	138	138	138	0
80	92	@entity18	Reds	Reds	5	nopreview	10	94	0	0	0	0	0	0
81	93	last	last	last	5	nopreview	10	95	261	261	261	261	261	0
82	94	season	season	season.	5	nopreview	10	96	111	111	111	111	111	0
	95	.	.		5	nopreview	10	97						
83	96	The	The	The	5	nopreview	10	98	0	0	0	0	0	0
84	97	@entity19	England	England	5	nopreview	10	99	283	283	283	193	283	0
85	98	international	international	international	5	nopreview	10	100	324	324	324	129	324	0
86	99	has	has	has	5	nopreview	10	101	0	0	0	0	0	0
87	100	managed	managed	managed	5	nopreview	10	102	628	196	196	196	196	432
88	101	just	just	just	5	nopreview	10	103	193	193	625	193	193	0
89	102	six	six	six	5	nopreview	10	104	314	143	143	143	143	171
90	103	goals	goals	goals	5	nopreview	10	105	336	0	0	0	0	336
91	104	this	this	this	5	nopreview	10	106	151	151	487	151	151	0
92	105	season	season	season	5	nopreview	10	107	110	110	446	110	110	0
93	106	-	-	-	5	nopreview	10	108	0	0	0	0	0	0
94	107	one	one	one	5	nopreview	10	109	0	0	0	0	0	0
95	108	less	less	less	5	nopreview	10	110	437	0	0	0	0	437
96	109	than	than	than	5	nopreview	10	111	186	186	186	186	186	0
97	110	@entity23	Stoke	Stoke	5	nopreview	10	112	547	185	806	185	369	362
98	111	frontman	frontman	frontman	5	nopreview	10	113	566	157	744	157	566	409
99	112	@entity22	Jon	Jon	5	nopreview	10	114	0	0	0	0	0	0
100			Walters	Walters	5	nopreview	10	115	409	409	409	171	409	0
101	113	-	-	-	5	nopreview	10	116	0	0	0	0	0	0
102	114	while	while	while	5	nopreview	10	117	443	193	193	193	193	250
103	115	his	his	his	5	nopreview	10	118	384	241	241	241	241	143
104	116	conversion	conversion	conversion	5	nopreview	10	119	909	149	1006	149	613	760
105	117	rate	rate	rate	5	nopreview	10	120	156	156	452	156	156	0
106	118	and	and	and	5	nopreview	10	121	117	117	117	117	117	0
107	119	minutes	minutes	minutes	5	nopreview	10	122	92	92	92	92	92	0
108	120	per	per	per	5	nopreview	10	123	165	165	165	165	165	0
109	121	goal	goal	goal	5	nopreview	10	124	0	0	0	0	0	0
110	122	ratio	ratio	ratio	5	nopreview	10	125	135	135	135	135	135	0
111	123	have	have	have	5	nopreview	10	126	0	0	0	0	0	0
112	124	worsened	worsened	worsened.	5	nopreview	10	127	246	246	246	246	246	0
	125	as	as		5	nopreview	10	128						
113	126	the	the	Raheem	5	nopreview	10	129	773	494	494	204	494	279
	127	graphic	graphic		5	nopreview	10	130						
	128	below	below		5	nopreview	10	131						
	129	shows	shows		5	nopreview	10	132						
	130	.	.		5	nopreview	10	133						
	131	@entity0	Raheem		5	nopreview	10	134						
114			Sterling	Sterling	5	nopreview	10	135	0	0	0	0	0	0
115	132	has	has	has	5	nopreview	10	136	129	129	129	129	129	0
116	133	managed	managed	managed	5	nopreview	10	137	0	0	0	0	0	0
117	134	just	just	just	5	nopreview	10	138	151	151	151	151	151	0
118	135	six	six	six	5	nopreview	10	139	0	0	0	0	0	0
119	136	goals	goals	goals	5	nopreview	10	140	153	153	153	153	153	0
120	137	this	this	this	5	nopreview	10	141	194	194	194	194	194	0
121	138	season	season	season	5	nopreview	10	142	0	0	0	0	0	0
122	139	-	-	-	5	nopreview	10	143	0	0	0	0	0	0
123	140	one	one	one	5	nopreview	10	144	0	0	0	0	0	0
124	141	less	less	less	5	nopreview	10	145	311	183	183	183	183	128
125	142	than	than	than	5	nopreview	10	146	260	0	0	0	0	260
126	143	@entity23	Stoke	Stoke	5	nopreview	10	147	220	220	353	220	220	0
127	144	forward	forward	forward	5	nopreview	10	148	273	96	1672	96	96	177
128	145	@entity22	Jon	Jon	5	nopreview	10	149	0	0	0	0	0	0
129			Walters	Walters.	5	nopreview	10	150	163	163	595	163	163	0
	146	(	(		5	nopreview	10	151						
