HumanPosition	AnonymizedPosition	AnonymizedToken	OriginalToken	ExperimentToken	Participant	Condition	TextNo	JointPosition	tt	fp	rp	ff	rb	sp
1	0	This	This	This	5	nopreview	16	1	0	0	0	0	0	0
2	1	is	is	is	5	nopreview	16	2	111	0	0	0	0	111
3	2	the	the	the	5	nopreview	16	3	147	0	0	0	0	147
4	3	shocking	shocking	shocking	5	nopreview	16	4	286	0	0	0	0	286
5	4	moment	moment	moment	5	nopreview	16	5	302	136	846	136	302	166
6	5	a	a	a	5	nopreview	16	6	0	0	0	0	0	0
7	6	pit	pit	pit	5	nopreview	16	7	377	377	377	377	377	0
8	7	crew	crew	crew	5	nopreview	16	8	236	236	236	236	236	0
9	8	member	member	member	5	nopreview	16	9	227	227	227	227	227	0
10	9	was	was	was	5	nopreview	16	10	0	0	0	0	0	0
11	10	hit	hit	hit	5	nopreview	16	11	371	371	371	371	371	0
12	11	by	by	by	5	nopreview	16	12	119	0	0	0	0	119
13	12	a	a	a	5	nopreview	16	13	161	161	161	161	161	0
14	13	car	car	car	5	nopreview	16	14	0	0	0	0	0	0
15	14	on	on	on	5	nopreview	16	15	324	324	324	178	324	0
16	15	Sunday	Sunday	Sunday	5	nopreview	16	16	357	0	0	0	0	357
17	16	during	during	during	5	nopreview	16	17	743	743	743	339	743	0
18	17	the	the	the	5	nopreview	16	18	0	0	0	0	0	0
19	18	inaugural	inaugural	inaugural	5	nopreview	16	19	973	0	0	0	0	973
20	19	@entity4	IndyCar	IndyCar	5	nopreview	16	20	1086	129	1175	129	722	957
21	20	@entity3	Grand	Grand	5	nopreview	16	21	692	532	532	200	532	160
22			Prix	Prix	5	nopreview	16	22	243	0	0	0	0	243
23	21	of	of	of	5	nopreview	16	23	494	0	0	0	0	494
24	22	@entity5	Louisiana	Louisiana.	5	nopreview	16	24	698	313	703	191	425	385
	23	.	.		5	nopreview	16	25						
25	24	@entity6	Todd	Todd	5	nopreview	16	26	301	0	0	0	0	301
26			Phillips	Phillips,	5	nopreview	16	27	503	503	503	237	503	0
	25	,	,		5	nopreview	16	28						
27	26	a	a	a	5	nopreview	16	29	150	0	0	0	0	150
28	27	front	front	front-outside	5	nopreview	16	30	957	869	869	222	869	88
	28	-	-		5	nopreview	16	31						
	29	outside	outside		5	nopreview	16	32						
29	30	tire	tire	tire	5	nopreview	16	33	174	174	174	174	174	0
30	31	changer	changer	changer	5	nopreview	16	34	318	0	0	0	0	318
31	32	for	for	for	5	nopreview	16	35	130	130	448	130	130	0
32	33	@entity8	Dayle	Dayle	5	nopreview	16	36	567	364	364	163	364	203
33			Coyne	Coyne	5	nopreview	16	37	811	406	406	223	406	405
34			Racing	Racing,	5	nopreview	16	38	444	153	481	153	295	291
	34	,	,		5	nopreview	16	39						
35	35	was	was	was	5	nopreview	16	40	658	483	483	483	483	175
36	36	injured	injured	injured	5	nopreview	16	41	736	736	736	565	736	0
37	37	when	when	when	5	nopreview	16	42	0	0	0	0	0	0
38	38	he	he	he	5	nopreview	16	43	149	149	149	149	149	0
39	39	was	was	was	5	nopreview	16	44	199	199	199	199	199	0
40	40	struck	struck	struck	5	nopreview	16	45	188	188	188	188	188	0
41	41	by	by	by	5	nopreview	16	46	0	0	0	0	0	0
42	42	the	the	the	5	nopreview	16	47	258	258	258	258	258	0
43	43	car	car	car	5	nopreview	16	48	0	0	0	0	0	0
44	44	of	of	of	5	nopreview	16	49	114	114	114	114	114	0
45	45	@entity10	Francesco	Francesco	5	nopreview	16	50	814	304	304	304	304	510
46			Dracone	Dracone,	5	nopreview	16	51	1379	216	717	216	570	1163
	46	,	,		5	nopreview	16	52						
47	47	who	who	who	5	nopreview	16	53	0	0	0	0	0	0
48	48	had	had	had	5	nopreview	16	54	313	313	313	313	313	0
49	49	come	come	come	5	nopreview	16	55	253	253	253	122	253	0
50	50	in	in	in	5	nopreview	16	56	0	0	0	0	0	0
51	51	on	on	on	5	nopreview	16	57	247	247	247	247	247	0
52	52	Lap	Lap	Lap	5	nopreview	16	58	321	321	321	166	321	0
53	53	25	25	25	5	nopreview	16	59	259	259	259	259	259	0
54	54	for	for	for	5	nopreview	16	60	0	0	0	0	0	0
55	55	tyres	tyres	tyres	5	nopreview	16	61	517	153	153	153	153	364
56	56	and	and	and	5	nopreview	16	62	434	163	1267	163	434	271
57	57	fuel	fuel	fuel.	5	nopreview	16	63	0	0	0	0	0	0
	58	.	.		5	nopreview	16	64						
58	59	@entity10	Dracone	Dracone	5	nopreview	16	65	305	305	305	149	305	0
59	60	spun	spun	spun	5	nopreview	16	66	313	313	313	313	313	0
60	61	while	while	while	5	nopreview	16	67	279	279	279	279	279	0
61	62	exiting	exiting	exiting	5	nopreview	16	68	645	167	167	167	167	478
62	63	his	his	his	5	nopreview	16	69	153	0	0	0	0	153
63	64	put	put	put	5	nopreview	16	70	832	233	726	233	554	599
64	65	box	box	box,	5	nopreview	16	71	957	797	1075	187	797	160
	66	,	,		5	nopreview	16	72						
65	67	clipping	clipping	clipping	5	nopreview	16	73	452	198	198	198	198	254
66	68	@entity15	Phillips	Phillips-	5	nopreview	16	74	665	119	1538	119	665	546
	69	-	-		5	nopreview	16	75						
67	70	leg	leg	leg.	5	nopreview	16	76	160	160	160	160	160	0
	71	.	.		5	nopreview	16	77						
68	72	@entity6	Todd	Phillips	5	nopreview	16	78	154	154	154	154	154	0
			Phillips		5	nopreview	16	79						
69	73	waits	waits	was	5	nopreview	16	80	0	0	0	0	0	0
70	74	in	in	taken	5	nopreview	16	81	210	210	210	210	210	0
	75	the	the		5	nopreview	16	82						
71	76	pit	pit	to	5	nopreview	16	83	0	0	0	0	0	0
72	77	lane	lane	the	5	nopreview	16	84	159	159	159	159	159	0
73	78	as	as	infield	5	nopreview	16	85	617	617	617	187	617	0
	79	the	the		5	nopreview	16	86						
	80	car	car		5	nopreview	16	87						
	81	makes	makes		5	nopreview	16	88						
	82	a	a		5	nopreview	16	89						
	83	stop	stop		5	nopreview	16	90						
	84	during	during		5	nopreview	16	91						
	85	the	the		5	nopreview	16	92						
	86	race	race		5	nopreview	16	93						
	87	in	in		5	nopreview	16	94						
	88	@entity5	Louisiana		5	nopreview	16	95						
	89	The	The		5	nopreview	16	96						
	90	car	car		5	nopreview	16	97						
	91	of	of		5	nopreview	16	98						
	92	@entity10	Francesco		5	nopreview	16	99						
			Dracone		5	nopreview	16	100						
	93	spun	spun		5	nopreview	16	101						
	94	out	out		5	nopreview	16	102						
	95	of	of		5	nopreview	16	103						
	96	control	control		5	nopreview	16	104						
	97	in	in		5	nopreview	16	105						
	98	the	the		5	nopreview	16	106						
	99	wet	wet		5	nopreview	16	107						
	100	conditions	conditions		5	nopreview	16	108						
	101	as	as		5	nopreview	16	109						
	102	@entity6	Phillips		5	nopreview	16	110						
	103	tried	tried		5	nopreview	16	111						
	104	to	to		5	nopreview	16	112						
	105	get	get		5	nopreview	16	113						
	106	out	out		5	nopreview	16	114						
	107	the	the		5	nopreview	16	115						
	108	way	way		5	nopreview	16	116						
	109	The	The		5	nopreview	16	117						
	110	rear	rear		5	nopreview	16	118						
	111	end	end		5	nopreview	16	119						
	112	of	of		5	nopreview	16	120						
	113	the	the		5	nopreview	16	121						
	114	car	car		5	nopreview	16	122						
	115	made	made		5	nopreview	16	123						
	116	contact	contact		5	nopreview	16	124						
	117	with	with		5	nopreview	16	125						
	118	the	the		5	nopreview	16	126						
	119	pit	pit		5	nopreview	16	127						
	120	crew	crew		5	nopreview	16	128						
	121	worker	worker		5	nopreview	16	129						
	122	sweeping	sweeping		5	nopreview	16	130						
	123	his	his		5	nopreview	16	131						
	124	legs	legs		5	nopreview	16	132						
	125	from	from		5	nopreview	16	133						
	126	underneath	underneath		5	nopreview	16	134						
	127	him	him		5	nopreview	16	135						
	128	@entity6	Phillips		5	nopreview	16	136						
	129	was	was		5	nopreview	16	137						
	130	flipped	flipped		5	nopreview	16	138						
	131	upside	upside		5	nopreview	16	139						
	132	down	down		5	nopreview	16	140						
	133	by	by		5	nopreview	16	141						
	134	the	the		5	nopreview	16	142						
	135	force	force		5	nopreview	16	143						
	136	of	of		5	nopreview	16	144						
	137	the	the		5	nopreview	16	145						
	138	car	car		5	nopreview	16	146						
	139	but	but		5	nopreview	16	147						
	140	escaped	escaped		5	nopreview	16	148						
	141	only	only		5	nopreview	16	149						
	142	with	with		5	nopreview	16	150						
	143	minor	minor		5	nopreview	16	151						
	144	injuries	injuries		5	nopreview	16	152						
	145	@entity6	Phillips		5	nopreview	16	153						
	146	was	was		5	nopreview	16	154						
	147	taken	taken		5	nopreview	16	155						
	148	to	to		5	nopreview	16	156						
	149	the	the		5	nopreview	16	157						
	150	infield	infield		5	nopreview	16	158						
74	151	care	care	care	5	nopreview	16	159	199	199	199	199	199	0
75	152	center	center	center	5	nopreview	16	160	258	0	0	0	0	258
76	153	for	for	for	5	nopreview	16	161	186	0	0	0	0	186
77	154	treatment	treatment	treatment	5	nopreview	16	162	252	124	696	124	252	128
78	155	where	where	where	5	nopreview	16	163	188	188	188	188	188	0
79	156	he	he	he	5	nopreview	16	164	152	152	152	152	152	0
80	157	has	has	has	5	nopreview	16	165	0	0	0	0	0	0
81	158	received	received	received	5	nopreview	16	166	598	598	598	261	598	0
82	159	stitches	stitches	stitches	5	nopreview	16	167	379	379	379	232	379	0
83	160	for	for	for	5	nopreview	16	168	0	0	0	0	0	0
84	161	a	a	a	5	nopreview	16	169	153	0	0	0	0	153
85	162	cut	cut	cut	5	nopreview	16	170	301	301	454	301	301	0
86	163	on	on	on	5	nopreview	16	171	281	281	281	281	281	0
87	164	his	his	his	5	nopreview	16	172	140	140	140	140	140	0
88	165	leg	leg	leg	5	nopreview	16	173	0	0	0	0	0	0
89	166	and	and	and	5	nopreview	16	174	231	231	231	231	231	0
90	167	has	has	has	5	nopreview	16	175	200	200	200	200	200	0
91	168	been	been	been	5	nopreview	16	176	186	186	186	186	186	0
92	169	released	released	released.	5	nopreview	16	177	294	0	0	0	0	294
	170	.	.		5	nopreview	16	178						
93	171	Many	Many	Many	5	nopreview	16	179	283	123	577	123	283	160
94	172	cars	cars	cars	5	nopreview	16	180	154	154	154	154	154	0
95	173	struggled	struggled	struggled	5	nopreview	16	181	183	183	183	183	183	0
96	174	with	with	with	5	nopreview	16	182	185	185	185	185	185	0
97	175	traction	traction	traction	5	nopreview	16	183	438	438	438	248	438	0
98	176	during	during	during	5	nopreview	16	184	0	0	0	0	0	0
99	177	the	the	the	5	nopreview	16	185	189	189	189	94	189	0
100	178	race	race	race	5	nopreview	16	186	134	134	134	134	134	0
101	179	after	after	after	5	nopreview	16	187	179	179	179	179	179	0
102	180	rain	rain	rain	5	nopreview	16	188	235	235	235	235	235	0
103	181	had	had	had	5	nopreview	16	189	0	0	0	0	0	0
104	182	fallen	fallen	fallen	5	nopreview	16	190	198	198	198	198	198	0
105	183	for	for	for	5	nopreview	16	191	112	112	112	112	112	0
106	184	hours	hours	hours	5	nopreview	16	192	105	0	0	0	0	105
107	185	leading	leading	leading	5	nopreview	16	193	126	126	231	126	126	0
108	186	up	up	up	5	nopreview	16	194	0	0	0	0	0	0
109	187	to	to	to	5	nopreview	16	195	0	0	0	0	0	0
110	188	the	the	the	5	nopreview	16	196	158	158	158	158	158	0
111	189	green	green	green	5	nopreview	16	197	124	124	124	124	124	0
112	190	flag	flag	flag.	5	nopreview	16	198	159	159	159	159	159	0
	191	.	.		5	nopreview	16	199						
113	192	@entity10	Dracone	Dracone	5	nopreview	16	200	0	0	0	0	0	0
114	193	did	did	did	5	nopreview	16	201	171	171	171	171	171	0
115	194	not	not	not	5	nopreview	16	202	0	0	0	0	0	0
116	195	finish	finish	finish	5	nopreview	16	203	208	208	208	208	208	0
117	196	the	the	the	5	nopreview	16	204	184	0	0	0	0	184
118	197	race	race	race	5	nopreview	16	205	324	171	171	171	171	153
119	198	and	and	and	5	nopreview	16	206	85	0	0	0	0	85
120	199	wound	wound	wound	5	nopreview	16	207	213	213	213	213	213	0
121	200	up	up	up	5	nopreview	16	208	0	0	0	0	0	0
122	201	23rd	23rd	23rd.	5	nopreview	16	209	172	172	4834	172	172	0
	202	.	.		5	nopreview	16	210						
