HumanPosition	AnonymizedPosition	AnonymizedToken	OriginalToken	ExperimentToken	Participant	Condition	TextNo	JointPosition	tt	fp	rp	ff	rb	sp
1	0	(	(	Sabra	5	nopreview	2	1	443	0	0	0	0	443
	1	@entity2	CNN		5	nopreview	2	2						
	2	)	)		5	nopreview	2	3						
	3	@entity1	Sabra		5	nopreview	2	4						
2			Dipping	Dipping	5	nopreview	2	5	601	129	1044	129	601	472
3			Co.	Co.	5	nopreview	2	6	0	0	0	0	0	0
4	4	is	is	is	5	nopreview	2	7	0	0	0	0	0	0
5	5	recalling	recalling	recalling	5	nopreview	2	8	484	197	197	197	197	287
6	6	30,000	30,000	30,000	5	nopreview	2	9	470	106	106	106	106	364
7	7	cases	cases	cases	5	nopreview	2	10	469	201	347	201	201	268
8	8	of	of	of	5	nopreview	2	11	164	164	164	164	164	0
9	9	hummus	hummus	hummus	5	nopreview	2	12	596	81	389	81	81	515
10	10	due	due	due	5	nopreview	2	13	0	0	0	0	0	0
11	11	to	to	to	5	nopreview	2	14	154	154	154	154	154	0
12	12	possible	possible	possible	5	nopreview	2	15	415	91	933	91	250	324
13	13	contamination	contamination	contamination	5	nopreview	2	16	154	154	319	154	154	0
14	14	with	with	with	5	nopreview	2	17	0	0	0	0	0	0
15	15	@entity6	Listeria	Listeria,	5	nopreview	2	18	412	412	412	272	412	0
	16	,	,		5	nopreview	2	19						
16	17	the	the	the	5	nopreview	2	20	176	176	176	176	176	0
17	18	@entity0	U.S.	U.S.	5	nopreview	2	21	202	202	202	202	202	0
18			Food	Food	5	nopreview	2	22	0	0	4443	0	0	0
19			and	and	5	nopreview	2	23	0	0	0	0	0	0
20			Drug	Drug	5	nopreview	2	24	146	146	146	146	146	0
21			Administration	Administration	5	nopreview	2	25	137	137	137	137	137	0
22	19	said	said	said	5	nopreview	2	26	0	0	0	0	0	0
23	20	Wednesday	Wednesday	Wednesday.	5	nopreview	2	27	300	192	192	192	192	108
	21	.	.		5	nopreview	2	28						
24	22	The	The	The	5	nopreview	2	29	0	0	0	0	0	0
25	23	nationwide	nationwide	nationwide	5	nopreview	2	30	1313	1194	1194	164	1194	119
26	24	recall	recall	recall	5	nopreview	2	31	283	0	0	0	0	283
27	25	is	is	is	5	nopreview	2	32	248	248	732	248	248	0
28	26	voluntary	voluntary	voluntary.	5	nopreview	2	33	312	217	540	217	217	95
	27	.	.		5	nopreview	2	34						
29	28	So	So	So	5	nopreview	2	35	0	0	0	0	0	0
30	29	far	far	far,	5	nopreview	2	36	302	183	397	183	302	119
	30	,	,		5	nopreview	2	37						
31	31	no	no	no	5	nopreview	2	38	0	0	0	0	0	0
32	32	illnesses	illnesses	illnesses	5	nopreview	2	39	210	210	210	210	210	0
33	33	caused	caused	caused	5	nopreview	2	40	187	187	187	187	187	0
34	34	by	by	by	5	nopreview	2	41	0	0	0	0	0	0
35	35	the	the	the	5	nopreview	2	42	171	171	171	171	171	0
36	36	hummus	hummus	hummus	5	nopreview	2	43	89	89	89	89	89	0
37	37	have	have	have	5	nopreview	2	44	0	0	0	0	0	0
38	38	been	been	been	5	nopreview	2	45	124	124	124	124	124	0
39	39	reported	reported	reported.	5	nopreview	2	46	0	0	0	0	0	0
	40	.	.		5	nopreview	2	47						
40	41	The	The	The	5	nopreview	2	48	0	0	0	0	0	0
41	42	potential	potential	potential	5	nopreview	2	49	734	734	734	121	734	0
42	43	for	for	for	5	nopreview	2	50	0	0	0	0	0	0
43	44	contamination	contamination	contamination	5	nopreview	2	51	567	567	567	327	567	0
44	45	was	was	was	5	nopreview	2	52	0	0	0	0	0	0
45	46	discovered	discovered	discovered	5	nopreview	2	53	301	301	301	164	301	0
46	47	when	when	when	5	nopreview	2	54	0	0	0	0	0	0
47	48	a	a	a	5	nopreview	2	55	0	0	0	0	0	0
48	49	routine	routine	routine,	5	nopreview	2	56	491	286	286	148	286	205
	50	,	,		5	nopreview	2	57						
49	51	random	random	random	5	nopreview	2	58	301	163	506	163	301	138
50	52	sample	sample	sample	5	nopreview	2	59	0	0	0	0	0	0
51	53	collected	collected	collected	5	nopreview	2	60	100	0	0	0	0	100
52	54	at	at	at	5	nopreview	2	61	133	133	233	133	133	0
53	55	a	a	a	5	nopreview	2	62	0	0	0	0	0	0
54	56	@entity14	Michigan	Michigan	5	nopreview	2	63	144	144	144	144	144	0
55	57	store	store	store	5	nopreview	2	64	0	0	0	0	0	0
56	58	on	on	on	5	nopreview	2	65	124	124	124	124	124	0
57	59	March	March	March	5	nopreview	2	66	97	97	97	97	97	0
58	60	30	30	30	5	nopreview	2	67	0	0	0	0	0	0
59	61	tested	tested	tested	5	nopreview	2	68	0	0	0	0	0	0
60	62	positive	positive	positive	5	nopreview	2	69	313	313	313	207	313	0
61	63	for	for	for	5	nopreview	2	70	0	0	0	0	0	0
62	64	@entity6	Listeria	Listeria	5	nopreview	2	71	143	143	143	143	143	0
63	65	monocytogenes	monocytogenes	monocytogenes.	5	nopreview	2	72	708	708	708	198	708	0
	66	.	.		5	nopreview	2	73						
64	67	The	The	The	5	nopreview	2	74	0	0	0	0	0	0
65	68	@entity0	FDA	FDA	5	nopreview	2	75	541	0	0	0	0	541
66	69	issued	issued	issued	5	nopreview	2	76	539	399	1080	166	539	140
67	70	a	a	a	5	nopreview	2	77	200	0	0	0	0	200
68	71	list	list	list	5	nopreview	2	78	322	157	157	157	157	165
69	72	of	of	of	5	nopreview	2	79	0	0	0	0	0	0
70	73	the	the	the	5	nopreview	2	80	144	144	509	144	144	0
71	74	products	products	products	5	nopreview	2	81	159	159	159	159	159	0
72	75	in	in	in	5	nopreview	2	82	0	0	0	0	0	0
73	76	the	the	the	5	nopreview	2	83	0	0	0	0	0	0
74	77	recall	recall	recall.	5	nopreview	2	84	208	208	208	208	208	0
	78	.	.		5	nopreview	2	85						
75	79	Anyone	Anyone	Anyone	5	nopreview	2	86	202	202	202	202	202	0
76	80	who	who	who	5	nopreview	2	87	0	0	0	0	0	0
77	81	has	has	has	5	nopreview	2	88	96	96	96	96	96	0
78	82	purchased	purchased	purchased	5	nopreview	2	89	183	183	183	183	183	0
79	83	any	any	any	5	nopreview	2	90	98	98	98	98	98	0
80	84	of	of	of	5	nopreview	2	91	0	0	0	0	0	0
81	85	the	the	the	5	nopreview	2	92	0	0	0	0	0	0
82	86	items	items	items	5	nopreview	2	93	171	171	171	171	171	0
83	87	is	is	is	5	nopreview	2	94	0	0	0	0	0	0
84	88	urged	urged	urged	5	nopreview	2	95	122	122	122	122	122	0
85	89	to	to	to	5	nopreview	2	96	0	0	0	0	0	0
86	90	dispose	dispose	dispose	5	nopreview	2	97	155	155	155	155	155	0
87	91	of	of	of	5	nopreview	2	98	0	0	0	0	0	0
88	92	or	or	or	5	nopreview	2	99	0	0	0	0	0	0
89	93	return	return	return	5	nopreview	2	100	163	163	163	163	163	0
90	94	it	it	it	5	nopreview	2	101	0	0	0	0	0	0
91	95	to	to	to	5	nopreview	2	102	0	0	0	0	0	0
92	96	the	the	the	5	nopreview	2	103	153	153	153	153	153	0
93	97	store	store	store	5	nopreview	2	104	0	0	0	0	0	0
94	98	for	for	for	5	nopreview	2	105	0	0	0	0	0	0
95	99	a	a	a	5	nopreview	2	106	155	155	155	155	155	0
96	100	full	full	full	5	nopreview	2	107	0	0	0	0	0	0
97	101	refund	refund	refund.	5	nopreview	2	108	227	227	227	135	227	0
	102	.	.		5	nopreview	2	109						
98	103	Listeria	Listeria	Listeria	5	nopreview	2	110	269	0	0	0	0	269
99	104	monocytogenes	monocytogenes	monocytogenes	5	nopreview	2	111	283	147	552	147	283	136
100	105	can	can	can	5	nopreview	2	112	0	0	0	0	0	0
101	106	cause	cause	cause	5	nopreview	2	113	157	157	157	157	157	0
102	107	serious	serious	serious	5	nopreview	2	114	723	181	181	181	181	542
103	108	and	and	and	5	nopreview	2	115	0	0	0	0	0	0
104	109	sometimes	sometimes	sometimes	5	nopreview	2	116	329	177	871	177	329	152
105	110	fatal	fatal	fatal	5	nopreview	2	117	152	152	152	152	152	0
106	111	infections	infections	infections	5	nopreview	2	118	127	127	127	127	127	0
107	112	in	in	in	5	nopreview	2	119	126	126	126	126	126	0
108	113	young	young	young	5	nopreview	2	120	87	87	87	87	87	0
109	114	children	children	children,	5	nopreview	2	121	290	290	290	159	290	0
	115	,	,		5	nopreview	2	122						
110	116	frail	frail	frail	5	nopreview	2	123	0	0	0	0	0	0
111	117	or	or	or	5	nopreview	2	124	129	129	129	129	129	0
112	118	elderly	elderly	elderly	5	nopreview	2	125	152	152	152	152	152	0
113	119	people	people	people,	5	nopreview	2	126	0	0	0	0	0	0
	120	,	,		5	nopreview	2	127						
114	121	and	and	and	5	nopreview	2	128	0	0	0	0	0	0
115	122	others	others	others	5	nopreview	2	129	192	192	192	192	192	0
116	123	with	with	with	5	nopreview	2	130	0	0	0	0	0	0
117	124	weakened	weakened	weakened	5	nopreview	2	131	371	371	371	255	371	0
118	125	immune	immune	immune	5	nopreview	2	132	133	133	133	133	133	0
119	126	systems	systems	systems,	5	nopreview	2	133	0	0	0	0	0	0
	127	,	,		5	nopreview	2	134						
120	128	the	the	the	5	nopreview	2	135	0	0	0	0	0	0
121	129	@entity0	FDA	FDA	5	nopreview	2	136	88	88	88	88	88	0
122	130	says	says	says.	5	nopreview	2	137	0	0	0	0	0	0
	131	.	.		5	nopreview	2	138						
123	132	Although	Although	Although	5	nopreview	2	139	387	387	387	126	387	0
124	133	some	some	some	5	nopreview	2	140	0	0	0	0	0	0
125	134	people	people	people	5	nopreview	2	141	166	166	166	166	166	0
126	135	may	may	may	5	nopreview	2	142	0	0	0	0	0	0
127	136	suffer	suffer	suffer	5	nopreview	2	143	160	160	160	160	160	0
128	137	only	only	only	5	nopreview	2	144	0	0	0	0	0	0
129	138	short	short	short-term	5	nopreview	2	145	166	166	166	166	166	0
	139	-	-		5	nopreview	2	146						
	140	term	term		5	nopreview	2	147						
130	141	symptoms	symptoms	symptoms	5	nopreview	2	148	176	176	176	176	176	0
131	142	such	such	such	5	nopreview	2	149	0	0	0	0	0	0
132	143	as	as	as	5	nopreview	2	150	0	0	0	0	0	0
133	144	high	high	high	5	nopreview	2	151	129	129	129	129	129	0
134	145	fever	fever	fever,	5	nopreview	2	152	0	0	0	0	0	0
	146	,	,		5	nopreview	2	153						
135	147	severe	severe	severe	5	nopreview	2	154	0	0	0	0	0	0
136	148	headache	headache	headache,	5	nopreview	2	155	240	240	240	143	240	0
	149	,	,		5	nopreview	2	156						
137	150	nausea	nausea	nausea,	5	nopreview	2	157	0	0	0	0	0	0
	151	,	,		5	nopreview	2	158						
138	152	abdominal	abdominal	abdominal	5	nopreview	2	159	164	164	164	164	164	0
139	153	pain	pain	pain	5	nopreview	2	160	0	0	0	0	0	0
140	154	and	and	and	5	nopreview	2	161	0	0	0	0	0	0
141	155	diarrhea	diarrhea	diarrhea,	5	nopreview	2	162	282	282	282	201	282	0
	156	,	,		5	nopreview	2	163						
142	157	@entity6	Listeria	Listeria	5	nopreview	2	164	301	301	301	301	301	0
143	158	can	can	can	5	nopreview	2	165	0	0	0	0	0	0
144	159	also	also	also	5	nopreview	2	166	0	0	0	0	0	0
145	160	cause	cause	cause	5	nopreview	2	167	132	132	132	132	132	0
146	161	miscarriages	miscarriages	miscarriages	5	nopreview	2	168	0	0	0	0	0	0
147	162	and	and	and	5	nopreview	2	169	0	0	0	0	0	0
148	163	stillbirths	stillbirths	stillbirths	5	nopreview	2	170	0	0	0	0	0	0
149	164	among	among	among	5	nopreview	2	171	0	0	0	0	0	0
150	165	pregnant	pregnant	pregnant	5	nopreview	2	172	0	0	0	0	0	0
151	166	women	women	women.	5	nopreview	2	173	0	0	0	0	0	0
	167	.	.		5	nopreview	2	174						
