0	0	Alejandro	InVocab	12.33
2		Valverde	InVocab	4.0083
3	1	successfully	InVocab	9.8727
4	2	defended	InVocab	3.7212
5	3	his	InVocab	1.3519
6	4	Fleche	OOV	5.3653
7		Wallonne	OOV	3.7405
8	5	title	InVocab	5.591
9	6	on	InVocab	4.4214
10	7	Wednesday	InVocab	4.2381
11	8	as	InVocab	2.7041
12	9	Chris	InVocab	7.77
13		Froome	InVocab	0.705
14	10	finished	InVocab	3.298
15	11	back	InVocab	6.2933
16	12	in	InVocab	1.3223
17	13	123rd	OOV	3.5726
18	14	after	InVocab	4.7168
19	15	a	InVocab	1.7654
20	16	fall	InVocab	6.5232
	17	.	InVocab	2.7757
21	18	Movistar	InVocab	10.0613
22	19	rider	InVocab	6.3816
23	20	Valverde	InVocab	9.1122
24	21	sprinted	InVocab	10.2765
25	22	to	InVocab	2.098
26	23	victory	InVocab	1.5759
27	24	ahead	InVocab	5.9928
28	25	of	InVocab	0.0138
29	26	Julian	InVocab	11.4525
30		Alaphilippe	OOV	0.4264
31	27	and	InVocab	3.048
32	28	Michael	InVocab	5.6003
33		Albasini	OOV	1.144
34	29	in	InVocab	3.0062
35	30	a	InVocab	2.2352
36	31	race	InVocab	1.9876
37	32	which	InVocab	3.699
38	33	saw	InVocab	3.4516
39	34	former	InVocab	6.1697
40	35	winner	InVocab	7.1363
41	36	Philippe	InVocab	10.075
42		Gilbert	InVocab	8.1801
43	37	pull	InVocab	8.6731
44	38	out	InVocab	2.247
45	39	after	InVocab	5.9528
46	40	a	InVocab	2.213
47	41	bad	InVocab	6.7414
48	42	crash	InVocab	3.5944
49	43	some	InVocab	10.2507
50	44	50	InVocab	8.9836
51	45	kilometres	OOV	4.6409
52	46	from	InVocab	4.461
53	47	the	InVocab	1.5582
54	48	end	InVocab	6.4773
	49	.	InVocab	2.6399
55	50	Froome	InVocab	10.3277
56	51	was	InVocab	2.5047
57	52	involved	InVocab	6.306
58	53	in	InVocab	0.1925
59	54	a	InVocab	0.8108
60	55	crash	InVocab	3.628
61	56	in	InVocab	1.3456
62	57	the	InVocab	1.2704
63	58	final	InVocab	3.7192
64	59	12	InVocab	6.9732
65	60	kilometres	OOV	6.6056
66	61	but	InVocab	4.2755
67	62	was	InVocab	1.3578
68	63	able	InVocab	3.7788
69	64	to	InVocab	0.0084
70	65	get	InVocab	3.0984
71	66	back	InVocab	2.1681
72	67	on	InVocab	1.4376
73	68	his	InVocab	2.3739
74	69	bike	InVocab	2.1834
75	70	and	InVocab	2.4838
76	71	finish	InVocab	5.6013
	72	.	InVocab	2.96
77	73	Spain	InVocab	9.0092
	74	's	InVocab	1.025
	75	Alejandro	InVocab	5.5809
		Valverde	InVocab	0.4515
	76	(	InVocab	4.0616
	77	centre	InVocab	3.2284
	78	)	InVocab	0.0396
	79	realises	OOV	4.7183
	80	he	InVocab	6.8405
78	81	's	InVocab	4.4019
	82	done	InVocab	4.8518
	83	enough	InVocab	4.3069
	84	to	InVocab	0.4335
79	85	claim	InVocab	8.0838
	86	victory	InVocab	2.5487
	87	in	InVocab	1.3326
	88	Belgium	InVocab	7.4466
	89	's	InVocab	1.326
	90	Fleche	OOV	2.499
	91	Wallonne	OOV	1.8996
		Valverde	InVocab	9.5762
	92	(	InVocab	5.9818
	93	centre	InVocab	4.6335
	94	)	InVocab	0.0413
	95	finished	InVocab	8.9281
	96	ahead	InVocab	5.1623
	97	of	InVocab	0.5029
	98	Julian	InVocab	9.2611
		Alaphilippe	OOV	0.4716
	99	(	InVocab	1.2497
	100	left	InVocab	1.912
	101	)	InVocab	0.0041
	102	and	InVocab	0.4672
	103	Michael	InVocab	4.8469
		Albasini	OOV	1.4449
	104	(	InVocab	1.1551
	105	right	InVocab	0.2122
	106	)	InVocab	0.0021
	107	on	InVocab	3.6963
	108	Wednesday	InVocab	4.2083
	109	Team	InVocab	8.4003
		Sky	InVocab	3.6464
	110	's	InVocab	3.3746
	111	sports	InVocab	5.444
80	112	director	InVocab	4.1113
81	113	Gabriel	InVocab	11.6944
82		Rasch	OOV	1.0064
83	114	praised	InVocab	6.6798
84	115	Froome	InVocab	11.1664
85	116	for	InVocab	3.7083
86	117	finishing	InVocab	5.8579
87	118	the	InVocab	1.9159
88	119	race	InVocab	1.4811
89	120	and	InVocab	3.834
90	121	said	InVocab	2.96
91	122	he	InVocab	1.198
92	123	expects	InVocab	5.8078
93	124	the	InVocab	0.8827
94	125	former	InVocab	6.2059
95	126	Tour	InVocab	7.4628
96		de	InVocab	1.9702
97		France	InVocab	0.3441
98	127	winner	InVocab	2.2315
99	128	will	InVocab	2.8597
100	129	be	InVocab	1.2503
101	130	fine	InVocab	6.0393
102	131	to	InVocab	2.903
103	132	take	InVocab	3.4421
104	133	part	InVocab	2.7129
105	134	in	InVocab	0.1941
106	135	the	InVocab	0.4764
107	136	Tour	InVocab	8.7354
108		de	InVocab	2.3345
109		Romandie	OOV	4.1846
110	137	next	InVocab	7.2604
111	138	week	InVocab	1.6251
	139	.	InVocab	0.7769
112	140	Rasch	OOV	3.1492
113	141	told	InVocab	5.7396
114	142	TeamSky.com	OOV	2.7611
115	143	:	InVocab	1.042
	144	'	InVocab	0.629
	145	Chris	InVocab	7.9223
116	146	was	InVocab	3.2061
117	147	pretty	InVocab	5.8388
118	148	banged	InVocab	10.8357
119	149	up	InVocab	1.6693
120	150	but	InVocab	5.5285
121	151	showed	InVocab	7.4916
122	152	real	InVocab	7.8641
123	153	courage	InVocab	3.9109
124	154	to	InVocab	1.7129
125	155	finish	InVocab	4.9906
126	156	the	InVocab	1.4304
127	157	race	InVocab	1.3669
128	158	and	InVocab	2.1147
129	159	we	InVocab	3.1313
	160	'll	InVocab	4.3888
130	161	assess	InVocab	9.3821
131	162	his	InVocab	3.3673
132	163	injuries	InVocab	5.2787
133	164	overnight	InVocab	11.4995
	165	.	InVocab	0.188
134	166	'	InVocab	0.2112
	167	He	InVocab	2.676
135	168	has	InVocab	3.1371
	169	n't	InVocab	3.235
136	170	needed	InVocab	8.9935
137	171	to	InVocab	1.5381
138	172	go	InVocab	1.9269
139	173	to	InVocab	2.3825
140	174	hospital	InVocab	2.8212
141	175	and	InVocab	1.9911
142	176	right	InVocab	10.8056
143	177	now	InVocab	0.5701
	178	,	InVocab	2.387
144	179	as	InVocab	4.7268
145	180	things	InVocab	6.9093
146	181	stand	InVocab	1.706
	182	,	InVocab	1.1073
147	183	we	InVocab	2.2847
	184	're	InVocab	7.8349
148	185	still	InVocab	4.5388
149	186	expecting	InVocab	7.6942
150	187	him	InVocab	5.8151
151	188	to	InVocab	0.1918
152	189	line	InVocab	10.3908
153	190	up	InVocab	0.2092
154	191	at	InVocab	3.7776
155	192	the	InVocab	0.7887
156	193	Tour	InVocab	6.7171
157		de	InVocab	0.9751
158		Romandie	OOV	4.4662
159	194	next	InVocab	5.4042
160	195	Tuesday	InVocab	5.6134
	196	.	InVocab	0.7217
161	197	'	InVocab	2.4123
	198	Team	InVocab	7.6136
162		Sky	InVocab	2.5361
	199	's	InVocab	3.5344
163	200	Chris	InVocab	3.8826
164		Froome	InVocab	0.0522
165	201	fell	InVocab	8.4782
166	202	in	InVocab	3.1457
167	203	the	InVocab	2.0991
168	204	closing	InVocab	4.5508
169	205	12km	OOV	7.7906
170	206	but	InVocab	4.643
171	207	fought	InVocab	7.6674
172	208	on	InVocab	4.8855
173	209	to	InVocab	1.4087
174	210	finish	InVocab	2.6012
175	211	the	InVocab	1.7034
176	212	race	InVocab	0.9794
177	213	despite	InVocab	4.5703
178	214	being	InVocab	2.4841
179	215	'	InVocab	5.7634
	216	banged	InVocab	10.1383
180	217	up	InVocab	1.8708
	218	'	InVocab	0.2001
