1	0	(	InVocab	5.9818
	1	The	InVocab	3.9157
	2	Hollywood	InVocab	9.341
		Reporter	InVocab	1.8852
	3	)	InVocab	0.1619
	4	Good	InVocab	10.166
2	5	news	InVocab	3.4195
3	6	arrived	InVocab	11.0369
4	7	Thursday	InVocab	6.6687
5	8	for	InVocab	4.0976
6	9	"	InVocab	6.2857
	10	Fifty	InVocab	6.6539
7		Shades	InVocab	0.4512
8		of	InVocab	0.4352
9		Grey	InVocab	0.2392
	11	"	InVocab	0.6091
10	12	fans	InVocab	5.9956
	13	.	InVocab	2.1796
11	14	Universal	InVocab	9.8304
12	15	announced	InVocab	5.6248
13	16	Thursday	InVocab	3.4207
14	17	that	InVocab	0.5938
15	18	the	InVocab	1.5415
16	19	sequel	InVocab	5.7566
17	20	to	InVocab	1.8662
18	21	the	InVocab	1.0561
19	22	box	InVocab	6.5065
20	23	office	InVocab	0.2091
21	24	blockbuster	InVocab	6.3699
22	25	will	InVocab	3.3302
23	26	hit	InVocab	5.2779
24	27	theaters	InVocab	0.6224
25	28	on	InVocab	2.2041
26	29	Feb.	InVocab	7.8998
27	30	10	InVocab	2.7998
	31	,	InVocab	1.4551
28	32	2017	InVocab	6.949
	33	.	InVocab	0.7092
29	34	The	InVocab	1.6371
30	35	third	InVocab	6.4763
31	36	film	InVocab	4.0413
32	37	in	InVocab	3.4751
33	38	the	InVocab	1.5492
34	39	series	InVocab	2.8905
35	40	will	InVocab	2.4397
36	41	debut	InVocab	4.7682
37	42	Feb.	InVocab	13.5163
38	43	9	InVocab	3.195
	44	,	InVocab	2.6525
39	45	2018	InVocab	7.209
	46	.	InVocab	3.104
40	47	The	InVocab	2.1361
41	48	news	InVocab	6.2797
42	49	came	InVocab	2.1966
43	50	one	InVocab	5.9148
44	51	day	InVocab	0.4756
45	52	after	InVocab	0.2742
46	53	The	InVocab	1.8912
47		Hollywood	InVocab	7.818
48		Reporter	InVocab	1.0786
49	54	reported	InVocab	3.8092
50	55	exclusively	InVocab	8.4
51	56	that	InVocab	2.6728
52	57	the	InVocab	1.6656
53	58	husband	InVocab	8.313
54	59	of	InVocab	1.6079
55	60	EL	InVocab	10.8314
56		James	InVocab	3.2731
	61	,	InVocab	2.8412
57	62	author	InVocab	8.1765
58	63	of	InVocab	1.7214
59	64	the	InVocab	2.7951
60	65	"	InVocab	3.8192
	66	Fifty	InVocab	6.7788
61		Shades	InVocab	0.1057
	67	"	InVocab	2.875
62	68	trilogy	InVocab	2.4894
	69	,	InVocab	0.559
63	70	will	InVocab	5.1362
64	71	write	InVocab	6.7016
65	72	the	InVocab	2.1184
66	73	script	InVocab	3.2531
67	74	for	InVocab	1.6717
68	75	the	InVocab	1.5893
69	76	second	InVocab	3.598
70	77	film	InVocab	4.853
	78	.	InVocab	0.8487
71	79	Niall	InVocab	12.1105
72		Leonard	InVocab	8.0887
	80	,	InVocab	2.5004
73	81	who	InVocab	2.0345
74	82	is	InVocab	2.0285
75	83	married	InVocab	4.3705
76	84	and	InVocab	2.9673
77	85	has	InVocab	1.6585
78	86	two	InVocab	1.8121
79	87	sons	InVocab	1.9808
80	88	with	InVocab	4.3323
81	89	the	InVocab	1.9048
82	90	British	InVocab	5.9508
83	91	author	InVocab	10.2715
	92	,	InVocab	2.7493
84	93	is	InVocab	4.8997
85	94	an	InVocab	4.3568
86	95	author	InVocab	2.482
87	96	himself	InVocab	5.0519
	97	,	InVocab	2.1696
88	98	in	InVocab	3.6595
89	99	addition	InVocab	5.379
90	100	to	InVocab	0.0449
91	101	being	InVocab	3.376
92	102	a	InVocab	1.4854
93	103	screenwriter	InVocab	6.9447
	104	.	InVocab	2.1121
94	105	James	InVocab	6.5991
	106	,	InVocab	3.2077
95	107	whose	InVocab	3.515
96	108	real	InVocab	3.4261
97	109	name	InVocab	0.2351
98	110	is	InVocab	0.3888
99	111	Erika	InVocab	12.9708
100		Leonard	InVocab	9.137
	112	,	InVocab	0.3636
101	113	has	InVocab	2.0188
102	114	been	InVocab	1.6757
103	115	credited	InVocab	4.1337
104	116	with	InVocab	0.2461
105	117	keeping	InVocab	5.2341
106	118	a	InVocab	2.8797
107	119	strong	InVocab	4.6999
108	120	amount	InVocab	10.5351
109	121	of	InVocab	0.0115
110	122	creative	InVocab	7.1945
111	123	control	InVocab	6.9846
112	124	when	InVocab	5.8543
113	125	it	InVocab	3.2432
114	126	comes	InVocab	0.6297
115	127	to	InVocab	0.0431
116	128	Universal	InVocab	7.7015
	129	's	InVocab	6.8122
117	130	adaptations	InVocab	10.0695
118	131	of	InVocab	1.5621
119	132	her	InVocab	7.1653
120	133	books	InVocab	4.7526
	134	,	InVocab	1.8677
121	135	the	InVocab	2.6737
122	136	second	InVocab	6.3255
123	137	of	InVocab	3.6556
124	138	which	InVocab	1.4458
125	139	is	InVocab	1.9057
126	140	titled	InVocab	11.261
127	141	"	InVocab	0.8369
	142	Fifty	InVocab	7.2957
128		Shades	InVocab	0.0865
129		Darker	InVocab	9.3243
	143	.	InVocab	2.506
130	144	"	InVocab	0.0164
	145	After	InVocab	5.454
131	146	clashing	InVocab	10.6734
132	147	with	InVocab	0.1175
133	148	James	InVocab	7.2155
	149	,	InVocab	2.8645
134	150	Sam	InVocab	7.4996
135		Taylor	InVocab	7.3395
		-	InVocab	6.7832
		Johnson	InVocab	6.9645
136	151	is	InVocab	3.3971
	152	n't	InVocab	3.9472
137	153	returning	InVocab	6.9098
138	154	to	InVocab	0.6445
139	155	direct	InVocab	8.2701
140	156	the	InVocab	3.5379
141	157	sequel	InVocab	7.5838
	158	.	InVocab	1.1306
142	159	Stars	InVocab	9.0865
143	160	Dakota	InVocab	7.8629
144		Johnson	InVocab	0.9249
145	161	and	InVocab	1.1356
146	162	Jamie	InVocab	6.0695
147		Dornan	InVocab	1.9619
148	163	are	InVocab	2.7729
149	164	negotiating	InVocab	10.5063
150	165	for	InVocab	3.5166
151	166	more	InVocab	3.9779
152	167	money	InVocab	3.0533
153	168	for	InVocab	2.9195
154	169	the	InVocab	0.9153
155	170	sequel	InVocab	4.2319
156	171	after	InVocab	4.6996
157	172	the	InVocab	1.9726
158	173	first	InVocab	4.3841
159	174	film	InVocab	3.8095
	175	,	InVocab	2.6677
160	176	release	InVocab	8.4627
161	177	over	InVocab	7.7345
162	178	Valentine	InVocab	8.9332
		's	InVocab	0.0107
163		Day	InVocab	0.4639
164	179	weekend	InVocab	3.0364
165	180	of	InVocab	4.908
166	181	this	InVocab	5.91
167	182	year	InVocab	2.7958
	183	,	InVocab	1.593
168	184	earned	InVocab	9.9851
169	185	a	InVocab	1.3223
170	186	massive	InVocab	5.647
171	187	$	InVocab	1.9957
	188	568.8	OOV	0.8405
172	189	million	InVocab	0.5819
173	190	worldwide	InVocab	5.8368
	191	.	InVocab	0.9512
