1	0	Three	InVocab	6.9594
2	1	police	InVocab	6.8428
3	2	officers	InVocab	0.2888
4	3	have	InVocab	3.9732
5	4	been	InVocab	0.6378
6	5	sent	InVocab	5.2809
7	6	forward	InVocab	6.1597
8	7	for	InVocab	4.0961
9	8	trial	InVocab	5.318
10	9	after	InVocab	3.9978
11	10	being	InVocab	2.7078
12	11	accused	InVocab	2.2722
13	12	of	InVocab	0.0344
14	13	stealing	InVocab	3.7378
15	14	bundles	InVocab	11.571
16	15	of	InVocab	0.0539
17	16	notes	InVocab	10.1704
18	17	worth	InVocab	5.4669
19	18	£	InVocab	1.934
	19	30,000	InVocab	4.1775
20	20	from	InVocab	2.8025
21	21	the	InVocab	1.2424
22	22	home	InVocab	3.6092
23	23	of	InVocab	1.5544
24	24	a	InVocab	1.6858
25	25	suspected	InVocab	4.1655
26	26	criminal	InVocab	6.1642
	27	.	InVocab	3.9115
27	28	Detective	InVocab	5.9651
28	29	Sergeant	InVocab	3.1179
29	30	Stephen	InVocab	4.5443
30		Phillips	InVocab	7.8424
	31	,	InVocab	0.9703
31	32	46	InVocab	5.3574
	33	,	InVocab	0.0257
32	34	and	InVocab	4.0394
33	35	police	InVocab	5.3454
34	36	constables	OOV	2.9121
35	37	Christopher	InVocab	8.5215
36		Evans	InVocab	6.9157
	38	,	InVocab	0.5984
37	39	37	InVocab	4.2813
	40	,	InVocab	0.0236
38	41	and	InVocab	3.1707
39	42	Michael	InVocab	4.2957
40		Stokes	InVocab	10.1526
	43	,	InVocab	0.3175
41	44	34	InVocab	3.5693
42	45	are	InVocab	7.015
43	46	all	InVocab	2.8053
44	47	facing	InVocab	9.5979
45	48	charges	InVocab	3.1285
46	49	of	InVocab	1.1082
47	50	'	InVocab	6.3647
	51	theft	InVocab	4.8911
48	52	by	InVocab	4.8452
49	53	a	InVocab	2.8179
50	54	serving	InVocab	10.4872
51	55	police	InVocab	5.3859
52	56	officer	InVocab	0.0997
	57	'	InVocab	1.2042
	58	.	InVocab	1.0596
53	59	Cardiff	InVocab	9.43
54		Crown	InVocab	0.2055
55		Court	InVocab	0.0062
56	60	heard	InVocab	0.209
57	61	that	InVocab	0.8393
58	62	the	InVocab	2.1169
59	63	three	InVocab	5.2051
60	64	officers	InVocab	3.3011
61	65	from	InVocab	5.1492
62	66	South	InVocab	5.9301
63		Wales	InVocab	3.1771
64		Police	InVocab	1.8317
65	67	were	InVocab	1.6101
66	68	all	InVocab	5.1555
67	69	arrested	InVocab	2.8734
68	70	as	InVocab	4.2219
69	71	a	InVocab	3.1093
70	72	result	InVocab	0.4847
71	73	of	InVocab	0.1049
72	74	an	InVocab	4.1636
73	75	investigation	InVocab	2.7441
74	76	being	InVocab	6.003
75	77	carried	InVocab	1.3845
76	78	out	InVocab	0.2406
77	79	by	InVocab	0.9188
78	80	the	InVocab	1.1577
79	81	force	InVocab	2.5854
	82	's	InVocab	1.8566
80	83	professional	InVocab	7.2732
81	84	standards	InVocab	1.158
82	85	department	InVocab	1.7118
	86	.	InVocab	0.483
83	87	Philips	InVocab	12.5882
	88	,	InVocab	2.5351
84	89	of	InVocab	4.5605
85	90	Winch	OOV	0.9006
86		Wen	InVocab	15.9543
	91	,	InVocab	0.5002
87	92	Swansea	InVocab	10.2238
	93	,	InVocab	2.6615
88	94	Evans	InVocab	8.8542
89	95	of	InVocab	4.8165
90	96	Llangennech	OOV	3.3152
	97	,	InVocab	1.5532
91	98	Carmarthenshire	OOV	2.9792
92	99	and	InVocab	2.3599
93	100	Stokes	InVocab	10.6358
94	101	from	InVocab	7.0682
95	102	Glynneath	OOV	2.2022
96	103	were	InVocab	3.6126
97	104	released	InVocab	5.2818
98	105	on	InVocab	1.4662
99	106	bail	InVocab	0.8927
100	107	following	InVocab	4.4737
101	108	today	InVocab	7.1843
	109	's	InVocab	0.2048
102	110	hearing	InVocab	2.222
103	111	to	InVocab	3.3466
104	112	return	InVocab	6.7094
105	113	to	InVocab	1.25
106	114	Cardiff	InVocab	6.2164
107		Crown	InVocab	1.9246
108		Court	InVocab	0.003
109	115	to	InVocab	4.5259
110	116	stand	InVocab	4.9951
111	117	trial	InVocab	0.1634
112	118	on	InVocab	2.988
113	119	June	InVocab	5.2134
114	120	15	InVocab	3.5885
	121	.	InVocab	0.3434
