HumanPosition	AnonymizedPosition	AnonymizedToken	OriginalToken	ExperimentToken	Participant	Condition	TextNo	JointPosition	tt	fp	rp	ff
1	0	Fighting	Fighting	Fighting	10	preview	19	1	191	0	0	0
2	1	between	between	between	10	preview	19	2	230	84	421	84
3	2	rival	rival	rival	10	preview	19	3	177	177	177	177
4	3	fans	fans	fans	10	preview	19	4	227	227	227	227
5	4	forced	forced	forced	10	preview	19	5	110	0	0	0
6	5	a	a	a	10	preview	19	6	169	169	279	169
7	6	@entity2	Russian	Russian	10	preview	19	7	132	132	132	132
8			Premier	Premier	10	preview	19	8	207	207	207	207
9			League	League	10	preview	19	9	114	114	114	114
10	7	match	match	match	10	preview	19	10	390	219	219	219
11	8	between	between	between	10	preview	19	11	181	181	181	181
12	9	@entity3	Arsenal	Arsenal	10	preview	19	12	348	165	165	165
13			Tula	Tula	10	preview	19	13	121	0	0	0
14	10	and	and	and	10	preview	19	14	427	202	202	202
15	11	@entity4	Torpedo	Torpedo	10	preview	19	15	1267	164	164	164
16			Moscow	Moscow	10	preview	19	16	955	0	0	0
17	12	to	to	to	10	preview	19	17	170	170	917	170
18	13	be	be	be	10	preview	19	18	0	0	0	0
19	14	stopped	stopped	stopped	10	preview	19	19	348	222	222	222
20	15	for	for	for	10	preview	19	20	0	0	0	0
21	16	seven	seven	seven	10	preview	19	21	0	0	0	0
22	17	minutes	minutes	minutes	10	preview	19	22	101	101	101	101
23	18	on	on	on	10	preview	19	23	0	0	0	0
24	19	Sunday	Sunday	Sunday.	10	preview	19	24	268	0	0	0
	20	.	.		10	preview	19	25				
25	21	A	A	A	10	preview	19	26	0	0	0	0
26	22	statement	statement	statement	10	preview	19	27	254	254	254	157
27	23	on	on	on	10	preview	19	28	0	0	0	0
28	24	@entity3	Arsenal	Arsenal-s	10	preview	19	29	562	243	243	243
	25	-s	-s		10	preview	19	30				
29	26	official	official	official	10	preview	19	31	224	224	224	224
30	27	site	site	site	10	preview	19	32	249	249	249	249
31	28	read	read	read:	10	preview	19	33	0	0	0	0
32	29	:	:	-In	10	preview	19	34	0	0	0	0
	30	-	-		10	preview	19	35				
33	31	In	In	the	10	preview	19	36	0	0	0	0
34	32	the	the	31st	10	preview	19	37	198	198	198	198
	33	31st	31st		10	preview	19	38				
35	34	minute	minute	minute,	10	preview	19	39	148	148	148	148
	35	,	,		10	preview	19	40				
36	36	fans	fans	fans	10	preview	19	41	0	0	0	0
37	37	from	from	from	10	preview	19	42	178	178	178	178
38	38	the	the	the	10	preview	19	43	0	0	0	0
39	39	visiting	visiting	visiting	10	preview	19	44	550	235	235	235
40	40	@entity9	Moscow	Moscow	10	preview	19	45	473	188	1003	188
41	41	club	club	club	10	preview	19	46	0	0	0	0
42	42	broke	broke	broke	10	preview	19	47	251	0	0	0
43	43	down	down	down	10	preview	19	48	239	0	0	0
44	44	barriers	barriers	barriers	10	preview	19	49	311	0	0	0
45	45	in	in	in	10	preview	19	50	133	0	0	0
46	46	front	front	front	10	preview	19	51	315	201	201	201
47	47	of	of	of	10	preview	19	52	0	0	0	0
48	48	the	the	the	10	preview	19	53	198	198	198	198
49	49	visitors	visitors	visitors	10	preview	19	54	0	0	0	0
50	50	sector	sector	sector	10	preview	19	55	105	105	914	105
51	51	and	and	and	10	preview	19	56	0	0	0	0
52	52	tried	tried	tried	10	preview	19	57	179	179	179	179
53	53	to	to	to	10	preview	19	58	0	0	0	0
54	54	get	get	get	10	preview	19	59	112	0	0	0
55	55	to	to	to	10	preview	19	60	143	143	382	143
56	56	the	the	the	10	preview	19	61	0	0	0	0
57	57	@entity13	East	East	10	preview	19	62	0	0	239	0
58			Stand	Stand,	10	preview	19	63	0	0	0	0
	58	,	,		10	preview	19	64				
59	59	where	where	where	10	preview	19	65	0	0	0	0
60	60	a	a	a	10	preview	19	66	0	0	0	0
61	61	number	number	number	10	preview	19	67	138	138	138	138
62	62	of	of	of	10	preview	19	68	0	0	0	0
63	63	women	women	women	10	preview	19	69	0	0	0	0
64	64	and	and	and	10	preview	19	70	82	82	82	82
65	65	children	children	children	10	preview	19	71	0	0	0	0
66	66	were	were	were	10	preview	19	72	242	242	242	242
67	67	sitting	sitting	sitting.	10	preview	19	73	0	0	0	0
	68	.	.		10	preview	19	74				
68	69	-	-	-The	10	preview	19	75	0	0	0	0
	70	The	The		10	preview	19	76				
69	71	@entity4	Torpedo	Torpedo	10	preview	19	77	186	186	186	186
70	72	fans	fans	fans	10	preview	19	78	295	295	295	295
71	73	began	began	began	10	preview	19	79	150	150	150	150
72	74	breaking	breaking	breaking	10	preview	19	80	162	0	0	0
73	75	seats	seats	seats	10	preview	19	81	234	109	396	109
74	76	and	and	and	10	preview	19	82	116	116	116	116
75	77	throwing	throwing	throwing	10	preview	19	83	210	210	210	210
76	78	them	them	them	10	preview	19	84	0	0	0	0
77	79	towards	towards	towards	10	preview	19	85	581	307	307	307
78	80	law	law	law	10	preview	19	86	222	222	496	222
79	81	enforcement	enforcement	enforcement	10	preview	19	87	0	0	274	0
80	82	officers	officers	officers	10	preview	19	88	221	221	221	221
81	83	and	and	and	10	preview	19	89	0	0	0	0
82	84	stewards	stewards	stewards.-	10	preview	19	90	178	178	178	178
	85	.	.		10	preview	19	91				
83	86	-	-	Referee	10	preview	19	92	130	0	0	0
	87	Scroll	Scroll		10	preview	19	93				
	88	down	down		10	preview	19	94				
	89	to	to		10	preview	19	95				
	90	watch	watch		10	preview	19	96				
	91	video	video		10	preview	19	97				
	92	footage	footage		10	preview	19	98				
	93	of	of		10	preview	19	99				
	94	the	the		10	preview	19	100				
	95	incident	incident		10	preview	19	101				
	96	Fans	Fans		10	preview	19	102				
	97	fight	fight		10	preview	19	103				
	98	leading	leading		10	preview	19	104				
	99	to	to		10	preview	19	105				
	100	@entity3	Arsenal		10	preview	19	106				
			Tula		10	preview	19	107				
	101	vs	vs		10	preview	19	108				
	102	@entity4	Torpedo		10	preview	19	109				
			Moscow		10	preview	19	110				
	103	to	to		10	preview	19	111				
	104	be	be		10	preview	19	112				
	105	suspended	suspended		10	preview	19	113				
	106	for	for		10	preview	19	114				
	107	seven	seven		10	preview	19	115				
	108	minutes	minutes		10	preview	19	116				
	109	on	on		10	preview	19	117				
	110	Sunday	Sunday		10	preview	19	118				
	111	@entity4	Torpedo		10	preview	19	119				
			Moscow		10	preview	19	120				
	112	fans	fans		10	preview	19	121				
	113	broke	broke		10	preview	19	122				
	114	down	down		10	preview	19	123				
	115	barriers	barriers		10	preview	19	124				
	116	and	and		10	preview	19	125				
	117	threw	threw		10	preview	19	126				
	118	chairs	chairs		10	preview	19	127				
	119	,	,		10	preview	19	128				
	120	according	according		10	preview	19	129				
	121	to	to		10	preview	19	130				
	122	@entity3	Arsenal		10	preview	19	131				
			Tula		10	preview	19	132				
	123	-s	-s		10	preview	19	133				
	124	website	website		10	preview	19	134				
	125	Referee	Referee		10	preview	19	135				
84	126	@entity28	Alexander	Alexander	10	preview	19	136	122	122	252	122
85			Yegorov	Yegorov	10	preview	19	137	289	289	289	289
86	127	stopped	stopped	stopped	10	preview	19	138	173	173	173	173
87	128	the	the	the	10	preview	19	139	0	0	0	0
88	129	match	match	match	10	preview	19	140	0	0	0	0
89	130	and	and	and	10	preview	19	141	171	171	171	171
90	131	told	told	told	10	preview	19	142	0	0	0	0
91	132	the	the	the	10	preview	19	143	0	0	0	0
92	133	players	players	players	10	preview	19	144	225	225	225	225
93	134	to	to	to	10	preview	19	145	0	0	0	0
94	135	leave	leave	leave	10	preview	19	146	211	211	211	211
95	136	the	the	the	10	preview	19	147	0	0	0	0
96	137	pitch	pitch	pitch	10	preview	19	148	172	172	172	172
97	138	and	and	and	10	preview	19	149	0	0	0	0
98	139	head	head	head	10	preview	19	150	197	197	197	197
99	140	for	for	for	10	preview	19	151	0	0	0	0
100	141	the	the	the	10	preview	19	152	110	110	110	110
101	142	dressing	dressing	dressing	10	preview	19	153	343	214	214	214
102	143	rooms	rooms	rooms,	10	preview	19	154	0	0	0	0
	144	,	,		10	preview	19	155				
103	145	while	while	while	10	preview	19	156	198	198	198	198
104	146	fights	fights	fights	10	preview	19	157	164	164	164	164
105	147	broke	broke	broke	10	preview	19	158	183	183	183	183
106	148	out	out	out	10	preview	19	159	0	0	0	0
107	149	between	between	between	10	preview	19	160	184	184	184	184
108	150	fans	fans	fans	10	preview	19	161	241	241	241	241
109	151	on	on	on	10	preview	19	162	0	0	0	0
110	152	the	the	the	10	preview	19	163	0	0	0	0
111	153	running	running	running	10	preview	19	164	174	174	174	174
112	154	track	track	track	10	preview	19	165	333	0	0	0
113	155	after	after	after	10	preview	19	166	442	197	775	197
114	156	they	they	they	10	preview	19	167	0	0	0	0
115	157	managed	managed	managed	10	preview	19	168	209	209	209	209
116	158	to	to	to	10	preview	19	169	0	0	0	0
117	159	climb	climb	climb	10	preview	19	170	372	208	208	208
118	160	over	over	over	10	preview	19	171	0	0	0	0
119	161	barriers	barriers	barriers.	10	preview	19	172	121	121	121	121
	162	.	.		10	preview	19	173				
120	163	After	After	After	10	preview	19	174	164	164	164	164
121	164	order	order	order	10	preview	19	175	476	263	263	263
122	165	was	was	was	10	preview	19	176	0	0	0	0
123	166	restored	restored	restored	10	preview	19	177	271	156	484	156
124	167	play	play	play	10	preview	19	178	162	162	162	162
125	168	resumed	resumed	resumed	10	preview	19	179	250	0	0	0
126	169	and	and	and	10	preview	19	180	120	120	370	120
127	170	@entity4	Torpedo	Torpedo	10	preview	19	181	457	193	193	193
128	171	ran	ran	ran	10	preview	19	182	163	0	0	0
129	172	out	out	out	10	preview	19	183	841	217	217	217
130	173	3	3	3-1	10	preview	19	184	578	0	0	0
	174	-	-		10	preview	19	185				
	175	1	1		10	preview	19	186				
131	176	winners	winners	winners.	10	preview	19	187	705	468	4335	468
	177	.	.		10	preview	19	188				
132	178	@entity41	Sergei	Sergei	10	preview	19	189	195	195	195	195
133			Cheban	Cheban,	10	preview	19	190	112	112	112	112
	179	,	,		10	preview	19	191				
134	180	executive	executive	executive	10	preview	19	192	281	281	281	134
135	181	director	director	director	10	preview	19	193	252	252	252	252
136	182	of	of	of	10	preview	19	194	134	134	134	134
137	183	the	the	the	10	preview	19	195	0	0	0	0
138	184	@entity2	Russian	Russian	10	preview	19	196	398	208	208	208
139			Football	Football	10	preview	19	197	124	124	124	124
140			Premier	Premier	10	preview	19	198	125	0	0	0
141			League	League,	10	preview	19	199	222	0	0	0
	185	,	,		10	preview	19	200				
142	186	said	said	said	10	preview	19	201	467	211	211	211
143	187	@entity4	Torpedo	Torpedo	10	preview	19	202	658	181	181	181
144	188	could	could	could	10	preview	19	203	478	0	0	0
145	189	expected	expected	expected	10	preview	19	204	1342	729	729	155
146	190	to	to	to	10	preview	19	205	0	0	0	0
147	191	be	be	be	10	preview	19	206	142	0	0	0
148	192	heavily	heavily	heavily	10	preview	19	207	691	287	4107	287
149	193	punished	punished	punished	10	preview	19	208	83	83	3903	83
150	194	for	for	for	10	preview	19	209	0	0	0	0
151	195	this	this	this	10	preview	19	210	244	244	244	244
152	196	latest	latest	latest	10	preview	19	211	208	208	208	208
153	197	outbreak	outbreak	outbreak	10	preview	19	212	146	146	146	146
154	198	of	of	of	10	preview	19	213	0	0	0	0
155	199	violence	violence	violence	10	preview	19	214	168	168	168	168
156	200	by	by	by	10	preview	19	215	0	0	0	0
157	201	their	their	their	10	preview	19	216	213	213	213	213
158	202	fans	fans	fans.	10	preview	19	217	0	0	0	0
	203	.	.		10	preview	19	218				
159	204	-	-	-Those	10	preview	19	219	280	280	280	280
	205	Those	Those		10	preview	19	220				
160	206	people	people	people	10	preview	19	221	593	593	593	383
161	207	who	who	who	10	preview	19	222	0	0	0	0
162	208	organised	organised	organised	10	preview	19	223	408	408	408	201
163	209	the	the	the	10	preview	19	224	0	0	0	0
164	210	trouble	trouble	trouble	10	preview	19	225	142	0	0	0
165	211	have	have	have	10	preview	19	226	108	108	250	108
166	212	already	already	already	10	preview	19	227	180	180	180	180
167	213	been	been	been	10	preview	19	228	145	145	145	145
168	214	detained	detained	detained.	10	preview	19	229	0	0	0	0
	215	.	.		10	preview	19	230				
169	216	The	The	The	10	preview	19	231	0	0	0	0
170	217	security	security	security	10	preview	19	232	195	195	195	195
171	218	forces	forces	forces	10	preview	19	233	390	390	390	199
172	219	on	on	on	10	preview	19	234	0	0	0	0
173	220	duty	duty	duty	10	preview	19	235	197	197	197	197
174	221	were	were	were	10	preview	19	236	194	194	194	194
175	222	very	very	very	10	preview	19	237	257	257	257	257
176	223	professional	professional	professional	10	preview	19	238	104	104	104	104
177	224	in	in	in	10	preview	19	239	0	0	0	0
178	225	their	their	their	10	preview	19	240	286	286	286	286
179	226	work	work	work,-	10	preview	19	241	0	0	0	0
	227	,	,		10	preview	19	242				
180	228	-	-	said	10	preview	19	243	99	0	0	0
	229	said	said		10	preview	19	244				
181	230	@entity41	Cheban	Cheban	10	preview	19	245	177	177	276	177
182	231	in	in	in	10	preview	19	246	0	0	0	0
183	232	an	an	an	10	preview	19	247	0	0	0	0
184	233	interview	interview	interview	10	preview	19	248	250	250	250	250
185	234	with	with	with	10	preview	19	249	0	0	0	0
186	235	@entity52	Championat.com	Championat.com.	10	preview	19	250	523	523	523	229
	236	.	.		10	preview	19	251				
187	237	-	-	-Torpedo	10	preview	19	252	232	232	232	232
	238	@entity4	Torpedo		10	preview	19	253				
188	239	can	can	can	10	preview	19	254	0	0	0	0
189	240	expect	expect	expect	10	preview	19	255	406	406	406	406
190	241	to	to	to	10	preview	19	256	0	0	0	0
191	242	receive	receive	receive	10	preview	19	257	261	261	261	121
192	243	serious	serious	serious	10	preview	19	258	203	203	203	203
193	244	punishment	punishment	punishment.	10	preview	19	259	157	157	157	157
	245	.	.		10	preview	19	260				
194	246	This	This	This	10	preview	19	261	0	0	0	0
195	247	is	is	is	10	preview	19	262	221	221	221	221
196	248	hooliganism	hooliganism	hooliganism	10	preview	19	263	256	169	169	169
197	249	and	and	and	10	preview	19	264	146	146	233	146
198	250	it	it	it	10	preview	19	265	0	0	0	0
199	251	not	not	not	10	preview	19	266	226	226	226	226
200	252	the	the	the	10	preview	19	267	114	114	114	114
201	253	first	first	first	10	preview	19	268	194	0	0	0
202	254	time	time	time	10	preview	19	269	308	97	291	97
203	255	they	they	they	10	preview	19	270	709	173	173	173
204	256	have	have	have	10	preview	19	271	121	0	0	0
205	257	stopped	stopped	stopped	10	preview	19	272	348	223	344	223
206	258	a	a	a	10	preview	19	273	140	140	1012	140
207	259	match	match	match.	10	preview	19	274	0	0	0	0
	260	.	.		10	preview	19	275				
208	261	The	The	The	10	preview	19	276	0	0	0	0
209	262	punishment	punishment	punishment	10	preview	19	277	246	246	246	246
210	263	will	will	will	10	preview	19	278	0	0	0	0
211	264	be	be	be	10	preview	19	279	140	140	140	140
212	265	harsh	harsh	harsh.-	10	preview	19	280	152	152	152	152
	266	.	.		10	preview	19	281				
213	267	-	-	Torpedo-s	10	preview	19	282	190	190	190	190
	268	@entity4	Torpedo		10	preview	19	283				
	269	-s	-s		10	preview	19	284				
214	270	fans	fans	fans	10	preview	19	285	235	235	235	235
215	271	have	have	have	10	preview	19	286	0	0	0	0
216	272	caused	caused	caused	10	preview	19	287	241	241	241	132
217	273	trouble	trouble	trouble	10	preview	19	288	381	209	209	209
218	274	on	on	on	10	preview	19	289	0	0	0	0
219	275	a	a	a	10	preview	19	290	0	0	0	0
220	276	number	number	number	10	preview	19	291	465	141	503	141
221	277	of	of	of	10	preview	19	292	0	0	0	0
222	278	occasions	occasions	occasions	10	preview	19	293	226	226	360	226
223	279	and	and	and	10	preview	19	294	0	0	0	0
224	280	the	the	the	10	preview	19	295	170	170	170	170
225	281	club	club	club	10	preview	19	296	109	109	109	109
226	282	have	have	have	10	preview	19	297	0	0	0	0
227	283	already	already	already	10	preview	19	298	341	341	341	341
228	284	been	been	been	10	preview	19	299	0	0	0	0
229	285	punished	punished	punished	10	preview	19	300	263	263	263	179
230	286	three	three	three	10	preview	19	301	0	0	0	0
231	287	times	times	times	10	preview	19	302	263	263	263	263
232	288	this	this	this	10	preview	19	303	0	0	0	0
233	289	season	season	season	10	preview	19	304	619	619	619	405
234	290	for	for	for	10	preview	19	305	0	0	0	0
235	291	racist	racist	racist	10	preview	19	306	202	202	202	202
236	292	behaviour	behaviour	behaviour	10	preview	19	307	133	133	133	133
237	293	of	of	of	10	preview	19	308	0	0	0	0
238	294	their	their	their	10	preview	19	309	183	183	183	183
239	295	supporters	supporters	supporters.	10	preview	19	310	339	339	339	339
	296	.	.		10	preview	19	311				
240	297	The	The	The	10	preview	19	312	0	0	0	0
241	298	last	last	last	10	preview	19	313	232	232	232	232
242	299	incident	incident	incident	10	preview	19	314	385	385	385	185
243	300	occurred	occurred	occurred	10	preview	19	315	389	257	257	257
244	301	on	on	on	10	preview	19	316	95	0	0	0
245	302	March	March	March	10	preview	19	317	207	207	207	207
246	303	15	15	15	10	preview	19	318	0	0	0	0
247	304	when	when	when	10	preview	19	319	0	0	0	0
248	305	@entity4	Torpedo	Torpedo	10	preview	19	320	415	297	297	297
249	306	fans	fans	fans	10	preview	19	321	457	241	575	241
250	307	abused	abused	abused	10	preview	19	322	200	200	200	200
251	308	@entity73	Zenit	Zenit	10	preview	19	323	384	384	384	384
252			St	St	10	preview	19	324	0	0	0	0
253			Petersburg	Petersburg-s	10	preview	19	325	418	418	418	157
	309	-s	-s		10	preview	19	326				
254	310	@entity72	Brazilian	Brazilian	10	preview	19	327	486	341	341	207
255	311	forward	forward	forward	10	preview	19	328	407	90	317	90
256	312	@entity71	Hulk	Hulk.	10	preview	19	329	0	0	0	0
	313	.	.		10	preview	19	330				
257	314	The	The	The	10	preview	19	331	0	0	0	0
258	315	side	side	side	10	preview	19	332	660	155	617	155
259	316	were	were	were	10	preview	19	333	546	196	934	196
260	317	sanctioned	sanctioned	sanctioned	10	preview	19	334	894	702	702	431
261	318	by	by	by	10	preview	19	335	0	0	0	0
262	319	having	having	having	10	preview	19	336	379	171	571	171
263	320	to	to	to	10	preview	19	337	0	0	0	0
264	321	play	play	play	10	preview	19	338	336	203	203	203
265	322	two	two	two	10	preview	19	339	0	0	0	0
266	323	matches	matches	matches	10	preview	19	340	110	110	243	110
267	324	behind	behind	behind	10	preview	19	341	0	0	0	0
268	325	closed	closed	closed	10	preview	19	342	341	341	458	219
269	326	doors	doors	doors.	10	preview	19	343	0	0	0	0
	327	.	.		10	preview	19	344				
270	328	@entity4	Torpedo	Torpedo	10	preview	19	345	0	0	0	0
271	329	are	are	are	10	preview	19	346	0	0	0	0
272	330	currently	currently	currently	10	preview	19	347	89	89	89	89
273	331	in	in	in	10	preview	19	348	0	0	0	0
274	332	12th	12th	12th	10	preview	19	349	234	234	234	234
275	333	place	place	place	10	preview	19	350	213	213	213	213
276	334	in	in	in	10	preview	19	351	0	0	0	0
277	335	the	the	the	10	preview	19	352	0	0	0	0
278	336	@entity2	Russian	Russian	10	preview	19	353	254	254	254	254
279			Premier	Premier	10	preview	19	354	149	149	149	149
280			League	League	10	preview	19	355	0	0	0	0
281	337	table	table	table	10	preview	19	356	227	227	227	227
282	338	with	with	with	10	preview	19	357	0	0	0	0
283	339	19	19	19	10	preview	19	358	551	551	551	453
284	340	points	points	points,	10	preview	19	359	169	169	169	169
	341	,	,		10	preview	19	360				
285	342	while	while	while	10	preview	19	361	0	0	0	0
286	343	@entity3	Arsenal	Arsenal	10	preview	19	362	200	200	200	200
287			Tula	Tula	10	preview	19	363	0	0	0	0
288	344	are	are	are	10	preview	19	364	163	163	163	163
289	345	one	one	one	10	preview	19	365	393	0	0	0
290	346	place	place	place	10	preview	19	366	244	244	404	244
291	347	off	off	off	10	preview	19	367	140	140	140	140
292	348	the	the	the	10	preview	19	368	279	279	512	279
293	349	bottom	bottom	bottom	10	preview	19	369	224	224	224	224
294	350	with	with	with	10	preview	19	370	161	161	161	161
295	351	14	14	14	10	preview	19	371	0	0	0	0
296	352	points	points	points.	10	preview	19	372	142	142	142	142
	353	.	.		10	preview	19	373				
