HumanPosition	AnonymizedPosition	AnonymizedToken	OriginalToken	ExperimentToken	Participant	Condition	TextNo	JointPosition	tt	fp	rp	ff
	0	@entity0	Paris		10	preview	7	1				
	1	(	(		10	preview	7	2				
	2	@entity1	CNN		10	preview	7	3				
	3	)	)		10	preview	7	4				
0	4	Six	Six	Six	10	preview	7	5	0	0	0	0
2	5	survivors	survivors	survivors	10	preview	7	6	167	167	167	167
3	6	of	of	of	10	preview	7	7	194	194	194	194
4	7	the	the	the	10	preview	7	8	0	0	0	0
5	8	@entity0	Paris	Paris	10	preview	7	9	373	187	187	187
6	9	kosher	kosher	kosher	10	preview	7	10	315	315	501	202
7	10	supermarket	supermarket	supermarket	10	preview	7	11	230	230	230	230
8	11	siege	siege	siege	10	preview	7	12	259	259	259	259
9	12	in	in	in	10	preview	7	13	0	0	0	0
10	13	January	January	January	10	preview	7	14	253	253	253	253
11	14	are	are	are	10	preview	7	15	0	0	0	0
12	15	suing	suing	suing	10	preview	7	16	576	576	576	206
13	16	a	a	a	10	preview	7	17	0	0	0	0
14	17	@entity5	French	French	10	preview	7	18	148	148	148	148
15	18	media	media	media	10	preview	7	19	183	0	0	0
16	19	outlet	outlet	outlet	10	preview	7	20	347	108	3045	108
17	20	for	for	for	10	preview	7	21	0	0	0	0
18	21	what	what	what	10	preview	7	22	216	216	216	216
19	22	they	they	they	10	preview	7	23	187	187	187	187
20	23	call	call	call	10	preview	7	24	0	0	0	0
21	24	dangerous	dangerous	dangerous	10	preview	7	25	187	187	187	187
22	25	live	live	live	10	preview	7	26	234	234	234	234
23	26	broadcasting	broadcasting	broadcasting	10	preview	7	27	352	352	352	163
24	27	during	during	during	10	preview	7	28	147	147	147	147
25	28	the	the	the	10	preview	7	29	0	0	0	0
26	29	hostage	hostage	hostage-taking.	10	preview	7	30	356	356	356	136
	30	-	-		10	preview	7	31				
	31	taking	taking		10	preview	7	32				
	32	.	.		10	preview	7	33				
27	33	According	According	According	10	preview	7	34	366	366	366	205
28	34	to	to	to	10	preview	7	35	0	0	0	0
29	35	@entity0	Paris	Paris	10	preview	7	36	205	205	205	205
30	36	prosecutor	prosecutor	prosecutor-s	10	preview	7	37	779	429	429	253
	37	-s	-s		10	preview	7	38				
31	38	spokeswoman	spokeswoman	spokeswoman	10	preview	7	39	987	170	170	170
32	39	@entity10	Agnes	Agnes	10	preview	7	40	1195	86	1669	86
33			Thibault	Thibault-Lecuivre,	10	preview	7	41	767	619	968	142
			-		10	preview	7	42				
			Lecuivre		10	preview	7	43				
	40	,	,		10	preview	7	44				
34	41	the	the	the	10	preview	7	45	0	0	0	0
35	42	lawsuit	lawsuit	lawsuit	10	preview	7	46	438	180	930	180
36	43	was	was	was	10	preview	7	47	0	0	0	0
37	44	filed	filed	filed	10	preview	7	48	278	278	278	278
38	45	March	March	March	10	preview	7	49	346	346	346	346
39	46	27	27	27	10	preview	7	50	0	0	0	0
40	47	and	and	and	10	preview	7	51	0	0	0	0
41	48	a	a	a	10	preview	7	52	0	0	0	0
42	49	preliminary	preliminary	preliminary	10	preview	7	53	197	197	197	197
43	50	investigation	investigation	investigation	10	preview	7	54	540	540	540	346
44	51	was	was	was	10	preview	7	55	179	179	179	179
45	52	opened	opened	opened	10	preview	7	56	0	0	0	0
46	53	by	by	by	10	preview	7	57	262	262	262	262
47	54	the	the	the	10	preview	7	58	106	106	106	106
48	55	prosecutor	prosecutor	prosecutor-s	10	preview	7	59	222	222	222	222
	56	-s	-s		10	preview	7	60				
49	57	office	office	office	10	preview	7	61	202	202	202	202
50	58	Wednesday	Wednesday	Wednesday.	10	preview	7	62	139	139	139	139
	59	.	.		10	preview	7	63				
51	60	The	The	The	10	preview	7	64	0	0	0	0
52	61	media	media	media	10	preview	7	65	223	223	223	223
53	62	outlet	outlet	outlet,	10	preview	7	66	192	192	192	192
	63	,	,		10	preview	7	67				
54	64	@entity1	CNN	CNN	10	preview	7	68	0	0	0	0
55	65	affiliate	affiliate	affiliate	10	preview	7	69	753	532	532	182
56	66	@entity16	BFMTV	BFMTV,	10	preview	7	70	146	146	367	146
	67	,	,		10	preview	7	71				
57	68	is	is	is	10	preview	7	72	0	0	0	0
58	69	accused	accused	accused	10	preview	7	73	297	297	297	201
59	70	of	of	of	10	preview	7	74	0	0	0	0
60	71	endangering	endangering	endangering	10	preview	7	75	251	251	251	251
61	72	the	the	the	10	preview	7	76	0	0	0	0
62	73	lives	lives	lives	10	preview	7	77	178	178	178	178
63	74	of	of	of	10	preview	7	78	0	0	0	0
64	75	the	the	the	10	preview	7	79	0	0	0	0
65	76	hostages	hostages	hostages,	10	preview	7	80	341	341	341	341
	77	,	,		10	preview	7	81				
66	78	who	who	who	10	preview	7	82	162	162	162	162
67	79	were	were	were	10	preview	7	83	156	156	156	156
68	80	hiding	hiding	hiding	10	preview	7	84	0	0	0	0
69	81	in	in	in	10	preview	7	85	0	0	0	0
70	82	a	a	a	10	preview	7	86	170	170	170	170
71	83	cold	cold	cold	10	preview	7	87	147	147	147	147
72	84	room	room	room	10	preview	7	88	0	0	0	0
73	85	during	during	during	10	preview	7	89	183	183	183	183
74	86	the	the	the	10	preview	7	90	103	103	103	103
75	87	attack	attack	attack,	10	preview	7	91	170	170	170	170
	88	,	,		10	preview	7	92				
76	89	by	by	by	10	preview	7	93	562	562	562	442
77	90	broadcasting	broadcasting	broadcasting	10	preview	7	94	154	154	154	154
78	91	their	their	their	10	preview	7	95	254	254	254	254
79	92	location	location	location	10	preview	7	96	440	440	440	283
80	93	live	live	live	10	preview	7	97	178	178	178	178
81	94	during	during	during	10	preview	7	98	158	158	158	158
82	95	the	the	the	10	preview	7	99	0	0	0	0
83	96	siege	siege	siege.	10	preview	7	100	379	379	379	143
	97	.	.		10	preview	7	101				
84	98	@entity23	BFM	BFM	10	preview	7	102	303	303	303	201
85	99	in	in	in	10	preview	7	103	0	0	0	0
86	100	a	a	a	10	preview	7	104	187	0	0	0
87	101	statement	statement	statement	10	preview	7	105	430	344	344	183
88	102	Friday	Friday	Friday	10	preview	7	106	524	117	390	117
89	103	said	said	said	10	preview	7	107	102	102	509	102
90	104	one	one	one	10	preview	7	108	0	0	0	0
91	105	of	of	of	10	preview	7	109	368	185	185	185
92	106	its	its	its	10	preview	7	110	0	0	0	0
93	107	journalists	journalists	journalists	10	preview	7	111	514	135	135	135
94	108	-	-	-mentioned	10	preview	7	112	541	268	816	268
	109	mentioned	mentioned		10	preview	7	113				
95	110	only	only	only	10	preview	7	114	129	0	0	0
96	111	once	once	once	10	preview	7	115	219	219	219	219
97	112	the	the	the	10	preview	7	116	0	0	0	0
98	113	presence	presence	presence	10	preview	7	117	206	206	206	206
99	114	of	of	of	10	preview	7	118	0	0	0	0
100	115	a	a	a	10	preview	7	119	189	189	189	189
101	116	woman	woman	woman	10	preview	7	120	0	0	0	0
102	117	hidden	hidden	hidden	10	preview	7	121	1148	195	195	195
103	118	inside	inside	inside	10	preview	7	122	758	0	0	0
104	119	the	the	the	10	preview	7	123	86	86	530	86
105	120	@entity27	Hyper	Hyper	10	preview	7	124	693	131	131	131
106			Cacher	Cacher,	10	preview	7	125	788	621	621	475
	121	,	,		10	preview	7	126				
107	122	on	on	on	10	preview	7	127	293	0	0	0
108	123	the	the	the	10	preview	7	128	467	115	115	115
109	124	basis	basis	basis	10	preview	7	129	249	112	112	112
110	125	of	of	of	10	preview	7	130	139	0	0	0
111	126	police	police	police	10	preview	7	131	429	207	1071	207
112	127	sources	sources	sources	10	preview	7	132	797	198	198	198
113	128	on	on	on	10	preview	7	133	173	0	0	0
114	129	the	the	the	10	preview	7	134	468	0	0	0
115	130	ground	ground	ground.-	10	preview	7	135	244	0	0	0
	131	.	.		10	preview	7	136				
116	132	-	-	-Immediately,	10	preview	7	137	901	0	0	0
	133	-	-		10	preview	7	138				
	134	Immediately	Immediately		10	preview	7	139				
	135	,	,		10	preview	7	140				
117	136	the	the	the	10	preview	7	141	197	0	0	0
118	137	chief	chief	chief	10	preview	7	142	0	0	0	0
119	138	editor	editor	editor	10	preview	7	143	452	0	0	0
120	139	felt	felt	felt	10	preview	7	144	205	0	0	0
121	140	that	that	that	10	preview	7	145	0	0	0	0
122	141	this	this	this	10	preview	7	146	199	0	0	0
123	142	information	information	information	10	preview	7	147	176	0	0	0
124	143	should	should	should	10	preview	7	148	175	0	0	0
125	144	not	not	not	10	preview	7	149	230	0	0	0
126	145	be	be	be	10	preview	7	150	0	0	0	0
127	146	released	released	released.	10	preview	7	151	482	201	5535	201
	147	.	.		10	preview	7	152				
128	148	It	It	It	10	preview	7	153	0	0	0	0
129	149	therefore	therefore	therefore	10	preview	7	154	242	242	242	242
130	150	has	has	has	10	preview	7	155	0	0	0	0
131	151	subsequently	subsequently	subsequently	10	preview	7	156	507	507	507	270
132	152	never	never	never	10	preview	7	157	0	0	0	0
133	153	been	been	been	10	preview	7	158	200	200	200	200
134	154	repeated	repeated	repeated	10	preview	7	159	204	204	204	204
135	155	on	on	on	10	preview	7	160	0	0	0	0
136	156	air	air	air	10	preview	7	161	149	149	149	149
137	157	or	or	or	10	preview	7	162	0	0	0	0
138	158	posted	posted	posted	10	preview	7	163	639	639	639	126
139	159	on	on	on-screen.	10	preview	7	164	299	169	986	169
	160	-	-		10	preview	7	165				
	161	screen	screen		10	preview	7	166				
	162	.	.		10	preview	7	167				
140	163	@entity16	BFMTV	BFMTV	10	preview	7	168	113	113	1083	113
141	164	regrets	regrets	regrets	10	preview	7	169	255	255	255	116
142	165	that	that	that	10	preview	7	170	152	152	152	152
143	166	the	the	the	10	preview	7	171	0	0	0	0
144	167	mention	mention	mention	10	preview	7	172	141	141	141	141
145	168	of	of	of	10	preview	7	173	0	0	0	0
146	169	this	this	this	10	preview	7	174	230	230	230	230
147	170	information	information	information	10	preview	7	175	159	159	159	159
148	171	could	could	could	10	preview	7	176	0	0	0	0
149	172	cause	cause	cause	10	preview	7	177	185	185	185	185
150	173	concern	concern	concern	10	preview	7	178	152	152	152	152
151	174	to	to	to	10	preview	7	179	0	0	0	0
152	175	the	the	the	10	preview	7	180	0	0	0	0
153	176	hostages	hostages	hostages,	10	preview	7	181	180	180	180	180
	177	,	,		10	preview	7	182				
154	178	as	as	as	10	preview	7	183	0	0	0	0
155	179	well	well	well	10	preview	7	184	181	0	0	0
156	180	as	as	as	10	preview	7	185	0	0	0	0
157	181	their	their	their	10	preview	7	186	168	0	0	0
158	182	relatives	relatives	relatives,	10	preview	7	187	228	0	0	0
	183	,	,		10	preview	7	188				
159	184	that	that	that	10	preview	7	189	231	0	0	0
160	185	their	their	their	10	preview	7	190	0	0	0	0
161	186	lives	lives	lives	10	preview	7	191	171	0	0	0
162	187	were	were	were	10	preview	7	192	231	0	0	0
163	188	in	in	in	10	preview	7	193	0	0	0	0
164	189	danger	danger	danger,-	10	preview	7	194	0	0	0	0
	190	,	,		10	preview	7	195				
	191	-	-		10	preview	7	196				
165	192	the	the	the	10	preview	7	197	168	0	0	0
166	193	statement	statement	statement	10	preview	7	198	342	0	0	0
167	194	said	said	said.	10	preview	7	199	0	0	0	0
	195	.	.		10	preview	7	200				
168	196	Gunman	Gunman	Gunman	10	preview	7	201	399	275	2119	133
169	197	@entity47	Amedy	Amedy	10	preview	7	202	481	323	323	201
170			Coulibaly	Coulibaly,	10	preview	7	203	1127	547	547	171
	198	,	,		10	preview	7	204				
171	199	also	also	also	10	preview	7	205	284	284	284	284
172	200	suspected	suspected	suspected	10	preview	7	206	304	304	304	159
173	201	in	in	in	10	preview	7	207	0	0	0	0
174	202	the	the	the	10	preview	7	208	314	314	314	314
175	203	slaying	slaying	slaying	10	preview	7	209	0	0	0	0
176	204	of	of	of	10	preview	7	210	0	0	0	0
177	205	a	a	a	10	preview	7	211	0	0	0	0
178	206	police	police	police	10	preview	7	212	294	294	294	164
179	207	officer	officer	officer,	10	preview	7	213	0	0	130	0
	208	,	,		10	preview	7	214				
180	209	stormed	stormed	stormed	10	preview	7	215	279	279	279	279
181	210	the	the	the	10	preview	7	216	202	202	202	202
182	211	@entity27	Hyper	Hyper	10	preview	7	217	0	0	0	0
183	212	@entity51	Cacher	Cacher	10	preview	7	218	618	317	317	317
184			Jewish	Jewish	10	preview	7	219	370	118	451	118
185	213	supermarket	supermarket	supermarket	10	preview	7	220	121	121	121	121
186	214	on	on	on	10	preview	7	221	0	0	0	0
187	215	January	January	January	10	preview	7	222	318	318	318	318
188	216	9	9	9,	10	preview	7	223	0	0	0	0
	217	,	,		10	preview	7	224				
189	218	killing	killing	killing	10	preview	7	225	254	254	254	254
190	219	four	four	four	10	preview	7	226	0	0	0	0
191	220	people	people	people	10	preview	7	227	248	248	248	248
192	221	and	and	and	10	preview	7	228	185	185	185	185
193	222	taking	taking	taking	10	preview	7	229	188	188	188	188
194	223	others	others	others	10	preview	7	230	95	95	95	95
195	224	hostage	hostage	hostage.	10	preview	7	231	245	245	245	96
	225	.	.		10	preview	7	232				
196	226	He	He	He	10	preview	7	233	0	0	0	0
197	227	was	was	was	10	preview	7	234	209	209	209	209
198	228	killed	killed	killed	10	preview	7	235	194	0	0	0
199	229	in	in	in	10	preview	7	236	0	0	0	0
200	230	the	the	the	10	preview	7	237	278	278	472	278
201	231	police	police	police	10	preview	7	238	167	167	167	167
202	232	operation	operation	operation	10	preview	7	239	274	274	274	274
203	233	to	to	to	10	preview	7	240	0	0	0	0
204	234	end	end	end	10	preview	7	241	0	0	0	0
205	235	the	the	the	10	preview	7	242	334	334	334	334
206	236	siege	siege	siege.	10	preview	7	243	513	513	513	513
	237	.	.		10	preview	7	244				
207	238	A	A	A	10	preview	7	245	0	0	0	0
208	239	24	24	24-year-old	10	preview	7	246	385	385	385	269
	240	-	-		10	preview	7	247				
	241	year	year		10	preview	7	248				
	242	-	-		10	preview	7	249				
	243	old	old		10	preview	7	250				
209	244	supermarket	supermarket	supermarket	10	preview	7	251	482	273	273	273
210	245	employee	employee	employee,	10	preview	7	252	201	201	201	201
	246	,	,		10	preview	7	253				
211	247	@entity57	Malian	Malian-born	10	preview	7	254	1155	619	619	175
	248	-	-		10	preview	7	255				
	249	born	born		10	preview	7	256				
212	250	@entity56	Lassana	Lassana	10	preview	7	257	1161	179	867	179
213			Bathily	Bathily,	10	preview	7	258	593	438	438	181
	251	,	,		10	preview	7	259				
214	252	was	was	was	10	preview	7	260	0	0	0	0
215	253	hailed	hailed	hailed	10	preview	7	261	400	155	512	155
216	254	as	as	as	10	preview	7	262	187	0	0	0
217	255	a	a	a	10	preview	7	263	0	0	0	0
218	256	hero	hero	hero	10	preview	7	264	126	0	0	0
219	257	afterward	afterward	afterward	10	preview	7	265	130	0	0	0
220	258	when	when	when	10	preview	7	266	0	0	0	0
221	259	it	it	it	10	preview	7	267	0	0	0	0
222	260	emerged	emerged	emerged	10	preview	7	268	238	0	0	0
223	261	that	that	that	10	preview	7	269	0	0	0	0
224	262	he	he	he	10	preview	7	270	236	0	0	0
225	263	had	had	had	10	preview	7	271	0	0	0	0
226	264	risked	risked	risked	10	preview	7	272	212	0	0	0
227	265	his	his	his	10	preview	7	273	222	0	0	0
228	266	life	life	life	10	preview	7	274	312	0	0	0
229	267	to	to	to	10	preview	7	275	0	0	0	0
230	268	hide	hide	hide	10	preview	7	276	328	145	3430	145
231	269	15	15	15	10	preview	7	277	0	0	0	0
232	270	customers	customers	customers	10	preview	7	278	281	281	281	125
233	271	from	from	from	10	preview	7	279	0	0	0	0
234	272	@entity47	Coulibaly	Coulibaly	10	preview	7	280	357	357	357	176
235	273	in	in	in	10	preview	7	281	99	99	99	99
236	274	the	the	the	10	preview	7	282	0	0	0	0
237	275	cold	cold	cold	10	preview	7	283	302	302	302	302
238	276	room	room	room.	10	preview	7	284	0	0	0	0
	277	.	.		10	preview	7	285				
239	278	The	The	The	10	preview	7	286	0	0	0	0
240	279	hostage	hostage	hostage-taking	10	preview	7	287	583	583	583	248
	280	-	-		10	preview	7	288				
	281	taking	taking		10	preview	7	289				
241	282	was	was	was	10	preview	7	290	157	157	157	157
242	283	the	the	the	10	preview	7	291	0	0	0	0
243	284	culmination	culmination	culmination	10	preview	7	292	761	540	540	202
244	285	of	of	of	10	preview	7	293	0	0	0	0
245	286	three	three	three	10	preview	7	294	194	194	415	194
246	287	days	days	days	10	preview	7	295	262	262	262	262
247	288	of	of	of	10	preview	7	296	0	0	0	0
248	289	terror	terror	terror	10	preview	7	297	212	212	212	212
249	290	in	in	in	10	preview	7	298	113	113	113	113
250	291	@entity0	Paris	Paris	10	preview	7	299	240	240	240	240
251	292	that	that	that	10	preview	7	300	0	0	0	0
252	293	began	began	began	10	preview	7	301	193	193	193	193
253	294	with	with	with	10	preview	7	302	0	0	0	0
254	295	the	the	the	10	preview	7	303	237	237	237	237
255	296	January	January	January	10	preview	7	304	185	185	185	185
256	297	7	7	7	10	preview	7	305	0	0	0	0
257	298	shooting	shooting	shooting	10	preview	7	306	215	215	215	215
258	299	of	of	of	10	preview	7	307	0	0	0	0
259	300	12	12	12	10	preview	7	308	245	245	245	245
260	301	people	people	people	10	preview	7	309	181	0	0	0
261	302	at	at	at	10	preview	7	310	197	0	0	0
262	303	the	the	the	10	preview	7	311	0	0	0	0
263	304	offices	offices	offices	10	preview	7	312	445	0	0	0
264	305	of	of	of	10	preview	7	313	230	0	0	0
265	306	@entity5	French	French	10	preview	7	314	465	0	0	0
266	307	satirical	satirical	satirical	10	preview	7	315	365	0	0	0
267	308	magazine	magazine	magazine	10	preview	7	316	479	0	0	0
268	309	@entity69	Charlie	Charlie	10	preview	7	317	309	199	2671	199
269			Hebdo	Hebdo.	10	preview	7	318	0	0	0	0
	310	.	.		10	preview	7	319				
270	311	The	The	The	10	preview	7	320	171	171	171	171
271	312	two	two	two	10	preview	7	321	0	0	0	0
272	313	brothers	brothers	brothers	10	preview	7	322	324	156	156	156
273	314	blamed	blamed	blamed	10	preview	7	323	311	311	479	311
274	315	for	for	for	10	preview	7	324	0	0	0	0
275	316	that	that	that	10	preview	7	325	99	0	0	0
276	317	attack	attack	attack,	10	preview	7	326	345	345	444	345
	318	,	,		10	preview	7	327				
277	319	@entity72	Cherif	Cherif	10	preview	7	328	177	177	177	177
278	320	and	and	and	10	preview	7	329	0	0	0	0
279	321	@entity73	Said	Said	10	preview	7	330	0	0	0	0
280			Kouachi	Kouachi,	10	preview	7	331	386	386	882	386
	322	,	,		10	preview	7	332				
281	323	were	were	were	10	preview	7	333	213	213	213	213
282	324	killed	killed	killed	10	preview	7	334	477	477	477	193
283	325	on	on	on	10	preview	7	335	0	0	0	0
284	326	January	January	January	10	preview	7	336	414	414	414	414
285	327	9	9	9	10	preview	7	337	0	0	0	0
286	328	after	after	after	10	preview	7	338	0	0	0	0
287	329	a	a	a	10	preview	7	339	236	236	236	236
288	330	violent	violent	violent	10	preview	7	340	0	0	0	0
289	331	standoff	standoff	standoff	10	preview	7	341	280	280	280	280
290	332	at	at	at	10	preview	7	342	0	0	0	0
291	333	an	an	an	10	preview	7	343	0	0	0	0
292	334	industrial	industrial	industrial	10	preview	7	344	185	185	290	185
293	335	site	site	site.	10	preview	7	345	123	123	123	123
	336	.	.		10	preview	7	346				
294	337	The	The	The	10	preview	7	347	0	0	0	0
295	338	terror	terror	terror	10	preview	7	348	289	289	289	189
296	339	attacks	attacks	attacks	10	preview	7	349	0	0	0	0
297	340	claimed	claimed	claimed	10	preview	7	350	122	122	122	122
298	341	the	the	the	10	preview	7	351	0	0	0	0
299	342	lives	lives	lives	10	preview	7	352	181	181	181	181
300	343	of	of	of	10	preview	7	353	0	0	0	0
301	344	17	17	17	10	preview	7	354	0	0	0	0
302	345	people	people	people	10	preview	7	355	0	0	0	0
303	346	and	and	and	10	preview	7	356	0	0	0	0
304	347	put	put	put	10	preview	7	357	0	0	0	0
305	348	@entity5	France	France	10	preview	7	358	0	0	0	0
306	349	on	on	on	10	preview	7	359	0	0	0	0
307	350	a	a	a	10	preview	7	360	81	81	81	81
308	351	heightened	heightened	heightened	10	preview	7	361	82	82	82	82
309	352	state	state	state	10	preview	7	362	0	0	0	0
310	353	of	of	of	10	preview	7	363	0	0	0	0
311	354	alert	alert	alert.	10	preview	7	364	0	0	0	0
	355	.	.		10	preview	7	365				
