HumanPosition	AnonymizedPosition	AnonymizedToken	OriginalToken	ExperimentToken	Participant	Condition	TextNo	JointPosition	tt	fp	rp	ff
1	0	(	(	Two	11	preview	1	1	0	0	0	0
2	1	@entity1	CNN	passengers	11	preview	1	2	0	0	0	0
	2	)	)		11	preview	1	3				
	3	Two	Two		11	preview	1	4				
	4	passengers	passengers		11	preview	1	5				
3	5	found	found	found	11	preview	1	6	0	0	0	0
4	6	dead	dead	dead	11	preview	1	7	0	0	0	0
5	7	on	on	on	11	preview	1	8	0	0	0	0
6	8	a	a	a	11	preview	1	9	0	0	0	0
7	9	cruise	cruise	cruise	11	preview	1	10	0	0	0	0
8	10	ship	ship	ship	11	preview	1	11	0	0	0	0
9	11	in	in	in	11	preview	1	12	0	0	0	0
10	12	@entity4	Puerto	Puerto	11	preview	1	13	0	0	0	0
11			Rico	Rico	11	preview	1	14	0	0	0	0
12	13	appear	appear	appear	11	preview	1	15	0	0	0	0
13	14	to	to	to	11	preview	1	16	0	0	0	0
14	15	have	have	have	11	preview	1	17	0	0	0	0
15	16	died	died	died	11	preview	1	18	0	0	0	0
16	17	in	in	in	11	preview	1	19	0	0	0	0
17	18	a	a	a	11	preview	1	20	0	0	0	0
18	19	murder	murder	murder-suicide,	11	preview	1	21	253	253	253	253
	20	-	-		11	preview	1	22				
	21	suicide	suicide		11	preview	1	23				
	22	,	,		11	preview	1	24				
19	23	the	the	the	11	preview	1	25	0	0	0	0
20	24	cruise	cruise	cruise	11	preview	1	26	229	229	229	229
21	25	line	line	line	11	preview	1	27	156	156	156	156
22	26	said	said	said.	11	preview	1	28	454	290	290	290
	27	.	.		11	preview	1	29				
23	28	@entity6	Holland	Holland	11	preview	1	30	253	0	0	0
24			America	America	11	preview	1	31	357	204	204	204
25			Line	Line	11	preview	1	32	445	142	142	142
26	29	said	said	said	11	preview	1	33	273	0	0	0
27	30	two	two	two	11	preview	1	34	228	228	228	228
28	31	guests	guests	guests	11	preview	1	35	251	0	0	0
29	32	were	were	were	11	preview	1	36	162	0	0	0
30	33	found	found	found	11	preview	1	37	191	0	0	0
31	34	dead	dead	dead	11	preview	1	38	0	0	0	0
32	35	inside	inside	inside	11	preview	1	39	523	303	303	147
33	36	their	their	their	11	preview	1	40	279	0	0	0
34	37	stateroom	stateroom	stateroom	11	preview	1	41	515	322	2764	322
35	38	on	on	on	11	preview	1	42	0	0	0	0
36	39	the	the	the	11	preview	1	43	241	0	0	0
37	40	@entity9	ms	ms	11	preview	1	44	234	234	234	234
38			Ryndam	Ryndam	11	preview	1	45	729	181	970	181
39	41	at	at	at	11	preview	1	46	0	0	0	0
40	42	11:30	11:30	11:30	11	preview	1	47	220	220	220	220
41	43	a.m.	a.m.	a.m.	11	preview	1	48	0	0	0	0
42	44	Thursday	Thursday	Thursday.	11	preview	1	49	0	0	0	0
	45	.	.		11	preview	1	50				
43	46	-	-	-The	11	preview	1	51	311	166	166	166
	47	The	The		11	preview	1	52				
44	48	cabin	cabin	cabin	11	preview	1	53	310	205	455	205
45	49	was	was	was	11	preview	1	54	0	0	0	0
46	50	immediately	immediately	immediately	11	preview	1	55	314	314	314	161
47	51	secured	secured	secured,	11	preview	1	56	0	0	0	0
	52	,	,		11	preview	1	57				
48	53	and	and	and	11	preview	1	58	169	169	169	169
49	54	the	the	the	11	preview	1	59	0	0	0	0
50	55	authorities	authorities	authorities	11	preview	1	60	206	206	206	206
51	56	were	were	were	11	preview	1	61	0	0	0	0
52	57	notified	notified	notified,	11	preview	1	62	245	245	245	245
	58	,	,		11	preview	1	63				
53	59	including	including	including	11	preview	1	64	286	286	286	286
54	60	the	the	the	11	preview	1	65	0	0	0	0
55	61	@entity12	FBI	FBI,-	11	preview	1	66	0	0	0	0
	62	,	,		11	preview	1	67				
	63	-	-		11	preview	1	68				
56	64	@entity6	Holland	Holland	11	preview	1	69	382	382	382	172
57			America	America	11	preview	1	70	234	0	0	0
58	65	said	said	said.	11	preview	1	71	119	119	353	119
	66	.	.		11	preview	1	72				
59	67	-	-	-We	11	preview	1	73	0	0	0	0
	68	We	We		11	preview	1	74				
60	69	are	are	are	11	preview	1	75	0	0	0	0
61	70	cooperating	cooperating	cooperating	11	preview	1	76	495	495	495	245
62	71	fully	fully	fully	11	preview	1	77	241	241	241	241
63	72	with	with	with	11	preview	1	78	0	0	0	0
64	73	the	the	the	11	preview	1	79	0	0	0	0
65	74	investigation	investigation	investigation,	11	preview	1	80	420	420	420	420
	75	,	,		11	preview	1	81				
66	76	and	and	and	11	preview	1	82	0	0	0	0
67	77	the	the	the	11	preview	1	83	0	0	0	0
68	78	authorities	authorities	authorities	11	preview	1	84	431	431	431	288
69	79	will	will	will	11	preview	1	85	0	0	0	0
70	80	make	make	make	11	preview	1	86	241	0	0	0
71	81	the	the	the	11	preview	1	87	0	0	0	0
72	82	official	official	official	11	preview	1	88	118	118	359	118
73	83	determination	determination	determination	11	preview	1	89	592	221	221	221
74	84	on	on	on	11	preview	1	90	214	214	214	214
75	85	what	what	what	11	preview	1	91	0	0	0	0
76	86	occurred	occurred	occurred.-	11	preview	1	92	497	139	868	139
	87	.	.		11	preview	1	93				
77	88	-	-	FBI	11	preview	1	94	204	204	204	204
78	89	@entity12	FBI	spokesman	11	preview	1	95	547	324	324	324
	90	spokesman	spokesman		11	preview	1	96				
79	91	@entity17	Moises	Moises	11	preview	1	97	569	320	543	320
80			Quiñones	Quinones	11	preview	1	98	732	502	981	291
81	92	said	said	said	11	preview	1	99	154	0	0	0
82	93	authorities	authorities	authorities	11	preview	1	100	154	154	308	154
83	94	were	were	were	11	preview	1	101	0	0	0	0
84	95	on	on	on	11	preview	1	102	213	213	213	213
85	96	scene	scene	scene	11	preview	1	103	0	0	0	0
86	97	investigating	investigating	investigating.	11	preview	1	104	295	295	295	295
	98	.	.		11	preview	1	105				
87	99	The	The	The	11	preview	1	106	0	0	0	0
88	100	ship	ship	ship	11	preview	1	107	193	193	193	193
89	101	left	left	left	11	preview	1	108	186	0	0	0
90	102	@entity21	Tampa	Tampa,	11	preview	1	109	447	250	633	250
	103	,	,		11	preview	1	110				
91	104	@entity22	Florida	Florida,	11	preview	1	111	0	0	0	0
	105	,	,		11	preview	1	112				
92	106	on	on	on	11	preview	1	113	149	149	149	149
93	107	March	March	March	11	preview	1	114	153	153	153	153
94	108	29	29	29	11	preview	1	115	0	0	0	0
95	109	on	on	on	11	preview	1	116	157	0	0	0
96	110	a	a	a	11	preview	1	117	0	0	0	0
97	111	14	14	14-day	11	preview	1	118	127	127	284	127
	112	-	-		11	preview	1	119				
	113	day	day		11	preview	1	120				
98	114	@entity24	Southern	Southern	11	preview	1	121	0	0	0	0
99			Caribbean	Caribbean	11	preview	1	122	172	172	172	172
100	115	cruise	cruise	cruise.	11	preview	1	123	0	0	0	0
	116	.	.		11	preview	1	124				
101	117	It	It	It-s	11	preview	1	125	0	0	0	0
	118	-s	-s		11	preview	1	126				
102	119	currently	currently	currently	11	preview	1	127	231	231	231	231
103	120	in	in	in	11	preview	1	128	0	0	0	0
104	121	@entity26	San	San	11	preview	1	129	233	233	233	233
105			Juan	Juan,	11	preview	1	130	234	234	234	234
	122	,	,		11	preview	1	131				
106	123	@entity4	Puerto	Puerto	11	preview	1	132	136	136	136	136
107			Rico	Rico.	11	preview	1	133	0	0	0	0
	124	.	.		11	preview	1	134				
108	125	@entity28	Puerto	Puerto	11	preview	1	135	0	0	0	0
109			Rico	Rico	11	preview	1	136	0	0	0	0
110			Port	Port	11	preview	1	137	127	127	127	127
111			Authority	Authority	11	preview	1	138	122	0	0	0
112	126	spokesman	spokesman	spokesman	11	preview	1	139	0	0	0	0
113	127	@entity27	Efraín	Efrain	11	preview	1	140	332	332	454	332
114			Santiago	Santiago	11	preview	1	141	0	0	0	0
115	128	told	told	told	11	preview	1	142	259	259	259	259
116	129	@entity30	El	El	11	preview	1	143	0	0	0	0
117			Nuevo	Nuevo	11	preview	1	144	0	0	0	0
118			Dia	Dia	11	preview	1	145	0	0	0	0
119	130	newspaper	newspaper	newspaper	11	preview	1	146	0	0	0	0
120	131	that	that	that	11	preview	1	147	0	0	0	0
121	132	the	the	the	11	preview	1	148	0	0	0	0
122	133	cleaning	cleaning	cleaning	11	preview	1	149	186	0	0	0
123	134	staff	staff	staff	11	preview	1	150	0	0	0	0
124	135	on	on	on	11	preview	1	151	0	0	0	0
125	136	the	the	the	11	preview	1	152	0	0	0	0
126	137	ship	ship	ship	11	preview	1	153	0	0	0	0
127	138	had	had	had	11	preview	1	154	0	0	0	0
128	139	discovered	discovered	discovered	11	preview	1	155	0	0	0	0
129	140	the	the	the	11	preview	1	156	0	0	0	0
130	141	deceased	deceased	deceased	11	preview	1	157	0	0	0	0
131	142	passengers	passengers	passengers	11	preview	1	158	0	0	0	0
132	143	after	after	after	11	preview	1	159	0	0	0	0
133	144	knocking	knocking	knocking	11	preview	1	160	230	230	416	105
134	145	on	on	on	11	preview	1	161	0	0	0	0
135	146	the	the	the	11	preview	1	162	0	0	0	0
136	147	cabin	cabin	cabin-s	11	preview	1	163	0	0	0	0
	148	-s	-s		11	preview	1	164				
137	149	door	door	door.	11	preview	1	165	0	0	0	0
	150	.	.		11	preview	1	166				
