HumanPosition	AnonymizedPosition	AnonymizedToken	OriginalToken	ExperimentToken	Participant	Condition	TextNo	JointPosition	tt	fp	rp	ff
1	0	One	One	One	11	preview	14	1	199	0	0	0
2	1	@entity1	Wall	Wall	11	preview	14	2	0	0	0	0
3			Street	Street	11	preview	14	3	396	0	0	0
4	2	trader	trader	trader	11	preview	14	4	201	0	0	0
5	3	closed	closed	closed	11	preview	14	5	160	0	0	0
6	4	out	out	out	11	preview	14	6	0	0	0	0
7	5	his	his	his	11	preview	14	7	174	0	0	0
8	6	week	week	week	11	preview	14	8	154	0	0	0
9	7	a	a	a	11	preview	14	9	0	0	0	0
10	8	few	few	few	11	preview	14	10	311	0	0	0
11	9	million	million	million	11	preview	14	11	741	0	0	0
12	10	dollars	dollars	dollars	11	preview	14	12	544	0	0	0
13	11	richer	richer	richer	11	preview	14	13	761	0	0	0
14	12	last	last	last	11	preview	14	14	0	0	0	0
15	13	Friday	Friday	Friday	11	preview	14	15	332	0	0	0
16	14	-	-	-	11	preview	14	16	0	0	0	0
17	15	and	and	and	11	preview	14	17	281	134	4107	134
18	16	it	it	it	11	preview	14	18	0	0	0	0
19	17	was	was	was	11	preview	14	19	139	139	286	139
20	18	all	all	all	11	preview	14	20	0	0	0	0
21	19	thanks	thanks	thanks	11	preview	14	21	193	193	193	193
22	20	to	to	to	11	preview	14	22	0	0	0	0
23	21	social	social	social	11	preview	14	23	165	165	165	165
24	22	media	media	media.	11	preview	14	24	246	246	246	246
	23	.	.		11	preview	14	25				
25	24	The	The	The	11	preview	14	26	0	0	0	0
26	25	unnamed	unnamed	unnamed	11	preview	14	27	330	330	330	330
27	26	trader	trader	trader	11	preview	14	28	235	235	235	235
28	27	used	used	used	11	preview	14	29	219	0	0	0
29	28	perfect	perfect	perfect	11	preview	14	30	484	484	484	247
30	29	timing	timing	timing	11	preview	14	31	330	138	549	138
31	30	to	to	to	11	preview	14	32	0	0	0	0
32	31	capitalize	capitalize	capitalize	11	preview	14	33	193	0	0	0
33	32	on	on	on	11	preview	14	34	129	129	322	129
34	33	one	one	one	11	preview	14	35	0	0	0	0
35	34	of	of	of	11	preview	14	36	264	264	264	264
36	35	the	the	the	11	preview	14	37	0	0	0	0
37	36	biggest	biggest	biggest	11	preview	14	38	342	342	342	342
38	37	deals	deals	deals	11	preview	14	39	241	241	241	241
39	38	of	of	of	11	preview	14	40	0	0	0	0
40	39	the	the	the	11	preview	14	41	233	233	233	233
41	40	year	year	year	11	preview	14	42	0	0	0	0
42	41	when	when	when	11	preview	14	43	164	164	164	164
43	42	@entity10	Wall	Wall	11	preview	14	44	154	0	0	0
44			Street	Street	11	preview	14	45	176	176	330	176
45			Journal	Journal	11	preview	14	46	224	224	224	224
46	43	mergers	mergers	mergers	11	preview	14	47	265	265	265	265
47	44	and	and	and	11	preview	14	48	0	0	0	0
48	45	acquisitions	acquisitions	acquisitions	11	preview	14	49	506	287	287	124
49	46	reporter	reporter	reporter	11	preview	14	50	622	457	457	457
50	47	@entity9	Dana	Dana	11	preview	14	51	225	0	0	0
51			Mattioli	Mattioli	11	preview	14	52	834	485	485	233
52	48	took	took	took	11	preview	14	53	0	0	0	0
53	49	to	to	to	11	preview	14	54	261	261	261	261
54	50	@entity11	Twitter	Twitter	11	preview	14	55	433	246	246	246
55	51	to	to	to	11	preview	14	56	0	0	0	0
56	52	announce	announce	announce	11	preview	14	57	260	260	260	260
57	53	that	that	that	11	preview	14	58	0	0	0	0
58	54	@entity12	Intel	Intel	11	preview	14	59	236	236	236	236
59	55	was	was	was	11	preview	14	60	204	204	204	204
60	56	in	in	in	11	preview	14	61	0	0	0	0
61	57	talks	talks	talks	11	preview	14	62	0	0	0	0
62	58	to	to	to	11	preview	14	63	0	0	0	0
63	59	buy	buy	buy	11	preview	14	64	176	0	0	0
64	60	one	one	one	11	preview	14	65	359	359	535	359
65	61	of	of	of	11	preview	14	66	0	0	0	0
66	62	its	its	its	11	preview	14	67	110	110	110	110
67	63	competitors	competitors	competitors,	11	preview	14	68	0	0	0	0
	64	,	,		11	preview	14	69				
68	65	chipmaker	chipmaker	chipmaker	11	preview	14	70	1089	498	498	498
69	66	@entity16	Altera	Altera.	11	preview	14	71	1046	722	722	722
	67	.	.		11	preview	14	72				
70	68	Seconds	Seconds	Seconds	11	preview	14	73	0	0	0	0
71	69	later	later	later,	11	preview	14	74	714	564	2774	356
	70	,	,		11	preview	14	75				
72	71	the	the	the	11	preview	14	76	0	0	0	0
73	72	trader	trader	trader	11	preview	14	77	192	192	192	192
74	73	had	had	had	11	preview	14	78	0	0	0	0
75	74	snapped	snapped	snapped	11	preview	14	79	236	236	236	236
76	75	up	up	up	11	preview	14	80	153	0	0	0
77	76	3,158	3,158	3,158	11	preview	14	81	254	0	0	0
78	77	contracts	contracts	contracts	11	preview	14	82	146	146	553	146
79	78	of	of	of	11	preview	14	83	221	221	221	221
80	79	@entity16	Altera	Altera,	11	preview	14	84	166	166	166	166
	80	,	,		11	preview	14	85				
81	81	with	with	with	11	preview	14	86	0	0	0	0
82	82	each	each	each	11	preview	14	87	660	294	294	294
83	83	option	option	option	11	preview	14	88	234	0	0	0
84	84	contract	contract	contract	11	preview	14	89	850	487	1273	301
85	85	giving	giving	giving	11	preview	14	90	172	172	349	172
86	86	them	them	them	11	preview	14	91	179	179	179	179
87	87	the	the	the	11	preview	14	92	0	0	0	0
88	88	right	right	right	11	preview	14	93	176	176	176	176
89	89	to	to	to	11	preview	14	94	144	0	0	0
90	90	purchase	purchase	purchase	11	preview	14	95	124	124	268	124
91	91	100	100	100	11	preview	14	96	0	0	0	0
92	92	shares	shares	shares.	11	preview	14	97	237	237	237	237
	93	.	.		11	preview	14	98				
93	94	Scroll	Scroll	CNBC	11	preview	14	99	288	288	288	288
	95	down	down		11	preview	14	100				
	96	for	for		11	preview	14	101				
	97	video	video		11	preview	14	102				
	98	An	An		11	preview	14	103				
	99	unnamed	unnamed		11	preview	14	104				
	100	@entity1	Wall		11	preview	14	105				
			Street		11	preview	14	106				
	101	trader	trader		11	preview	14	107				
	102	made	made		11	preview	14	108				
	103	a	a		11	preview	14	109				
	104	profit	profit		11	preview	14	110				
	105	of	of		11	preview	14	111				
	106	approximately	approximately		11	preview	14	112				
	107	$	$		11	preview	14	113				
	108	2.5million	2.5million		11	preview	14	114				
	109	on	on		11	preview	14	115				
	110	Friday	Friday		11	preview	14	116				
	111	thanks	thanks		11	preview	14	117				
	112	to	to		11	preview	14	118				
	113	a	a		11	preview	14	119				
	114	tweet	tweet		11	preview	14	120				
	115	from	from		11	preview	14	121				
	116	the	the		11	preview	14	122				
	117	@entity10	Wall		11	preview	14	123				
			Street		11	preview	14	124				
			Journal		11	preview	14	125				
	118	The	The		11	preview	14	126				
	119	trader	trader		11	preview	14	127				
	120	purchased	purchased		11	preview	14	128				
	121	315,800	315,800		11	preview	14	129				
	122	shares	shares		11	preview	14	130				
	123	of	of		11	preview	14	131				
	124	chipmaker	chipmaker		11	preview	14	132				
	125	@entity16	Altera		11	preview	14	133				
	126	one	one		11	preview	14	134				
	127	minute	minute		11	preview	14	135				
	128	after	after		11	preview	14	136				
	129	the	the		11	preview	14	137				
	130	@entity10	Journal		11	preview	14	138				
	131	reported	reported		11	preview	14	139				
	132	@entity12	Intel		11	preview	14	140				
	133	was	was		11	preview	14	141				
	134	in	in		11	preview	14	142				
	135	talks	talks		11	preview	14	143				
	136	to	to		11	preview	14	144				
	137	purchase	purchase		11	preview	14	145				
	138	them	them		11	preview	14	146				
	139	@entity32	CNBC		11	preview	14	147				
94	140	reports	reports	reports	11	preview	14	148	589	372	372	372
95	141	that	that	that	11	preview	14	149	0	0	0	0
96	142	the	the	the	11	preview	14	150	234	234	451	234
97	143	trader	trader	trader	11	preview	14	151	205	205	422	205
98	144	paid	paid	paid	11	preview	14	152	0	0	0	0
99	145	$	$	$36	11	preview	14	153	0	0	0	0
	146	36	36		11	preview	14	154				
100	147	a	a	a	11	preview	14	155	0	0	0	0
101	148	share	share	share,	11	preview	14	156	180	180	180	180
	149	,	,		11	preview	14	157				
102	150	and	and	and	11	preview	14	158	0	0	0	0
103	151	the	the	the	11	preview	14	159	206	206	206	206
104	152	call	call	call	11	preview	14	160	132	132	132	132
105	153	option	option	option	11	preview	14	161	259	0	0	0
106	154	was	was	was	11	preview	14	162	0	0	0	0
107	155	a	a	a	11	preview	14	163	0	0	0	0
108	156	mere	mere	mere	11	preview	14	164	236	0	0	0
109	157	35	35	35	11	preview	14	165	370	132	865	132
110	158	cents	cents	cents	11	preview	14	166	143	143	143	143
111	159	as	as	as	11	preview	14	167	0	0	0	0
112	160	options	options	options	11	preview	14	168	163	163	163	163
113	161	on	on	on	11	preview	14	169	0	0	0	0
114	162	the	the	the	11	preview	14	170	0	0	0	0
115	163	stock	stock	stock,	11	preview	14	171	0	0	0	0
	164	,	,		11	preview	14	172				
116	165	at	at	at	11	preview	14	173	0	0	0	0
117	166	that	that	that	11	preview	14	174	218	218	218	218
118	167	point	point	point	11	preview	14	175	0	0	0	0
119	168	valued	valued	valued	11	preview	14	176	149	149	149	149
120	169	at	at	at	11	preview	14	177	0	0	0	0
121	170	$	$	$34.76	11	preview	14	178	173	173	173	173
	171	34.76	34.76		11	preview	14	179				
122	172	a	a	a	11	preview	14	180	0	0	0	0
123	173	share	share	share,	11	preview	14	181	153	0	0	0
	174	,	,		11	preview	14	182				
124	175	were	were	were	11	preview	14	183	135	0	0	0
125	176	set	set	set	11	preview	14	184	0	0	0	0
126	177	to	to	to	11	preview	14	185	228	228	228	228
127	178	expire	expire	expire	11	preview	14	186	0	0	0	0
128	179	in	in	in	11	preview	14	187	0	0	0	0
129	180	just	just	just	11	preview	14	188	0	0	0	0
130	181	a	a	a	11	preview	14	189	0	0	0	0
131	182	few	few	few	11	preview	14	190	0	0	0	0
132	183	weeks	weeks	weeks.	11	preview	14	191	0	0	0	0
	184	.	.		11	preview	14	192				
133	185	3:32pm	3:32pm	When	11	preview	14	193	189	0	0	0
	186	:	:		11	preview	14	194				
	187	The	The		11	preview	14	195				
134	188	@entity10	Wall	the	11	preview	14	196	0	0	0	0
			Street		11	preview	14	197				
			Journal		11	preview	14	198				
	189	reports	reports		11	preview	14	199				
	190	that	that		11	preview	14	200				
135	191	@entity12	Intel	market	11	preview	14	201	202	202	391	202
	192	is	is		11	preview	14	202				
	193	in	in		11	preview	14	203				
	194	talks	talks		11	preview	14	204				
	195	to	to		11	preview	14	205				
	196	buy	buy		11	preview	14	206				
	197	@entity16	Altera		11	preview	14	207				
	198	.	.		11	preview	14	208				
	199	3:33pm	3:33pm		11	preview	14	209				
	200	:	:		11	preview	14	210				
	201	Trader	Trader		11	preview	14	211				
	202	purchases	purchases		11	preview	14	212				
	203	315,800	315,800		11	preview	14	213				
	204	shares	shares		11	preview	14	214				
	205	of	of		11	preview	14	215				
	206	@entity16	Altera		11	preview	14	216				
	207	at	at		11	preview	14	217				
	208	$	$		11	preview	14	218				
	209	36	36		11	preview	14	219				
	210	a	a		11	preview	14	220				
	211	share	share		11	preview	14	221				
	212	for	for		11	preview	14	222				
	213	a	a		11	preview	14	223				
	214	total	total		11	preview	14	224				
	215	cost	cost		11	preview	14	225				
	216	of	of		11	preview	14	226				
	217	$	$		11	preview	14	227				
	218	11,368,000	11,368,000		11	preview	14	228				
	219	plus	plus		11	preview	14	229				
	220	$	$		11	preview	14	230				
	221	110,530	110,530		11	preview	14	231				
	222	for	for		11	preview	14	232				
	223	a	a		11	preview	14	233				
	224	$	$		11	preview	14	234				
	225	0.35	0.35		11	preview	14	235				
	226	call	call		11	preview	14	236				
	227	option	option		11	preview	14	237				
	228	.	.		11	preview	14	238				
	229	3:35pm	3:35pm		11	preview	14	239				
	230	:	:		11	preview	14	240				
	231	@entity46	Nasdaq		11	preview	14	241				
	232	suspends	suspends		11	preview	14	242				
	233	trading	trading		11	preview	14	243				
	234	of	of		11	preview	14	244				
	235	@entity16	Altera		11	preview	14	245				
	236	in	in		11	preview	14	246				
	237	the	the		11	preview	14	247				
	238	wake	wake		11	preview	14	248				
136	239	of	of	closed	11	preview	14	249	168	168	168	168
	240	the	the		11	preview	14	250				
	241	@entity10	Journal		11	preview	14	251				
	242	-s	-s		11	preview	14	252				
	243	tweet	tweet		11	preview	14	253				
	244	.	.		11	preview	14	254				
	245	4:00pm	4:00pm		11	preview	14	255				
	246	:	:		11	preview	14	256				
	247	Trader	Trader		11	preview	14	257				
	248	sells	sells		11	preview	14	258				
	249	@entity16	Altera		11	preview	14	259				
	250	at	at		11	preview	14	260				
	251	the	the		11	preview	14	261				
	252	new	new		11	preview	14	262				
	253	share	share		11	preview	14	263				
	254	price	price		11	preview	14	264				
	255	of	of		11	preview	14	265				
	256	$	$		11	preview	14	266				
	257	44.39	44.39		11	preview	14	267				
	258	for	for		11	preview	14	268				
	259	a	a		11	preview	14	269				
	260	total	total		11	preview	14	270				
	261	of	of		11	preview	14	271				
	262	$	$		11	preview	14	272				
	263	14,018,362	14,018,362		11	preview	14	273				
	264	.	.		11	preview	14	274				
	265	This	This		11	preview	14	275				
	266	,	,		11	preview	14	276				
	267	after	after		11	preview	14	277				
	268	factoring	factoring		11	preview	14	278				
	269	in	in		11	preview	14	279				
	270	the	the		11	preview	14	280				
	271	intital	intital		11	preview	14	281				
	272	share	share		11	preview	14	282				
	273	price	price		11	preview	14	283				
	274	and	and		11	preview	14	284				
	275	call	call		11	preview	14	285				
	276	option	option		11	preview	14	286				
	277	,	,		11	preview	14	287				
	278	leaves	leaves		11	preview	14	288				
	279	them	them		11	preview	14	289				
	280	with	with		11	preview	14	290				
	281	a	a		11	preview	14	291				
	282	profit	profit		11	preview	14	292				
	283	of	of		11	preview	14	293				
	284	approximately	approximately		11	preview	14	294				
	285	$	$		11	preview	14	295				
	286	2,539.832	2,539.832		11	preview	14	296				
	287	.	.		11	preview	14	297				
	288	This	This		11	preview	14	298				
	289	call	call		11	preview	14	299				
	290	option	option		11	preview	14	300				
	291	allowed	allowed		11	preview	14	301				
137	292	the	the	for	11	preview	14	302	0	0	0	0
138	293	trader	trader	the	11	preview	14	303	0	0	0	0
	294	the	the		11	preview	14	304				
139	295	right	right	day,	11	preview	14	305	136	136	424	136
	296	to	to		11	preview	14	306				
	297	purchase	purchase		11	preview	14	307				
	298	more	more		11	preview	14	308				
	299	shares	shares		11	preview	14	309				
	300	in	in		11	preview	14	310				
140	301	the	the	Altera	11	preview	14	311	124	0	0	0
	302	company	company		11	preview	14	312				
	303	,	,		11	preview	14	313				
	304	in	in		11	preview	14	314				
	305	this	this		11	preview	14	315				
	306	case	case		11	preview	14	316				
	307	315,800	315,800		11	preview	14	317				
	308	shares	shares		11	preview	14	318				
	309	,	,		11	preview	14	319				
	310	at	at		11	preview	14	320				
	311	the	the		11	preview	14	321				
	312	cost	cost		11	preview	14	322				
	313	of	of		11	preview	14	323				
	314	$	$		11	preview	14	324				
	315	36	36		11	preview	14	325				
	316	,	,		11	preview	14	326				
	317	even	even		11	preview	14	327				
	318	though	though		11	preview	14	328				
	319	the	the		11	preview	14	329				
	320	value	value		11	preview	14	330				
	321	of	of		11	preview	14	331				
	322	shares	shares		11	preview	14	332				
	323	quickly	quickly		11	preview	14	333				
	324	began	began		11	preview	14	334				
	325	to	to		11	preview	14	335				
	326	rise	rise		11	preview	14	336				
	327	.	.		11	preview	14	337				
	328	Just	Just		11	preview	14	338				
	329	28	28		11	preview	14	339				
	330	minutes	minutes		11	preview	14	340				
	331	later	later		11	preview	14	341				
141	332	,	,	was	11	preview	14	342	127	0	0	0
142	333	when	when	valued	11	preview	14	343	161	161	161	161
	334	the	the		11	preview	14	344				
	335	market	market		11	preview	14	345				
	336	closed	closed		11	preview	14	346				
	337	for	for		11	preview	14	347				
	338	the	the		11	preview	14	348				
	339	day	day		11	preview	14	349				
	340	,	,		11	preview	14	350				
	341	@entity16	Altera		11	preview	14	351				
	342	was	was		11	preview	14	352				
	343	valued	valued		11	preview	14	353				
143	344	at	at	at	11	preview	14	354	0	0	0	0
144	345	$	$	$44.39	11	preview	14	355	232	232	232	232
	346	44.39	44.39		11	preview	14	356				
145	347	per	per	per	11	preview	14	357	0	0	0	0
146	348	share	share	share.	11	preview	14	358	0	0	0	0
	349	.	.		11	preview	14	359				
147	350	That	That	That	11	preview	14	360	199	199	199	199
148	351	was	was	was	11	preview	14	361	0	0	0	0
149	352	an	an	an	11	preview	14	362	0	0	0	0
150	353	increase	increase	increase	11	preview	14	363	225	225	225	225
151	354	of	of	of	11	preview	14	364	0	0	0	0
152	355	28	28	28%,	11	preview	14	365	209	209	209	209
	356	%	%		11	preview	14	366				
	357	,	,		11	preview	14	367				
153	358	but	but	but	11	preview	14	368	135	135	135	135
154	359	because	because	because	11	preview	14	369	179	179	430	179
155	360	of	of	of	11	preview	14	370	0	0	0	0
156	361	the	the	the	11	preview	14	371	0	0	0	0
157	362	call	call	call	11	preview	14	372	0	0	0	0
158	363	option	option	option,	11	preview	14	373	0	0	0	0
	364	,	,		11	preview	14	374				
159	365	the	the	the	11	preview	14	375	0	0	0	0
160	366	trader	trader	trader	11	preview	14	376	215	215	215	215
161	367	was	was	was	11	preview	14	377	0	0	0	0
162	368	able	able	able	11	preview	14	378	231	231	231	231
163	369	to	to	to	11	preview	14	379	0	0	0	0
164	370	sell	sell	sell	11	preview	14	380	0	0	0	0
165	371	their	their	their	11	preview	14	381	222	222	222	222
166	372	stocks	stocks	stocks	11	preview	14	382	0	0	0	0
167	373	at	at	at	11	preview	14	383	0	0	0	0
168	374	a	a	a	11	preview	14	384	0	0	0	0
169	375	far	far	far	11	preview	14	385	0	0	0	0
170	376	greater	greater	greater	11	preview	14	386	145	145	145	145
171	377	profit	profit	profit.	11	preview	14	387	0	0	0	0
	378	.	.		11	preview	14	388				
172	379	So	So	So	11	preview	14	389	214	214	214	214
173	380	instead	instead	instead	11	preview	14	390	167	167	167	167
174	381	of	of	of	11	preview	14	391	0	0	0	0
175	382	making	making	making	11	preview	14	392	0	0	0	0
176	383	a	a	a	11	preview	14	393	184	184	184	184
177	384	28	28	28%	11	preview	14	394	0	0	0	0
	385	%	%		11	preview	14	395				
178	386	profit	profit	profit,	11	preview	14	396	167	167	167	167
	387	,	,		11	preview	14	397				
179	388	the	the	the	11	preview	14	398	0	0	0	0
180	389	trader	trader	trader	11	preview	14	399	0	0	0	0
181	390	made	made	made	11	preview	14	400	204	204	204	204
182	391	a	a	a	11	preview	14	401	0	0	0	0
183	392	2,220	2,220	2,220%	11	preview	14	402	237	237	237	237
	393	%	%		11	preview	14	403				
184	394	profit	profit	profit	11	preview	14	404	0	0	0	0
185	395	of	of	of	11	preview	14	405	220	220	220	220
186	396	roughly	roughly	roughly	11	preview	14	406	174	174	174	174
187	397	$	$	$2.5million	11	preview	14	407	269	269	269	127
	398	2.5million	2.5million		11	preview	14	408				
188	399	when	when	when	11	preview	14	409	0	0	0	0
189	400	they	they	they	11	preview	14	410	0	0	0	0
190	401	sold	sold	sold	11	preview	14	411	152	0	0	0
191	402	their	their	their	11	preview	14	412	186	186	338	186
192	403	shares	shares	shares.	11	preview	14	413	0	0	0	0
	404	.	.		11	preview	14	414				
193	405	Even	Even	Even	11	preview	14	415	0	0	0	0
194	406	more	more	more	11	preview	14	416	0	0	0	0
195	407	impressive	impressive	impressive	11	preview	14	417	374	374	374	206
196	408	is	is	is	11	preview	14	418	144	144	144	144
197	409	that	that	that	11	preview	14	419	0	0	0	0
198	410	the	the	the	11	preview	14	420	159	159	159	159
199	411	trader	trader	trader	11	preview	14	421	139	139	139	139
200	412	managed	managed	managed	11	preview	14	422	158	0	0	0
201	413	to	to	to	11	preview	14	423	132	132	290	132
202	414	make	make	make	11	preview	14	424	0	0	0	0
203	415	the	the	the	11	preview	14	425	203	203	203	203
204	416	purchase	purchase	purchase	11	preview	14	426	337	337	337	337
205	417	just	just	just	11	preview	14	427	0	0	0	0
206	418	minutes	minutes	minutes	11	preview	14	428	419	419	419	202
207	419	before	before	before	11	preview	14	429	0	0	0	0
208	420	@entity46	Nasdaq	Nasdaq	11	preview	14	430	295	295	295	295
209	421	suspended	suspended	suspended	11	preview	14	431	344	344	344	196
210	422	trading	trading	trading	11	preview	14	432	373	234	234	234
211	423	of	of	of	11	preview	14	433	140	140	279	140
212	424	@entity16	Altera	Altera	11	preview	14	434	246	246	246	246
213	425	because	because	because	11	preview	14	435	232	232	232	232
214	426	of	of	of	11	preview	14	436	0	0	0	0
215	427	the	the	the	11	preview	14	437	0	0	0	0
216	428	tweet	tweet	tweet	11	preview	14	438	208	208	208	208
217	429	from	from	from	11	preview	14	439	0	0	0	0
218	430	@entity9	Mattioli	Mattioli.	11	preview	14	440	227	227	227	227
	431	.	.		11	preview	14	441				
219	432	What	What	What-s	11	preview	14	442	181	181	181	181
	433	-s	-s		11	preview	14	443				
220	434	more	more	more,	11	preview	14	444	218	218	218	218
	435	,	,		11	preview	14	445				
221	436	call	call	call	11	preview	14	446	0	0	0	0
222	437	options	options	options	11	preview	14	447	375	375	375	375
223	438	for	for	for	11	preview	14	448	0	0	0	0
224	439	@entity16	Altera	Altera	11	preview	14	449	227	227	227	227
225	440	had	had	had	11	preview	14	450	0	0	0	0
226	441	at	at	at	11	preview	14	451	211	211	211	211
227	442	that	that	that	11	preview	14	452	0	0	0	0
228	443	point	point	point	11	preview	14	453	0	0	0	0
229	444	reached	reached	reached	11	preview	14	454	322	322	322	322
230	445	a	a	a	11	preview	14	455	0	0	0	0
231	446	price	price	price	11	preview	14	456	0	0	0	0
232	447	of	of	of	11	preview	14	457	0	0	0	0
233	448	$	$	$8.10	11	preview	14	458	0	0	0	0
	449	8.10	8.10		11	preview	14	459				
234	450	by	by	by	11	preview	14	460	0	0	0	0
235	451	the	the	the	11	preview	14	461	0	0	0	0
236	452	end	end	end	11	preview	14	462	0	0	0	0
237	453	of	of	of	11	preview	14	463	0	0	0	0
238	454	the	the	the	11	preview	14	464	0	0	0	0
239	455	day	day	day.	11	preview	14	465	0	0	0	0
	456	.	.		11	preview	14	466				
240	457	There	There	There	11	preview	14	467	143	0	0	0
241	458	is	is	is	11	preview	14	468	0	0	0	0
242	459	also	also	also	11	preview	14	469	0	0	0	0
243	460	a	a	a	11	preview	14	470	0	0	0	0
244	461	chance	chance	chance,	11	preview	14	471	453	0	0	0
	462	,	,		11	preview	14	472				
245	463	reports	reports	reports	11	preview	14	473	165	0	0	0
246	464	@entity90	Matt	Matt	11	preview	14	474	219	0	0	0
247			Khouw	Khouw,	11	preview	14	475	434	163	924	163
	465	,	,		11	preview	14	476				
248	466	that	that	that	11	preview	14	477	537	116	1027	116
249	467	the	the	the	11	preview	14	478	0	0	0	0
250	468	trader	trader	trader	11	preview	14	479	188	188	188	188
251	469	could	could	could	11	preview	14	480	0	0	0	0
252	470	have	have	have	11	preview	14	481	190	190	190	190
253	471	been	been	been	11	preview	14	482	0	0	0	0
254	472	aware	aware	aware	11	preview	14	483	335	172	172	172
255	473	of	of	of	11	preview	14	484	0	0	0	0
256	474	@entity12	Intel	Intel-s	11	preview	14	485	255	255	418	255
	475	-s	-s		11	preview	14	486				
257	476	plan	plan	plan	11	preview	14	487	151	0	0	0
258	477	to	to	to	11	preview	14	488	0	0	0	0
259	478	buy	buy	buy	11	preview	14	489	385	385	385	228
260	479	@entity16	Altera	Altera	11	preview	14	490	187	187	338	187
261	480	early	early	early,	11	preview	14	491	136	0	0	0
	481	,	,		11	preview	14	492				
262	482	or	or	or	11	preview	14	493	0	0	0	0
263	483	that	that	that	11	preview	14	494	242	117	253	117
264	484	they	they	they	11	preview	14	495	238	238	238	238
265	485	used	used	used	11	preview	14	496	352	226	226	226
266	486	a	a	a	11	preview	14	497	0	0	0	0
267	487	bot	bot	bot	11	preview	14	498	177	0	0	0
268	488	to	to	to	11	preview	14	499	464	253	253	253
269	489	quickly	quickly	quickly	11	preview	14	500	328	0	0	0
270	490	buy	buy	buy	11	preview	14	501	289	0	0	0
271	491	the	the	the	11	preview	14	502	0	0	0	0
272	492	shares	shares	shares.	11	preview	14	503	189	0	0	0
	493	.	.		11	preview	14	504				
273	494	-	-	-A	11	preview	14	505	0	0	0	0
	495	A	A		11	preview	14	506				
274	496	bot	bot	bot	11	preview	14	507	284	0	0	0
275	497	is	is	is	11	preview	14	508	152	0	0	0
276	498	not	not	not	11	preview	14	509	402	162	446	162
277	499	as	as	as	11	preview	14	510	135	0	0	0
278	500	outlandish	outlandish	outlandish	11	preview	14	511	691	0	0	0
279	501	as	as	as	11	preview	14	512	0	0	0	0
280	502	it	it	it	11	preview	14	513	0	0	0	0
281	503	sounds	sounds	sounds,-	11	preview	14	514	0	0	0	0
	504	,	,		11	preview	14	515				
282	505	-	-	Khouw	11	preview	14	516	0	0	0	0
	506	@entity90	Khouw		11	preview	14	517				
283	507	said	said	said.	11	preview	14	518	0	0	0	0
	508	.	.		11	preview	14	519				
284	509	-	-	-Traders	11	preview	14	520	204	0	0	0
	510	Traders	Traders		11	preview	14	521				
285	511	need	need	need	11	preview	14	522	0	0	0	0
286	512	to	to	to	11	preview	14	523	227	0	0	0
287	513	aggregate	aggregate	aggregate	11	preview	14	524	142	0	0	0
288	514	and	and	and	11	preview	14	525	181	181	3417	181
289	515	filter	filter	filter	11	preview	14	526	253	253	253	253
290	516	through	through	through	11	preview	14	527	193	193	193	193
291	517	tremendous	tremendous	tremendous	11	preview	14	528	252	252	252	252
292	518	amounts	amounts	amounts	11	preview	14	529	148	0	0	0
293	519	of	of	of	11	preview	14	530	0	0	0	0
294	520	data	data	data	11	preview	14	531	139	139	287	139
295	521	quickly	quickly	quickly	11	preview	14	532	173	173	173	173
296	522	and	and	and	11	preview	14	533	0	0	0	0
297	523	will	will	will	11	preview	14	534	0	0	0	0
298	524	rely	rely	rely	11	preview	14	535	435	435	435	272
299	525	on	on	on	11	preview	14	536	0	0	0	0
300	526	technology	technology	technology	11	preview	14	537	0	0	0	0
301	527	to	to	to	11	preview	14	538	165	165	165	165
302	528	help	help	help	11	preview	14	539	0	0	0	0
303	529	if	if	if	11	preview	14	540	0	0	0	0
304	530	it	it	it	11	preview	14	541	154	154	154	154
305	531	is	is	is	11	preview	14	542	0	0	0	0
306	532	available	available	available.-	11	preview	14	543	236	236	236	236
	533	.	.		11	preview	14	544				
307	534	-	-	As	11	preview	14	545	110	110	110	110
308	535	As	As	for	11	preview	14	546	148	0	0	0
309	536	for	for	Intel-s	11	preview	14	547	142	142	290	142
	537	@entity12	Intel		11	preview	14	548				
	538	-s	-s		11	preview	14	549				
310	539	reported	reported	reported	11	preview	14	550	241	241	241	241
311	540	purchase	purchase	purchase	11	preview	14	551	162	162	162	162
312	541	of	of	of	11	preview	14	552	0	0	0	0
313	542	@entity16	Altera	Altera,	11	preview	14	553	157	157	157	157
	543	,	,		11	preview	14	554				
314	544	that	that	that	11	preview	14	555	0	0	0	0
315	545	still	still	still	11	preview	14	556	0	0	0	0
316	546	has	has	has	11	preview	14	557	0	0	0	0
317	547	yet	yet	yet	11	preview	14	558	0	0	0	0
318	548	to	to	to	11	preview	14	559	0	0	0	0
319	549	happen	happen	happen.	11	preview	14	560	196	196	196	196
	550	.	.		11	preview	14	561				
320	551	Meanwhile	Meanwhile	Meanwhile,	11	preview	14	562	155	155	155	155
	552	,	,		11	preview	14	563				
321	553	@entity12	Intel	Intel	11	preview	14	564	192	0	0	0
322	554	share	share	share	11	preview	14	565	124	124	316	124
323	555	prices	prices	prices	11	preview	14	566	180	180	180	180
324	556	fell	fell	fell	11	preview	14	567	0	0	0	0
325	557	earlier	earlier	earlier	11	preview	14	568	438	438	438	438
326	558	this	this	this	11	preview	14	569	0	0	0	0
327	559	week	week	week	11	preview	14	570	0	0	0	0
328	560	in	in	in	11	preview	14	571	0	0	0	0
329	561	response	response	response	11	preview	14	572	296	296	296	296
330	562	to	to	to	11	preview	14	573	0	0	0	0
331	563	the	the	the	11	preview	14	574	167	167	167	167
332	564	news	news	news	11	preview	14	575	0	0	0	0
333	565	that	that	that	11	preview	14	576	158	158	158	158
334	566	they	they	they	11	preview	14	577	0	0	0	0
335	567	might	might	might	11	preview	14	578	107	107	107	107
336	568	purchase	purchase	purchase	11	preview	14	579	0	0	0	0
337	569	@entity16	Altera	Altera.	11	preview	14	580	0	0	0	0
	570	.	.		11	preview	14	581				
