HumanPosition	AnonymizedPosition	AnonymizedToken	OriginalToken	ExperimentToken	Participant	Condition	TextNo	JointPosition	tt	fp	rp	ff
1	0	(	(	Sabra	11	preview	2	1	471	0	0	0
	1	@entity2	CNN		11	preview	2	2				
	2	)	)		11	preview	2	3				
	3	@entity1	Sabra		11	preview	2	4				
2			Dipping	Dipping	11	preview	2	5	763	0	0	0
3			Co.	Co.	11	preview	2	6	215	0	0	0
4	4	is	is	is	11	preview	2	7	0	0	0	0
5	5	recalling	recalling	recalling	11	preview	2	8	541	0	0	0
6	6	30,000	30,000	30,000	11	preview	2	9	189	0	0	0
7	7	cases	cases	cases	11	preview	2	10	163	0	0	0
8	8	of	of	of	11	preview	2	11	0	0	0	0
9	9	hummus	hummus	hummus	11	preview	2	12	378	0	0	0
10	10	due	due	due	11	preview	2	13	193	0	0	0
11	11	to	to	to	11	preview	2	14	0	0	0	0
12	12	possible	possible	possible	11	preview	2	15	342	0	0	0
13	13	contamination	contamination	contamination	11	preview	2	16	240	0	0	0
14	14	with	with	with	11	preview	2	17	224	0	0	0
15	15	@entity6	Listeria	Listeria,	11	preview	2	18	252	111	2772	111
	16	,	,		11	preview	2	19				
16	17	the	the	the	11	preview	2	20	0	0	0	0
17	18	@entity0	U.S.	U.S.	11	preview	2	21	561	312	702	312
18			Food	Food	11	preview	2	22	0	0	0	0
19			and	and	11	preview	2	23	0	0	0	0
20			Drug	Drug	11	preview	2	24	223	223	223	223
21			Administration	Administration	11	preview	2	25	0	0	0	0
22	19	said	said	said	11	preview	2	26	0	0	0	0
23	20	Wednesday	Wednesday	Wednesday.	11	preview	2	27	232	232	232	232
	21	.	.		11	preview	2	28				
24	22	The	The	The	11	preview	2	29	0	0	0	0
25	23	nationwide	nationwide	nationwide	11	preview	2	30	239	239	239	239
26	24	recall	recall	recall	11	preview	2	31	0	0	0	0
27	25	is	is	is	11	preview	2	32	0	0	0	0
28	26	voluntary	voluntary	voluntary.	11	preview	2	33	429	0	0	0
	27	.	.		11	preview	2	34				
29	28	So	So	So	11	preview	2	35	153	0	0	0
30	29	far	far	far,	11	preview	2	36	347	0	0	0
	30	,	,		11	preview	2	37				
31	31	no	no	no	11	preview	2	38	0	0	0	0
32	32	illnesses	illnesses	illnesses	11	preview	2	39	453	149	149	149
33	33	caused	caused	caused	11	preview	2	40	0	0	0	0
34	34	by	by	by	11	preview	2	41	270	0	0	0
35	35	the	the	the	11	preview	2	42	0	0	0	0
36	36	hummus	hummus	hummus	11	preview	2	43	350	204	2911	204
37	37	have	have	have	11	preview	2	44	0	0	0	0
38	38	been	been	been	11	preview	2	45	187	187	187	187
39	39	reported	reported	reported.	11	preview	2	46	275	275	275	275
	40	.	.		11	preview	2	47				
40	41	The	The	The	11	preview	2	48	0	0	0	0
41	42	potential	potential	potential	11	preview	2	49	246	246	246	246
42	43	for	for	for	11	preview	2	50	0	0	0	0
43	44	contamination	contamination	contamination	11	preview	2	51	415	415	415	248
44	45	was	was	was	11	preview	2	52	0	0	0	0
45	46	discovered	discovered	discovered	11	preview	2	53	312	114	114	114
46	47	when	when	when	11	preview	2	54	0	0	0	0
47	48	a	a	a	11	preview	2	55	0	0	0	0
48	49	routine	routine	routine,	11	preview	2	56	238	0	0	0
	50	,	,		11	preview	2	57				
49	51	random	random	random	11	preview	2	58	201	0	0	0
50	52	sample	sample	sample	11	preview	2	59	148	0	0	0
51	53	collected	collected	collected	11	preview	2	60	279	0	0	0
52	54	at	at	at	11	preview	2	61	430	0	0	0
53	55	a	a	a	11	preview	2	62	0	0	0	0
54	56	@entity14	Michigan	Michigan	11	preview	2	63	550	220	1493	220
55	57	store	store	store	11	preview	2	64	0	0	0	0
56	58	on	on	on	11	preview	2	65	214	214	214	214
57	59	March	March	March	11	preview	2	66	504	298	298	298
58	60	30	30	30	11	preview	2	67	0	0	0	0
59	61	tested	tested	tested	11	preview	2	68	298	298	298	298
60	62	positive	positive	positive	11	preview	2	69	0	0	0	0
61	63	for	for	for	11	preview	2	70	193	193	193	193
62	64	@entity6	Listeria	Listeria	11	preview	2	71	156	156	156	156
63	65	monocytogenes	monocytogenes	monocytogenes.	11	preview	2	72	272	272	1029	272
	66	.	.		11	preview	2	73				
64	67	The	The	The	11	preview	2	74	450	248	248	248
65	68	@entity0	FDA	FDA	11	preview	2	75	0	0	0	0
66	69	issued	issued	issued	11	preview	2	76	744	552	946	552
67	70	a	a	a	11	preview	2	77	0	0	0	0
68	71	list	list	list	11	preview	2	78	157	157	157	157
69	72	of	of	of	11	preview	2	79	0	0	0	0
70	73	the	the	the	11	preview	2	80	0	0	0	0
71	74	products	products	products	11	preview	2	81	164	164	164	164
72	75	in	in	in	11	preview	2	82	0	0	0	0
73	76	the	the	the	11	preview	2	83	0	0	0	0
74	77	recall	recall	recall.	11	preview	2	84	220	220	220	220
	78	.	.		11	preview	2	85				
75	79	Anyone	Anyone	Anyone	11	preview	2	86	212	0	0	0
76	80	who	who	who	11	preview	2	87	173	0	0	0
77	81	has	has	has	11	preview	2	88	0	0	0	0
78	82	purchased	purchased	purchased	11	preview	2	89	0	0	0	0
79	83	any	any	any	11	preview	2	90	0	0	0	0
80	84	of	of	of	11	preview	2	91	0	0	0	0
81	85	the	the	the	11	preview	2	92	161	0	0	0
82	86	items	items	items	11	preview	2	93	124	0	0	0
83	87	is	is	is	11	preview	2	94	279	0	0	0
84	88	urged	urged	urged	11	preview	2	95	0	0	0	0
85	89	to	to	to	11	preview	2	96	213	0	0	0
86	90	dispose	dispose	dispose	11	preview	2	97	186	0	0	0
87	91	of	of	of	11	preview	2	98	145	0	0	0
88	92	or	or	or	11	preview	2	99	0	0	0	0
89	93	return	return	return	11	preview	2	100	446	0	0	0
90	94	it	it	it	11	preview	2	101	0	0	0	0
91	95	to	to	to	11	preview	2	102	0	0	0	0
92	96	the	the	the	11	preview	2	103	232	0	0	0
93	97	store	store	store	11	preview	2	104	0	0	0	0
94	98	for	for	for	11	preview	2	105	236	0	0	0
95	99	a	a	a	11	preview	2	106	0	0	0	0
96	100	full	full	full	11	preview	2	107	116	0	0	0
97	101	refund	refund	refund.	11	preview	2	108	241	0	0	0
	102	.	.		11	preview	2	109				
98	103	Listeria	Listeria	Listeria	11	preview	2	110	409	0	0	0
99	104	monocytogenes	monocytogenes	monocytogenes	11	preview	2	111	168	0	0	0
100	105	can	can	can	11	preview	2	112	0	0	0	0
101	106	cause	cause	cause	11	preview	2	113	255	0	0	0
102	107	serious	serious	serious	11	preview	2	114	0	0	0	0
103	108	and	and	and	11	preview	2	115	215	0	0	0
104	109	sometimes	sometimes	sometimes	11	preview	2	116	214	0	0	0
105	110	fatal	fatal	fatal	11	preview	2	117	0	0	0	0
106	111	infections	infections	infections	11	preview	2	118	121	0	0	0
107	112	in	in	in	11	preview	2	119	0	0	0	0
108	113	young	young	young	11	preview	2	120	0	0	0	0
109	114	children	children	children,	11	preview	2	121	235	0	0	0
	115	,	,		11	preview	2	122				
110	116	frail	frail	frail	11	preview	2	123	552	0	0	0
111	117	or	or	or	11	preview	2	124	0	0	0	0
112	118	elderly	elderly	elderly	11	preview	2	125	167	0	0	0
113	119	people	people	people,	11	preview	2	126	0	0	0	0
	120	,	,		11	preview	2	127				
114	121	and	and	and	11	preview	2	128	0	0	0	0
115	122	others	others	others	11	preview	2	129	0	0	0	0
116	123	with	with	with	11	preview	2	130	0	0	0	0
117	124	weakened	weakened	weakened	11	preview	2	131	443	443	443	262
118	125	immune	immune	immune	11	preview	2	132	0	0	0	0
119	126	systems	systems	systems,	11	preview	2	133	0	0	0	0
	127	,	,		11	preview	2	134				
120	128	the	the	the	11	preview	2	135	433	0	0	0
121	129	@entity0	FDA	FDA	11	preview	2	136	0	0	0	0
122	130	says	says	says.	11	preview	2	137	189	0	0	0
	131	.	.		11	preview	2	138				
123	132	Although	Although	Although	11	preview	2	139	128	0	0	0
124	133	some	some	some	11	preview	2	140	0	0	0	0
125	134	people	people	people	11	preview	2	141	0	0	0	0
126	135	may	may	may	11	preview	2	142	0	0	0	0
127	136	suffer	suffer	suffer	11	preview	2	143	160	0	0	0
128	137	only	only	only	11	preview	2	144	0	0	0	0
129	138	short	short	short-term	11	preview	2	145	409	0	0	0
	139	-	-		11	preview	2	146				
	140	term	term		11	preview	2	147				
130	141	symptoms	symptoms	symptoms	11	preview	2	148	746	148	6157	148
131	142	such	such	such	11	preview	2	149	481	270	270	270
132	143	as	as	as	11	preview	2	150	0	0	0	0
133	144	high	high	high	11	preview	2	151	0	0	0	0
134	145	fever	fever	fever,	11	preview	2	152	436	200	1655	200
	146	,	,		11	preview	2	153				
135	147	severe	severe	severe	11	preview	2	154	0	0	0	0
136	148	headache	headache	headache,	11	preview	2	155	332	176	176	176
	149	,	,		11	preview	2	156				
137	150	nausea	nausea	nausea,	11	preview	2	157	0	0	0	0
	151	,	,		11	preview	2	158				
138	152	abdominal	abdominal	abdominal	11	preview	2	159	152	152	152	152
139	153	pain	pain	pain	11	preview	2	160	0	0	0	0
140	154	and	and	and	11	preview	2	161	0	0	0	0
141	155	diarrhea	diarrhea	diarrhea,	11	preview	2	162	247	247	247	247
	156	,	,		11	preview	2	163				
142	157	@entity6	Listeria	Listeria	11	preview	2	164	191	191	191	191
143	158	can	can	can	11	preview	2	165	0	0	0	0
144	159	also	also	also	11	preview	2	166	156	0	0	0
145	160	cause	cause	cause	11	preview	2	167	199	199	511	199
146	161	miscarriages	miscarriages	miscarriages	11	preview	2	168	0	0	0	0
147	162	and	and	and	11	preview	2	169	0	0	0	0
148	163	stillbirths	stillbirths	stillbirths	11	preview	2	170	0	0	0	0
149	164	among	among	among	11	preview	2	171	0	0	0	0
150	165	pregnant	pregnant	pregnant	11	preview	2	172	0	0	0	0
151	166	women	women	women.	11	preview	2	173	0	0	0	0
	167	.	.		11	preview	2	174				
