HumanPosition	AnonymizedPosition	AnonymizedToken	OriginalToken	ExperimentToken	Participant	Condition	TextNo	JointPosition	tt	fp	rp	ff
1	0	A	A	A	11	preview	20	1	0	0	0	0
2	1	physician	physician	physician,	11	preview	20	2	0	0	0	0
	2	,	,		11	preview	20	3				
3	3	93	93	93,	11	preview	20	4	0	0	0	0
	4	,	,		11	preview	20	5				
4	5	who	who	who	11	preview	20	6	0	0	0	0
5				was	11	preview	20	7	0	0	0	0
6	6	team	team	team	11	preview	20	8	0	0	0	0
7	7	doctor	doctor	doctor	11	preview	20	9	0	0	0	0
8	8	for	for	for	11	preview	20	10	0	0	0	0
9	9	five	five	five	11	preview	20	11	0	0	0	0
10	10	@entity6	U.S.	U.S.	11	preview	20	12	0	0	0	0
11	11	men	men	men-s	11	preview	20	13	0	0	0	0
	12	-s	-s		11	preview	20	14				
12	13	@entity4	Olympic	Olympic	11	preview	20	15	0	0	0	0
13	14	hockey	hockey	hockey	11	preview	20	16	0	0	0	0
14	15	squads	squads	squads,	11	preview	20	17	0	0	0	0
	16	,	,		11	preview	20	18				
15	17	including	including	including	11	preview	20	19	334	170	170	170
16	18	the	the	the	11	preview	20	20	0	0	0	0
17	19	-	-	-Miracle	11	preview	20	21	194	194	194	194
	20	@entity8	Miracle		11	preview	20	22				
18			on	on	11	preview	20	23	218	218	218	218
19			Ice	Ice-	11	preview	20	24	214	214	214	214
	21	-	-		11	preview	20	25				
20	22	team	team	team	11	preview	20	26	202	202	202	202
21	23	that	that	that	11	preview	20	27	0	0	0	0
22	24	won	won	won	11	preview	20	28	147	0	0	0
23	25	in	in	in	11	preview	20	29	0	0	0	0
24	26	the	the	the	11	preview	20	30	184	184	184	184
25	27	1980	1980	1980-s,	11	preview	20	31	437	143	143	143
	28	-s	-s		11	preview	20	32				
	29	,	,		11	preview	20	33				
26	30	has	has	has	11	preview	20	34	83	0	0	0
27	31	suffered	suffered	suffered	11	preview	20	35	146	0	0	0
28	32	serious	serious	serious	11	preview	20	36	369	224	388	224
29	33	injuries	injuries	injuries	11	preview	20	37	214	0	0	0
30	34	in	in	in	11	preview	20	38	0	0	0	0
31	35	an	an	an	11	preview	20	39	0	0	0	0
32	36	attack	attack	attack	11	preview	20	40	0	0	0	0
33	37	while	while	while	11	preview	20	41	202	0	0	0
34	38	visiting	visiting	visiting	11	preview	20	42	130	0	0	0
35	39	his	his	his	11	preview	20	43	478	144	1679	144
36	40	wife	wife	wife-s	11	preview	20	44	0	0	0	0
	41	-s	-s		11	preview	20	45				
37	42	grave	grave	grave	11	preview	20	46	0	0	0	0
38	43	on	on	on	11	preview	20	47	0	0	0	0
39	44	Sunday	Sunday	Sunday.	11	preview	20	48	568	226	226	226
	45	.	.		11	preview	20	49				
40	46	@entity13	George	George	11	preview	20	50	0	0	0	0
41			Nagobads	Nagobads	11	preview	20	51	1033	403	403	206
42	47	was	was	was	11	preview	20	52	155	155	626	155
43	48	allegedly	allegedly	allegedly	11	preview	20	53	495	0	0	0
44	49	mugged	mugged	mugged	11	preview	20	54	547	114	1042	114
45	50	by	by	by	11	preview	20	55	0	0	0	0
46	51	a	a	a	11	preview	20	56	0	0	0	0
47	52	teenager	teenager	teenager	11	preview	20	57	238	238	238	238
48	53	on	on	on	11	preview	20	58	0	0	0	0
49	54	Sunday	Sunday	Sunday	11	preview	20	59	252	252	252	252
50	55	afternoon	afternoon	afternoon	11	preview	20	60	155	155	155	155
51	56	at	at	at	11	preview	20	61	0	0	0	0
52	57	the	the	the	11	preview	20	62	0	0	0	0
53	58	@entity15	Crystal	Crystal	11	preview	20	63	218	218	218	218
54			Lake	Lake	11	preview	20	64	0	0	0	0
55			Cemetery	Cemetery	11	preview	20	65	313	313	313	155
56	59	in	in	in	11	preview	20	66	0	0	0	0
57	60	@entity16	Minneapolis	Minneapolis	11	preview	20	67	510	510	510	142
58	61	while	while	while	11	preview	20	68	0	0	0	0
59	62	laying	laying	laying	11	preview	20	69	250	250	250	250
60	63	flowers	flowers	flowers	11	preview	20	70	151	151	151	151
61	64	on	on	on	11	preview	20	71	0	0	0	0
62	65	his	his	his	11	preview	20	72	0	0	0	0
63	66	wife	wife	wife	11	preview	20	73	262	262	262	262
64	67	@entity18	Velta	Velta-s	11	preview	20	74	0	0	0	0
	68	-s	-s		11	preview	20	75				
65	69	grave	grave	grave.	11	preview	20	76	226	226	226	226
	70	.	.		11	preview	20	77				
66	71	He	He	He	11	preview	20	78	0	0	0	0
67	72	was	was	was	11	preview	20	79	0	0	0	0
68	73	released	released	released	11	preview	20	80	197	197	197	197
69	74	from	from	from	11	preview	20	81	206	206	206	206
70	75	the	the	the	11	preview	20	82	152	152	152	152
71	76	hospital	hospital	hospital	11	preview	20	83	456	456	456	152
72	77	on	on	on	11	preview	20	84	0	0	0	0
73	78	Tuesday	Tuesday	Tuesday	11	preview	20	85	244	244	244	244
74	79	with	with	with	11	preview	20	86	181	181	181	181
75	80	18	18	18	11	preview	20	87	0	0	0	0
76	81	stitches	stitches	stitches	11	preview	20	88	216	216	216	216
77	82	in	in	in	11	preview	20	89	0	0	0	0
78	83	his	his	his	11	preview	20	90	0	0	0	0
79	84	head	head	head.	11	preview	20	91	198	198	198	198
	85	.	.		11	preview	20	92				
80	86	Scroll	Scroll	After	11	preview	20	93	0	0	0	0
	87	down	down		11	preview	20	94				
	88	for	for		11	preview	20	95				
81	89	video	video	allegedly	11	preview	20	96	273	273	273	273
	90	Injured	Injured		11	preview	20	97				
	91	:	:		11	preview	20	98				
	92	Dr.	Dr.		11	preview	20	99				
	93	@entity13	George		11	preview	20	100				
			Nagobads		11	preview	20	101				
	94	,	,		11	preview	20	102				
	95	pictured	pictured		11	preview	20	103				
	96	in	in		11	preview	20	104				
	97	2010	2010		11	preview	20	105				
	98	with	with		11	preview	20	106				
	99	his	his		11	preview	20	107				
	100	@entity25	Hall		11	preview	20	108				
			of		11	preview	20	109				
			Fame		11	preview	20	110				
	101	plaque	plaque		11	preview	20	111				
	102	,	,		11	preview	20	112				
	103	was	was		11	preview	20	113				
	104	allegedly	allegedly		11	preview	20	114				
82	105	attacked	attacked	being	11	preview	20	115	477	477	477	477
	106	on	on		11	preview	20	116				
	107	Sunday	Sunday		11	preview	20	117				
	108	by	by		11	preview	20	118				
	109	a	a		11	preview	20	119				
	110	teenager	teenager		11	preview	20	120				
	111	in	in		11	preview	20	121				
83	112	a	a	attacked	11	preview	20	122	159	159	159	159
	113	cemetary	cemetary		11	preview	20	123				
	114	Visiting	Visiting		11	preview	20	124				
	115	his	his		11	preview	20	125				
	116	wife	wife		11	preview	20	126				
	117	:	:		11	preview	20	127				
	118	@entity13	Nagobads		11	preview	20	128				
	119	was	was		11	preview	20	129				
	120	visiting	visiting		11	preview	20	130				
	121	his	his		11	preview	20	131				
	122	wife	wife		11	preview	20	132				
	123	-s	-s		11	preview	20	133				
	124	grave	grave		11	preview	20	134				
	125	at	at		11	preview	20	135				
	126	The	The		11	preview	20	136				
	127	@entity15	Crystal		11	preview	20	137				
			Lake		11	preview	20	138				
			Cemetery		11	preview	20	139				
	128	when	when		11	preview	20	140				
	129	he	he		11	preview	20	141				
	130	was	was		11	preview	20	142				
	131	allegedly	allegedly		11	preview	20	143				
	132	beaten	beaten		11	preview	20	144				
	133	with	with		11	preview	20	145				
	134	a	a		11	preview	20	146				
	135	snowbrush	snowbrush		11	preview	20	147				
	136	After	After		11	preview	20	148				
	137	allegedly	allegedly		11	preview	20	149				
	138	being	being		11	preview	20	150				
	139	attacked	attacked		11	preview	20	151				
84	140	by	by	by	11	preview	20	152	139	139	139	139
85	141	a	a	a	11	preview	20	153	0	0	0	0
86	142	snowbrush	snowbrush	snowbrush	11	preview	20	154	175	0	0	0
87	143	on	on	on	11	preview	20	155	123	123	298	123
88	144	Sunday	Sunday	Sunday,	11	preview	20	156	262	0	0	0
	145	,	,		11	preview	20	157				
89	146	a	a	a	11	preview	20	158	0	0	0	0
90	147	bloodied	bloodied	bloodied	11	preview	20	159	104	0	0	0
91	148	@entity31	Nagobads	Nagobads	11	preview	20	160	277	0	0	0
92	149	managed	managed	managed	11	preview	20	161	381	0	0	0
93	150	to	to	to	11	preview	20	162	176	0	0	0
94	151	get	get	get	11	preview	20	163	0	0	0	0
95	152	back	back	back	11	preview	20	164	259	0	0	0
96	153	in	in	in	11	preview	20	165	0	0	0	0
97	154	his	his	his	11	preview	20	166	0	0	0	0
98	155	car	car	car	11	preview	20	167	187	0	0	0
99	156	and	and	and	11	preview	20	168	0	0	0	0
100	157	drive	drive	drive	11	preview	20	169	204	0	0	0
101	158	away	away	away.	11	preview	20	170	171	0	0	0
	159	.	.		11	preview	20	171				
102	160	@entity31	Nagobads	Nagobads,	11	preview	20	172	685	262	2706	262
	161	,	,		11	preview	20	173				
103	162	who	who	who	11	preview	20	174	0	0	0	0
104	163	is	is	is	11	preview	20	175	213	213	213	213
105	164	recovering	recovering	recovering	11	preview	20	176	194	194	194	194
106	165	at	at	at	11	preview	20	177	0	0	0	0
107	166	home	home	home,	11	preview	20	178	0	0	0	0
	167	,	,		11	preview	20	179				
108	168	said	said	said	11	preview	20	180	211	211	211	211
109	169	on	on	on	11	preview	20	181	168	0	0	0
110	170	Tuesday	Tuesday	Tuesday	11	preview	20	182	752	752	920	240
111	171	that	that	that	11	preview	20	183	186	186	186	186
112	172	he	he	he	11	preview	20	184	0	0	0	0
113	173	sped	sped	sped	11	preview	20	185	208	208	208	208
114	174	to	to	to	11	preview	20	186	0	0	0	0
115	175	a	a	a	11	preview	20	187	165	165	165	165
116	176	nearby	nearby	nearby	11	preview	20	188	465	465	465	465
117	177	hospital	hospital	hospital	11	preview	20	189	202	0	0	0
118	178	following	following	following	11	preview	20	190	352	120	554	120
119	179	the	the	the	11	preview	20	191	0	0	0	0
120	180	beating	beating	beating.	11	preview	20	192	409	409	409	240
	181	.	.		11	preview	20	193				
121	182	He	He	He	11	preview	20	194	0	0	0	0
122	183	told	told	told	11	preview	20	195	202	202	202	202
123	184	@entity37	The	The	11	preview	20	196	166	166	166	166
124			Star	Star	11	preview	20	197	298	298	298	298
125			Tribune	Tribune	11	preview	20	198	332	332	332	212
126	185	that	that	that	11	preview	20	199	0	0	0	0
127	186	he	he	he	11	preview	20	200	204	204	204	204
128	187	suffered	suffered	suffered	11	preview	20	201	246	246	246	246
129	188	a	a	a	11	preview	20	202	0	0	0	0
130	189	slight	slight	slight	11	preview	20	203	192	192	192	192
131	190	concussion	concussion	concussion	11	preview	20	204	326	326	326	120
132	191	and	and	and	11	preview	20	205	0	0	0	0
133	192	was	was	was	11	preview	20	206	149	149	149	149
134	193	kept	kept	kept	11	preview	20	207	143	0	0	0
135	194	overnight	overnight	overnight	11	preview	20	208	231	231	374	231
136	195	for	for	for	11	preview	20	209	182	182	182	182
137	196	observation	observation	observation.	11	preview	20	210	154	154	154	154
	197	.	.		11	preview	20	211				
138	198	Video	Video	-I	11	preview	20	212	0	0	0	0
	199	courtesy	courtesy		11	preview	20	213				
	200	@entity40	Fox		11	preview	20	214				
			9		11	preview	20	215				
139	201	-	-	brought	11	preview	20	216	223	223	223	223
	202	I	I		11	preview	20	217				
	203	brought	brought		11	preview	20	218				
140	204	new	new	new	11	preview	20	219	0	0	0	0
141	205	flowers	flowers	flowers	11	preview	20	220	164	164	164	164
142	206	and	and	and	11	preview	20	221	146	146	146	146
143	207	was	was	was	11	preview	20	222	0	0	0	0
144	208	just	just	just	11	preview	20	223	168	0	0	0
145	209	stooping	stooping	stooping	11	preview	20	224	142	142	310	142
146	210	down	down	down,-	11	preview	20	225	0	0	0	0
	211	,	,		11	preview	20	226				
147	212	-	-	said	11	preview	20	227	182	182	182	182
	213	said	said		11	preview	20	228				
148	214	@entity13	Nagobads	Nagobads	11	preview	20	229	157	157	157	157
149	215	of	of	of	11	preview	20	230	0	0	0	0
150	216	honoring	honoring	honoring	11	preview	20	231	172	172	172	172
151	217	his	his	his	11	preview	20	232	0	0	0	0
152	218	wife	wife	wife	11	preview	20	233	166	166	166	166
153	219	@entity31	Velta	Velta	11	preview	20	234	145	0	0	0
154			Nagobads	Nagobads	11	preview	20	235	435	435	580	435
155	220	who	who	who	11	preview	20	236	0	0	0	0
156	221	died	died	died	11	preview	20	237	347	194	1008	194
157	222	in	in	in	11	preview	20	238	0	0	0	0
158	223	2005	2005	2005.	11	preview	20	239	181	181	181	181
	224	.	.		11	preview	20	240				
159	225	Nagobads	Nagobads	Nagobads	11	preview	20	241	576	576	576	361
160	226	said	said	said	11	preview	20	242	194	194	194	194
161	227	that	that	that	11	preview	20	243	155	0	0	0
162	228	by	by	by	11	preview	20	244	0	0	0	0
163	229	throwing	throwing	throwing	11	preview	20	245	203	203	358	203
164	230	his	his	his	11	preview	20	246	189	189	189	189
165	231	wallet	wallet	wallet	11	preview	20	247	0	0	0	0
166	232	in	in	in	11	preview	20	248	0	0	0	0
167	233	attempt	attempt	attempt	11	preview	20	249	605	413	413	163
168	234	to	to	to	11	preview	20	250	0	0	0	0
169	235	distract	distract	distract	11	preview	20	251	756	241	948	241
170	236	the	the	the	11	preview	20	252	0	0	0	0
171	237	teen	teen	teen	11	preview	20	253	168	168	168	168
172	238	he	he	he	11	preview	20	254	0	0	0	0
173	239	was	was	was	11	preview	20	255	119	0	0	0
174	240	able	able	able	11	preview	20	256	0	0	0	0
175	241	to	to	to	11	preview	20	257	129	129	248	129
176	242	get	get	get	11	preview	20	258	0	0	0	0
177	243	away	away	away	11	preview	20	259	256	256	256	256
178	244	without	without	without	11	preview	20	260	0	0	0	0
179	245	further	further	further	11	preview	20	261	222	222	222	222
180	246	harm	harm	harm.	11	preview	20	262	142	142	142	142
	247	.	.		11	preview	20	263				
181	248	-	-	-I-m	11	preview	20	264	0	0	0	0
	249	I	I		11	preview	20	265				
	250	’m	’m		11	preview	20	266				
182	251	so	so	so	11	preview	20	267	0	0	0	0
183	252	lucky	lucky	lucky.	11	preview	20	268	163	163	163	163
	253	.	.		11	preview	20	269				
184	254	…	…	...	11	preview	20	270	228	228	228	228
185	255	I	I	I	11	preview	20	271	0	0	0	0
186	256	used	used	used	11	preview	20	272	0	0	0	0
187	257	that	that	that	11	preview	20	273	166	166	166	166
188	258	little	little	little	11	preview	20	274	161	161	161	161
189	259	trick	trick	trick	11	preview	20	275	275	275	275	275
190	260	and	and	and	11	preview	20	276	0	0	0	0
191	261	threw	threw	threw	11	preview	20	277	238	238	238	238
192	262	the	the	the	11	preview	20	278	254	0	0	0
193	263	wallet	wallet	wallet	11	preview	20	279	168	168	168	168
194	264	to	to	to	11	preview	20	280	0	0	0	0
195	265	get	get	get	11	preview	20	281	160	0	0	0
196	266	to	to	to	11	preview	20	282	161	161	575	161
197	267	my	my	my	11	preview	20	283	0	0	0	0
198	268	car	car	car-	11	preview	20	284	0	0	0	0
	269	-	-		11	preview	20	285				
199	270	about	about	about	11	preview	20	286	0	0	0	0
200	271	40	40	40	11	preview	20	287	205	0	0	0
201	272	yards	yards	yards	11	preview	20	288	207	207	412	207
202	273	away	away	away,	11	preview	20	289	0	0	0	0
	274	,	,		11	preview	20	290				
203	275	the	the	the	11	preview	20	291	0	0	0	0
204	276	doctor	doctor	doctor	11	preview	20	292	194	194	194	194
205	277	said	said	said.	11	preview	20	293	0	0	0	0
	278	.	.		11	preview	20	294				
206	279	As	As	As	11	preview	20	295	140	140	140	140
207	280	the	the	the	11	preview	20	296	0	0	0	0
208	281	boy	boy	boy	11	preview	20	297	164	0	0	0
209	282	picked	picked	picked	11	preview	20	298	166	166	330	166
210	283	up	up	up	11	preview	20	299	0	0	0	0
211	284	the	the	the	11	preview	20	300	184	184	184	184
212	285	wallet	wallet	wallet,	11	preview	20	301	0	0	0	0
	286	,	,		11	preview	20	302				
213	287	@entity31	Nagobads	Nagobads	11	preview	20	303	232	232	232	232
214	288	continued	continued	continued,	11	preview	20	304	0	0	0	0
	289	,	,		11	preview	20	305				
215	290	-	-	-I	11	preview	20	306	0	0	0	0
	291	I	I		11	preview	20	307				
216	292	was	was	was	11	preview	20	308	173	173	173	173
217	293	running	running	running	11	preview	20	309	129	129	129	129
218	294	…	…	...	11	preview	20	310	0	0	0	0
219	295	really	really	really	11	preview	20	311	0	0	0	0
220	296	fast	fast	fast.	11	preview	20	312	451	451	451	215
	297	.	.		11	preview	20	313				
221	298	I	I	I	11	preview	20	314	0	0	0	0
222	299	was	was	was	11	preview	20	315	168	0	0	0
223	300	surprised	surprised	surprised	11	preview	20	316	116	116	284	116
224	301	how	how	how	11	preview	20	317	357	258	258	258
225	302	I	I	I	11	preview	20	318	0	0	0	0
226	303	could	could	could	11	preview	20	319	240	240	339	240
227	304	run	run	run	11	preview	20	320	0	0	0	0
228	305	like	like	like	11	preview	20	321	249	249	249	249
229	306	this	this	this.-	11	preview	20	322	0	0	0	0
	307	.	.		11	preview	20	323				
230	308	-	-	Nagobads	11	preview	20	324	0	0	0	0
	309	Victory	Victory		11	preview	20	325				
	310	:	:		11	preview	20	326				
	311	He	He		11	preview	20	327				
	312	was	was		11	preview	20	328				
	313	the	the		11	preview	20	329				
	314	doctor	doctor		11	preview	20	330				
	315	fro	fro		11	preview	20	331				
	316	the	the		11	preview	20	332				
	317	-	-		11	preview	20	333				
	318	@entity8	Miracle		11	preview	20	334				
			on		11	preview	20	335				
			Ice		11	preview	20	336				
	319	-	-		11	preview	20	337				
	320	team	team		11	preview	20	338				
	321	that	that		11	preview	20	339				
	322	won	won		11	preview	20	340				
	323	the	the		11	preview	20	341				
	324	improbable	improbable		11	preview	20	342				
	325	gold	gold		11	preview	20	343				
	326	medal	medal		11	preview	20	344				
	327	in	in		11	preview	20	345				
	328	@entity62	Lake		11	preview	20	346				
	329	@entity8	Placid		11	preview	20	347				
			Miracle		11	preview	20	348				
			on		11	preview	20	349				
			Ice		11	preview	20	350				
	330	:	:		11	preview	20	351				
	331	Nagobads	Nagobads		11	preview	20	352				
231	332	was	was	said	11	preview	20	353	170	170	170	170
232	333	team	team	that	11	preview	20	354	194	0	0	0
233	334	doctor	doctor	he	11	preview	20	355	0	0	0	0
	335	for	for		11	preview	20	356				
234	336	the	the	bled	11	preview	20	357	137	0	0	0
235	337	famous	famous	heavily	11	preview	20	358	225	225	556	225
	338	-	-		11	preview	20	359				
	339	@entity8	Miracle		11	preview	20	360				
			on		11	preview	20	361				
			Ice		11	preview	20	362				
	340	-	-		11	preview	20	363				
	341	team	team		11	preview	20	364				
	342	that	that		11	preview	20	365				
	343	won	won		11	preview	20	366				
	344	@entity4	Olympic		11	preview	20	367				
	345	gold	gold		11	preview	20	368				
	346	in	in		11	preview	20	369				
	347	1980	1980		11	preview	20	370				
	348	and	and		11	preview	20	371				
	349	that	that		11	preview	20	372				
	350	inspired	inspired		11	preview	20	373				
	351	the	the		11	preview	20	374				
	352	2004	2004		11	preview	20	375				
	353	movie	movie		11	preview	20	376				
	354	-	-		11	preview	20	377				
	355	Miracle	Miracle		11	preview	20	378				
	356	-	-		11	preview	20	379				
	357	@entity13	Nagobads		11	preview	20	380				
	358	said	said		11	preview	20	381				
	359	that	that		11	preview	20	382				
	360	he	he		11	preview	20	383				
	361	bled	bled		11	preview	20	384				
	362	heavily	heavily		11	preview	20	385				
236	363	while	while	while	11	preview	20	386	301	301	301	170
237	364	behind	behind	behind	11	preview	20	387	0	0	0	0
238	365	the	the	the	11	preview	20	388	117	117	117	117
239	366	wheel	wheel	wheel	11	preview	20	389	0	0	0	0
240	367	of	of	of	11	preview	20	390	159	159	159	159
241	368	his	his	his	11	preview	20	391	0	0	0	0
242	369	car	car	car	11	preview	20	392	146	146	146	146
243	370	and	and	and	11	preview	20	393	0	0	0	0
244	371	risked	risked	risked	11	preview	20	394	0	0	0	0
245	372	being	being	being	11	preview	20	395	352	159	159	159
246	373	stopped	stopped	stopped	11	preview	20	396	412	188	605	188
247	374	by	by	by	11	preview	20	397	0	0	0	0
248	375	a	a	a	11	preview	20	398	0	0	0	0
249	376	cop	cop	cop.	11	preview	20	399	0	0	0	0
	377	.	.		11	preview	20	400				
250	378	-	-	-I	11	preview	20	401	0	0	0	0
	379	I	I		11	preview	20	402				
251	380	drove	drove	drove	11	preview	20	403	244	244	244	244
252	381	way	way	way	11	preview	20	404	0	0	0	0
253	382	over	over	over	11	preview	20	405	176	176	176	176
254	383	the	the	the	11	preview	20	406	0	0	0	0
255	384	speed	speed	speed	11	preview	20	407	167	0	0	0
256	385	limit	limit	limit.	11	preview	20	408	154	154	321	154
	386	.	.		11	preview	20	409				
257	387	If	If	If	11	preview	20	410	0	0	0	0
258	388	a	a	a	11	preview	20	411	0	0	0	0
259	389	cop	cop	cop	11	preview	20	412	229	229	229	229
260	390	catches	catches	catches	11	preview	20	413	112	112	112	112
261	391	me	me	me,	11	preview	20	414	0	0	0	0
	392	,	,		11	preview	20	415				
262	393	that	that	that-s	11	preview	20	416	203	203	203	203
	394	’s	’s		11	preview	20	417				
263	395	fine	fine	fine,-	11	preview	20	418	0	0	0	0
	396	,	,		11	preview	20	419				
264	397	-	-	he	11	preview	20	420	0	0	0	0
265	398	he	he	said	11	preview	20	421	291	0	0	0
	399	said	said		11	preview	20	422				
266	400	he	he	he	11	preview	20	423	311	311	311	311
267	401	thought	thought	thought	11	preview	20	424	0	0	0	0
268	402	after	after	after	11	preview	20	425	193	193	193	193
269	403	the	the	the	11	preview	20	426	0	0	0	0
270	404	attack	attack	attack	11	preview	20	427	136	136	427	136
271	405	on	on	on	11	preview	20	428	0	0	0	0
272	406	Sunday	Sunday	Sunday.	11	preview	20	429	324	324	324	134
	407	.	.		11	preview	20	430				
273	408	Witness	Witness	Witness	11	preview	20	431	240	240	240	240
274	409	@entity76	Justin	Justin	11	preview	20	432	233	233	233	233
275			McCarthy	McCarthy	11	preview	20	433	168	168	168	168
276	410	says	says	says	11	preview	20	434	228	0	0	0
277	411	he	he	he	11	preview	20	435	0	0	0	0
278	412	saw	saw	saw	11	preview	20	436	234	234	234	234
279	413	a	a	a	11	preview	20	437	0	0	0	0
280	414	young	young	young	11	preview	20	438	225	0	0	0
281	415	man	man	man	11	preview	20	439	181	181	634	181
282	416	around	around	around	11	preview	20	440	0	0	0	0
283	417	the	the	the	11	preview	20	441	251	251	251	251
284	418	age	age	age	11	preview	20	442	0	0	0	0
285	419	of	of	of	11	preview	20	443	0	0	0	0
286	420	14	14	14	11	preview	20	444	230	230	230	230
287	421	or	or	or	11	preview	20	445	0	0	0	0
288	422	15	15	15	11	preview	20	446	132	132	132	132
289	423	looking	looking	looking	11	preview	20	447	241	241	241	241
290	424	through	through	through	11	preview	20	448	0	0	0	0
291	425	a	a	a	11	preview	20	449	296	296	296	296
292	426	wallet	wallet	wallet	11	preview	20	450	0	0	0	0
293	427	near	near	near	11	preview	20	451	231	231	231	231
294	428	the	the	the	11	preview	20	452	233	233	233	233
295	429	mausoleum	mausoleum	mausoleum	11	preview	20	453	158	158	158	158
296	430	before	before	before	11	preview	20	454	0	0	0	0
297	431	fleeing	fleeing	fleeing	11	preview	20	455	267	267	267	267
298	432	by	by	by	11	preview	20	456	216	216	216	216
299	433	bicycle	bicycle	bicycle	11	preview	20	457	0	0	0	0
300	434	and	and	and	11	preview	20	458	152	152	152	152
301	435	jumping	jumping	jumping	11	preview	20	459	157	157	157	157
302	436	over	over	over	11	preview	20	460	0	0	0	0
303	437	a	a	a	11	preview	20	461	0	0	0	0
304	438	fence	fence	fence.	11	preview	20	462	122	122	122	122
	439	.	.		11	preview	20	463				
305	440	-	-	-I	11	preview	20	464	0	0	0	0
	441	I	I		11	preview	20	465				
306	442	saw	saw	saw	11	preview	20	466	0	0	0	0
307	443	the	the	the	11	preview	20	467	316	316	316	316
308	444	kid	kid	kid	11	preview	20	468	148	148	148	148
309	445	there	there	there.	11	preview	20	469	0	0	0	0
	446	.	.		11	preview	20	470				
310	447	I	I	I	11	preview	20	471	0	0	0	0
311	448	put	put	put	11	preview	20	472	169	0	0	0
312	449	two	two	two	11	preview	20	473	195	195	364	195
313	450	and	and	and	11	preview	20	474	156	156	156	156
314	451	two	two	two	11	preview	20	475	0	0	0	0
315	452	together	together	together,	11	preview	20	476	0	0	0	0
	453	,	,		11	preview	20	477				
316	454	and	and	and	11	preview	20	478	143	0	0	0
317	455	I	I	I	11	preview	20	479	0	0	0	0
318	456	just	just	just	11	preview	20	480	0	0	0	0
319	457	got	got	got	11	preview	20	481	209	209	209	209
320	458	really	really	really	11	preview	20	482	166	166	309	166
321	459	mad	mad	mad,-	11	preview	20	483	178	178	178	178
	460	,	,		11	preview	20	484				
322	461	-	-	said	11	preview	20	485	0	0	0	0
	462	said	said		11	preview	20	486				
323	463	@entity76	McCarthy	McCarthy.	11	preview	20	487	0	0	0	0
	464	.	.		11	preview	20	488				
324	465	@entity76	McCarthy	McCarthy	11	preview	20	489	157	0	0	0
325	466	said	said	said	11	preview	20	490	180	0	0	0
326	467	he	he	he	11	preview	20	491	0	0	0	0
327	468	chased	chased	chased	11	preview	20	492	571	203	540	203
328	469	the	the	the	11	preview	20	493	0	0	0	0
329	470	teen	teen	teen	11	preview	20	494	0	0	0	0
330	471	but	but	but	11	preview	20	495	235	235	603	235
331	472	not	not	not	11	preview	20	496	343	343	343	184
332	473	very	very	very	11	preview	20	497	0	0	0	0
333	474	far	far	far.	11	preview	20	498	0	0	0	0
	475	.	.		11	preview	20	499				
334	476	-	-	-I-m	11	preview	20	500	0	0	0	0
	477	I	I		11	preview	20	501				
	478	’m	’m		11	preview	20	502				
335	479	52	52	52	11	preview	20	503	182	182	182	182
336	480	and	and	and	11	preview	20	504	0	0	0	0
337	481	I	I	I-m	11	preview	20	505	0	0	0	0
	482	’m	’m		11	preview	20	506				
338	483	kind	kind	kind	11	preview	20	507	480	0	0	0
339	484	of	of	of	11	preview	20	508	338	164	551	164
340	485	fat	fat	fat.	11	preview	20	509	303	150	570	150
	486	.	.		11	preview	20	510				
341	487	It	It	It	11	preview	20	511	0	0	0	0
342	488	was	was	wasn-t	11	preview	20	512	0	0	0	0
	489	n’t	n’t		11	preview	20	513				
343	490	going	going	going	11	preview	20	514	242	242	242	242
344	491	to	to	to	11	preview	20	515	0	0	0	0
345	492	happen	happen	happen.	11	preview	20	516	0	0	0	0
	493	.	.		11	preview	20	517				
346	494	…	…	...	11	preview	20	518	132	132	132	132
347	495	I	I	I	11	preview	20	519	0	0	0	0
348	496	was	was	was	11	preview	20	520	0	0	0	0
349	497	completely	completely	completely	11	preview	20	521	174	174	174	174
350	498	exhausted	exhausted	exhausted,-	11	preview	20	522	201	201	201	201
	499	,	,		11	preview	20	523				
351	500	-	-	said	11	preview	20	524	122	122	122	122
	501	said	said		11	preview	20	525				
352	502	@entity76	McCarthy	McCarthy.	11	preview	20	526	226	226	226	226
	503	.	.		11	preview	20	527				
353	504	@entity87	Mccarthy	McCarthy	11	preview	20	528	135	0	0	0
354	505	said	said	said	11	preview	20	529	248	248	383	248
355	506	that	that	that	11	preview	20	530	144	0	0	0
356	507	@entity13	Nagobads	Nagobads	11	preview	20	531	197	197	341	197
357	508	told	told	told	11	preview	20	532	230	230	230	230
358	509	him	him	him,	11	preview	20	533	0	0	0	0
	510	,	,		11	preview	20	534				
359	511	-	-	-I	11	preview	20	535	253	253	253	253
	512	I	I		11	preview	20	536				
360	513	gave	gave	gave	11	preview	20	537	0	0	0	0
361	514	him	him	him	11	preview	20	538	615	181	181	181
362	515	my	my	my	11	preview	20	539	0	0	0	0
363	516	wallet	wallet	wallet,	11	preview	20	540	1017	598	1451	598
	517	,	,		11	preview	20	541				
364	518	and	and	and	11	preview	20	542	166	166	166	166
365	519	he	he	he	11	preview	20	543	0	0	0	0
366	520	still	still	still	11	preview	20	544	156	156	156	156
367	521	tried	tried	tried	11	preview	20	545	236	236	236	236
368	522	to	to	to	11	preview	20	546	0	0	0	0
369	523	kill	kill	kill	11	preview	20	547	171	171	171	171
370	524	me	me	me.-	11	preview	20	548	0	0	0	0
	525	.	.		11	preview	20	549				
371	526	’	’	Nagobads	11	preview	20	550	549	349	349	349
	527	@entity13	Nagobads		11	preview	20	551				
372	528	was	was	was	11	preview	20	552	0	0	0	0
373	529	the	the	the	11	preview	20	553	206	206	206	206
374	530	@entity89	University	University	11	preview	20	554	184	0	0	0
375			of	of	11	preview	20	555	0	0	0	0
376			Minnesota	Minnesota	11	preview	20	556	191	191	191	191
377	531	men	men	men-s	11	preview	20	557	172	172	172	172
	532	-s	-s		11	preview	20	558				
378	533	hockey	hockey	hockey	11	preview	20	559	178	178	178	178
379	534	team	team	team	11	preview	20	560	0	0	0	0
380	535	physician	physician	physician	11	preview	20	561	168	0	0	0
381	536	for	for	for	11	preview	20	562	119	119	287	119
382	537	34	34	34	11	preview	20	563	218	218	218	218
383	538	years	years	years	11	preview	20	564	0	0	0	0
384	539	until	until	until	11	preview	20	565	0	0	0	0
385	540	his	his	his	11	preview	20	566	0	0	0	0
386	541	retirement	retirement	retirement	11	preview	20	567	385	247	769	247
387	542	in	in	in	11	preview	20	568	0	0	0	0
388	543	1992	1992	1992.	11	preview	20	569	0	0	0	0
	544	.	.		11	preview	20	570				
389	545	He	He	He	11	preview	20	571	0	0	0	0
390	546	also	also	also	11	preview	20	572	131	0	0	0
391	547	worked	worked	worked	11	preview	20	573	326	174	457	174
392	548	for	for	for	11	preview	20	574	0	0	0	0
393	549	the	the	the	11	preview	20	575	0	0	0	0
394	550	@entity93	Minnesota	Minnesota	11	preview	20	576	158	158	158	158
395			North	North	11	preview	20	577	266	0	0	0
396			Stars	Stars	11	preview	20	578	140	140	406	140
397	551	in	in	in	11	preview	20	579	0	0	0	0
398	552	the	the	the	11	preview	20	580	0	0	0	0
399	553	late	late	late	11	preview	20	581	0	0	0	0
400	554	1980s	1980s	1980s	11	preview	20	582	0	0	0	0
401	555	and	and	and	11	preview	20	583	0	0	0	0
402	556	early	early	early	11	preview	20	584	0	0	0	0
403	557	1990s	1990s	1990s.	11	preview	20	585	0	0	0	0
	558	.	.		11	preview	20	586				
404	559	And	And	And	11	preview	20	587	0	0	0	0
405	560	he	he	he	11	preview	20	588	0	0	0	0
406	561	was	was	was	11	preview	20	589	0	0	0	0
407	562	team	team	team	11	preview	20	590	0	0	0	0
408	563	doctor	doctor	doctor	11	preview	20	591	0	0	0	0
409	564	for	for	for	11	preview	20	592	0	0	0	0
410	565	the	the	the	11	preview	20	593	0	0	0	0
411	566	famous	famous	famous	11	preview	20	594	0	0	0	0
412	567	-	-	-Miracle	11	preview	20	595	0	0	0	0
	568	@entity8	Miracle		11	preview	20	596				
413			on	on	11	preview	20	597	0	0	0	0
414			Ice	Ice-	11	preview	20	598	0	0	0	0
	569	-	-		11	preview	20	599				
415	570	team	team	team	11	preview	20	600	0	0	0	0
416	571	that	that	that	11	preview	20	601	0	0	0	0
417	572	won	won	won	11	preview	20	602	0	0	0	0
418	573	@entity4	Olympic	Olympic	11	preview	20	603	0	0	0	0
419	574	gold	gold	gold	11	preview	20	604	326	326	326	326
420	575	in	in	in	11	preview	20	605	0	0	0	0
421	576	1980	1980	1980.	11	preview	20	606	0	0	0	0
	577	.	.		11	preview	20	607				
422	578	He	He	He	11	preview	20	608	0	0	0	0
423	579	was	was	was	11	preview	20	609	134	0	0	0
424	580	played	played	played	11	preview	20	610	183	183	317	183
425	581	by	by	by	11	preview	20	611	0	0	0	0
426	582	@entity96	Kenneth	Kenneth	11	preview	20	612	239	239	239	239
427			Welsh	Welsh	11	preview	20	613	216	216	216	216
428	583	in	in	in	11	preview	20	614	0	0	0	0
429	584	the	the	the	11	preview	20	615	237	237	237	237
430	585	2004	2004	2004	11	preview	20	616	0	0	0	0
431	586	movie	movie	movie	11	preview	20	617	153	153	153	153
432	587	-	-	-Miracle,-	11	preview	20	618	141	141	141	141
	588	@entity98	Miracle		11	preview	20	619				
	589	,	,		11	preview	20	620				
433	590	-	-	about	11	preview	20	621	153	0	0	0
	591	about	about		11	preview	20	622				
434	592	the	the	the	11	preview	20	623	162	162	315	162
435	593	@entity6	USA	USA-s	11	preview	20	624	234	234	234	234
	594	’s	’s		11	preview	20	625				
436	595	improbable	improbable	improbable	11	preview	20	626	152	152	152	152
437	596	gold	gold	gold	11	preview	20	627	0	0	0	0
438	597	medal	medal	medal	11	preview	20	628	185	185	185	185
439	598	run	run	run	11	preview	20	629	0	0	0	0
440	599	in	in	in	11	preview	20	630	206	206	206	206
441	600	@entity62	Lake	Lake	11	preview	20	631	179	179	179	179
442			Placid	Placid.	11	preview	20	632	348	348	348	124
	601	.	.		11	preview	20	633				
443	602	The	The	The	11	preview	20	634	0	0	0	0
444	603	cemetery	cemetery	cemetery	11	preview	20	635	197	197	197	197
445	604	is	is	is	11	preview	20	636	0	0	0	0
446	605	owned	owned	owned	11	preview	20	637	268	268	268	268
447	606	by	by	by	11	preview	20	638	0	0	0	0
448	607	@entity101	Bill	Bill	11	preview	20	639	187	187	187	187
449			McReavy	McReavy,	11	preview	20	640	147	147	147	147
	608	,	,		11	preview	20	641				
450	609	who	who	who	11	preview	20	642	177	0	0	0
451	610	said	said	said,	11	preview	20	643	0	0	0	0
	611	,	,		11	preview	20	644				
452	612	-	-	-This	11	preview	20	645	246	246	423	246
	613	This	This		11	preview	20	646				
453	614	is	is	is	11	preview	20	647	0	0	0	0
454	615	an	an	an	11	preview	20	648	173	173	173	173
455	616	isolated	isolated	isolated	11	preview	20	649	138	138	138	138
456	617	incident	incident	incident	11	preview	20	650	291	291	291	179
457	618	and	and	and	11	preview	20	651	0	0	0	0
458	619	we	we	we	11	preview	20	652	0	0	0	0
459	620	are	are	are	11	preview	20	653	182	182	182	182
460	621	looking	looking	looking	11	preview	20	654	145	145	145	145
461	622	at	at	at	11	preview	20	655	0	0	0	0
462	623	it	it	it	11	preview	20	656	0	0	0	0
463	624	very	very	very	11	preview	20	657	0	0	0	0
464	625	closely	closely	closely.-	11	preview	20	658	174	174	174	174
	626	.	.		11	preview	20	659				
465	627	-	-	Unfortunately,	11	preview	20	660	176	176	176	176
	628	Unfortunately	Unfortunately		11	preview	20	661				
	629	,	,		11	preview	20	662				
466	630	It	It	it	11	preview	20	663	0	0	0	0
467	631	was	was	wasn-t	11	preview	20	664	0	0	0	0
	632	n-t	n-t		11	preview	20	665				
468	633	captured	captured	captured	11	preview	20	666	277	277	277	171
469	634	on	on	on	11	preview	20	667	0	0	0	0
470	635	security	security	security	11	preview	20	668	734	734	734	734
471	636	video	video	video.	11	preview	20	669	0	0	0	0
	637	.	.		11	preview	20	670				
