HumanPosition	AnonymizedPosition	AnonymizedToken	OriginalToken	ExperimentToken	Participant	Condition	TextNo	JointPosition	tt	fp	rp	ff
0	0	@entity0	Raheem	Raheem	11	nopreview	10	1	242	93	93	93
2			Sterling	Sterling	11	nopreview	10	2	330	152	152	152
3	1	has	has	has	11	nopreview	10	3	0	0	0	0
4	2	admitted	admitted	admitted	11	nopreview	10	4	345	345	345	221
5	3	he	he	he	11	nopreview	10	5	0	0	0	0
6	4	is	is	is	11	nopreview	10	6	196	196	196	196
7	5	not	not	not	11	nopreview	10	7	0	0	0	0
8	6	ready	ready	ready	11	nopreview	10	8	0	0	0	0
9	7	to	to	to	11	nopreview	10	9	0	0	0	0
10	8	sign	sign	sign	11	nopreview	10	10	0	0	0	0
11	9	a	a	a	11	nopreview	10	11	0	0	0	0
12	10	new	new	new	11	nopreview	10	12	0	0	0	0
13	11	contract	contract	contract	11	nopreview	10	13	468	468	468	221
14	12	at	at	at	11	nopreview	10	14	0	0	0	0
15	13	@entity3	Liverpool	Liverpool	11	nopreview	10	15	116	116	116	116
16	14	deal	deal	deal	11	nopreview	10	16	335	335	335	146
17	15	despite	despite	despite	11	nopreview	10	17	240	240	240	240
18	16	being	being	being	11	nopreview	10	18	269	269	269	269
19	17	offered	offered	offered	11	nopreview	10	19	137	137	137	137
20	18	a	a	a	11	nopreview	10	20	0	0	0	0
21	19	£	£	£100,000-a-week	11	nopreview	10	21	936	407	734	407
	20	100,000	100,000		11	nopreview	10	22				
	21	-	-		11	nopreview	10	23				
	22	a	a		11	nopreview	10	24				
	23	-	-		11	nopreview	10	25				
	24	week	week		11	nopreview	10	26				
22	25	deal	deal	deal	11	nopreview	10	27	339	130	868	130
23	26	to	to	to	11	nopreview	10	28	0	0	0	0
24	27	stay	stay	stay	11	nopreview	10	29	0	0	0	0
25	28	with	with	with	11	nopreview	10	30	224	224	224	224
26	29	the	the	the	11	nopreview	10	31	0	0	0	0
27	30	@entity6	Merseyside	Merseyside	11	nopreview	10	32	384	384	384	136
28	31	club	club	club.	11	nopreview	10	33	0	0	0	0
	32	.	.		11	nopreview	10	34				
29	33	The	The	The	11	nopreview	10	35	0	0	0	0
30	34	20	20	20-year-old	11	nopreview	10	36	409	409	409	409
	35	-	-		11	nopreview	10	37				
	36	year	year		11	nopreview	10	38				
	37	-	-		11	nopreview	10	39				
	38	old	old		11	nopreview	10	40				
31	39	wideman	wideman	wideman	11	nopreview	10	41	414	414	414	155
32	40	edged	edged	edged	11	nopreview	10	42	401	401	401	401
33	41	closer	closer	closer	11	nopreview	10	43	334	334	334	334
34	42	towards	towards	towards	11	nopreview	10	44	243	243	243	243
35	43	an	an	an	11	nopreview	10	45	0	0	0	0
36	44	@entity9	Anfield	Anfield	11	nopreview	10	46	430	430	430	298
37	45	exit	exit	exit	11	nopreview	10	47	0	0	0	0
38	46	after	after	after	11	nopreview	10	48	439	439	439	253
39	47	revealing	revealing	revealing	11	nopreview	10	49	233	233	233	233
40	48	in	in	in	11	nopreview	10	50	127	127	127	127
41	49	an	an	an	11	nopreview	10	51	82	82	82	82
42	50	interview	interview	interview	11	nopreview	10	52	262	262	262	262
43	51	with	with	with	11	nopreview	10	53	144	144	144	144
44	52	the	the	the	11	nopreview	10	54	0	0	0	0
45	53	@entity11	BBC	BBC	11	nopreview	10	55	0	0	0	0
46	54	on	on	on	11	nopreview	10	56	132	132	132	132
47	55	Wednesday	Wednesday	Wednesday	11	nopreview	10	57	138	138	138	138
48	56	that	that	that	11	nopreview	10	58	0	0	0	0
49	57	he	he	he	11	nopreview	10	59	145	145	145	145
50	58	would	would	would	11	nopreview	10	60	141	141	141	141
51	59	have	have	have	11	nopreview	10	61	0	0	0	0
52	60	signed	signed	signed	11	nopreview	10	62	332	332	332	164
53	61	for	for	for	11	nopreview	10	63	0	0	0	0
54	62	a	a	a	11	nopreview	10	64	398	398	398	398
55	63	lot	lot	lot	11	nopreview	10	65	0	0	0	0
56	64	less	less	less	11	nopreview	10	66	374	166	166	166
57	65	a	a	a	11	nopreview	10	67	290	290	498	290
58	66	year	year	year	11	nopreview	10	68	168	168	168	168
59	67	ago	ago	ago.	11	nopreview	10	69	181	0	0	0
	68	.	.		11	nopreview	10	70				
60	69	However	However	However,	11	nopreview	10	71	508	138	689	138
	70	,	,		11	nopreview	10	72				
61	71	despite	despite	despite	11	nopreview	10	73	263	263	263	263
62	72	being	being	being	11	nopreview	10	74	429	429	429	252
63	73	one	one	one	11	nopreview	10	75	0	0	0	0
64	74	of	of	of	11	nopreview	10	76	399	399	399	399
65	75	@entity3	Liverpool	Liverpool-s	11	nopreview	10	77	172	172	172	172
	76	-s	-s		11	nopreview	10	78				
66	77	star	star	star	11	nopreview	10	79	0	0	0	0
67	78	men	men	men,	11	nopreview	10	80	356	356	356	356
	79	,	,		11	nopreview	10	81				
68	80	@entity0	Sterling	Sterling	11	nopreview	10	82	239	239	239	239
69	81	has	has	has	11	nopreview	10	83	0	0	0	0
70	82	struggled	struggled	struggled	11	nopreview	10	84	355	355	355	157
71	83	to	to	to	11	nopreview	10	85	0	0	0	0
72	84	repeat	repeat	repeat	11	nopreview	10	86	323	323	323	138
73	85	the	the	the	11	nopreview	10	87	0	0	0	0
74	86	impressive	impressive	impressive	11	nopreview	10	88	447	447	447	249
75	87	form	form	form	11	nopreview	10	89	330	330	330	330
76	88	he	he	he	11	nopreview	10	90	163	163	163	163
77	89	showed	showed	showed	11	nopreview	10	91	297	297	297	297
78	90	for	for	for	11	nopreview	10	92	0	0	0	0
79	91	the	the	the	11	nopreview	10	93	137	137	137	137
80	92	@entity18	Reds	Reds	11	nopreview	10	94	0	0	0	0
81	93	last	last	last	11	nopreview	10	95	512	327	327	327
82	94	season	season	season.	11	nopreview	10	96	128	128	313	128
	95	.	.		11	nopreview	10	97				
83	96	The	The	The	11	nopreview	10	98	83	83	83	83
84	97	@entity19	England	England	11	nopreview	10	99	168	168	168	168
85	98	international	international	international	11	nopreview	10	100	376	376	376	107
86	99	has	has	has	11	nopreview	10	101	305	305	305	305
87	100	managed	managed	managed	11	nopreview	10	102	399	158	158	158
88	101	just	just	just	11	nopreview	10	103	542	304	783	304
89	102	six	six	six	11	nopreview	10	104	0	0	0	0
90	103	goals	goals	goals	11	nopreview	10	105	214	214	214	214
91	104	this	this	this	11	nopreview	10	106	0	0	0	0
92	105	season	season	season	11	nopreview	10	107	646	646	646	326
93	106	-	-	-	11	nopreview	10	108	0	0	0	0
94	107	one	one	one	11	nopreview	10	109	0	0	0	0
95	108	less	less	less	11	nopreview	10	110	236	236	236	236
96	109	than	than	than	11	nopreview	10	111	268	268	268	268
97	110	@entity23	Stoke	Stoke	11	nopreview	10	112	588	588	588	180
98	111	frontman	frontman	frontman	11	nopreview	10	113	247	247	247	247
99	112	@entity22	Jon	Jon	11	nopreview	10	114	368	368	368	368
100			Walters	Walters	11	nopreview	10	115	143	143	143	143
101	113	-	-	-	11	nopreview	10	116	0	0	0	0
102	114	while	while	while	11	nopreview	10	117	487	487	487	487
103	115	his	his	his	11	nopreview	10	118	191	191	191	191
104	116	conversion	conversion	conversion	11	nopreview	10	119	282	282	282	282
105	117	rate	rate	rate	11	nopreview	10	120	186	186	186	186
106	118	and	and	and	11	nopreview	10	121	144	144	144	144
107	119	minutes	minutes	minutes	11	nopreview	10	122	250	250	250	250
108	120	per	per	per	11	nopreview	10	123	0	0	0	0
109	121	goal	goal	goal	11	nopreview	10	124	242	242	242	242
110	122	ratio	ratio	ratio	11	nopreview	10	125	116	116	116	116
111	123	have	have	have	11	nopreview	10	126	146	146	146	146
112	124	worsened	worsened	worsened.	11	nopreview	10	127	171	171	171	171
	125	as	as		11	nopreview	10	128				
113	126	the	the	Raheem	11	nopreview	10	129	328	328	328	328
	127	graphic	graphic		11	nopreview	10	130				
	128	below	below		11	nopreview	10	131				
	129	shows	shows		11	nopreview	10	132				
	130	.	.		11	nopreview	10	133				
	131	@entity0	Raheem		11	nopreview	10	134				
114			Sterling	Sterling	11	nopreview	10	135	195	195	195	195
115	132	has	has	has	11	nopreview	10	136	0	0	0	0
116	133	managed	managed	managed	11	nopreview	10	137	506	506	506	237
117	134	just	just	just	11	nopreview	10	138	258	258	258	258
118	135	six	six	six	11	nopreview	10	139	0	0	0	0
119	136	goals	goals	goals	11	nopreview	10	140	233	233	233	233
120	137	this	this	this	11	nopreview	10	141	177	177	177	177
121	138	season	season	season	11	nopreview	10	142	211	211	211	211
122	139	-	-	-	11	nopreview	10	143	0	0	0	0
123	140	one	one	one	11	nopreview	10	144	0	0	0	0
124	141	less	less	less	11	nopreview	10	145	423	423	423	237
125	142	than	than	than	11	nopreview	10	146	188	188	188	188
126	143	@entity23	Stoke	Stoke	11	nopreview	10	147	225	225	225	225
127	144	forward	forward	forward	11	nopreview	10	148	202	202	202	202
128	145	@entity22	Jon	Jon	11	nopreview	10	149	0	0	0	0
129			Walters	Walters.	11	nopreview	10	150	544	544	544	544
	146	(	(		11	nopreview	10	151				
