HumanPosition	AnonymizedPosition	AnonymizedToken	OriginalToken	ExperimentToken	Participant	Condition	TextNo	JointPosition	tt	fp	rp	ff
0	0	@entity0	Chelsea	Chelsea	11	nopreview	11	1	204	0	0	0
2	1	are	are	are	11	nopreview	11	2	0	0	0	0
3	2	looking	looking	looking	11	nopreview	11	3	271	0	0	0
4	3	to	to	to	11	nopreview	11	4	163	0	0	0
5	4	beat	beat	beat	11	nopreview	11	5	0	0	0	0
6	5	@entity1	Manchester	Manchester	11	nopreview	11	6	201	0	0	0
7			City	City	11	nopreview	11	7	324	0	0	0
8	6	to	to	to	11	nopreview	11	8	0	0	0	0
9	7	sign	sign	sign	11	nopreview	11	9	529	0	0	0
10	8	@entity3	Brazilian	Brazilian	11	nopreview	11	10	208	0	0	0
11	9	prospect	prospect	prospect	11	nopreview	11	11	436	0	0	0
12	10	@entity2	Nathan	Nathan.	11	nopreview	11	12	272	0	0	0
	11	.	.		11	nopreview	11	13				
13	12	The	The	The	11	nopreview	11	14	163	0	0	0
14	13	attacking	attacking	attacking	11	nopreview	11	15	294	0	0	0
15	14	midfielder	midfielder	midfielder	11	nopreview	11	16	273	0	0	0
16	15	turned	turned	turned	11	nopreview	11	17	437	0	0	0
17	16	19	19	19	11	nopreview	11	18	0	0	0	0
18	17	last	last	last	11	nopreview	11	19	393	0	0	0
19	18	month	month	month	11	nopreview	11	20	143	0	0	0
20	19	but	but	but	11	nopreview	11	21	0	0	0	0
21	20	has	has	has	11	nopreview	11	22	327	0	0	0
22	21	been	been	been	11	nopreview	11	23	173	0	0	0
23	22	in	in	in	11	nopreview	11	24	0	0	0	0
24	23	contract	contract	contract	11	nopreview	11	25	324	0	0	0
25	24	dispute	dispute	dispute	11	nopreview	11	26	350	0	0	0
26	25	with	with	with	11	nopreview	11	27	181	0	0	0
27	26	his	his	his	11	nopreview	11	28	81	0	0	0
28	27	club	club	club	11	nopreview	11	29	258	0	0	0
29	28	@entity6	Atletico	Atletico	11	nopreview	11	30	389	0	0	0
30			Paranaense	Paranaense.	11	nopreview	11	31	696	0	0	0
	29	.	.		11	nopreview	11	32				
31	30	He	He	He	11	nopreview	11	33	0	0	0	0
32	31	is	is	is	11	nopreview	11	34	562	0	0	0
33	32	due	due	due	11	nopreview	11	35	332	0	0	0
34	33	to	to	to	11	nopreview	11	36	0	0	0	0
35	34	speak	speak	speak	11	nopreview	11	37	701	0	0	0
36	35	to	to	to	11	nopreview	11	38	0	0	0	0
37	36	@entity0	Chelsea	Chelsea	11	nopreview	11	39	158	0	0	0
38	37	next	next	next	11	nopreview	11	40	229	0	0	0
39	38	week	week	week	11	nopreview	11	41	154	0	0	0
40	39	ahead	ahead	ahead	11	nopreview	11	42	248	0	0	0
41	40	of	of	of	11	nopreview	11	43	0	0	0	0
42	41	a	a	a	11	nopreview	11	44	157	0	0	0
43	42	proposed	proposed	proposed	11	nopreview	11	45	196	0	0	0
44	43	move	move	move	11	nopreview	11	46	0	0	0	0
45	44	to	to	to	11	nopreview	11	47	306	0	0	0
46	45	@entity8	Stamford	Stamford	11	nopreview	11	48	299	0	0	0
47			Bridge	Bridge	11	nopreview	11	49	202	0	0	0
48	46	which	which	which	11	nopreview	11	50	210	0	0	0
49	47	would	would	would	11	nopreview	11	51	397	0	0	0
50	48	likely	likely	likely	11	nopreview	11	52	252	0	0	0
51	49	see	see	see	11	nopreview	11	53	154	0	0	0
52	50	him	him	him	11	nopreview	11	54	231	0	0	0
53	51	loaned	loaned	loaned	11	nopreview	11	55	610	0	0	0
54	52	out	out	out.	11	nopreview	11	56	251	0	0	0
	53	.	.		11	nopreview	11	57				
55	54	@entity6	Atletico	Manchester	11	nopreview	11	58	409	0	0	0
			Paranaense		11	nopreview	11	59				
	55	attacking	attacking		11	nopreview	11	60				
	56	midfielder	midfielder		11	nopreview	11	61				
	57	@entity2	Nathan		11	nopreview	11	62				
	58	is	is		11	nopreview	11	63				
	59	attracting	attracting		11	nopreview	11	64				
	60	interest	interest		11	nopreview	11	65				
	61	from	from		11	nopreview	11	66				
	62	@entity0	Chelsea		11	nopreview	11	67				
	63	and	and		11	nopreview	11	68				
	64	@entity1	Manchester		11	nopreview	11	69				
56	65	@entity11	City	City	11	nopreview	11	70	203	0	0	0
57			Jose	have	11	nopreview	11	71	145	0	0	0
58			Mourinho	been	11	nopreview	11	72	463	0	0	0
	66	and	and		11	nopreview	11	73				
	67	@entity12	Manuel		11	nopreview	11	74				
			Pellegrini		11	nopreview	11	75				
	68	will	will		11	nopreview	11	76				
	69	go	go		11	nopreview	11	77				
	70	head	head		11	nopreview	11	78				
59	71	-	-	keen	11	nopreview	11	79	359	0	0	0
	72	to	to		11	nopreview	11	80				
	73	-	-		11	nopreview	11	81				
	74	head	head		11	nopreview	11	82				
60	75	to	to	on	11	nopreview	11	83	224	0	0	0
61	76	sign	sign	Nathan	11	nopreview	11	84	153	0	0	0
	77	@entity3	Brazilian		11	nopreview	11	85				
	78	starlet	starlet		11	nopreview	11	86				
	79	@entity2	Nathan		11	nopreview	11	87				
62	80	@entity1	Manchester	following	11	nopreview	11	88	302	0	0	0
			City		11	nopreview	11	89				
	81	have	have		11	nopreview	11	90				
	82	been	been		11	nopreview	11	91				
	83	keen	keen		11	nopreview	11	92				
	84	on	on		11	nopreview	11	93				
	85	@entity2	Nathan		11	nopreview	11	94				
	86	following	following		11	nopreview	11	95				
63	87	his	his	his	11	nopreview	11	96	242	0	0	0
64	88	performances	performances	performances	11	nopreview	11	97	187	0	0	0
65	89	in	in	in	11	nopreview	11	98	0	0	0	0
66	90	the	the	the	11	nopreview	11	99	284	0	0	0
67	91	@entity16	World	World	11	nopreview	11	100	315	0	0	0
68			U17	U17	11	nopreview	11	101	325	0	0	0
69			Championships	Championships	11	nopreview	11	102	352	0	0	0
70	92	two	two	two	11	nopreview	11	103	0	0	0	0
71	93	years	years	years	11	nopreview	11	104	148	0	0	0
72	94	ago	ago	ago	11	nopreview	11	105	0	0	0	0
73	95	and	and	and	11	nopreview	11	106	0	0	0	0
74	96	he	he	he	11	nopreview	11	107	201	0	0	0
75	97	has	has	has	11	nopreview	11	108	147	0	0	0
76	98	since	since	since	11	nopreview	11	109	225	0	0	0
77	99	broken	broken	broken	11	nopreview	11	110	399	0	0	0
78	100	into	into	into	11	nopreview	11	111	0	0	0	0
79	101	@entity6	Paranaense	Paranaense-s	11	nopreview	11	112	528	155	18350	155
	102	-s	-s		11	nopreview	11	113				
80	103	first	first	first	11	nopreview	11	114	303	303	303	303
81	104	team	team	team.	11	nopreview	11	115	0	0	0	0
	105	.	.		11	nopreview	11	116				
82	106	@entity0	Chelsea	Chelsea	11	nopreview	11	117	359	359	359	211
83	107	have	have	have	11	nopreview	11	118	166	166	166	166
84	108	a	a	a	11	nopreview	11	119	0	0	0	0
85	109	strong	strong	strong	11	nopreview	11	120	110	110	110	110
86	110	@entity3	Brazilian	Brazilian	11	nopreview	11	121	147	147	147	147
87	111	contingency	contingency	contingency	11	nopreview	11	122	407	407	407	186
88	112	with	with	with	11	nopreview	11	123	278	278	278	278
89	113	the	the	the	11	nopreview	11	124	0	0	0	0
90	114	likes	likes	likes	11	nopreview	11	125	312	312	312	164
91	115	of	of	of	11	nopreview	11	126	0	0	0	0
92	116	@entity20	Willian	Willian,	11	nopreview	11	127	362	362	362	232
	117	,	,		11	nopreview	11	128				
93	118	@entity21	Ramires	Ramires,	11	nopreview	11	129	395	395	395	395
	119	,	,		11	nopreview	11	130				
94	120	@entity22	Filipe	Filipe	11	nopreview	11	131	406	406	406	203
95			Luis	Luis	11	nopreview	11	132	243	243	243	243
96	121	and	and	and	11	nopreview	11	133	0	0	0	0
97	122	@entity23	Oscar	Oscar	11	nopreview	11	134	334	334	334	209
98	123	while	while	while	11	nopreview	11	135	248	248	248	248
99	124	21	21	21-year-old	11	nopreview	11	136	181	181	181	181
	125	-	-		11	nopreview	11	137				
	126	year	year		11	nopreview	11	138				
	127	-	-		11	nopreview	11	139				
	128	old	old		11	nopreview	11	140				
100	129	@entity24	Lucas	Lucas	11	nopreview	11	141	243	243	243	243
101			Piazon	Piazon	11	nopreview	11	142	364	364	364	206
102	130	is	is	is	11	nopreview	11	143	155	0	0	0
103	131	on	on	on	11	nopreview	11	144	162	162	317	162
104	132	loan	loan	loan	11	nopreview	11	145	447	447	447	196
105	133	at	at	at	11	nopreview	11	146	0	0	0	0
106	134	@entity26	Eintracht	Eintracht	11	nopreview	11	147	542	542	542	387
107			Frankfurt	Frankfurt.	11	nopreview	11	148	539	539	539	539
	135	.	.		11	nopreview	11	149				
