HumanPosition	AnonymizedPosition	AnonymizedToken	OriginalToken	ExperimentToken	Participant	Condition	TextNo	JointPosition	tt	fp	rp	ff
	0	@entity0	Paris		11	nopreview	7	1				
	1	(	(		11	nopreview	7	2				
	2	@entity1	CNN		11	nopreview	7	3				
	3	)	)		11	nopreview	7	4				
0	4	Six	Six	Six	11	nopreview	7	5	0	0	0	0
2	5	survivors	survivors	survivors	11	nopreview	7	6	0	0	0	0
3	6	of	of	of	11	nopreview	7	7	0	0	0	0
4	7	the	the	the	11	nopreview	7	8	0	0	0	0
5	8	@entity0	Paris	Paris	11	nopreview	7	9	0	0	0	0
6	9	kosher	kosher	kosher	11	nopreview	7	10	0	0	0	0
7	10	supermarket	supermarket	supermarket	11	nopreview	7	11	0	0	0	0
8	11	siege	siege	siege	11	nopreview	7	12	0	0	0	0
9	12	in	in	in	11	nopreview	7	13	0	0	0	0
10	13	January	January	January	11	nopreview	7	14	0	0	0	0
11	14	are	are	are	11	nopreview	7	15	0	0	0	0
12	15	suing	suing	suing	11	nopreview	7	16	0	0	0	0
13	16	a	a	a	11	nopreview	7	17	0	0	0	0
14	17	@entity5	French	French	11	nopreview	7	18	0	0	0	0
15	18	media	media	media	11	nopreview	7	19	404	0	0	0
16	19	outlet	outlet	outlet	11	nopreview	7	20	255	100	485	100
17	20	for	for	for	11	nopreview	7	21	0	0	0	0
18	21	what	what	what	11	nopreview	7	22	156	156	156	156
19	22	they	they	they	11	nopreview	7	23	302	302	302	302
20	23	call	call	call	11	nopreview	7	24	473	325	325	325
21	24	dangerous	dangerous	dangerous	11	nopreview	7	25	337	337	337	337
22	25	live	live	live	11	nopreview	7	26	266	0	0	0
23	26	broadcasting	broadcasting	broadcasting	11	nopreview	7	27	964	664	664	174
24	27	during	during	during	11	nopreview	7	28	581	581	581	581
25	28	the	the	the	11	nopreview	7	29	220	220	220	220
26	29	hostage	hostage	hostage-taking.	11	nopreview	7	30	585	585	585	123
	30	-	-		11	nopreview	7	31				
	31	taking	taking		11	nopreview	7	32				
	32	.	.		11	nopreview	7	33				
27	33	According	According	According	11	nopreview	7	34	330	330	330	156
28	34	to	to	to	11	nopreview	7	35	0	0	0	0
29	35	@entity0	Paris	Paris	11	nopreview	7	36	288	288	288	288
30	36	prosecutor	prosecutor	prosecutor-s	11	nopreview	7	37	512	512	512	224
	37	-s	-s		11	nopreview	7	38				
31	38	spokeswoman	spokeswoman	spokeswoman	11	nopreview	7	39	605	605	605	218
32	39	@entity10	Agnes	Agnes	11	nopreview	7	40	768	768	768	768
33			Thibault	Thibault-Lecuivre,	11	nopreview	7	41	208	208	208	208
			-		11	nopreview	7	42				
			Lecuivre		11	nopreview	7	43				
	40	,	,		11	nopreview	7	44				
34	41	the	the	the	11	nopreview	7	45	180	0	0	0
35	42	lawsuit	lawsuit	lawsuit	11	nopreview	7	46	137	137	317	137
36	43	was	was	was	11	nopreview	7	47	223	223	223	223
37	44	filed	filed	filed	11	nopreview	7	48	0	0	0	0
38	45	March	March	March	11	nopreview	7	49	284	284	284	284
39	46	27	27	27	11	nopreview	7	50	0	0	0	0
40	47	and	and	and	11	nopreview	7	51	250	250	250	250
41	48	a	a	a	11	nopreview	7	52	0	0	0	0
42	49	preliminary	preliminary	preliminary	11	nopreview	7	53	302	302	302	302
43	50	investigation	investigation	investigation	11	nopreview	7	54	375	375	375	254
44	51	was	was	was	11	nopreview	7	55	292	292	292	292
45	52	opened	opened	opened	11	nopreview	7	56	173	173	173	173
46	53	by	by	by	11	nopreview	7	57	0	0	0	0
47	54	the	the	the	11	nopreview	7	58	131	131	131	131
48	55	prosecutor	prosecutor	prosecutor-s	11	nopreview	7	59	398	398	398	128
	56	-s	-s		11	nopreview	7	60				
49	57	office	office	office	11	nopreview	7	61	257	257	257	257
50	58	Wednesday	Wednesday	Wednesday.	11	nopreview	7	62	177	177	177	177
	59	.	.		11	nopreview	7	63				
51	60	The	The	The	11	nopreview	7	64	156	156	156	156
52	61	media	media	media	11	nopreview	7	65	0	0	0	0
53	62	outlet	outlet	outlet,	11	nopreview	7	66	241	241	241	241
	63	,	,		11	nopreview	7	67				
54	64	@entity1	CNN	CNN	11	nopreview	7	68	131	131	131	131
55	65	affiliate	affiliate	affiliate	11	nopreview	7	69	202	202	202	202
56	66	@entity16	BFMTV	BFMTV,	11	nopreview	7	70	0	0	0	0
	67	,	,		11	nopreview	7	71				
57	68	is	is	is	11	nopreview	7	72	173	173	173	173
58	69	accused	accused	accused	11	nopreview	7	73	232	232	232	150
59	70	of	of	of	11	nopreview	7	74	0	0	0	0
60	71	endangering	endangering	endangering	11	nopreview	7	75	339	339	339	174
61	72	the	the	the	11	nopreview	7	76	0	0	0	0
62	73	lives	lives	lives	11	nopreview	7	77	0	0	0	0
63	74	of	of	of	11	nopreview	7	78	130	130	718	130
64	75	the	the	the	11	nopreview	7	79	0	0	0	0
65	76	hostages	hostages	hostages,	11	nopreview	7	80	0	0	0	0
	77	,	,		11	nopreview	7	81				
66	78	who	who	who	11	nopreview	7	82	0	0	0	0
67	79	were	were	were	11	nopreview	7	83	130	130	130	130
68	80	hiding	hiding	hiding	11	nopreview	7	84	115	115	115	115
69	81	in	in	in	11	nopreview	7	85	0	0	0	0
70	82	a	a	a	11	nopreview	7	86	179	179	479	179
71	83	cold	cold	cold	11	nopreview	7	87	0	0	0	0
72	84	room	room	room	11	nopreview	7	88	115	115	115	115
73	85	during	during	during	11	nopreview	7	89	192	192	192	192
74	86	the	the	the	11	nopreview	7	90	234	234	234	234
75	87	attack	attack	attack,	11	nopreview	7	91	0	0	0	0
	88	,	,		11	nopreview	7	92				
76	89	by	by	by	11	nopreview	7	93	218	218	218	218
77	90	broadcasting	broadcasting	broadcasting	11	nopreview	7	94	0	0	0	0
78	91	their	their	their	11	nopreview	7	95	206	206	206	206
79	92	location	location	location	11	nopreview	7	96	602	223	223	223
80	93	live	live	live	11	nopreview	7	97	0	0	0	0
81	94	during	during	during	11	nopreview	7	98	351	151	2063	151
82	95	the	the	the	11	nopreview	7	99	378	139	139	139
83	96	siege	siege	siege.	11	nopreview	7	100	0	0	0	0
	97	.	.		11	nopreview	7	101				
84	98	@entity23	BFM	BFM	11	nopreview	7	102	402	170	170	170
85	99	in	in	in	11	nopreview	7	103	151	151	151	151
86	100	a	a	a	11	nopreview	7	104	0	0	0	0
87	101	statement	statement	statement	11	nopreview	7	105	324	324	324	138
88	102	Friday	Friday	Friday	11	nopreview	7	106	282	282	282	282
89	103	said	said	said	11	nopreview	7	107	0	0	0	0
90	104	one	one	one	11	nopreview	7	108	190	190	190	190
91	105	of	of	of	11	nopreview	7	109	154	154	154	154
92	106	its	its	its	11	nopreview	7	110	0	0	0	0
93	107	journalists	journalists	journalists	11	nopreview	7	111	170	170	170	170
94	108	-	-	-mentioned	11	nopreview	7	112	706	706	706	375
	109	mentioned	mentioned		11	nopreview	7	113				
95	110	only	only	only	11	nopreview	7	114	257	257	257	257
96	111	once	once	once	11	nopreview	7	115	0	0	0	0
97	112	the	the	the	11	nopreview	7	116	191	191	191	191
98	113	presence	presence	presence	11	nopreview	7	117	437	296	1346	296
99	114	of	of	of	11	nopreview	7	118	175	175	316	175
100	115	a	a	a	11	nopreview	7	119	0	0	0	0
101	116	woman	woman	woman	11	nopreview	7	120	527	527	527	232
102	117	hidden	hidden	hidden	11	nopreview	7	121	274	274	274	274
103	118	inside	inside	inside	11	nopreview	7	122	0	0	0	0
104	119	the	the	the	11	nopreview	7	123	153	153	153	153
105	120	@entity27	Hyper	Hyper	11	nopreview	7	124	0	0	0	0
106			Cacher	Cacher,	11	nopreview	7	125	319	319	319	192
	121	,	,		11	nopreview	7	126				
107	122	on	on	on	11	nopreview	7	127	0	0	0	0
108	123	the	the	the	11	nopreview	7	128	0	0	0	0
109	124	basis	basis	basis	11	nopreview	7	129	238	238	238	238
110	125	of	of	of	11	nopreview	7	130	0	0	0	0
111	126	police	police	police	11	nopreview	7	131	406	232	232	232
112	127	sources	sources	sources	11	nopreview	7	132	1056	575	1024	230
113	128	on	on	on	11	nopreview	7	133	672	399	399	235
114	129	the	the	the	11	nopreview	7	134	211	0	0	0
115	130	ground	ground	ground.-	11	nopreview	7	135	847	633	633	290
	131	.	.		11	nopreview	7	136				
116	132	-	-	-Immediately,	11	nopreview	7	137	463	463	463	201
	133	-	-		11	nopreview	7	138				
	134	Immediately	Immediately		11	nopreview	7	139				
	135	,	,		11	nopreview	7	140				
117	136	the	the	the	11	nopreview	7	141	0	0	0	0
118	137	chief	chief	chief	11	nopreview	7	142	0	0	0	0
119	138	editor	editor	editor	11	nopreview	7	143	441	239	239	239
120	139	felt	felt	felt	11	nopreview	7	144	163	163	163	163
121	140	that	that	that	11	nopreview	7	145	324	0	0	0
122	141	this	this	this	11	nopreview	7	146	852	237	237	237
123	142	information	information	information	11	nopreview	7	147	662	166	2707	166
124	143	should	should	should	11	nopreview	7	148	0	0	0	0
125	144	not	not	not	11	nopreview	7	149	314	314	314	162
126	145	be	be	be	11	nopreview	7	150	217	217	217	217
127	146	released	released	released.	11	nopreview	7	151	306	306	306	306
	147	.	.		11	nopreview	7	152				
128	148	It	It	It	11	nopreview	7	153	152	0	0	0
129	149	therefore	therefore	therefore	11	nopreview	7	154	0	0	0	0
130	150	has	has	has	11	nopreview	7	155	120	120	120	120
131	151	subsequently	subsequently	subsequently	11	nopreview	7	156	468	468	468	265
132	152	never	never	never	11	nopreview	7	157	217	217	217	217
133	153	been	been	been	11	nopreview	7	158	190	190	190	190
134	154	repeated	repeated	repeated	11	nopreview	7	159	568	353	353	175
135	155	on	on	on	11	nopreview	7	160	0	0	0	0
136	156	air	air	air	11	nopreview	7	161	440	440	655	440
137	157	or	or	or	11	nopreview	7	162	0	0	0	0
138	158	posted	posted	posted	11	nopreview	7	163	0	0	215	0
139	159	on	on	on-screen.	11	nopreview	7	164	278	278	430	144
	160	-	-		11	nopreview	7	165				
	161	screen	screen		11	nopreview	7	166				
	162	.	.		11	nopreview	7	167				
140	163	@entity16	BFMTV	BFMTV	11	nopreview	7	168	0	0	0	0
141	164	regrets	regrets	regrets	11	nopreview	7	169	0	0	0	0
142	165	that	that	that	11	nopreview	7	170	0	0	0	0
143	166	the	the	the	11	nopreview	7	171	0	0	0	0
144	167	mention	mention	mention	11	nopreview	7	172	0	0	0	0
145	168	of	of	of	11	nopreview	7	173	0	0	0	0
146	169	this	this	this	11	nopreview	7	174	0	0	0	0
147	170	information	information	information	11	nopreview	7	175	0	0	0	0
148	171	could	could	could	11	nopreview	7	176	0	0	0	0
149	172	cause	cause	cause	11	nopreview	7	177	0	0	0	0
150	173	concern	concern	concern	11	nopreview	7	178	0	0	0	0
151	174	to	to	to	11	nopreview	7	179	0	0	0	0
152	175	the	the	the	11	nopreview	7	180	0	0	0	0
153	176	hostages	hostages	hostages,	11	nopreview	7	181	0	0	0	0
	177	,	,		11	nopreview	7	182				
154	178	as	as	as	11	nopreview	7	183	0	0	0	0
155	179	well	well	well	11	nopreview	7	184	268	268	268	268
156	180	as	as	as	11	nopreview	7	185	0	0	0	0
157	181	their	their	their	11	nopreview	7	186	145	145	413	145
158	182	relatives	relatives	relatives,	11	nopreview	7	187	254	254	254	254
	183	,	,		11	nopreview	7	188				
159	184	that	that	that	11	nopreview	7	189	0	0	0	0
160	185	their	their	their	11	nopreview	7	190	220	220	220	220
161	186	lives	lives	lives	11	nopreview	7	191	0	0	0	0
162	187	were	were	were	11	nopreview	7	192	0	0	0	0
163	188	in	in	in	11	nopreview	7	193	0	0	0	0
164	189	danger	danger	danger,-	11	nopreview	7	194	405	253	253	148
	190	,	,		11	nopreview	7	195				
	191	-	-		11	nopreview	7	196				
165	192	the	the	the	11	nopreview	7	197	126	126	278	126
166	193	statement	statement	statement	11	nopreview	7	198	603	603	603	187
167	194	said	said	said.	11	nopreview	7	199	0	0	0	0
	195	.	.		11	nopreview	7	200				
168	196	Gunman	Gunman	Gunman	11	nopreview	7	201	115	115	115	115
169	197	@entity47	Amedy	Amedy	11	nopreview	7	202	270	270	270	270
170			Coulibaly	Coulibaly,	11	nopreview	7	203	292	292	292	150
	198	,	,		11	nopreview	7	204				
171	199	also	also	also	11	nopreview	7	205	156	156	156	156
172	200	suspected	suspected	suspected	11	nopreview	7	206	353	162	162	162
173	201	in	in	in	11	nopreview	7	207	412	247	247	247
174	202	the	the	the	11	nopreview	7	208	0	0	0	0
175	203	slaying	slaying	slaying	11	nopreview	7	209	173	173	173	173
176	204	of	of	of	11	nopreview	7	210	250	250	250	250
177	205	a	a	a	11	nopreview	7	211	0	0	0	0
178	206	police	police	police	11	nopreview	7	212	145	145	501	145
179	207	officer	officer	officer,	11	nopreview	7	213	199	199	199	199
	208	,	,		11	nopreview	7	214				
180	209	stormed	stormed	stormed	11	nopreview	7	215	161	161	161	161
181	210	the	the	the	11	nopreview	7	216	0	0	0	0
182	211	@entity27	Hyper	Hyper	11	nopreview	7	217	102	102	102	102
183	212	@entity51	Cacher	Cacher	11	nopreview	7	218	358	358	358	358
184			Jewish	Jewish	11	nopreview	7	219	208	208	208	208
185	213	supermarket	supermarket	supermarket	11	nopreview	7	220	683	683	683	302
186	214	on	on	on	11	nopreview	7	221	0	0	0	0
187	215	January	January	January	11	nopreview	7	222	130	130	130	130
188	216	9	9	9,	11	nopreview	7	223	0	0	0	0
	217	,	,		11	nopreview	7	224				
189	218	killing	killing	killing	11	nopreview	7	225	746	400	400	254
190	219	four	four	four	11	nopreview	7	226	386	192	192	192
191	220	people	people	people	11	nopreview	7	227	303	138	138	138
192	221	and	and	and	11	nopreview	7	228	0	0	0	0
193	222	taking	taking	taking	11	nopreview	7	229	307	155	155	155
194	223	others	others	others	11	nopreview	7	230	583	235	1440	235
195	224	hostage	hostage	hostage.	11	nopreview	7	231	725	725	725	354
	225	.	.		11	nopreview	7	232				
196	226	He	He	He	11	nopreview	7	233	0	0	0	0
197	227	was	was	was	11	nopreview	7	234	0	0	0	0
198	228	killed	killed	killed	11	nopreview	7	235	590	590	590	278
199	229	in	in	in	11	nopreview	7	236	0	0	0	0
200	230	the	the	the	11	nopreview	7	237	0	0	0	0
201	231	police	police	police	11	nopreview	7	238	988	988	988	266
202	232	operation	operation	operation	11	nopreview	7	239	576	576	576	261
203	233	to	to	to	11	nopreview	7	240	0	0	0	0
204	234	end	end	end	11	nopreview	7	241	409	409	409	409
205	235	the	the	the	11	nopreview	7	242	497	497	497	497
206	236	siege	siege	siege.	11	nopreview	7	243	217	217	217	217
	237	.	.		11	nopreview	7	244				
207	238	A	A	A	11	nopreview	7	245	0	0	0	0
208	239	24	24	24-year-old	11	nopreview	7	246	704	704	704	448
	240	-	-		11	nopreview	7	247				
	241	year	year		11	nopreview	7	248				
	242	-	-		11	nopreview	7	249				
	243	old	old		11	nopreview	7	250				
209	244	supermarket	supermarket	supermarket	11	nopreview	7	251	396	0	0	0
210	245	employee	employee	employee,	11	nopreview	7	252	482	0	0	0
	246	,	,		11	nopreview	7	253				
211	247	@entity57	Malian	Malian-born	11	nopreview	7	254	693	138	1571	138
	248	-	-		11	nopreview	7	255				
	249	born	born		11	nopreview	7	256				
212	250	@entity56	Lassana	Lassana	11	nopreview	7	257	369	369	369	369
213			Bathily	Bathily,	11	nopreview	7	258	241	241	241	241
	251	,	,		11	nopreview	7	259				
214	252	was	was	was	11	nopreview	7	260	439	269	269	269
215	253	hailed	hailed	hailed	11	nopreview	7	261	687	234	857	234
216	254	as	as	as	11	nopreview	7	262	0	0	0	0
217	255	a	a	a	11	nopreview	7	263	124	124	124	124
218	256	hero	hero	hero	11	nopreview	7	264	289	289	289	289
219	257	afterward	afterward	afterward	11	nopreview	7	265	217	217	217	217
220	258	when	when	when	11	nopreview	7	266	265	265	265	265
221	259	it	it	it	11	nopreview	7	267	0	0	0	0
222	260	emerged	emerged	emerged	11	nopreview	7	268	0	0	0	0
223	261	that	that	that	11	nopreview	7	269	313	313	313	313
224	262	he	he	he	11	nopreview	7	270	0	0	0	0
225	263	had	had	had	11	nopreview	7	271	231	231	231	231
226	264	risked	risked	risked	11	nopreview	7	272	0	0	0	0
227	265	his	his	his	11	nopreview	7	273	0	0	0	0
228	266	life	life	life	11	nopreview	7	274	194	194	194	194
229	267	to	to	to	11	nopreview	7	275	0	0	0	0
230	268	hide	hide	hide	11	nopreview	7	276	0	0	0	0
231	269	15	15	15	11	nopreview	7	277	0	0	0	0
232	270	customers	customers	customers	11	nopreview	7	278	332	332	332	179
233	271	from	from	from	11	nopreview	7	279	183	183	183	183
234	272	@entity47	Coulibaly	Coulibaly	11	nopreview	7	280	274	274	274	127
235	273	in	in	in	11	nopreview	7	281	0	0	0	0
236	274	the	the	the	11	nopreview	7	282	0	0	0	0
237	275	cold	cold	cold	11	nopreview	7	283	347	347	347	347
238	276	room	room	room.	11	nopreview	7	284	202	202	202	202
	277	.	.		11	nopreview	7	285				
239	278	The	The	The	11	nopreview	7	286	202	202	202	202
240	279	hostage	hostage	hostage-taking	11	nopreview	7	287	429	429	429	135
	280	-	-		11	nopreview	7	288				
	281	taking	taking		11	nopreview	7	289				
241	282	was	was	was	11	nopreview	7	290	0	0	0	0
242	283	the	the	the	11	nopreview	7	291	156	156	156	156
243	284	culmination	culmination	culmination	11	nopreview	7	292	408	408	408	147
244	285	of	of	of	11	nopreview	7	293	0	0	0	0
245	286	three	three	three	11	nopreview	7	294	196	196	196	196
246	287	days	days	days	11	nopreview	7	295	0	0	0	0
247	288	of	of	of	11	nopreview	7	296	0	0	0	0
248	289	terror	terror	terror	11	nopreview	7	297	476	476	476	230
249	290	in	in	in	11	nopreview	7	298	0	0	0	0
250	291	@entity0	Paris	Paris	11	nopreview	7	299	0	0	0	0
251	292	that	that	that	11	nopreview	7	300	376	376	376	376
252	293	began	began	began	11	nopreview	7	301	141	141	141	141
253	294	with	with	with	11	nopreview	7	302	158	158	158	158
254	295	the	the	the	11	nopreview	7	303	409	409	409	409
255	296	January	January	January	11	nopreview	7	304	362	362	362	362
256	297	7	7	7	11	nopreview	7	305	0	0	0	0
257	298	shooting	shooting	shooting	11	nopreview	7	306	177	177	177	177
258	299	of	of	of	11	nopreview	7	307	157	157	157	157
259	300	12	12	12	11	nopreview	7	308	263	263	263	263
260	301	people	people	people	11	nopreview	7	309	0	0	0	0
261	302	at	at	at	11	nopreview	7	310	220	220	220	220
262	303	the	the	the	11	nopreview	7	311	191	191	191	191
263	304	offices	offices	offices	11	nopreview	7	312	391	391	391	391
264	305	of	of	of	11	nopreview	7	313	165	165	165	165
265	306	@entity5	French	French	11	nopreview	7	314	148	148	148	148
266	307	satirical	satirical	satirical	11	nopreview	7	315	350	350	350	132
267	308	magazine	magazine	magazine	11	nopreview	7	316	782	463	463	317
268	309	@entity69	Charlie	Charlie	11	nopreview	7	317	132	132	132	132
269			Hebdo	Hebdo.	11	nopreview	7	318	330	0	0	0
	310	.	.		11	nopreview	7	319				
270	311	The	The	The	11	nopreview	7	320	150	150	150	150
271	312	two	two	two	11	nopreview	7	321	209	0	0	0
272	313	brothers	brothers	brothers	11	nopreview	7	322	180	180	180	180
273	314	blamed	blamed	blamed	11	nopreview	7	323	599	291	291	143
274	315	for	for	for	11	nopreview	7	324	0	0	0	0
275	316	that	that	that	11	nopreview	7	325	159	0	0	0
276	317	attack	attack	attack,	11	nopreview	7	326	560	160	160	160
	318	,	,		11	nopreview	7	327				
277	319	@entity72	Cherif	Cherif	11	nopreview	7	328	135	135	135	135
278	320	and	and	and	11	nopreview	7	329	0	0	0	0
279	321	@entity73	Said	Said	11	nopreview	7	330	0	0	0	0
280			Kouachi	Kouachi,	11	nopreview	7	331	415	264	264	125
	322	,	,		11	nopreview	7	332				
281	323	were	were	were	11	nopreview	7	333	352	254	254	254
282	324	killed	killed	killed	11	nopreview	7	334	141	141	141	141
283	325	on	on	on	11	nopreview	7	335	238	0	0	0
284	326	January	January	January	11	nopreview	7	336	0	0	0	0
285	327	9	9	9	11	nopreview	7	337	0	0	0	0
286	328	after	after	after	11	nopreview	7	338	453	160	160	160
287	329	a	a	a	11	nopreview	7	339	229	229	339	229
288	330	violent	violent	violent	11	nopreview	7	340	299	124	2567	124
289	331	standoff	standoff	standoff	11	nopreview	7	341	191	191	191	191
290	332	at	at	at	11	nopreview	7	342	0	0	0	0
291	333	an	an	an	11	nopreview	7	343	0	0	0	0
292	334	industrial	industrial	industrial	11	nopreview	7	344	292	292	419	176
293	335	site	site	site.	11	nopreview	7	345	0	0	0	0
	336	.	.		11	nopreview	7	346				
294	337	The	The	The	11	nopreview	7	347	0	0	0	0
295	338	terror	terror	terror	11	nopreview	7	348	139	0	0	0
296	339	attacks	attacks	attacks	11	nopreview	7	349	219	0	0	0
297	340	claimed	claimed	claimed	11	nopreview	7	350	0	0	0	0
298	341	the	the	the	11	nopreview	7	351	0	0	0	0
299	342	lives	lives	lives	11	nopreview	7	352	0	0	0	0
300	343	of	of	of	11	nopreview	7	353	0	0	0	0
301	344	17	17	17	11	nopreview	7	354	0	0	0	0
302	345	people	people	people	11	nopreview	7	355	0	0	0	0
303	346	and	and	and	11	nopreview	7	356	0	0	0	0
304	347	put	put	put	11	nopreview	7	357	0	0	0	0
305	348	@entity5	France	France	11	nopreview	7	358	0	0	0	0
306	349	on	on	on	11	nopreview	7	359	0	0	0	0
307	350	a	a	a	11	nopreview	7	360	0	0	0	0
308	351	heightened	heightened	heightened	11	nopreview	7	361	265	265	623	265
309	352	state	state	state	11	nopreview	7	362	0	0	0	0
310	353	of	of	of	11	nopreview	7	363	0	0	0	0
311	354	alert	alert	alert.	11	nopreview	7	364	0	0	0	0
	355	.	.		11	nopreview	7	365				
