HumanPosition	AnonymizedPosition	AnonymizedToken	OriginalToken	ExperimentToken	Participant	Condition	TextNo	JointPosition	tt	fp	rp	ff
0	0	@entity0	Chelsea	Chelsea	5	nopreview	11	1	447	0	0	0
2	1	are	are	are	5	nopreview	11	2	0	0	0	0
3	2	looking	looking	looking	5	nopreview	11	3	451	0	0	0
4	3	to	to	to	5	nopreview	11	4	0	0	0	0
5	4	beat	beat	beat	5	nopreview	11	5	130	0	0	0
6	5	@entity1	Manchester	Manchester	5	nopreview	11	6	1158	0	0	0
7			City	City	5	nopreview	11	7	319	0	0	0
8	6	to	to	to	5	nopreview	11	8	0	0	0	0
9	7	sign	sign	sign	5	nopreview	11	9	501	0	0	0
10	8	@entity3	Brazilian	Brazilian	5	nopreview	11	10	195	0	0	0
11	9	prospect	prospect	prospect	5	nopreview	11	11	1006	0	0	0
12	10	@entity2	Nathan	Nathan.	5	nopreview	11	12	674	0	0	0
	11	.	.		5	nopreview	11	13				
13	12	The	The	The	5	nopreview	11	14	536	0	0	0
14	13	attacking	attacking	attacking	5	nopreview	11	15	496	0	0	0
15	14	midfielder	midfielder	midfielder	5	nopreview	11	16	501	94	6414	94
16	15	turned	turned	turned	5	nopreview	11	17	460	206	206	206
17	16	19	19	19	5	nopreview	11	18	0	0	0	0
18	17	last	last	last	5	nopreview	11	19	271	139	525	139
19	18	month	month	month	5	nopreview	11	20	258	258	258	258
20	19	but	but	but	5	nopreview	11	21	132	132	132	132
21	20	has	has	has	5	nopreview	11	22	0	0	0	0
22	21	been	been	been	5	nopreview	11	23	513	513	513	253
23	22	in	in	in	5	nopreview	11	24	119	119	119	119
24	23	contract	contract	contract	5	nopreview	11	25	748	157	157	157
25	24	dispute	dispute	dispute	5	nopreview	11	26	405	242	996	242
26	25	with	with	with	5	nopreview	11	27	145	145	145	145
27	26	his	his	his	5	nopreview	11	28	0	0	0	0
28	27	club	club	club	5	nopreview	11	29	0	0	0	0
29	28	@entity6	Atletico	Atletico	5	nopreview	11	30	704	704	704	130
30			Paranaense	Paranaense.	5	nopreview	11	31	1576	1576	1576	1114
	29	.	.		5	nopreview	11	32				
31	30	He	He	He	5	nopreview	11	33	0	0	0	0
32	31	is	is	is	5	nopreview	11	34	0	0	0	0
33	32	due	due	due	5	nopreview	11	35	325	325	325	325
34	33	to	to	to	5	nopreview	11	36	0	0	0	0
35	34	speak	speak	speak	5	nopreview	11	37	138	138	138	138
36	35	to	to	to	5	nopreview	11	38	0	0	0	0
37	36	@entity0	Chelsea	Chelsea	5	nopreview	11	39	316	316	316	172
38	37	next	next	next	5	nopreview	11	40	0	0	0	0
39	38	week	week	week	5	nopreview	11	41	0	0	0	0
40	39	ahead	ahead	ahead	5	nopreview	11	42	0	0	0	0
41	40	of	of	of	5	nopreview	11	43	0	0	0	0
42	41	a	a	a	5	nopreview	11	44	0	0	0	0
43	42	proposed	proposed	proposed	5	nopreview	11	45	546	546	546	183
44	43	move	move	move	5	nopreview	11	46	0	0	0	0
45	44	to	to	to	5	nopreview	11	47	317	0	0	0
46	45	@entity8	Stamford	Stamford	5	nopreview	11	48	293	135	610	135
47			Bridge	Bridge	5	nopreview	11	49	277	277	277	162
48	46	which	which	which	5	nopreview	11	50	0	0	0	0
49	47	would	would	would	5	nopreview	11	51	354	181	181	181
50	48	likely	likely	likely	5	nopreview	11	52	197	197	370	197
51	49	see	see	see	5	nopreview	11	53	192	0	0	0
52	50	him	him	him	5	nopreview	11	54	189	0	0	0
53	51	loaned	loaned	loaned	5	nopreview	11	55	499	178	880	178
54	52	out	out	out.	5	nopreview	11	56	176	176	176	176
	53	.	.		5	nopreview	11	57				
55	54	@entity6	Atletico	Manchester	5	nopreview	11	58	573	573	573	232
			Paranaense		5	nopreview	11	59				
	55	attacking	attacking		5	nopreview	11	60				
	56	midfielder	midfielder		5	nopreview	11	61				
	57	@entity2	Nathan		5	nopreview	11	62				
	58	is	is		5	nopreview	11	63				
	59	attracting	attracting		5	nopreview	11	64				
	60	interest	interest		5	nopreview	11	65				
	61	from	from		5	nopreview	11	66				
	62	@entity0	Chelsea		5	nopreview	11	67				
	63	and	and		5	nopreview	11	68				
	64	@entity1	Manchester		5	nopreview	11	69				
56	65	@entity11	City	City	5	nopreview	11	70	0	0	0	0
57			Jose	have	5	nopreview	11	71	164	164	164	164
58			Mourinho	been	5	nopreview	11	72	0	0	0	0
	66	and	and		5	nopreview	11	73				
	67	@entity12	Manuel		5	nopreview	11	74				
			Pellegrini		5	nopreview	11	75				
	68	will	will		5	nopreview	11	76				
	69	go	go		5	nopreview	11	77				
	70	head	head		5	nopreview	11	78				
59	71	-	-	keen	5	nopreview	11	79	406	169	169	169
	72	to	to		5	nopreview	11	80				
	73	-	-		5	nopreview	11	81				
	74	head	head		5	nopreview	11	82				
60	75	to	to	on	5	nopreview	11	83	0	0	0	0
61	76	sign	sign	Nathan	5	nopreview	11	84	185	185	422	185
	77	@entity3	Brazilian		5	nopreview	11	85				
	78	starlet	starlet		5	nopreview	11	86				
	79	@entity2	Nathan		5	nopreview	11	87				
62	80	@entity1	Manchester	following	5	nopreview	11	88	342	342	342	156
			City		5	nopreview	11	89				
	81	have	have		5	nopreview	11	90				
	82	been	been		5	nopreview	11	91				
	83	keen	keen		5	nopreview	11	92				
	84	on	on		5	nopreview	11	93				
	85	@entity2	Nathan		5	nopreview	11	94				
	86	following	following		5	nopreview	11	95				
63	87	his	his	his	5	nopreview	11	96	0	0	0	0
64	88	performances	performances	performances	5	nopreview	11	97	829	829	829	223
65	89	in	in	in	5	nopreview	11	98	0	0	0	0
66	90	the	the	the	5	nopreview	11	99	147	147	147	147
67	91	@entity16	World	World	5	nopreview	11	100	472	165	165	165
68			U17	U17	5	nopreview	11	101	692	131	999	131
69			Championships	Championships	5	nopreview	11	102	353	353	353	236
70	92	two	two	two	5	nopreview	11	103	0	0	0	0
71	93	years	years	years	5	nopreview	11	104	0	0	0	0
72	94	ago	ago	ago	5	nopreview	11	105	106	0	0	0
73	95	and	and	and	5	nopreview	11	106	160	160	266	160
74	96	he	he	he	5	nopreview	11	107	142	142	142	142
75	97	has	has	has	5	nopreview	11	108	0	0	0	0
76	98	since	since	since	5	nopreview	11	109	657	159	159	159
77	99	broken	broken	broken	5	nopreview	11	110	486	343	984	194
78	100	into	into	into	5	nopreview	11	111	0	0	0	0
79	101	@entity6	Paranaense	Paranaense-s	5	nopreview	11	112	1030	430	430	148
	102	-s	-s		5	nopreview	11	113				
80	103	first	first	first	5	nopreview	11	114	783	169	169	169
81	104	team	team	team.	5	nopreview	11	115	458	137	1152	137
	105	.	.		5	nopreview	11	116				
82	106	@entity0	Chelsea	Chelsea	5	nopreview	11	117	454	265	974	265
83	107	have	have	have	5	nopreview	11	118	0	0	0	0
84	108	a	a	a	5	nopreview	11	119	188	188	188	188
85	109	strong	strong	strong	5	nopreview	11	120	396	396	396	396
86	110	@entity3	Brazilian	Brazilian	5	nopreview	11	121	245	0	0	0
87	111	contingency	contingency	contingency	5	nopreview	11	122	277	118	522	118
88	112	with	with	with	5	nopreview	11	123	170	170	170	170
89	113	the	the	the	5	nopreview	11	124	0	0	0	0
90	114	likes	likes	likes	5	nopreview	11	125	176	176	176	176
91	115	of	of	of	5	nopreview	11	126	0	0	0	0
92	116	@entity20	Willian	Willian,	5	nopreview	11	127	502	339	339	186
	117	,	,		5	nopreview	11	128				
93	118	@entity21	Ramires	Ramires,	5	nopreview	11	129	568	176	176	176
	119	,	,		5	nopreview	11	130				
94	120	@entity22	Filipe	Filipe	5	nopreview	11	131	806	479	1174	171
95			Luis	Luis	5	nopreview	11	132	155	0	0	0
96	121	and	and	and	5	nopreview	11	133	188	188	188	188
97	122	@entity23	Oscar	Oscar	5	nopreview	11	134	135	0	0	0
98	123	while	while	while	5	nopreview	11	135	181	91	91	91
99	124	21	21	21-year-old	5	nopreview	11	136	470	207	207	207
	125	-	-		5	nopreview	11	137				
	126	year	year		5	nopreview	11	138				
	127	-	-		5	nopreview	11	139				
	128	old	old		5	nopreview	11	140				
100	129	@entity24	Lucas	Lucas	5	nopreview	11	141	285	162	162	162
101			Piazon	Piazon	5	nopreview	11	142	385	147	147	147
102	130	is	is	is	5	nopreview	11	143	0	0	0	0
103	131	on	on	on	5	nopreview	11	144	0	0	0	0
104	132	loan	loan	loan	5	nopreview	11	145	156	156	156	156
105	133	at	at	at	5	nopreview	11	146	224	0	0	0
106	134	@entity26	Eintracht	Eintracht	5	nopreview	11	147	1048	177	177	177
107			Frankfurt	Frankfurt.	5	nopreview	11	148	334	88	2620	88
	135	.	.		5	nopreview	11	149				
