HumanPosition	AnonymizedPosition	AnonymizedToken	OriginalToken	ExperimentToken	Participant	Condition	TextNo	JointPosition	tt	fp	rp	ff
1	0	A	A	A	5	nopreview	20	1	0	0	0	0
2	1	physician	physician	physician,	5	nopreview	20	2	542	0	0	0
	2	,	,		5	nopreview	20	3				
3	3	93	93	93,	5	nopreview	20	4	271	0	0	0
	4	,	,		5	nopreview	20	5				
4	5	who	who	who	5	nopreview	20	6	217	93	582	93
5				was	5	nopreview	20	7	288	154	154	154
6	6	team	team	team	5	nopreview	20	8	523	354	354	199
7	7	doctor	doctor	doctor	5	nopreview	20	9	191	0	0	0
8	8	for	for	for	5	nopreview	20	10	169	169	169	169
9	9	five	five	five	5	nopreview	20	11	1563	139	1024	139
10	10	@entity6	U.S.	U.S.	5	nopreview	20	12	360	204	204	204
11	11	men	men	men-s	5	nopreview	20	13	727	0	0	0
	12	-s	-s		5	nopreview	20	14				
12	13	@entity4	Olympic	Olympic	5	nopreview	20	15	638	455	455	176
13	14	hockey	hockey	hockey	5	nopreview	20	16	295	162	162	162
14	15	squads	squads	squads,	5	nopreview	20	17	922	345	3602	345
	16	,	,		5	nopreview	20	18				
15	17	including	including	including	5	nopreview	20	19	214	0	0	0
16	18	the	the	the	5	nopreview	20	20	109	109	323	109
17	19	-	-	-Miracle	5	nopreview	20	21	163	163	163	163
	20	@entity8	Miracle		5	nopreview	20	22				
18			on	on	5	nopreview	20	23	0	0	0	0
19			Ice	Ice-	5	nopreview	20	24	321	168	168	168
	21	-	-		5	nopreview	20	25				
20	22	team	team	team	5	nopreview	20	26	159	0	0	0
21	23	that	that	that	5	nopreview	20	27	295	295	295	295
22	24	won	won	won	5	nopreview	20	28	188	0	0	0
23	25	in	in	in	5	nopreview	20	29	142	0	0	0
24	26	the	the	the	5	nopreview	20	30	617	144	144	144
25	27	1980	1980	1980-s,	5	nopreview	20	31	661	135	913	135
	28	-s	-s		5	nopreview	20	32				
	29	,	,		5	nopreview	20	33				
26	30	has	has	has	5	nopreview	20	34	0	0	0	0
27	31	suffered	suffered	suffered	5	nopreview	20	35	378	378	378	222
28	32	serious	serious	serious	5	nopreview	20	36	143	143	143	143
29	33	injuries	injuries	injuries	5	nopreview	20	37	0	0	0	0
30	34	in	in	in	5	nopreview	20	38	205	205	205	205
31	35	an	an	an	5	nopreview	20	39	0	0	0	0
32	36	attack	attack	attack	5	nopreview	20	40	177	177	177	177
33	37	while	while	while	5	nopreview	20	41	301	0	0	0
34	38	visiting	visiting	visiting	5	nopreview	20	42	367	367	367	202
35	39	his	his	his	5	nopreview	20	43	0	0	0	0
36	40	wife	wife	wife-s	5	nopreview	20	44	152	152	152	152
	41	-s	-s		5	nopreview	20	45				
37	42	grave	grave	grave	5	nopreview	20	46	579	135	135	135
38	43	on	on	on	5	nopreview	20	47	0	0	0	0
39	44	Sunday	Sunday	Sunday.	5	nopreview	20	48	331	100	1184	100
	45	.	.		5	nopreview	20	49				
40	46	@entity13	George	George	5	nopreview	20	50	438	103	892	103
41			Nagobads	Nagobads	5	nopreview	20	51	792	792	792	141
42	47	was	was	was	5	nopreview	20	52	0	0	0	0
43	48	allegedly	allegedly	allegedly	5	nopreview	20	53	288	184	184	184
44	49	mugged	mugged	mugged	5	nopreview	20	54	492	192	192	192
45	50	by	by	by	5	nopreview	20	55	0	0	0	0
46	51	a	a	a	5	nopreview	20	56	137	137	137	137
47	52	teenager	teenager	teenager	5	nopreview	20	57	966	671	671	287
48	53	on	on	on	5	nopreview	20	58	0	0	0	0
49	54	Sunday	Sunday	Sunday	5	nopreview	20	59	535	369	369	369
50	55	afternoon	afternoon	afternoon	5	nopreview	20	60	260	141	141	141
51	56	at	at	at	5	nopreview	20	61	0	0	0	0
52	57	the	the	the	5	nopreview	20	62	147	147	147	147
53	58	@entity15	Crystal	Crystal	5	nopreview	20	63	291	124	124	124
54			Lake	Lake	5	nopreview	20	64	244	144	411	144
55			Cemetery	Cemetery	5	nopreview	20	65	590	590	590	212
56	59	in	in	in	5	nopreview	20	66	184	184	184	184
57	60	@entity16	Minneapolis	Minneapolis	5	nopreview	20	67	200	200	200	200
58	61	while	while	while	5	nopreview	20	68	310	0	0	0
59	62	laying	laying	laying	5	nopreview	20	69	640	551	950	177
60	63	flowers	flowers	flowers	5	nopreview	20	70	512	512	512	242
61	64	on	on	on	5	nopreview	20	71	0	0	0	0
62	65	his	his	his	5	nopreview	20	72	158	158	158	158
63	66	wife	wife	wife	5	nopreview	20	73	493	166	166	166
64	67	@entity18	Velta	Velta-s	5	nopreview	20	74	826	206	206	206
	68	-s	-s		5	nopreview	20	75				
65	69	grave	grave	grave.	5	nopreview	20	76	492	106	1439	106
	70	.	.		5	nopreview	20	77				
66	71	He	He	He	5	nopreview	20	78	0	0	0	0
67	72	was	was	was	5	nopreview	20	79	0	0	0	0
68	73	released	released	released	5	nopreview	20	80	372	372	372	165
69	74	from	from	from	5	nopreview	20	81	178	178	178	178
70	75	the	the	the	5	nopreview	20	82	0	0	0	0
71	76	hospital	hospital	hospital	5	nopreview	20	83	161	0	0	0
72	77	on	on	on	5	nopreview	20	84	122	122	283	122
73	78	Tuesday	Tuesday	Tuesday	5	nopreview	20	85	398	175	175	175
74	79	with	with	with	5	nopreview	20	86	0	0	0	0
75	80	18	18	18	5	nopreview	20	87	346	178	569	178
76	81	stitches	stitches	stitches	5	nopreview	20	88	561	155	155	155
77	82	in	in	in	5	nopreview	20	89	108	0	0	0
78	83	his	his	his	5	nopreview	20	90	421	152	558	152
79	84	head	head	head.	5	nopreview	20	91	315	109	1098	109
	85	.	.		5	nopreview	20	92				
80	86	Scroll	Scroll	After	5	nopreview	20	93	138	138	138	138
	87	down	down		5	nopreview	20	94				
	88	for	for		5	nopreview	20	95				
81	89	video	video	allegedly	5	nopreview	20	96	597	380	380	235
	90	Injured	Injured		5	nopreview	20	97				
	91	:	:		5	nopreview	20	98				
	92	Dr.	Dr.		5	nopreview	20	99				
	93	@entity13	George		5	nopreview	20	100				
			Nagobads		5	nopreview	20	101				
	94	,	,		5	nopreview	20	102				
	95	pictured	pictured		5	nopreview	20	103				
	96	in	in		5	nopreview	20	104				
	97	2010	2010		5	nopreview	20	105				
	98	with	with		5	nopreview	20	106				
	99	his	his		5	nopreview	20	107				
	100	@entity25	Hall		5	nopreview	20	108				
			of		5	nopreview	20	109				
			Fame		5	nopreview	20	110				
	101	plaque	plaque		5	nopreview	20	111				
	102	,	,		5	nopreview	20	112				
	103	was	was		5	nopreview	20	113				
	104	allegedly	allegedly		5	nopreview	20	114				
82	105	attacked	attacked	being	5	nopreview	20	115	198	198	198	198
	106	on	on		5	nopreview	20	116				
	107	Sunday	Sunday		5	nopreview	20	117				
	108	by	by		5	nopreview	20	118				
	109	a	a		5	nopreview	20	119				
	110	teenager	teenager		5	nopreview	20	120				
	111	in	in		5	nopreview	20	121				
83	112	a	a	attacked	5	nopreview	20	122	511	381	381	381
	113	cemetary	cemetary		5	nopreview	20	123				
	114	Visiting	Visiting		5	nopreview	20	124				
	115	his	his		5	nopreview	20	125				
	116	wife	wife		5	nopreview	20	126				
	117	:	:		5	nopreview	20	127				
	118	@entity13	Nagobads		5	nopreview	20	128				
	119	was	was		5	nopreview	20	129				
	120	visiting	visiting		5	nopreview	20	130				
	121	his	his		5	nopreview	20	131				
	122	wife	wife		5	nopreview	20	132				
	123	-s	-s		5	nopreview	20	133				
	124	grave	grave		5	nopreview	20	134				
	125	at	at		5	nopreview	20	135				
	126	The	The		5	nopreview	20	136				
	127	@entity15	Crystal		5	nopreview	20	137				
			Lake		5	nopreview	20	138				
			Cemetery		5	nopreview	20	139				
	128	when	when		5	nopreview	20	140				
	129	he	he		5	nopreview	20	141				
	130	was	was		5	nopreview	20	142				
	131	allegedly	allegedly		5	nopreview	20	143				
	132	beaten	beaten		5	nopreview	20	144				
	133	with	with		5	nopreview	20	145				
	134	a	a		5	nopreview	20	146				
	135	snowbrush	snowbrush		5	nopreview	20	147				
	136	After	After		5	nopreview	20	148				
	137	allegedly	allegedly		5	nopreview	20	149				
	138	being	being		5	nopreview	20	150				
	139	attacked	attacked		5	nopreview	20	151				
84	140	by	by	by	5	nopreview	20	152	201	201	201	201
85	141	a	a	a	5	nopreview	20	153	0	0	0	0
86	142	snowbrush	snowbrush	snowbrush	5	nopreview	20	154	312	0	0	0
87	143	on	on	on	5	nopreview	20	155	142	142	454	142
88	144	Sunday	Sunday	Sunday,	5	nopreview	20	156	741	741	741	211
	145	,	,		5	nopreview	20	157				
89	146	a	a	a	5	nopreview	20	158	0	0	0	0
90	147	bloodied	bloodied	bloodied	5	nopreview	20	159	1161	495	495	231
91	148	@entity31	Nagobads	Nagobads	5	nopreview	20	160	1098	163	995	163
92	149	managed	managed	managed	5	nopreview	20	161	722	581	581	500
93	150	to	to	to	5	nopreview	20	162	119	0	0	0
94	151	get	get	get	5	nopreview	20	163	225	225	225	225
95	152	back	back	back	5	nopreview	20	164	334	157	157	157
96	153	in	in	in	5	nopreview	20	165	0	0	0	0
97	154	his	his	his	5	nopreview	20	166	187	187	187	187
98	155	car	car	car	5	nopreview	20	167	300	178	178	178
99	156	and	and	and	5	nopreview	20	168	0	0	0	0
100	157	drive	drive	drive	5	nopreview	20	169	1320	994	2995	337
101	158	away	away	away.	5	nopreview	20	170	0	0	0	0
	159	.	.		5	nopreview	20	171				
102	160	@entity31	Nagobads	Nagobads,	5	nopreview	20	172	628	628	628	119
	161	,	,		5	nopreview	20	173				
103	162	who	who	who	5	nopreview	20	174	0	0	0	0
104	163	is	is	is	5	nopreview	20	175	0	0	0	0
105	164	recovering	recovering	recovering	5	nopreview	20	176	284	284	284	157
106	165	at	at	at	5	nopreview	20	177	177	177	177	177
107	166	home	home	home,	5	nopreview	20	178	0	0	0	0
	167	,	,		5	nopreview	20	179				
108	168	said	said	said	5	nopreview	20	180	0	0	0	0
109	169	on	on	on	5	nopreview	20	181	148	148	148	148
110	170	Tuesday	Tuesday	Tuesday	5	nopreview	20	182	106	106	106	106
111	171	that	that	that	5	nopreview	20	183	0	0	0	0
112	172	he	he	he	5	nopreview	20	184	165	165	165	165
113	173	sped	sped	sped	5	nopreview	20	185	0	0	0	0
114	174	to	to	to	5	nopreview	20	186	147	147	147	147
115	175	a	a	a	5	nopreview	20	187	0	0	0	0
116	176	nearby	nearby	nearby	5	nopreview	20	188	178	178	178	178
117	177	hospital	hospital	hospital	5	nopreview	20	189	0	0	0	0
118	178	following	following	following	5	nopreview	20	190	298	298	298	148
119	179	the	the	the	5	nopreview	20	191	0	0	0	0
120	180	beating	beating	beating.	5	nopreview	20	192	210	210	210	210
	181	.	.		5	nopreview	20	193				
121	182	He	He	He	5	nopreview	20	194	0	0	0	0
122	183	told	told	told	5	nopreview	20	195	149	149	149	149
123	184	@entity37	The	The	5	nopreview	20	196	0	0	0	0
124			Star	Star	5	nopreview	20	197	148	148	148	148
125			Tribune	Tribune	5	nopreview	20	198	271	271	271	145
126	185	that	that	that	5	nopreview	20	199	0	0	0	0
127	186	he	he	he	5	nopreview	20	200	141	141	141	141
128	187	suffered	suffered	suffered	5	nopreview	20	201	108	108	108	108
129	188	a	a	a	5	nopreview	20	202	0	0	0	0
130	189	slight	slight	slight	5	nopreview	20	203	425	139	139	139
131	190	concussion	concussion	concussion	5	nopreview	20	204	359	0	0	0
132	191	and	and	and	5	nopreview	20	205	154	154	799	154
133	192	was	was	was	5	nopreview	20	206	152	152	152	152
134	193	kept	kept	kept	5	nopreview	20	207	131	131	131	131
135	194	overnight	overnight	overnight	5	nopreview	20	208	0	0	0	0
136	195	for	for	for	5	nopreview	20	209	153	153	153	153
137	196	observation	observation	observation.	5	nopreview	20	210	185	185	185	185
	197	.	.		5	nopreview	20	211				
138	198	Video	Video	-I	5	nopreview	20	212	0	0	0	0
	199	courtesy	courtesy		5	nopreview	20	213				
	200	@entity40	Fox		5	nopreview	20	214				
			9		5	nopreview	20	215				
139	201	-	-	brought	5	nopreview	20	216	295	184	184	184
	202	I	I		5	nopreview	20	217				
	203	brought	brought		5	nopreview	20	218				
140	204	new	new	new	5	nopreview	20	219	138	0	0	0
141	205	flowers	flowers	flowers	5	nopreview	20	220	170	170	170	170
142	206	and	and	and	5	nopreview	20	221	0	0	0	0
143	207	was	was	was	5	nopreview	20	222	361	261	610	261
144	208	just	just	just	5	nopreview	20	223	0	0	0	0
145	209	stooping	stooping	stooping	5	nopreview	20	224	372	372	372	133
146	210	down	down	down,-	5	nopreview	20	225	0	0	0	0
	211	,	,		5	nopreview	20	226				
147	212	-	-	said	5	nopreview	20	227	0	0	0	0
	213	said	said		5	nopreview	20	228				
148	214	@entity13	Nagobads	Nagobads	5	nopreview	20	229	470	381	381	224
149	215	of	of	of	5	nopreview	20	230	0	0	0	0
150	216	honoring	honoring	honoring	5	nopreview	20	231	155	155	244	155
151	217	his	his	his	5	nopreview	20	232	95	95	95	95
152	218	wife	wife	wife	5	nopreview	20	233	0	0	0	0
153	219	@entity31	Velta	Velta	5	nopreview	20	234	0	0	0	0
154			Nagobads	Nagobads	5	nopreview	20	235	413	413	413	200
155	220	who	who	who	5	nopreview	20	236	0	0	0	0
156	221	died	died	died	5	nopreview	20	237	301	301	1586	301
157	222	in	in	in	5	nopreview	20	238	0	0	0	0
158	223	2005	2005	2005.	5	nopreview	20	239	388	0	0	0
	224	.	.		5	nopreview	20	240				
159	225	Nagobads	Nagobads	Nagobads	5	nopreview	20	241	401	118	789	118
160	226	said	said	said	5	nopreview	20	242	181	181	181	181
161	227	that	that	that	5	nopreview	20	243	0	0	0	0
162	228	by	by	by	5	nopreview	20	244	129	0	0	0
163	229	throwing	throwing	throwing	5	nopreview	20	245	469	154	154	154
164	230	his	his	his	5	nopreview	20	246	272	154	318	154
165	231	wallet	wallet	wallet	5	nopreview	20	247	253	130	130	130
166	232	in	in	in	5	nopreview	20	248	0	0	0	0
167	233	attempt	attempt	attempt	5	nopreview	20	249	600	179	994	179
168	234	to	to	to	5	nopreview	20	250	0	0	0	0
169	235	distract	distract	distract	5	nopreview	20	251	569	344	344	344
170	236	the	the	the	5	nopreview	20	252	0	0	0	0
171	237	teen	teen	teen	5	nopreview	20	253	317	317	317	221
172	238	he	he	he	5	nopreview	20	254	97	97	97	97
173	239	was	was	was	5	nopreview	20	255	0	0	0	0
174	240	able	able	able	5	nopreview	20	256	0	0	0	0
175	241	to	to	to	5	nopreview	20	257	158	158	158	158
176	242	get	get	get	5	nopreview	20	258	0	0	0	0
177	243	away	away	away	5	nopreview	20	259	147	147	147	147
178	244	without	without	without	5	nopreview	20	260	173	0	0	0
179	245	further	further	further	5	nopreview	20	261	223	223	396	223
180	246	harm	harm	harm.	5	nopreview	20	262	0	0	0	0
	247	.	.		5	nopreview	20	263				
181	248	-	-	-I-m	5	nopreview	20	264	0	0	0	0
	249	I	I		5	nopreview	20	265				
	250	’m	’m		5	nopreview	20	266				
182	251	so	so	so	5	nopreview	20	267	159	159	159	159
183	252	lucky	lucky	lucky.	5	nopreview	20	268	878	228	1230	228
	253	.	.		5	nopreview	20	269				
184	254	…	…	...	5	nopreview	20	270	0	0	0	0
185	255	I	I	I	5	nopreview	20	271	0	0	0	0
186	256	used	used	used	5	nopreview	20	272	159	159	159	159
187	257	that	that	that	5	nopreview	20	273	0	0	0	0
188	258	little	little	little	5	nopreview	20	274	145	145	145	145
189	259	trick	trick	trick	5	nopreview	20	275	0	0	0	0
190	260	and	and	and	5	nopreview	20	276	208	208	208	208
191	261	threw	threw	threw	5	nopreview	20	277	265	265	265	143
192	262	the	the	the	5	nopreview	20	278	282	0	0	0
193	263	wallet	wallet	wallet	5	nopreview	20	279	189	189	189	189
194	264	to	to	to	5	nopreview	20	280	0	0	0	0
195	265	get	get	get	5	nopreview	20	281	412	0	0	0
196	266	to	to	to	5	nopreview	20	282	195	195	889	195
197	267	my	my	my	5	nopreview	20	283	148	0	0	0
198	268	car	car	car-	5	nopreview	20	284	496	273	421	273
	269	-	-		5	nopreview	20	285				
199	270	about	about	about	5	nopreview	20	286	0	0	0	0
200	271	40	40	40	5	nopreview	20	287	372	165	165	165
201	272	yards	yards	yards	5	nopreview	20	288	273	273	480	273
202	273	away	away	away,	5	nopreview	20	289	0	0	0	0
	274	,	,		5	nopreview	20	290				
203	275	the	the	the	5	nopreview	20	291	0	0	0	0
204	276	doctor	doctor	doctor	5	nopreview	20	292	297	157	520	157
205	277	said	said	said.	5	nopreview	20	293	141	141	141	141
	278	.	.		5	nopreview	20	294				
206	279	As	As	As	5	nopreview	20	295	0	0	0	0
207	280	the	the	the	5	nopreview	20	296	0	0	0	0
208	281	boy	boy	boy	5	nopreview	20	297	0	0	0	0
209	282	picked	picked	picked	5	nopreview	20	298	174	174	174	174
210	283	up	up	up	5	nopreview	20	299	0	0	0	0
211	284	the	the	the	5	nopreview	20	300	190	190	190	190
212	285	wallet	wallet	wallet,	5	nopreview	20	301	0	0	0	0
	286	,	,		5	nopreview	20	302				
213	287	@entity31	Nagobads	Nagobads	5	nopreview	20	303	151	151	151	151
214	288	continued	continued	continued,	5	nopreview	20	304	162	162	162	162
	289	,	,		5	nopreview	20	305				
215	290	-	-	-I	5	nopreview	20	306	0	0	0	0
	291	I	I		5	nopreview	20	307				
216	292	was	was	was	5	nopreview	20	308	0	0	0	0
217	293	running	running	running	5	nopreview	20	309	219	219	219	219
218	294	…	…	...	5	nopreview	20	310	0	0	0	0
219	295	really	really	really	5	nopreview	20	311	187	187	187	187
220	296	fast	fast	fast.	5	nopreview	20	312	178	178	178	178
	297	.	.		5	nopreview	20	313				
221	298	I	I	I	5	nopreview	20	314	99	99	99	99
222	299	was	was	was	5	nopreview	20	315	0	0	0	0
223	300	surprised	surprised	surprised	5	nopreview	20	316	196	196	196	196
224	301	how	how	how	5	nopreview	20	317	0	0	0	0
225	302	I	I	I	5	nopreview	20	318	0	0	0	0
226	303	could	could	could	5	nopreview	20	319	332	154	154	154
227	304	run	run	run	5	nopreview	20	320	0	0	0	0
228	305	like	like	like	5	nopreview	20	321	145	145	323	145
229	306	this	this	this.-	5	nopreview	20	322	127	127	127	127
	307	.	.		5	nopreview	20	323				
230	308	-	-	Nagobads	5	nopreview	20	324	197	197	197	197
	309	Victory	Victory		5	nopreview	20	325				
	310	:	:		5	nopreview	20	326				
	311	He	He		5	nopreview	20	327				
	312	was	was		5	nopreview	20	328				
	313	the	the		5	nopreview	20	329				
	314	doctor	doctor		5	nopreview	20	330				
	315	fro	fro		5	nopreview	20	331				
	316	the	the		5	nopreview	20	332				
	317	-	-		5	nopreview	20	333				
	318	@entity8	Miracle		5	nopreview	20	334				
			on		5	nopreview	20	335				
			Ice		5	nopreview	20	336				
	319	-	-		5	nopreview	20	337				
	320	team	team		5	nopreview	20	338				
	321	that	that		5	nopreview	20	339				
	322	won	won		5	nopreview	20	340				
	323	the	the		5	nopreview	20	341				
	324	improbable	improbable		5	nopreview	20	342				
	325	gold	gold		5	nopreview	20	343				
	326	medal	medal		5	nopreview	20	344				
	327	in	in		5	nopreview	20	345				
	328	@entity62	Lake		5	nopreview	20	346				
	329	@entity8	Placid		5	nopreview	20	347				
			Miracle		5	nopreview	20	348				
			on		5	nopreview	20	349				
			Ice		5	nopreview	20	350				
	330	:	:		5	nopreview	20	351				
	331	Nagobads	Nagobads		5	nopreview	20	352				
231	332	was	was	said	5	nopreview	20	353	0	0	0	0
232	333	team	team	that	5	nopreview	20	354	155	155	155	155
233	334	doctor	doctor	he	5	nopreview	20	355	0	0	0	0
	335	for	for		5	nopreview	20	356				
234	336	the	the	bled	5	nopreview	20	357	336	336	336	191
235	337	famous	famous	heavily	5	nopreview	20	358	192	192	192	192
	338	-	-		5	nopreview	20	359				
	339	@entity8	Miracle		5	nopreview	20	360				
			on		5	nopreview	20	361				
			Ice		5	nopreview	20	362				
	340	-	-		5	nopreview	20	363				
	341	team	team		5	nopreview	20	364				
	342	that	that		5	nopreview	20	365				
	343	won	won		5	nopreview	20	366				
	344	@entity4	Olympic		5	nopreview	20	367				
	345	gold	gold		5	nopreview	20	368				
	346	in	in		5	nopreview	20	369				
	347	1980	1980		5	nopreview	20	370				
	348	and	and		5	nopreview	20	371				
	349	that	that		5	nopreview	20	372				
	350	inspired	inspired		5	nopreview	20	373				
	351	the	the		5	nopreview	20	374				
	352	2004	2004		5	nopreview	20	375				
	353	movie	movie		5	nopreview	20	376				
	354	-	-		5	nopreview	20	377				
	355	Miracle	Miracle		5	nopreview	20	378				
	356	-	-		5	nopreview	20	379				
	357	@entity13	Nagobads		5	nopreview	20	380				
	358	said	said		5	nopreview	20	381				
	359	that	that		5	nopreview	20	382				
	360	he	he		5	nopreview	20	383				
	361	bled	bled		5	nopreview	20	384				
	362	heavily	heavily		5	nopreview	20	385				
236	363	while	while	while	5	nopreview	20	386	192	192	192	192
237	364	behind	behind	behind	5	nopreview	20	387	0	0	0	0
238	365	the	the	the	5	nopreview	20	388	420	0	0	0
239	366	wheel	wheel	wheel	5	nopreview	20	389	322	136	742	136
240	367	of	of	of	5	nopreview	20	390	0	0	0	0
241	368	his	his	his	5	nopreview	20	391	311	311	311	180
242	369	car	car	car	5	nopreview	20	392	0	0	0	0
243	370	and	and	and	5	nopreview	20	393	0	0	0	0
244	371	risked	risked	risked	5	nopreview	20	394	204	204	204	204
245	372	being	being	being	5	nopreview	20	395	207	0	0	0
246	373	stopped	stopped	stopped	5	nopreview	20	396	353	179	560	179
247	374	by	by	by	5	nopreview	20	397	0	0	0	0
248	375	a	a	a	5	nopreview	20	398	0	0	381	0
249	376	cop	cop	cop.	5	nopreview	20	399	123	123	123	123
	377	.	.		5	nopreview	20	400				
250	378	-	-	-I	5	nopreview	20	401	0	0	0	0
	379	I	I		5	nopreview	20	402				
251	380	drove	drove	drove	5	nopreview	20	403	248	248	248	248
252	381	way	way	way	5	nopreview	20	404	0	0	0	0
253	382	over	over	over	5	nopreview	20	405	375	375	375	233
254	383	the	the	the	5	nopreview	20	406	245	245	245	245
255	384	speed	speed	speed	5	nopreview	20	407	0	0	0	0
256	385	limit	limit	limit.	5	nopreview	20	408	304	0	0	0
	386	.	.		5	nopreview	20	409				
257	387	If	If	If	5	nopreview	20	410	111	111	415	111
258	388	a	a	a	5	nopreview	20	411	0	0	0	0
259	389	cop	cop	cop	5	nopreview	20	412	0	0	0	0
260	390	catches	catches	catches	5	nopreview	20	413	277	277	277	161
261	391	me	me	me,	5	nopreview	20	414	0	0	0	0
	392	,	,		5	nopreview	20	415				
262	393	that	that	that-s	5	nopreview	20	416	174	174	174	174
	394	’s	’s		5	nopreview	20	417				
263	395	fine	fine	fine,-	5	nopreview	20	418	143	143	143	143
	396	,	,		5	nopreview	20	419				
264	397	-	-	he	5	nopreview	20	420	0	0	0	0
265	398	he	he	said	5	nopreview	20	421	0	0	0	0
	399	said	said		5	nopreview	20	422				
266	400	he	he	he	5	nopreview	20	423	249	145	145	145
267	401	thought	thought	thought	5	nopreview	20	424	298	176	280	176
268	402	after	after	after	5	nopreview	20	425	112	0	0	0
269	403	the	the	the	5	nopreview	20	426	181	181	415	181
270	404	attack	attack	attack	5	nopreview	20	427	99	99	99	99
271	405	on	on	on	5	nopreview	20	428	0	0	0	0
272	406	Sunday	Sunday	Sunday.	5	nopreview	20	429	197	197	197	197
	407	.	.		5	nopreview	20	430				
273	408	Witness	Witness	Witness	5	nopreview	20	431	884	127	127	127
274	409	@entity76	Justin	Justin	5	nopreview	20	432	310	152	152	152
275			McCarthy	McCarthy	5	nopreview	20	433	330	106	1245	106
276	410	says	says	says	5	nopreview	20	434	0	0	0	0
277	411	he	he	he	5	nopreview	20	435	146	146	146	146
278	412	saw	saw	saw	5	nopreview	20	436	0	0	0	0
279	413	a	a	a	5	nopreview	20	437	150	150	150	150
280	414	young	young	young	5	nopreview	20	438	126	126	126	126
281	415	man	man	man	5	nopreview	20	439	0	0	0	0
282	416	around	around	around	5	nopreview	20	440	247	247	247	247
283	417	the	the	the	5	nopreview	20	441	0	0	0	0
284	418	age	age	age	5	nopreview	20	442	94	94	94	94
285	419	of	of	of	5	nopreview	20	443	0	0	0	0
286	420	14	14	14	5	nopreview	20	444	0	0	0	0
287	421	or	or	or	5	nopreview	20	445	313	313	313	313
288	422	15	15	15	5	nopreview	20	446	123	123	123	123
289	423	looking	looking	looking	5	nopreview	20	447	0	0	0	0
290	424	through	through	through	5	nopreview	20	448	406	233	233	233
291	425	a	a	a	5	nopreview	20	449	0	0	0	0
292	426	wallet	wallet	wallet	5	nopreview	20	450	281	281	454	167
293	427	near	near	near	5	nopreview	20	451	0	0	173	0
294	428	the	the	the	5	nopreview	20	452	429	147	147	147
295	429	mausoleum	mausoleum	mausoleum	5	nopreview	20	453	153	153	153	153
296	430	before	before	before	5	nopreview	20	454	206	206	488	206
297	431	fleeing	fleeing	fleeing	5	nopreview	20	455	397	189	189	189
298	432	by	by	by	5	nopreview	20	456	0	0	0	0
299	433	bicycle	bicycle	bicycle	5	nopreview	20	457	209	125	125	125
300	434	and	and	and	5	nopreview	20	458	117	117	409	117
301	435	jumping	jumping	jumping	5	nopreview	20	459	109	109	109	109
302	436	over	over	over	5	nopreview	20	460	0	0	0	0
303	437	a	a	a	5	nopreview	20	461	0	0	0	0
304	438	fence	fence	fence.	5	nopreview	20	462	301	301	301	159
	439	.	.		5	nopreview	20	463				
305	440	-	-	-I	5	nopreview	20	464	0	0	0	0
	441	I	I		5	nopreview	20	465				
306	442	saw	saw	saw	5	nopreview	20	466	0	0	0	0
307	443	the	the	the	5	nopreview	20	467	0	0	0	0
308	444	kid	kid	kid	5	nopreview	20	468	163	163	163	163
309	445	there	there	there.	5	nopreview	20	469	162	162	162	162
	446	.	.		5	nopreview	20	470				
310	447	I	I	I	5	nopreview	20	471	0	0	0	0
311	448	put	put	put	5	nopreview	20	472	0	0	0	0
312	449	two	two	two	5	nopreview	20	473	144	144	144	144
313	450	and	and	and	5	nopreview	20	474	151	0	0	0
314	451	two	two	two	5	nopreview	20	475	0	0	0	0
315	452	together	together	together,	5	nopreview	20	476	171	171	322	171
	453	,	,		5	nopreview	20	477				
316	454	and	and	and	5	nopreview	20	478	0	0	0	0
317	455	I	I	I	5	nopreview	20	479	0	0	0	0
318	456	just	just	just	5	nopreview	20	480	180	180	180	180
319	457	got	got	got	5	nopreview	20	481	0	0	0	0
320	458	really	really	really	5	nopreview	20	482	151	151	151	151
321	459	mad	mad	mad,-	5	nopreview	20	483	0	0	0	0
	460	,	,		5	nopreview	20	484				
322	461	-	-	said	5	nopreview	20	485	272	272	272	159
	462	said	said		5	nopreview	20	486				
323	463	@entity76	McCarthy	McCarthy.	5	nopreview	20	487	296	296	296	170
	464	.	.		5	nopreview	20	488				
324	465	@entity76	McCarthy	McCarthy	5	nopreview	20	489	227	141	141	141
325	466	said	said	said	5	nopreview	20	490	0	0	0	0
326	467	he	he	he	5	nopreview	20	491	137	0	0	0
327	468	chased	chased	chased	5	nopreview	20	492	156	156	156	156
328	469	the	the	the	5	nopreview	20	493	0	0	0	0
329	470	teen	teen	teen	5	nopreview	20	494	172	0	0	0
330	471	but	but	but	5	nopreview	20	495	0	0	0	0
331	472	not	not	not	5	nopreview	20	496	150	150	150	150
332	473	very	very	very	5	nopreview	20	497	0	0	0	0
333	474	far	far	far.	5	nopreview	20	498	126	126	521	126
	475	.	.		5	nopreview	20	499				
334	476	-	-	-I-m	5	nopreview	20	500	0	0	0	0
	477	I	I		5	nopreview	20	501				
	478	’m	’m		5	nopreview	20	502				
335	479	52	52	52	5	nopreview	20	503	291	291	291	200
336	480	and	and	and	5	nopreview	20	504	0	0	0	0
337	481	I	I	I-m	5	nopreview	20	505	0	0	0	0
	482	’m	’m		5	nopreview	20	506				
338	483	kind	kind	kind	5	nopreview	20	507	212	91	91	91
339	484	of	of	of	5	nopreview	20	508	0	0	0	0
340	485	fat	fat	fat.	5	nopreview	20	509	150	150	271	150
	486	.	.		5	nopreview	20	510				
341	487	It	It	It	5	nopreview	20	511	0	0	0	0
342	488	was	was	wasn-t	5	nopreview	20	512	418	0	0	0
	489	n’t	n’t		5	nopreview	20	513				
343	490	going	going	going	5	nopreview	20	514	106	106	106	106
344	491	to	to	to	5	nopreview	20	515	0	0	0	0
345	492	happen	happen	happen.	5	nopreview	20	516	277	134	695	134
	493	.	.		5	nopreview	20	517				
346	494	…	…	...	5	nopreview	20	518	0	0	0	0
347	495	I	I	I	5	nopreview	20	519	0	0	0	0
348	496	was	was	was	5	nopreview	20	520	0	0	0	0
349	497	completely	completely	completely	5	nopreview	20	521	430	169	169	169
350	498	exhausted	exhausted	exhausted,-	5	nopreview	20	522	430	226	691	226
	499	,	,		5	nopreview	20	523				
351	500	-	-	said	5	nopreview	20	524	105	105	105	105
	501	said	said		5	nopreview	20	525				
352	502	@entity76	McCarthy	McCarthy.	5	nopreview	20	526	335	335	335	125
	503	.	.		5	nopreview	20	527				
353	504	@entity87	Mccarthy	McCarthy	5	nopreview	20	528	925	267	267	109
354	505	said	said	said	5	nopreview	20	529	102	102	760	102
355	506	that	that	that	5	nopreview	20	530	126	126	126	126
356	507	@entity13	Nagobads	Nagobads	5	nopreview	20	531	222	102	102	102
357	508	told	told	told	5	nopreview	20	532	388	138	258	138
358	509	him	him	him,	5	nopreview	20	533	0	0	0	0
	510	,	,		5	nopreview	20	534				
359	511	-	-	-I	5	nopreview	20	535	0	0	0	0
	512	I	I		5	nopreview	20	536				
360	513	gave	gave	gave	5	nopreview	20	537	152	152	152	152
361	514	him	him	him	5	nopreview	20	538	331	0	0	0
362	515	my	my	my	5	nopreview	20	539	0	0	0	0
363	516	wallet	wallet	wallet,	5	nopreview	20	540	285	179	616	179
	517	,	,		5	nopreview	20	541				
364	518	and	and	and	5	nopreview	20	542	296	0	0	0
365	519	he	he	he	5	nopreview	20	543	198	0	0	0
366	520	still	still	still	5	nopreview	20	544	188	93	585	93
367	521	tried	tried	tried	5	nopreview	20	545	0	0	0	0
368	522	to	to	to	5	nopreview	20	546	107	0	0	0
369	523	kill	kill	kill	5	nopreview	20	547	154	154	154	154
370	524	me	me	me.-	5	nopreview	20	548	90	90	544	90
	525	.	.		5	nopreview	20	549				
371	526	’	’	Nagobads	5	nopreview	20	550	785	0	0	0
	527	@entity13	Nagobads		5	nopreview	20	551				
372	528	was	was	was	5	nopreview	20	552	261	152	152	152
373	529	the	the	the	5	nopreview	20	553	437	0	0	0
374	530	@entity89	University	University	5	nopreview	20	554	413	125	951	125
375			of	of	5	nopreview	20	555	141	0	0	0
376			Minnesota	Minnesota	5	nopreview	20	556	730	330	1220	138
377	531	men	men	men-s	5	nopreview	20	557	388	228	563	228
	532	-s	-s		5	nopreview	20	558				
378	533	hockey	hockey	hockey	5	nopreview	20	559	626	626	626	180
379	534	team	team	team	5	nopreview	20	560	120	120	120	120
380	535	physician	physician	physician	5	nopreview	20	561	0	0	0	0
381	536	for	for	for	5	nopreview	20	562	217	217	217	217
382	537	34	34	34	5	nopreview	20	563	198	198	198	198
383	538	years	years	years	5	nopreview	20	564	522	522	522	258
384	539	until	until	until	5	nopreview	20	565	339	0	0	0
385	540	his	his	his	5	nopreview	20	566	105	105	497	105
386	541	retirement	retirement	retirement	5	nopreview	20	567	194	194	410	194
387	542	in	in	in	5	nopreview	20	568	0	0	0	0
388	543	1992	1992	1992.	5	nopreview	20	569	0	0	216	0
	544	.	.		5	nopreview	20	570				
389	545	He	He	He	5	nopreview	20	571	0	0	0	0
390	546	also	also	also	5	nopreview	20	572	234	234	234	234
391	547	worked	worked	worked	5	nopreview	20	573	238	0	0	0
392	548	for	for	for	5	nopreview	20	574	136	136	136	136
393	549	the	the	the	5	nopreview	20	575	291	179	529	179
394	550	@entity93	Minnesota	Minnesota	5	nopreview	20	576	0	0	0	0
395			North	North	5	nopreview	20	577	0	0	0	0
396			Stars	Stars	5	nopreview	20	578	328	0	0	0
397	551	in	in	in	5	nopreview	20	579	153	153	481	153
398	552	the	the	the	5	nopreview	20	580	0	0	0	0
399	553	late	late	late	5	nopreview	20	581	365	365	365	149
400	554	1980s	1980s	1980s	5	nopreview	20	582	633	343	343	133
401	555	and	and	and	5	nopreview	20	583	0	0	0	0
402	556	early	early	early	5	nopreview	20	584	212	212	212	212
403	557	1990s	1990s	1990s.	5	nopreview	20	585	319	169	169	169
	558	.	.		5	nopreview	20	586				
404	559	And	And	And	5	nopreview	20	587	126	0	0	0
405	560	he	he	he	5	nopreview	20	588	302	302	302	302
406	561	was	was	was	5	nopreview	20	589	0	0	0	0
407	562	team	team	team	5	nopreview	20	590	200	200	200	200
408	563	doctor	doctor	doctor	5	nopreview	20	591	302	302	302	171
409	564	for	for	for	5	nopreview	20	592	0	0	0	0
410	565	the	the	the	5	nopreview	20	593	352	191	191	191
411	566	famous	famous	famous	5	nopreview	20	594	466	466	627	220
412	567	-	-	-Miracle	5	nopreview	20	595	303	0	0	0
	568	@entity8	Miracle		5	nopreview	20	596				
413			on	on	5	nopreview	20	597	0	0	0	0
414			Ice	Ice-	5	nopreview	20	598	246	133	549	133
	569	-	-		5	nopreview	20	599				
415	570	team	team	team	5	nopreview	20	600	0	0	0	0
416	571	that	that	that	5	nopreview	20	601	706	349	349	349
417	572	won	won	won	5	nopreview	20	602	161	0	0	0
418	573	@entity4	Olympic	Olympic	5	nopreview	20	603	269	133	133	133
419	574	gold	gold	gold	5	nopreview	20	604	0	0	0	0
420	575	in	in	in	5	nopreview	20	605	319	110	110	110
421	576	1980	1980	1980.	5	nopreview	20	606	456	92	1319	92
	577	.	.		5	nopreview	20	607				
422	578	He	He	He	5	nopreview	20	608	0	0	0	0
423	579	was	was	was	5	nopreview	20	609	0	0	0	0
424	580	played	played	played	5	nopreview	20	610	700	205	948	205
425	581	by	by	by	5	nopreview	20	611	329	142	142	142
426	582	@entity96	Kenneth	Kenneth	5	nopreview	20	612	528	162	526	162
427			Welsh	Welsh	5	nopreview	20	613	318	207	825	207
428	583	in	in	in	5	nopreview	20	614	0	0	0	0
429	584	the	the	the	5	nopreview	20	615	0	0	0	0
430	585	2004	2004	2004	5	nopreview	20	616	511	158	158	158
431	586	movie	movie	movie	5	nopreview	20	617	622	177	177	177
432	587	-	-	-Miracle,-	5	nopreview	20	618	252	122	1050	122
	588	@entity98	Miracle		5	nopreview	20	619				
	589	,	,		5	nopreview	20	620				
433	590	-	-	about	5	nopreview	20	621	0	0	0	0
	591	about	about		5	nopreview	20	622				
434	592	the	the	the	5	nopreview	20	623	231	231	231	231
435	593	@entity6	USA	USA-s	5	nopreview	20	624	318	0	0	0
	594	’s	’s		5	nopreview	20	625				
436	595	improbable	improbable	improbable	5	nopreview	20	626	424	275	604	184
437	596	gold	gold	gold	5	nopreview	20	627	0	0	0	0
438	597	medal	medal	medal	5	nopreview	20	628	148	148	148	148
439	598	run	run	run	5	nopreview	20	629	388	388	388	249
440	599	in	in	in	5	nopreview	20	630	124	124	124	124
441	600	@entity62	Lake	Lake	5	nopreview	20	631	124	124	124	124
442			Placid	Placid.	5	nopreview	20	632	320	0	0	0
	601	.	.		5	nopreview	20	633				
443	602	The	The	The	5	nopreview	20	634	127	127	447	127
444	603	cemetery	cemetery	cemetery	5	nopreview	20	635	669	507	507	156
445	604	is	is	is	5	nopreview	20	636	133	0	0	0
446	605	owned	owned	owned	5	nopreview	20	637	283	151	151	151
447	606	by	by	by	5	nopreview	20	638	0	0	0	0
448	607	@entity101	Bill	Bill	5	nopreview	20	639	374	233	939	233
449			McReavy	McReavy,	5	nopreview	20	640	247	247	247	83
	608	,	,		5	nopreview	20	641				
450	609	who	who	who	5	nopreview	20	642	0	0	0	0
451	610	said	said	said,	5	nopreview	20	643	100	100	100	100
	611	,	,		5	nopreview	20	644				
452	612	-	-	-This	5	nopreview	20	645	110	110	110	110
	613	This	This		5	nopreview	20	646				
453	614	is	is	is	5	nopreview	20	647	154	154	154	154
454	615	an	an	an	5	nopreview	20	648	99	0	0	0
455	616	isolated	isolated	isolated	5	nopreview	20	649	226	226	325	226
456	617	incident	incident	incident	5	nopreview	20	650	93	0	0	0
457	618	and	and	and	5	nopreview	20	651	122	122	215	122
458	619	we	we	we	5	nopreview	20	652	0	0	0	0
459	620	are	are	are	5	nopreview	20	653	0	0	0	0
460	621	looking	looking	looking	5	nopreview	20	654	123	123	123	123
461	622	at	at	at	5	nopreview	20	655	0	0	0	0
462	623	it	it	it	5	nopreview	20	656	0	0	0	0
463	624	very	very	very	5	nopreview	20	657	348	189	189	189
464	625	closely	closely	closely.-	5	nopreview	20	658	272	116	275	116
	626	.	.		5	nopreview	20	659				
465	627	-	-	Unfortunately,	5	nopreview	20	660	217	217	217	217
	628	Unfortunately	Unfortunately		5	nopreview	20	661				
	629	,	,		5	nopreview	20	662				
466	630	It	It	it	5	nopreview	20	663	0	0	0	0
467	631	was	was	wasn-t	5	nopreview	20	664	133	133	133	133
	632	n-t	n-t		5	nopreview	20	665				
468	633	captured	captured	captured	5	nopreview	20	666	127	127	283	127
469	634	on	on	on	5	nopreview	20	667	0	0	0	0
470	635	security	security	security	5	nopreview	20	668	0	0	0	0
471	636	video	video	video.	5	nopreview	20	669	0	0	0	0
	637	.	.		5	nopreview	20	670				
