HumanPosition	AnonymizedPosition	AnonymizedToken	OriginalToken	ExperimentToken	Participant	Condition	TextNo	JointPosition	tt	fp	rp	ff
	0	@entity2	Seoul		5	nopreview	4	1				
	1	(	(		5	nopreview	4	2				
	2	@entity3	CNN		5	nopreview	4	3				
	3	)	)		5	nopreview	4	4				
0	4	@entity1	South	South	5	nopreview	4	5	214	0	0	0
2			Korea	Korea	5	nopreview	4	6	547	103	456	103
	5	-s	-s		5	nopreview	4	7				
3	6	Prime	Prime	Prime	5	nopreview	4	8	485	196	196	196
4	7	Minister	Minister	Minister	5	nopreview	4	9	169	0	0	0
5	8	@entity0	Lee	Lee	5	nopreview	4	10	154	154	154	154
6			Wan	Wan-koo	5	nopreview	4	11	1491	1049	1049	140
			-		5	nopreview	4	12				
			koo		5	nopreview	4	13				
7	9	offered	offered	offered	5	nopreview	4	14	255	163	163	163
8	10	to	to	to	5	nopreview	4	15	137	0	0	0
9	11	resign	resign	resign	5	nopreview	4	16	374	374	374	213
10	12	on	on	on	5	nopreview	4	17	0	0	0	0
11	13	Monday	Monday	Monday	5	nopreview	4	18	480	292	292	292
12	14	amid	amid	amid	5	nopreview	4	19	134	134	134	134
13	15	a	a	a	5	nopreview	4	20	0	0	0	0
14	16	growing	growing	growing	5	nopreview	4	21	711	591	591	227
15	17	political	political	political	5	nopreview	4	22	721	267	267	143
16	18	scandal	scandal	scandal.	5	nopreview	4	23	550	137	2746	137
	19	.	.		5	nopreview	4	24				
17	20	@entity0	Lee	Lee	5	nopreview	4	25	166	166	166	166
18	21	will	will	will	5	nopreview	4	26	163	163	163	163
19	22	stay	stay	stay	5	nopreview	4	27	150	150	150	150
20	23	in	in	in	5	nopreview	4	28	166	0	0	0
21	24	his	his	his	5	nopreview	4	29	117	0	0	0
22	25	official	official	official	5	nopreview	4	30	313	148	596	148
23	26	role	role	role	5	nopreview	4	31	366	190	190	190
24	27	until	until	until	5	nopreview	4	32	96	0	0	0
25	28	@entity1	South	South	5	nopreview	4	33	142	142	414	142
26			Korean	Korean	5	nopreview	4	34	169	169	169	169
27	29	President	President	President	5	nopreview	4	35	556	194	194	194
28	30	@entity6	Park	Park	5	nopreview	4	36	459	0	0	0
29			Geun	Geun-hye	5	nopreview	4	37	1978	278	2799	144
			-		5	nopreview	4	38				
			hye		5	nopreview	4	39				
30	31	accepts	accepts	accepts	5	nopreview	4	40	152	152	152	152
31	32	his	his	his	5	nopreview	4	41	0	0	0	0
32	33	resignation	resignation	resignation.	5	nopreview	4	42	448	448	448	307
	34	.	.		5	nopreview	4	43				
33	35	He	He	He	5	nopreview	4	44	0	0	0	0
34	36	has	has	has	5	nopreview	4	45	175	175	175	175
35	37	transferred	transferred	transferred	5	nopreview	4	46	500	343	343	184
36	38	his	his	his	5	nopreview	4	47	0	0	0	0
37	39	role	role	role	5	nopreview	4	48	354	354	354	264
38	40	of	of	of	5	nopreview	4	49	141	0	0	0
39	41	chairing	chairing	chairing	5	nopreview	4	50	606	449	449	293
40	42	Cabinet	Cabinet	Cabinet	5	nopreview	4	51	251	0	0	0
41	43	meetings	meetings	meetings	5	nopreview	4	52	345	126	596	126
42	44	to	to	to	5	nopreview	4	53	0	0	0	0
43	45	the	the	the	5	nopreview	4	54	338	338	338	170
44	46	deputy	deputy	deputy	5	nopreview	4	55	133	133	133	133
45	47	prime	prime	prime	5	nopreview	4	56	148	0	0	0
46	48	minister	minister	minister	5	nopreview	4	57	410	273	558	273
47	49	for	for	for	5	nopreview	4	58	0	0	0	0
48	50	the	the	the	5	nopreview	4	59	137	137	137	137
49	51	time	time	time	5	nopreview	4	60	472	472	927	303
50	52	being	being	being,	5	nopreview	4	61	0	0	0	0
	53	,	,		5	nopreview	4	62				
51	54	according	according	according	5	nopreview	4	63	230	230	230	230
52	55	to	to	to	5	nopreview	4	64	110	110	110	110
53	56	his	his	his	5	nopreview	4	65	101	101	101	101
54	57	office	office	office.	5	nopreview	4	66	143	0	0	0
	58	.	.		5	nopreview	4	67				
55	59	@entity13	Park	Park	5	nopreview	4	68	298	133	441	133
56	60	heard	heard	heard	5	nopreview	4	69	160	160	160	160
57	61	about	about	about	5	nopreview	4	70	0	0	0	0
58	62	the	the	the	5	nopreview	4	71	140	140	140	140
59	63	resignation	resignation	resignation	5	nopreview	4	72	152	152	152	152
60	64	and	and	and	5	nopreview	4	73	0	0	0	0
61	65	called	called	called	5	nopreview	4	74	248	248	248	248
62	66	it	it	it	5	nopreview	4	75	0	0	0	0
63	67	-	-	-regrettable,-	5	nopreview	4	76	428	428	428	294
	68	regrettable	regrettable		5	nopreview	4	77				
	69	,	,		5	nopreview	4	78				
	70	-	-		5	nopreview	4	79				
64	71	according	according	according	5	nopreview	4	80	576	576	576	138
65	72	to	to	to	5	nopreview	4	81	82	82	82	82
66	73	the	the	the	5	nopreview	4	82	0	0	0	0
67	74	@entity1	South	South	5	nopreview	4	83	251	251	251	128
68			Korean	Korean	5	nopreview	4	84	158	158	158	158
69	75	presidential	presidential	presidential	5	nopreview	4	85	321	321	321	115
70	76	office	office	office.	5	nopreview	4	86	0	0	0	0
	77	.	.		5	nopreview	4	87				
71	78	Calls	Calls	Calls	5	nopreview	4	88	369	369	369	183
72	79	for	for	for	5	nopreview	4	89	171	171	171	171
73	80	@entity0	Lee	Lee	5	nopreview	4	90	0	0	0	0
74	81	to	to	to	5	nopreview	4	91	138	138	138	138
75	82	resign	resign	resign	5	nopreview	4	92	273	273	273	273
76	83	began	began	began	5	nopreview	4	93	102	102	102	102
77	84	after	after	after	5	nopreview	4	94	658	533	533	267
78	85	@entity1	South	South	5	nopreview	4	95	288	288	288	169
79			Korean	Korean	5	nopreview	4	96	648	0	0	0
80	86	tycoon	tycoon	tycoon	5	nopreview	4	97	437	0	0	0
81	87	@entity18	Sung	Sung	5	nopreview	4	98	983	126	1263	126
82			Woan	Woan-jong	5	nopreview	4	99	715	536	536	145
			-		5	nopreview	4	100				
			jong		5	nopreview	4	101				
83	88	was	was	was	5	nopreview	4	102	0	0	0	0
84	89	found	found	found	5	nopreview	4	103	402	402	402	205
85	90	hanging	hanging	hanging	5	nopreview	4	104	203	203	203	203
86	91	from	from	from	5	nopreview	4	105	170	170	170	170
87	92	a	a	a	5	nopreview	4	106	0	0	0	0
88	93	tree	tree	tree	5	nopreview	4	107	451	0	0	0
89	94	in	in	in	5	nopreview	4	108	456	124	1032	124
90	95	@entity2	Seoul	Seoul	5	nopreview	4	109	0	0	0	0
91	96	in	in	in	5	nopreview	4	110	0	0	0	0
92	97	an	an	an	5	nopreview	4	111	0	0	0	0
93	98	apparent	apparent	apparent	5	nopreview	4	112	273	273	273	168
94	99	suicide	suicide	suicide	5	nopreview	4	113	188	0	0	0
95	100	on	on	on	5	nopreview	4	114	120	120	308	120
96	101	April	April	April	5	nopreview	4	115	161	161	161	161
97	102	9	9	9.	5	nopreview	4	116	178	178	1162	178
	103	.	.		5	nopreview	4	117				
98	104	@entity18	Sung	Sung,	5	nopreview	4	118	426	426	426	426
	105	,	,		5	nopreview	4	119				
99	106	who	who	who	5	nopreview	4	120	0	0	0	0
100	107	was	was	was	5	nopreview	4	121	158	158	158	158
101	108	under	under	under	5	nopreview	4	122	0	0	0	0
102	109	investigation	investigation	investigation	5	nopreview	4	123	464	464	464	215
103	110	for	for	for	5	nopreview	4	124	0	0	0	0
104	111	fraud	fraud	fraud	5	nopreview	4	125	144	144	144	144
105	112	and	and	and	5	nopreview	4	126	115	0	0	0
106	113	bribery	bribery	bribery,	5	nopreview	4	127	367	196	482	196
	114	,	,		5	nopreview	4	128				
107	115	left	left	left	5	nopreview	4	129	0	0	0	0
108	116	a	a	a	5	nopreview	4	130	301	301	301	301
109	117	note	note	note	5	nopreview	4	131	0	0	0	0
110	118	listing	listing	listing	5	nopreview	4	132	351	351	351	187
111	119	names	names	names	5	nopreview	4	133	169	169	169	169
112	120	and	and	and	5	nopreview	4	134	0	0	0	0
113	121	amounts	amounts	amounts	5	nopreview	4	135	323	323	323	201
114	122	of	of	of	5	nopreview	4	136	0	0	0	0
115	123	cash	cash	cash	5	nopreview	4	137	159	159	159	159
116	124	given	given	given	5	nopreview	4	138	0	0	0	0
117	125	to	to	to	5	nopreview	4	139	0	0	0	0
118	126	top	top	top	5	nopreview	4	140	386	386	386	157
119	127	officials	officials	officials,	5	nopreview	4	141	181	181	181	181
	128	,	,		5	nopreview	4	142				
120	129	including	including	including	5	nopreview	4	143	191	191	191	191
121	130	those	those	those	5	nopreview	4	144	104	104	104	104
122	131	who	who	who	5	nopreview	4	145	93	93	93	93
123	132	work	work	work	5	nopreview	4	146	0	0	0	0
124	133	for	for	for	5	nopreview	4	147	335	149	149	149
125	134	the	the	the	5	nopreview	4	148	0	0	0	0
126	135	President	President	President.	5	nopreview	4	149	255	132	441	132
	136	.	.		5	nopreview	4	150				
127	137	@entity0	Lee	Lee	5	nopreview	4	151	0	0	0	0
128	138	and	and	and	5	nopreview	4	152	0	0	0	0
129	139	seven	seven	seven	5	nopreview	4	153	582	186	186	186
130	140	other	other	other	5	nopreview	4	154	297	297	693	161
131	141	politicians	politicians	politicians	5	nopreview	4	155	371	224	224	224
132	142	with	with	with	5	nopreview	4	156	152	152	299	152
133	143	links	links	links	5	nopreview	4	157	293	293	293	155
134	144	to	to	to	5	nopreview	4	158	0	0	0	0
135	145	the	the	the	5	nopreview	4	159	191	191	191	191
136	146	@entity1	South	South	5	nopreview	4	160	107	107	107	107
137			Korean	Korean	5	nopreview	4	161	0	0	0	0
138	147	President	President	President	5	nopreview	4	162	471	471	471	134
139	148	are	are	are	5	nopreview	4	163	0	0	0	0
140	149	under	under	under	5	nopreview	4	164	274	171	171	171
141	150	investigation	investigation	investigation.	5	nopreview	4	165	426	426	529	275
	151	.	.		5	nopreview	4	166				
142	152	A	A	A	5	nopreview	4	167	0	0	0	0
143	153	special	special	special	5	nopreview	4	168	0	0	0	0
144	154	prosecutor	prosecutor	prosecutor-s	5	nopreview	4	169	585	585	585	213
	155	-s	-s		5	nopreview	4	170				
145	156	team	team	team	5	nopreview	4	171	327	327	327	327
146	157	has	has	has	5	nopreview	4	172	0	0	0	0
147	158	been	been	been	5	nopreview	4	173	172	172	172	172
148	159	established	established	established	5	nopreview	4	174	274	0	0	0
149	160	to	to	to	5	nopreview	4	175	0	0	0	0
150	161	investigate	investigate	investigate	5	nopreview	4	176	524	0	0	0
151	162	the	the	the	5	nopreview	4	177	164	0	0	0
152	163	case	case	case.	5	nopreview	4	178	0	0	0	0
	164	.	.		5	nopreview	4	179				
153	165	@entity0	Lee	Lee	5	nopreview	4	180	155	0	0	0
154	166	had	had	had	5	nopreview	4	181	0	0	0	0
155	167	adamantly	adamantly	adamantly	5	nopreview	4	182	1058	0	0	0
156	168	denied	denied	denied	5	nopreview	4	183	413	0	0	0
157	169	the	the	the	5	nopreview	4	184	0	0	0	0
158	170	allegations	allegations	allegations	5	nopreview	4	185	460	0	0	0
159	171	as	as	as	5	nopreview	4	186	241	0	0	0
160	172	the	the	the	5	nopreview	4	187	0	0	0	0
161	173	scandal	scandal	scandal	5	nopreview	4	188	305	0	0	0
162	174	escalated	escalated	escalated:	5	nopreview	4	189	487	0	0	0
163	175	:	:	-If	5	nopreview	4	190	0	0	0	0
	176	-	-		5	nopreview	4	191				
164	177	If	If	there	5	nopreview	4	192	174	0	0	0
	178	there	there		5	nopreview	4	193				
165	179	are	are	are	5	nopreview	4	194	175	0	0	0
166	180	any	any	any	5	nopreview	4	195	132	0	0	0
167	181	evidence	evidence	evidence,	5	nopreview	4	196	338	0	0	0
	182	,	,		5	nopreview	4	197				
168	183	I	I	I	5	nopreview	4	198	0	0	0	0
169	184	will	will	will	5	nopreview	4	199	190	0	0	0
170	185	give	give	give	5	nopreview	4	200	167	0	0	0
171	186	out	out	out	5	nopreview	4	201	0	0	0	0
172	187	my	my	my	5	nopreview	4	202	215	0	0	0
173	188	life	life	life.	5	nopreview	4	203	442	0	0	0
	189	.	.		5	nopreview	4	204				
174	190	As	As	As	5	nopreview	4	205	0	0	0	0
175	191	a	a	a	5	nopreview	4	206	0	0	0	0
176	192	Prime	Prime	Prime	5	nopreview	4	207	371	0	0	0
177	193	Minister	Minister	Minister,	5	nopreview	4	208	206	0	0	0
	194	,	,		5	nopreview	4	209				
178	195	I	I	I	5	nopreview	4	210	141	0	0	0
179	196	will	will	will	5	nopreview	4	211	0	0	0	0
180	197	accept	accept	accept	5	nopreview	4	212	307	0	0	0
181	198	Prosecutor	Prosecutor	Prosecutor	5	nopreview	4	213	594	142	7533	142
182	199	@entity44	Office	Office-s	5	nopreview	4	214	283	0	0	0
	200	-s	-s		5	nopreview	4	215				
183	201	investigation	investigation	investigation	5	nopreview	4	216	1136	527	1127	157
184	202	first	first	first.-	5	nopreview	4	217	235	235	527	235
	203	.	.		5	nopreview	4	218				
185	204	-	-	Park	5	nopreview	4	219	0	0	0	0
	205	@entity46	Park		5	nopreview	4	220				
186	206	has	has	has	5	nopreview	4	221	226	226	226	226
187	207	said	said	said	5	nopreview	4	222	206	206	206	206
188	208	that	that	that	5	nopreview	4	223	164	164	164	164
189	209	she	she	she	5	nopreview	4	224	0	0	0	0
190	210	is	is	is	5	nopreview	4	225	151	0	0	0
191	211	taking	taking	taking	5	nopreview	4	226	219	219	370	219
192	212	the	the	the	5	nopreview	4	227	0	0	0	0
193	213	accusations	accusations	accusations	5	nopreview	4	228	619	619	619	506
194	214	very	very	very	5	nopreview	4	229	180	180	180	180
195	215	seriously	seriously	seriously.	5	nopreview	4	230	344	344	344	161
	216	.	.		5	nopreview	4	231				
196	217	Before	Before	Before	5	nopreview	4	232	160	160	160	160
197	218	departing	departing	departing	5	nopreview	4	233	199	199	199	199
198	219	on	on	on	5	nopreview	4	234	0	0	0	0
199	220	her	her	her	5	nopreview	4	235	0	0	0	0
200	221	trip	trip	trip	5	nopreview	4	236	1406	908	908	180
201	222	to	to	to	5	nopreview	4	237	590	177	912	177
202	223	@entity50	Central	Central	5	nopreview	4	238	288	203	464	203
203			and	and	5	nopreview	4	239	0	0	0	0
204			South	South	5	nopreview	4	240	496	496	496	364
205			America	America,	5	nopreview	4	241	0	0	0	0
	224	,	,		5	nopreview	4	242				
206	225	she	she	she	5	nopreview	4	243	489	0	0	0
207	226	condemned	condemned	condemned	5	nopreview	4	244	689	214	876	214
208	227	political	political	political	5	nopreview	4	245	885	192	1187	192
209	228	corruption	corruption	corruption	5	nopreview	4	246	182	182	182	182
210	229	in	in	in	5	nopreview	4	247	0	0	0	0
211	230	her	her	her	5	nopreview	4	248	0	0	0	0
212	231	country	country	country.	5	nopreview	4	249	764	764	764	295
	232	.	.		5	nopreview	4	250				
213	233	-	-	-Corruption	5	nopreview	4	251	463	463	463	463
	234	Corruption	Corruption		5	nopreview	4	252				
214	235	and	and	and	5	nopreview	4	253	130	130	130	130
215	236	deep	deep	deep-rooted	5	nopreview	4	254	708	708	708	180
	237	-	-		5	nopreview	4	255				
	238	rooted	rooted		5	nopreview	4	256				
216	239	evil	evil	evil	5	nopreview	4	257	0	0	0	0
217	240	are	are	are	5	nopreview	4	258	175	175	175	175
218	241	issues	issues	issues	5	nopreview	4	259	113	113	113	113
219	242	that	that	that	5	nopreview	4	260	0	0	0	0
220	243	can	can	can	5	nopreview	4	261	172	172	172	172
221	244	lead	lead	lead	5	nopreview	4	262	160	160	160	160
222	245	to	to	to	5	nopreview	4	263	0	0	0	0
223	246	taking	taking	taking	5	nopreview	4	264	151	151	151	151
224	247	away	away	away	5	nopreview	4	265	0	0	0	0
225	248	people	people	people-s	5	nopreview	4	266	117	117	117	117
	249	-s	-s		5	nopreview	4	267				
226	250	lives	lives	lives.	5	nopreview	4	268	119	119	119	119
	251	.	.		5	nopreview	4	269				
227	252	We	We	We	5	nopreview	4	270	139	139	139	139
228	253	take	take	take	5	nopreview	4	271	191	191	191	191
229	254	this	this	this	5	nopreview	4	272	116	116	116	116
230	255	very	very	very	5	nopreview	4	273	0	0	0	0
231	256	seriously	seriously	seriously.-	5	nopreview	4	274	363	363	363	126
	257	.	.		5	nopreview	4	275				
232	258	-	-	-We	5	nopreview	4	276	0	0	0	0
	259	-	-		5	nopreview	4	277				
233	260	We	We	must	5	nopreview	4	278	167	167	167	167
	261	must	must		5	nopreview	4	279				
234	262	make	make	make	5	nopreview	4	280	0	0	0	0
235	263	sure	sure	sure	5	nopreview	4	281	217	217	217	217
236	264	to	to	to	5	nopreview	4	282	203	203	203	203
237	265	set	set	set	5	nopreview	4	283	0	0	0	0
238	266	straight	straight	straight	5	nopreview	4	284	270	270	270	162
239	267	this	this	this	5	nopreview	4	285	0	0	0	0
240	268	issue	issue	issue	5	nopreview	4	286	199	199	199	199
241	269	as	as	as	5	nopreview	4	287	0	0	0	0
242	270	a	a	a	5	nopreview	4	288	0	0	0	0
243	271	matter	matter	matter	5	nopreview	4	289	217	217	217	124
244	272	of	of	of	5	nopreview	4	290	0	0	0	0
245	273	political	political	political	5	nopreview	4	291	254	254	254	116
246	274	reform	reform	reform.	5	nopreview	4	292	101	101	101	101
	275	.	.		5	nopreview	4	293				
247	276	I	I	I	5	nopreview	4	294	0	0	0	0
248	277	will	will	will	5	nopreview	4	295	152	152	152	152
249	278	not	not	not	5	nopreview	4	296	0	0	0	0
250	279	forgive	forgive	forgive	5	nopreview	4	297	288	288	288	205
251	280	anyone	anyone	anyone	5	nopreview	4	298	0	0	0	0
252	281	who	who	who	5	nopreview	4	299	145	145	145	145
253	282	is	is	is	5	nopreview	4	300	0	0	0	0
254	283	responsible	responsible	responsible	5	nopreview	4	301	210	210	210	210
255	284	for	for	for	5	nopreview	4	302	152	152	152	152
256	285	corruption	corruption	corruption	5	nopreview	4	303	205	205	205	104
257	286	or	or	or	5	nopreview	4	304	0	0	0	0
258	287	wrongdoing	wrongdoing	wrongdoing.-	5	nopreview	4	305	399	302	302	302
	288	.	.		5	nopreview	4	306				
259	289	-	-	Park	5	nopreview	4	307	0	0	0	0
	290	@entity13	Park		5	nopreview	4	308				
260	291	is	is	is	5	nopreview	4	309	184	184	184	184
261	292	in	in	in	5	nopreview	4	310	0	0	0	0
262	293	@entity66	Peru	Peru	5	nopreview	4	311	132	132	132	132
263	294	and	and	and	5	nopreview	4	312	0	0	0	0
264	295	is	is	is	5	nopreview	4	313	327	200	200	200
265	296	expected	expected	expected	5	nopreview	4	314	0	0	0	0
266	297	to	to	to	5	nopreview	4	315	86	86	213	86
267	298	arrive	arrive	arrive	5	nopreview	4	316	209	209	209	209
268	299	back	back	back	5	nopreview	4	317	0	0	0	0
269	300	to	to	to	5	nopreview	4	318	0	0	0	0
270	301	@entity1	South	South	5	nopreview	4	319	105	105	105	105
271			Korea	Korea	5	nopreview	4	320	0	0	0	0
272	302	on	on	on	5	nopreview	4	321	179	179	276	179
273	303	April	April	April	5	nopreview	4	322	0	0	0	0
274	304	27	27	27.	5	nopreview	4	323	0	0	0	0
	305	.	.		5	nopreview	4	324				
