Model	Accuracy	Fixations	Condition
59216737	0.6006625891946993	0.4033156386695263	NoPreview
59216737	0.6381243628950051	0.3584138820902895	Preview
97757578	0.6174821610601428	0.40030828686421555	NoPreview
97757578	0.6416921508664628	0.33077021294048436	Preview
11830463	0.6085626911314985	0.41299385324530646	NoPreview
11830463	0.6381243628950051	0.3506780019472377	Preview
50969041	0.6037206931702345	0.43861759523125354	NoPreview
50969041	0.6327726809378186	0.37178790581457233	Preview
73122062	0.5996432212028542	0.3915907618467232	NoPreview
73122062	0.6312436289500509	0.3366729238589848	Preview
13341090	0.6098369011213048	0.41519213597708887	NoPreview
13341090	0.6343017329255861	0.33823851343324063	Preview
80539929	0.604230377166157	0.3897996150511607	NoPreview
80539929	0.6442405708460754	0.3529763902242274	Preview
8416949	0.6055045871559633	0.40847348219028673	NoPreview
8416949	0.6406727828746177	0.3548029322142995	Preview
56290015	0.5986238532110092	0.4145193014912892	NoPreview
56290015	0.6399082568807339	0.35490962149049404	Preview
60268495	0.6070336391437309	0.38743949337472244	NoPreview
60268495	0.6406727828746177	0.32425811993115783	Preview
5768516	0.6072884811416922	0.40493851335041386	NoPreview
5768516	0.6348114169215087	0.3382684596330991	Preview
39261882	0.6162079510703364	0.4138229722033704	NoPreview
39261882	0.6343017329255861	0.33996587207922513	Preview
83435870	0.6144240570846076	0.4383443585472612	NoPreview
83435870	0.6416921508664628	0.3710357620324807	Preview
22358982	0.6016819571865444	0.39109587219755465	NoPreview
22358982	0.6281855249745159	0.3596390143082412	Preview
39417137	0.6039755351681957	0.40510027926267106	NoPreview
39417137	0.6437308868501529	0.352818675726561	Preview
28977994	0.6136595310907238	0.4033860805445369	NoPreview
28977994	0.6422018348623854	0.32580609897590196	Preview
12963015	0.6021916411824668	0.3934930129153284	NoPreview
12963015	0.6358307849133538	0.3321021295833296	Preview
79880455	0.6032110091743119	0.40828885871700554	NoPreview
79880455	0.6427115188583078	0.3327912263549431	Preview
27635281	0.6029561671763507	0.40526216596395354	NoPreview
27635281	0.6437308868501529	0.33431923790444656	Preview
56783757	0.6021916411824668	0.4149191731949708	NoPreview
56783757	0.6348114169215087	0.3697153774605614	Preview
48341282	0.5937818552497451	0.3964322982821139	NoPreview
48341282	0.6373598369011213	0.33833673678406884	Preview
